"Category";"Meldingen";"Meldingen per 100000";"Zkh opname";"Zkh opname per 100000";"Overleden";"Overleden per 100000"
"'s-Hertogenbosch";608;391,30;128;82,40;78;50,20
"Aa en Hunze";14;55,20;1;3,90;0;0,00
"Aalsmeer";56;175,60;9;28,20;4;12,50
"Aalten";62;228,80;9;33,20;7;25,80
"Achtkarspelen";20;71,80;0;0,00;0;0,00
"Alblasserdam";51;253,10;11;54,60;4;19,90
"Albrandswaard";135;526,20;14;54,60;8;31,20
"Alkmaar";289;263,70;54;49,30;31;28,30
"Almelo";98;134,00;23;31,40;9;12,30
"Almere";629;296,10;130;61,20;32;15,10
"Alphen aan den Rijn";269;224,30;63;52,50;25;20,80
"Alphen-Chaam";64;625,40;18;175,90;5;48,90
"Altena";162;289,50;32;57,20;11;19,70
"Ameland";0;0,00;0;0,00;0;0,00
"Amersfoort";324;206,00;62;39,40;23;14,60
"Amstelveen";425;463,10;59;64,30;35;38,10
"Amsterdam";5037;576,10;652;74,60;289;33,10
"Apeldoorn";495;302,10;97;59,20;50;30,50
"Appingedam";6;51,60;3;25,80;0;0,00
"Arnhem";479;296,40;67;41,50;32;19,80
"Assen";54;78,60;12;17,50;2;2,90
"Asten";79;472,70;18;107,70;12;71,80
"Baarle-Nassau";27;392,50;9;130,80;2;29,10
"Baarn";66;265,40;11;44,20;9;36,20
"Barendrecht";200;410,80;40;82,20;12;24,60
"Barneveld";161;271,50;18;30,40;6;10,10
"Beek";44;277,30;16;100,80;6;37,80
"Beekdaelen";174;484,00;52;144,60;23;64,00
"Beemster";28;279,80;4;40,00;1;10,00
"Beesel";48;356,20;20;148,40;8;59,40
"Berg en Dal";188;536,90;29;82,80;16;45,70
"Bergeijk";63;337,80;19;101,90;5;26,80
"Bergen (L.)";26;198,80;7;53,50;2;15,30
"Bergen (NH.)";104;348,40;16;53,60;4;13,40
"Bergen op Zoom";393;581,50;26;38,50;13;19,20
"Berkelland";96;219,40;12;27,40;7;16,00
"Bernheze";289;923,30;95;303,50;65;207,70
"Best";95;316,50;31;103,30;10;33,30
"Beuningen";85;327,80;19;73,30;5;19,30
"Beverwijk";93;223,50;15;36,00;10;24,00
"Bladel";92;450,50;21;102,80;8;39,20
"Blaricum";44;379,90;8;69,10;2;17,30
"Bloemendaal";68;288,90;7;29,70;5;21,20
"Bodegraven-Reeuwijk";102;291,90;7;20,00;1;2,90
"Boekel";89;826,10;34;315,60;20;185,60
"Borger-Odoorn";10;39,10;4;15,70;3;11,70
"Borne";51;218,20;14;59,90;6;25,70
"Borsele";29;127,50;5;22,00;0;0,00
"Boxmeer";131;445,50;20;68,00;27;91,80
"Boxtel";138;447,80;24;77,90;26;84,40
"Breda";826;448,50;146;79,30;67;36,40
"Brielle";42;243,20;12;69,50;0;0,00
"Bronckhorst";83;230,50;17;47,20;7;19,40
"Brummen";44;211,70;18;86,60;6;28,90
"Brunssum";113;406,40;44;158,20;19;68,30
"Bunnik";49;322,00;9;59,10;1;6,60
"Bunschoten";77;351,70;9;41,10;7;32,00
"Buren";63;235,10;17;63,40;8;29,90
"Capelle aan den IJssel";445;662,00;56;83,30;54;80,30
"Castricum";89;247,10;15;41,60;9;25,00
"Coevorden";61;172,80;13;36,80;2;5,70
"Cranendonck";176;829,40;63;296,90;36;169,70
"Cuijk";83;330,00;12;47,70;10;39,80
"Culemborg";95;327,30;21;72,40;8;27,60
"Dalfsen";84;292,80;16;55,80;6;20,90
"Dantumadiel";14;74,00;2;10,60;0;0,00
"De Bilt";203;470,90;28;64,90;24;55,70
"De Fryske Marren";81;157,00;16;31,00;6;11,60
"De Ronde Venen";139;312,40;39;87,60;13;29,20
"De Wolden";48;197,10;11;45,20;5;20,50
"Delft";237;228,90;38;36,70;12;11,60
"Delfzijl";40;162,20;6;24,30;0;0,00
"Den Helder";54;95,80;12;21,30;2;3,50
"Deurne";206;635,10;55;169,60;24;74,00
"Deventer";374;370,70;47;46,60;33;32,70
"Diemen";163;522,10;17;54,50;13;41,60
"Dinkelland";79;298,60;20;75,60;10;37,80
"Doesburg";34;307,50;9;81,40;6;54,30
"Doetinchem";116;199,80;26;44,80;15;25,80
"Dongen";93;353,70;20;76,10;13;49,40
"Dordrecht";673;563,60;89;74,50;63;52,80
"Drechterland";46;233,10;5;25,30;8;40,50
"Drimmelen";83;304,80;19;69,80;8;29,40
"Dronten";127;304,90;30;72,00;12;28,80
"Druten";115;607,60;25;132,10;8;42,30
"Duiven";54;215,40;14;55,80;6;23,90
"Echt-Susteren";100;316,10;39;123,30;16;50,60
"Edam-Volendam";134;370,60;25;69,10;3;8,30
"Ede";259;221,30;53;45,30;20;17,10
"Eemnes";23;248,20;2;21,60;1;10,80
"Eersel";72;372,60;27;139,70;10;51,70
"Eijsden-Margraten";179;694,70;54;209,60;27;104,80
"Eindhoven";660;281,00;183;77,90;87;37,00
"Elburg";151;650,00;28;120,50;8;34,40
"Emmen";115;107,50;20;18,70;11;10,30
"Enkhuizen";32;171,50;18;96,50;4;21,40
"Enschede";309;193,60;55;34,50;25;15,70
"Epe";139;418,90;48;144,70;23;69,30
"Ermelo";151;559,40;33;122,30;23;85,20
"Etten-Leur";234;533,30;42;95,70;30;68,40
"Geertruidenberg";50;231,60;11;51,00;6;27,80
"Geldrop-Mierlo";125;314,10;33;82,90;16;40,20
"Gemert-Bakel";229;744,90;79;257,00;32;104,10
"Gennep";63;372,10;16;94,50;10;59,10
"Gilze en Rijen";105;394,80;20;75,20;15;56,40
"Goeree-Overflakkee";278;554,40;54;107,70;34;67,80
"Goes";166;434,40;12;31,40;11;28,80
"Goirle";94;393,00;32;133,80;17;71,10
"Gooise Meren";151;260,00;24;41,30;9;15,50
"Gorinchem";203;546,90;19;51,20;15;40,40
"Gouda";460;626,00;45;61,20;41;55,80
"Grave";72;577,30;21;168,40;11;88,20
"Groningen";271;116,30;18;7,70;3;1,30
"Gulpen-Wittem";81;572,40;21;148,40;14;98,90
"Haaksbergen";58;238,90;14;57,70;7;28,80
"Haaren";59;411,00;18;125,40;8;55,70
"Haarlem";419;256,90;61;37,40;58;35,60
"Haarlemmermeer";437;279,50;69;44,10;28;17,90
"Halderberge";83;274,20;14;46,30;7;23,10
"Hardenberg";183;300,10;23;37,70;8;13,10
"Harderwijk";194;398,60;42;86,30;20;41,10
"Hardinxveld-Giessendam";47;256,40;2;10,90;2;10,90
"Harlingen";19;121,00;4;25,50;1;6,40
"Hattem";42;343,60;16;130,90;5;40,90
"Heemskerk";99;252,60;29;74,00;10;25,50
"Heemstede";113;414,10;11;40,30;32;117,30
"Heerde";194;1044,10;55;296,00;28;150,70
"Heerenveen";100;198,10;13;25,80;21;41,60
"Heerhugowaard";171;296,10;27;46,80;9;15,60
"Heerlen";399;458,50;125;143,60;54;62,10
"Heeze-Leende";77;477,20;16;99,20;8;49,60
"Heiloo";51;213,00;9;37,60;8;33,40
"Hellendoorn";98;273,10;8;22,30;12;33,40
"Hellevoetsluis";106;263,80;16;39,80;3;7,50
"Helmond";482;522,10;117;126,70;43;46,60
"Hendrik-Ido-Ambacht";98;313,50;10;32,00;6;19,20
"Hengelo";144;177,30;21;25,90;19;23,40
"Het Hogeland";41;85,60;7;14,60;3;6,30
"Heumen";79;479,30;17;103,10;9;54,60
"Heusden";177;395,90;45;100,70;23;51,40
"Hillegom";85;383,00;8;36,00;2;9,00
"Hilvarenbeek";52;334,70;9;57,90;6;38,60
"Hilversum";286;314,20;34;37,30;24;26,40
"Hoeksche Waard";354;404,40;76;86,80;20;22,80
"Hof van Twente";68;194,50;15;42,90;5;14,30
"Hollands Kroon";70;144,40;26;53,70;6;12,40
"Hoogeveen";105;188,70;19;34,10;8;14,40
"Hoorn";139;189,60;35;47,80;12;16,40
"Horst aan de Maas";144;339,10;41;96,60;24;56,50
"Houten";168;334,40;24;47,80;14;27,90
"Huizen";191;463,80;22;53,40;10;24,30
"Hulst";39;140,00;9;32,30;5;18,00
"IJsselstein";176;517,40;36;105,80;35;102,90
"Kaag en Braassem";36;131,50;7;25,60;2;7,30
"Kampen";350;644,00;59;108,60;27;49,70
"Kapelle";30;236,30;3;23,60;1;7,90
"Katwijk";300;455,80;31;47,10;15;22,80
"Kerkrade";211;461,90;64;140,10;35;76,60
"Koggenland";39;171,20;6;26,30;6;26,30
"Krimpen aan den IJssel";105;355,50;11;37,20;8;27,10
"Krimpenerwaard";237;421,00;45;79,90;34;60,40
"Laarbeek";128;566,30;41;181,40;26;115,00
"Landerd";148;939,90;39;247,70;21;133,40
"Landgraaf";148;395,40;52;138,90;13;34,70
"Landsmeer";30;259,90;3;26,00;3;26,00
"Langedijk";54;191,70;16;56,80;4;14,20
"Lansingerland";255;407,80;43;68,80;25;40,00
"Laren";35;308,80;8;70,60;2;17,60
"Leeuwarden";89;71,80;33;26,60;6;4,80
"Leiden";261;208,70;41;32,80;19;15,20
"Leiderdorp";52;191,80;14;51,60;6;22,10
"Leidschendam-Voorburg";214;279,70;23;30,10;15;19,60
"Lelystad";215;272,40;65;82,40;29;36,70
"Leudal";198;552,50;54;150,70;33;92,10
"Leusden";65;213,70;9;29,60;5;16,40
"Lingewaard";137;293,70;31;66,50;10;21,40
"Lisse";43;186,80;8;34,70;2;8,70
"Lochem";102;302,30;15;44,50;15;44,50
"Loon op Zand";73;311,80;25;106,80;7;29,90
"Lopik";75;517,80;19;131,20;8;55,20
"Loppersum";2;21,00;0;0,00;0;0,00
"Losser";28;123,40;7;30,90;0;0,00
"Maasdriel";66;262,00;15;59,60;7;27,80
"Maasgouw";108;451,10;27;112,80;14;58,50
"Maassluis";144;433,40;20;60,20;9;27,10
"Maastricht";954;785,10;188;154,70;140;115,20
"Medemblik";80;177,30;19;42,10;6;13,30
"Meerssen";123;653,70;22;116,90;13;69,10
"Meierijstad";578;710,90;211;259,50;131;161,10
"Meppel";52;153,00;11;32,40;5;14,70
"Middelburg";98;200,80;18;36,90;10;20,50
"Midden-Delfland";41;212,40;4;20,70;0;0,00
"Midden-Drenthe";26;78,30;6;18,10;0;0,00
"Midden-Groningen";40;65,80;6;9,90;3;4,90
"Mill en Sint Hubert";44;401,50;9;82,10;5;45,60
"Moerdijk";93;250,30;14;37,70;8;21,50
"Molenlanden";131;297,90;18;40,90;8;18,20
"Montferland";108;300,00;21;58,30;9;25,00
"Montfoort";52;374,10;13;93,50;5;36,00
"Mook en Middelaar";42;536,10;6;76,60;5;63,80
"Neder-Betuwe";147;601,40;37;151,40;21;85,90
"Nederweert";55;322,30;31;181,70;7;41,00
"Nieuwegein";207;326,00;45;70,90;14;22,00
"Nieuwkoop";60;207,80;9;31,20;5;17,30
"Nijkerk";74;171,30;22;50,90;3;6,90
"Nijmegen";742;417,70;129;72,60;70;39,40
"Nissewaard";271;318,00;56;65,70;17;20,00
"Noardeast-Fryslân";81;179,00;6;13,30;4;8,80
"Noord-Beveland";13;176,00;1;13,50;0;0,00
"Noordenveld";21;67,30;4;12,80;1;3,20
"Noordoostpolder";85;179,20;14;29,50;10;21,10
"Noordwijk";74;169,80;19;43,60;3;6,90
"Nuenen, Gerwen en Nederwetten";62;265,10;18;77,00;9;38,50
"Nunspeet";225;809,10;55;197,80;21;75,50
"Oegstgeest";54;216,90;8;32,10;3;12,10
"Oirschot";74;394,70;13;69,30;9;48,00
"Oisterwijk";85;323,40;23;87,50;11;41,80
"Oldambt";16;41,90;7;18,30;2;5,20
"Oldebroek";176;744,20;40;169,10;19;80,30
"Oldenzaal";54;169,60;13;40,80;7;22,00
"Olst-Wijhe";55;301,40;12;65,80;8;43,80
"Ommen";53;293,90;9;49,90;2;11,10
"Oost Gelre";78;263,30;18;60,80;6;20,30
"Oosterhout";185;330,10;48;85,60;17;30,30
"Ooststellingwerf";8;31,40;3;11,80;0;0,00
"Oostzaan";37;380,70;10;102,90;2;20,60
"Opmeer";11;93,10;1;8,50;1;8,50
"Opsterland";24;80,90;7;23,60;0;0,00
"Oss";527;572,80;166;180,40;88;95,70
"Oude IJsselstreek";83;210,80;21;53,30;9;22,90
"Ouder-Amstel";55;389,60;5;35,40;0;0,00
"Oudewater";65;636,60;26;254,70;9;88,10
"Overbetuwe";145;302,30;55;114,70;16;33,40
"Papendrecht";93;289,40;9;28,00;8;24,90
"Peel en Maas";287;657,80;144;330,10;65;149,00
"Pekela";7;57,60;4;32,90;0;0,00
"Pijnacker-Nootdorp";182;328,40;24;43,30;16;28,90
"Purmerend";273;335,10;68;83,50;35;43,00
"Putten";43;178,30;10;41,50;0;0,00
"Raalte";159;421,90;24;63,70;17;45,10
"Reimerswaal";44;193,70;4;17,60;2;8,80
"Renkum";89;283,40;14;44,60;7;22,30
"Renswoude";20;364,60;5;91,10;5;91,10
"Reusel-De Mierden";29;221,50;11;84,00;2;15,30
"Rheden";151;345,80;34;77,90;14;32,10
"Rhenen";50;248,60;11;54,70;6;29,80
"Ridderkerk";205;442,40;37;79,80;16;34,50
"Rijssen-Holten";206;539,00;29;75,90;23;60,20
"Rijswijk";222;406,50;38;69,60;22;40,30
"Roerdalen";57;277,80;27;131,60;8;39,00
"Roermond";168;288,10;59;101,20;23;39,40
"Roosendaal";319;412,70;29;37,50;22;28,50
"Rotterdam";5036;772,00;552;84,60;350;53,70
"Rozendaal";3;176,90;1;59,00;0;0,00
"Rucphen";72;313,60;10;43,60;10;43,60
"s-Gravenhage";2838;519,90;360;66,00;255;46,70
"Schagen";82;176,50;18;38,70;10;21,50
"Scherpenzeel";36;364,30;4;40,50;2;20,20
"Schiedam";448;568,20;58;73,60;23;29,20
"Schiermonnikoog";0;0,00;0;0,00;0;0,00
"Schouwen-Duiveland";99;292,10;11;32,50;9;26,60
"Simpelveld";49;464,70;19;180,20;5;47,40
"Sint Anthonis";72;617,20;20;171,40;11;94,30
"Sint-Michielsgestel";125;427,10;36;123,00;19;64,90
"Sittard-Geleen";442;478,70;118;127,80;64;69,30
"Sliedrecht";75;297,80;9;35,70;5;19,90
"Sluis";23;99,10;9;38,80;4;17,20
"Smallingerland";61;108,60;9;16,00;5;8,90
"Soest";108;231,50;24;51,40;13;27,90
"Someren";111;573,10;33;170,40;8;41,30
"Son en Breugel";76;438,30;31;178,80;14;80,70
"Stadskanaal";11;34,80;2;6,30;2;6,30
"Staphorst";62;361,50;8;46,60;4;23,30
"Stede Broec";53;244,10;18;82,90;5;23,00
"Steenbergen";104;425,10;13;53,10;13;53,10
"Steenwijkerland";108;244,60;14;31,70;5;11,30
"Stein";123;493,00;43;172,40;15;60,10
"Stichtse Vecht";175;269,10;35;53,80;14;21,50
"Súdwest-Fryslân";114;126,80;18;20,00;6;6,70
"Terneuzen";127;233,50;25;46,00;4;7,40
"Terschelling";2;41,30;0;0,00;0;0,00
"Texel";11;81,00;5;36,80;2;14,70
"Teylingen";84;223,90;15;40,00;2;5,30
"Tholen";179;694,20;40;155,10;16;62,10
"Tiel";158;375,40;42;99,80;19;45,10
"Tilburg";984;447,00;252;114,50;163;74,00
"Tubbergen";81;380,80;12;56,40;5;23,50
"Twenterand";62;183,70;12;35,60;2;5,90
"Tynaarlo";43;127,20;9;26,60;0;0,00
"Tytsjerksteradiel";20;62,30;4;12,50;1;3,10
"Uden";269;638,50;115;273,00;63;149,50
"Uitgeest";27;197,70;5;36,60;1;7,30
"Uithoorn";72;243,20;16;54,10;2;6,80
"Urk";84;398,60;23;109,10;4;19,00
"Utrecht";1800;502,20;272;75,90;118;32,90
"Utrechtse Heuvelrug";141;283,40;28;56,30;14;28,10
"Vaals";31;306,80;10;99,00;2;19,80
"Valkenburg aan de Geul";89;544,60;19;116,30;7;42,80
"Valkenswaard";190;608,50;19;60,90;37;118,50
"Veendam";17;62,10;2;7,30;0;0,00
"Veenendaal";207;310,70;47;70,60;11;16,50
"Veere";42;191,70;6;27,40;2;9,10
"Veldhoven";145;318,50;31;68,10;16;35,10
"Velsen";309;449,60;32;46,60;39;56,70
"Venlo";355;348,60;129;126,70;63;61,90
"Venray";142;325,50;37;84,80;17;39,00
"Vijfheerenlanden";296;520,10;34;59,70;36;63,30
"Vlaardingen";441;599,70;44;59,80;30;40,80
"Vlieland";0;0,00;0;0,00;0;0,00
"Vlissingen";91;205,20;9;20,30;5;11,30
"Voerendaal";49;392,30;17;136,10;8;64,00
"Voorschoten";76;297,00;9;35,20;11;43,00
"Voorst";92;374,00;17;69,10;11;44,70
"Vught";114;428,90;43;161,80;17;64,00
"Waadhoeke";101;219,20;12;26,00;15;32,60
"Waalre";38;217,60;7;40,10;5;28,60
"Waalwijk";214;440,10;36;74,00;37;76,10
"Waddinxveen";140;476,80;18;61,30;7;23,80
"Wageningen";65;163,00;20;50,10;9;22,60
"Wassenaar";68;259,20;9;34,30;12;45,70
"Waterland";47;269,90;16;91,90;4;23,00
"Weert";150;298,90;67;133,50;14;27,90
"Weesp";94;472,20;9;45,20;13;65,30
"West Betuwe";226;441,10;44;85,90;27;52,70
"West Maas en Waal";85;439,10;20;103,30;9;46,50
"Westerkwartier";62;97,80;14;22,10;4;6,30
"Westerveld";38;195,30;9;46,30;4;20,60
"Westervoort";47;313,90;12;80,10;6;40,10
"Westerwolde";12;45,90;5;19,10;0;0,00
"Westland";407;368,00;58;52,40;30;27,10
"Weststellingwerf";29;111,90;3;11,60;4;15,40
"Westvoorne";37;250,90;6;40,70;0;0,00
"Wierden";54;221,10;5;20,50;6;24,60
"Wijchen";159;386,90;44;107,10;13;31,60
"Wijdemeren";46;188,90;8;32,90;0;0,00
"Wijk bij Duurstede";46;192,60;10;41,90;1;4,20
"Winterswijk";55;191,00;7;24,30;3;10,40
"Woensdrecht";87;395,90;5;22,80;7;31,90
"Woerden";204;389,60;49;93,60;20;38,20
"Wormerland";53;325,90;20;123,00;6;36,90
"Woudenberg";34;253,90;9;67,20;2;14,90
"Zaanstad";562;358,30;121;77,10;48;30,60
"Zaltbommel";111;382,70;21;72,40;9;31,00
"Zandvoort";71;414,30;10;58,40;8;46,70
"Zeewolde";51;225,80;12;53,10;6;26,60
"Zeist";252;387,90;37;57,00;24;36,90
"Zevenaar";124;283,10;45;102,70;15;34,20
"Zoetermeer";344;274,60;53;42,30;14;11,20
"Zoeterwoude";18;208,30;3;34,70;1;11,60
"Zuidplas";191;433,70;24;54,50;21;47,70
"Zundert";116;531,10;24;109,90;11;50,40
"Zutphen";118;245,80;30;62,50;13;27,10
"Zwartewaterland";148;651,50;35;154,10;19;83,60
"Zwijndrecht";208;465,40;23;51,50;26;58,20
"Zwolle";385;298,30;53;41,10;46;35,60