"Category";"Meldingen";"Meldingen per 100000";"Zkh opname";"Zkh opname per 100000";"Overleden";"Overleden per 100000"
"'s-Hertogenbosch";4854;3123,90;169;108,80;106;68,20
"Aa en Hunze";326;1284,30;1;3,90;1;3,90
"Aalsmeer";1074;3368,70;17;53,30;20;62,70
"Aalten";629;2321,60;14;51,70;12;44,30
"Achtkarspelen";305;1095,10;0;0,00;0;0,00
"Alblasserdam";925;4590,60;15;74,40;13;64,50
"Albrandswaard";1268;4942,50;31;120,80;16;62,40
"Alkmaar";2736;2496,60;80;73,00;42;38,30
"Almelo";2644;3615,40;42;57,40;25;34,20
"Almere";6518;3068,60;184;86,60;48;22,60
"Alphen aan den Rijn";3997;3332,20;108;90,00;55;45,90
"Alphen-Chaam";342;3341,80;20;195,40;5;48,90
"Altena";2114;3777,30;48;85,80;37;66,10
"Ameland";47;1258,70;0;0,00;0;0,00
"Amersfoort";4761;3026,50;124;78,80;58;36,90
"Amstelveen";3010;3280,00;86;93,70;64;69,70
"Amsterdam";40636;4648,00;1194;136,60;424;48,50
"Apeldoorn";3344;2040,90;133;81,20;67;40,90
"Appingedam";115;988,40;8;68,80;1;8,60
"Arnhem";4259;2635,60;114;70,50;72;44,60
"Assen";1039;1511,40;22;32,00;7;10,20
"Asten";475;2841,90;21;125,60;14;83,80
"Baarle-Nassau";207;3009,20;11;159,90;4;58,10
"Baarn";666;2678,20;23;92,50;17;68,40
"Barendrecht";2138;4391,00;69;141,70;31;63,70
"Barneveld";1786;3011,40;31;52,30;18;30,40
"Beek";318;2004,00;18;113,40;9;56,70
"Beekdaelen";734;2041,60;55;153,00;28;77,90
"Beemster";219;2188,50;4;40,00;2;20,00
"Beesel";301;2233,40;23;170,70;9;66,80
"Berg en Dal";1259;3595,20;43;122,80;34;97,10
"Bergeijk";721;3866,00;22;118,00;6;32,20
"Bergen (L.)";315;2408,30;12;91,70;3;22,90
"Bergen (NH.)";827;2770,60;25;83,80;24;80,40
"Bergen op Zoom";2905;4298,00;61;90,30;28;41,40
"Berkelland";1242;2838,20;27;61,70;28;64,00
"Bernheze";1150;3674,00;101;322,70;67;214,10
"Best";796;2651,90;37;123,30;13;43,30
"Beuningen";680;2622,10;24;92,50;10;38,60
"Beverwijk";1211;2910,40;23;55,30;15;36,00
"Bladel";1039;5087,70;25;122,40;13;63,70
"Blaricum";325;2806,30;8;69,10;2;17,30
"Bloemendaal";535;2273,00;10;42,50;6;25,50
"Bodegraven-Reeuwijk";1216;3480,50;27;77,30;12;34,30
"Boekel";276;2561,70;36;334,10;20;185,60
"Borger-Odoorn";431;1686,70;9;35,20;9;35,20
"Borne";665;2845,80;18;77,00;6;25,70
"Borsele";275;1209,30;7;30,80;2;8,80
"Boxmeer";838;2850,00;25;85,00;33;112,20
"Boxtel";907;2942,90;31;100,60;29;94,10
"Breda";6139;3333,00;202;109,70;108;58,60
"Brielle";524;3034,70;23;133,20;3;17,40
"Bronckhorst";902;2505,10;20;55,50;7;19,40
"Brummen";384;1847,60;22;105,90;7;33,70
"Brunssum";522;1877,40;53;190,60;21;75,50
"Bunnik";439;2885,10;15;98,60;10;65,70
"Bunschoten";1224;5591,30;30;137,00;12;54,80
"Buren";678;2530,10;27;100,80;12;44,80
"Capelle aan den IJssel";2847;4235,50;96;142,80;85;126,50
"Castricum";817;2268,30;18;50,00;12;33,30
"Coevorden";599;1696,60;22;62,30;7;19,80
"Cranendonck";795;3746,60;65;306,30;37;174,40
"Cuijk";755;3001,40;20;79,50;15;59,60
"Culemborg";908;3128,80;33;113,70;11;37,90
"Dalfsen";700;2440,30;18;62,80;9;31,40
"Dantumadiel";218;1153,00;2;10,60;0;0,00
"De Bilt";1370;3177,70;38;88,10;31;71,90
"De Fryske Marren";727;1408,70;26;50,40;11;21,30
"De Ronde Venen";1390;3123,70;70;157,30;22;49,40
"De Wolden";409;1679,70;16;65,70;6;24,60
"Delft";3837;3706,00;65;62,80;37;35,70
"Delfzijl";256;1038,20;9;36,50;0;0,00
"Den Helder";833;1478,00;19;33,70;7;12,40
"Deurne";1123;3462,00;63;194,20;32;98,60
"Deventer";2409;2387,70;55;54,50;51;50,50
"Diemen";1383;4429,90;28;89,70;20;64,10
"Dinkelland";1097;4147,00;24;90,70;18;68,00
"Doesburg";254;2297,00;11;99,50;7;63,30
"Doetinchem";1287;2216,50;40;68,90;18;31,00
"Dongen";971;3692,40;37;140,70;19;72,30
"Dordrecht";5118;4286,00;107;89,60;104;87,10
"Drechterland";478;2422,50;7;35,50;8;40,50
"Drimmelen";767;2816,80;28;102,80;13;47,70
"Dronten";730;1752,50;43;103,20;16;38,40
"Druten";491;2594,00;29;153,20;15;79,20
"Duiven";691;2756,10;18;71,80;8;31,90
"Echt-Susteren";495;1564,90;44;139,10;20;63,20
"Edam-Volendam";1360;3761,30;55;152,10;9;24,90
"Ede";3298;2817,80;86;73,50;45;38,40
"Eemnes";270;2913,60;5;54,00;1;10,80
"Eersel";811;4196,60;36;186,30;18;93,10
"Eijsden-Margraten";650;2522,70;61;236,70;30;116,40
"Eindhoven";6733;2866,90;246;104,70;136;57,90
"Elburg";551;2372,00;31;133,50;11;47,40
"Emmen";2307;2156,50;56;52,30;31;29,00
"Enkhuizen";434;2326,60;20;107,20;5;26,80
"Enschede";5030;3151,60;99;62,00;67;42,00
"Epe";669;2016,20;54;162,70;25;75,30
"Ermelo";656;2430,30;33;122,30;25;92,60
"Etten-Leur";1454;3313,80;57;129,90;31;70,70
"Geertruidenberg";604;2798,10;18;83,40;7;32,40
"Geldrop-Mierlo";1235;3103,20;44;110,60;18;45,20
"Gemert-Bakel";833;2709,70;80;260,20;34;110,60
"Gennep";467;2757,90;18;106,30;15;88,60
"Gilze en Rijen";879;3304,80;29;109,00;18;67,70
"Goeree-Overflakkee";1551;3092,90;73;145,60;45;89,70
"Goes";651;1703,50;24;62,80;14;36,60
"Goirle";810;3386,70;37;154,70;23;96,20
"Gooise Meren";1637;2818,30;36;62,00;20;34,40
"Gorinchem";1372;3696,20;20;53,90;22;59,30
"Gouda";3035;4130,10;97;132,00;84;114,30
"Grave";478;3832,90;28;224,50;23;184,40
"Groningen";4495;1929,30;37;15,90;7;3,00
"Gulpen-Wittem";343;2423,90;26;183,70;16;113,10
"Haaksbergen";873;3595,30;22;90,60;22;90,60
"Haaren";506;3525,10;22;153,30;10;69,70
"Haarlem";4365;2676,10;129;79,10;97;59,50
"Haarlemmermeer";4890;3127,50;114;72,90;46;29,40
"Halderberge";1047;3459,10;32;105,70;16;52,90
"Hardenberg";1201;1969,80;31;50,80;15;24,60
"Harderwijk";1150;2363,10;54;111,00;22;45,20
"Hardinxveld-Giessendam";712;3883,50;2;10,90;7;38,20
"Harlingen";154;980,90;5;31,80;2;12,70
"Hattem";244;1996,10;18;147,30;5;40,90
"Heemskerk";1174;2995,00;40;102,00;22;56,10
"Heemstede";671;2459,00;18;66,00;36;131,90
"Heerde";403;2169,00;55;296,00;29;156,10
"Heerenveen";608;1204,70;17;33,70;23;45,60
"Heerhugowaard";1325;2294,30;33;57,10;11;19,00
"Heerlen";1696;1948,90;137;157,40;61;70,10
"Heeze-Leende";510;3160,60;19;117,70;11;68,20
"Heiloo";501;2092,60;14;58,50;10;41,80
"Hellendoorn";1056;2942,70;15;41,80;15;41,80
"Hellevoetsluis";1132;2817,20;32;79,60;11;27,40
"Helmond";3396;3678,80;139;150,60;53;57,40
"Hendrik-Ido-Ambacht";1276;4081,60;13;41,60;10;32,00
"Hengelo";2491;3067,80;45;55,40;31;38,20
"Het Hogeland";685;1430,90;10;20,90;6;12,50
"Heumen";512;3106,20;20;121,30;13;78,90
"Heusden";1599;3576,50;61;136,40;35;78,30
"Hillegom";572;2577,40;9;40,60;2;9,00
"Hilvarenbeek";526;3385,50;17;109,40;15;96,50
"Hilversum";2369;2602,20;49;53,80;44;48,30
"Hoeksche Waard";2779;3174,90;88;100,50;33;37,70
"Hof van Twente";1109;3172,40;24;68,70;13;37,20
"Hollands Kroon";790;1630,20;32;66,00;7;14,40
"Hoogeveen";960;1725,20;33;59,30;15;27,00
"Hoorn";1810;2469,50;48;65,50;18;24,60
"Horst aan de Maas";1348;3174,70;49;115,40;37;87,10
"Houten";1420;2826,80;43;85,60;45;89,60
"Huizen";1414;3433,50;37;89,80;18;43,70
"Hulst";640;2297,80;21;75,40;9;32,30
"IJsselstein";1101;3236,80;51;149,90;46;135,20
"Kaag en Braassem";739;2699,30;12;43,80;3;11,00
"Kampen";1090;2005,60;66;121,40;39;71,80
"Kapelle";135;1063,20;4;31,50;1;7,90
"Katwijk";2681;4073,50;56;85,10;29;44,10
"Kerkrade";803;1757,70;77;168,50;41;89,70
"Koggenland";587;2577,50;12;52,70;12;52,70
"Krimpen aan den IJssel";1240;4198,40;26;88,00;31;105,00
"Krimpenerwaard";2012;3574,00;70;124,30;50;88,80
"Laarbeek";729;3225,10;42;185,80;27;119,40
"Landerd";641;4070,90;44;279,40;22;139,70
"Landgraaf";628;1677,90;56;149,60;18;48,10
"Landsmeer";375;3248,20;6;52,00;4;34,60
"Langedijk";731;2594,50;22;78,10;7;24,80
"Lansingerland";2404;3844,60;59;94,40;48;76,80
"Laren";351;3097,10;10;88,20;8;70,60
"Leeuwarden";1924;1551,30;52;41,90;16;12,90
"Leiden";4274;3417,40;81;64,80;39;31,20
"Leiderdorp";850;3135,40;29;107,00;10;36,90
"Leidschendam-Voorburg";2390;3123,20;64;83,60;48;62,70
"Lelystad";1846;2339,10;95;120,40;43;54,50
"Leudal";878;2449,80;57;159,00;41;114,40
"Leusden";779;2560,60;16;52,60;12;39,40
"Lingewaard";1280;2744,10;46;98,60;19;40,70
"Lisse";594;2579,90;15;65,10;5;21,70
"Lochem";674;1997,60;22;65,20;19;56,30
"Loon op Zand";860;3673,20;36;153,80;29;123,90
"Lopik";510;3521,40;25;172,60;8;55,20
"Loppersum";92;967,80;1;10,50;0;0,00
"Losser";808;3561,80;14;61,70;5;22,00
"Maasdriel";831;3299,20;26;103,20;17;67,50
"Maasgouw";461;1925,70;28;117,00;16;66,80
"Maassluis";1400;4213,30;44;132,40;17;51,20
"Maastricht";3079;2533,90;214;176,10;143;117,70
"Medemblik";959;2125,70;23;51,00;7;15,50
"Meerssen";368;1955,90;25;132,90;13;69,10
"Meierijstad";2462;3028,30;224;275,50;139;171,00
"Meppel";514;1512,60;13;38,30;5;14,70
"Middelburg";614;1258,10;28;57,40;15;30,70
"Midden-Delfland";663;3434,90;13;67,40;6;31,10
"Midden-Drenthe";500;1505,70;8;24,10;2;6,00
"Midden-Groningen";727;1196,00;17;28,00;11;18,10
"Mill en Sint Hubert";357;3257,90;14;127,80;6;54,80
"Moerdijk";1160;3122,50;26;70,00;23;61,90
"Molenlanden";1575;3581,50;20;45,50;16;36,40
"Montferland";805;2236,20;27;75,00;12;33,30
"Montfoort";454;3266,00;16;115,10;7;50,40
"Mook en Middelaar";242;3088,70;9;114,90;9;114,90
"Neder-Betuwe";877;3588,20;46;188,20;24;98,20
"Nederweert";531;3112,00;37;216,80;9;52,70
"Nieuwegein";1770;2787,20;65;102,40;17;26,80
"Nieuwkoop";847;2933,00;17;58,90;11;38,10
"Nijkerk";1244;2879,50;33;76,40;7;16,20
"Nijmegen";5257;2959,50;198;111,50;120;67,60
"Nissewaard";3417;4010,20;90;105,60;48;56,30
"Noardeast-Fryslân";521;1151,10;12;26,50;7;15,50
"Noord-Beveland";102;1381,00;3;40,60;1;13,50
"Noordenveld";315;1008,90;7;22,40;14;44,80
"Noordoostpolder";996;2099,40;23;48,50;17;35,80
"Noordwijk";1311;3007,80;41;94,10;8;18,40
"Nuenen, Gerwen en Nederwetten";653;2792,40;22;94,10;13;55,60
"Nunspeet";696;2502,80;65;233,70;23;82,70
"Oegstgeest";706;2836,40;17;68,30;6;24,10
"Oirschot";675;3600,20;20;106,70;18;96,00
"Oisterwijk";792;3013,00;29;110,30;14;53,30
"Oldambt";380;995,10;11;28,80;6;15,70
"Oldebroek";463;1957,70;40;169,10;20;84,60
"Oldenzaal";1136;3567,60;25;78,50;30;94,20
"Olst-Wijhe";302;1655,00;12;65,80;8;43,80
"Ommen";317;1758,00;9;49,90;6;33,30
"Oost Gelre";854;2882,60;23;77,60;26;87,80
"Oosterhout";1906;3400,40;56;99,90;23;41,00
"Ooststellingwerf";344;1351,40;7;27,50;1;3,90
"Oostzaan";351;3611,10;13;133,70;3;30,90
"Opmeer";250;2116,50;3;25,40;2;16,90
"Opsterland";295;994,40;11;37,10;0;0,00
"Oss";3378;3671,80;192;208,70;106;115,20
"Oude IJsselstreek";884;2245,10;27;68,60;19;48,30
"Ouder-Amstel";534;3782,40;8;56,70;0;0,00
"Oudewater";327;3202,70;32;313,40;12;117,50
"Overbetuwe";1069;2228,70;62;129,30;21;43,80
"Papendrecht";1105;3438,00;11;34,20;17;52,90
"Peel en Maas";1215;2785,00;148;339,20;65;149,00
"Pekela";115;945,50;7;57,60;2;16,40
"Pijnacker-Nootdorp";1990;3591,30;39;70,40;22;39,70
"Purmerend";2107;2586,50;96;117,80;48;58,90
"Putten";608;2520,70;13;53,90;5;20,70
"Raalte";946;2510,30;27;71,60;25;66,30
"Reimerswaal";399;1756,20;9;39,60;5;22,00
"Renkum";740;2356,00;20;63,70;11;35,00
"Renswoude";130;2369,70;5;91,10;5;91,10
"Reusel-De Mierden";600;4583,70;17;129,90;5;38,20
"Rheden";1031;2360,80;39;89,30;19;43,50
"Rhenen";611;3038,40;15;74,60;6;29,80
"Ridderkerk";1969;4248,90;53;114,40;46;99,30
"Rijssen-Holten";1311;3430,40;32;83,70;33;86,30
"Rijswijk";1995;3652,60;78;142,80;60;109,90
"Roerdalen";344;1676,70;28;136,50;9;43,90
"Roermond";1282;2198,40;66;113,20;26;44,60
"Roosendaal";3039;3931,60;61;78,90;42;54,30
"Rotterdam";34829;5338,90;1126;172,60;614;94,10
"Rozendaal";27;1592,00;1;59,00;0;0,00
"Rucphen";858;3737,60;22;95,80;12;52,30
"s-Gravenhage";22461;4114,80;790;144,70;371;68,00
"Schagen";1157;2489,70;24;51,60;15;32,30
"Scherpenzeel";261;2640,90;5;50,60;2;20,20
"Schiedam";4153;5267,50;128;162,40;38;48,20
"Schiermonnikoog";4;422,80;1;105,70;0;0,00
"Schouwen-Duiveland";539;1590,30;16;47,20;16;47,20
"Simpelveld";198;1877,80;20;189,70;5;47,40
"Sint Anthonis";320;2743,00;21;180,00;11;94,30
"Sint-Michielsgestel";908;3102,80;39;133,30;23;78,60
"Sittard-Geleen";1750;1895,40;137;148,40;75;81,20
"Sliedrecht";954;3787,50;11;43,70;14;55,60
"Sluis";415;1788,90;16;69,00;7;30,20
"Smallingerland";616;1096,60;14;24,90;10;17,80
"Soest";1467;3144,30;43;92,20;33;70,70
"Someren";572;2953,30;36;185,90;9;46,50
"Son en Breugel";485;2797,00;32;184,50;18;103,80
"Stadskanaal";644;2035,70;9;28,40;7;22,10
"Staphorst";502;2927,10;11;64,10;5;29,20
"Stede Broec";430;1980,10;20;92,10;5;23,00
"Steenbergen";777;3176,10;20;81,80;14;57,20
"Steenwijkerland";662;1499,20;18;40,80;10;22,60
"Stein";455;1823,90;51;204,40;16;64,10
"Stichtse Vecht";2078;3195,50;67;103,00;27;41,50
"Súdwest-Fryslân";1774;1973,70;26;28,90;30;33,40
"Terneuzen";1115;2050,20;39;71,70;5;9,20
"Terschelling";71;1465,10;1;20,60;1;20,60
"Texel";121;891,30;6;44,20;2;14,70
"Teylingen";1199;3195,30;24;64,00;6;16,00
"Tholen";815;3160,90;50;193,90;20;77,60
"Tiel";1399;3323,70;60;142,50;33;78,40
"Tilburg";7555;3431,80;314;142,60;209;94,90
"Tubbergen";1112;5227,30;14;65,80;9;42,30
"Twenterand";1039;3078,70;16;47,40;5;14,80
"Tynaarlo";403;1191,70;13;38,40;12;35,50
"Tytsjerksteradiel";354;1102,50;9;28,00;3;9,30
"Uden";1068;2534,90;120;284,80;70;166,10
"Uitgeest";400;2928,70;7;51,30;3;22,00
"Uithoorn";928;3134,90;26;87,80;6;20,30
"Urk";1149;5452,50;33;156,60;10;47,50
"Utrecht";14123;3940,00;450;125,50;164;45,80
"Utrechtse Heuvelrug";1325;2663,20;36;72,40;21;42,20
"Vaals";138;1365,80;11;108,90;2;19,80
"Valkenburg aan de Geul";357;2184,60;23;140,70;11;67,30
"Valkenswaard";1041;3334,10;25;80,10;44;140,90
"Veendam";289;1055,40;4;14,60;1;3,70
"Veenendaal";2570;3857,80;71;106,60;21;31,50
"Veere";197;899,20;10;45,60;2;9,10
"Veldhoven";1491;3274,90;43;94,40;26;57,10
"Velsen";2023;2943,30;58;84,40;54;78,60
"Venlo";3030;2975,50;153;150,30;88;86,40
"Venray";1410;3232,20;46;105,40;23;52,70
"Vijfheerenlanden";2057;3614,40;57;100,20;52;91,40
"Vlaardingen";3729;5070,80;90;122,40;57;77,50
"Vlieland";19;1636,50;0;0,00;0;0,00
"Vlissingen";554;1249,50;17;38,30;7;15,80
"Voerendaal";212;1697,20;18;144,10;8;64,00
"Voorschoten";652;2547,60;12;46,90;14;54,70
"Voorst";464;1886,10;18;73,20;11;44,70
"Vught";881;3314,50;45;169,30;25;94,10
"Waadhoeke";619;1343,30;18;39,10;22;47,70
"Waalre";497;2846,30;9;51,50;10;57,30
"Waalwijk";1735;3568,10;57;117,20;53;109,00
"Waddinxveen";1017;3463,30;41;139,60;9;30,60
"Wageningen";1017;2550,10;30;75,20;25;62,70
"Wassenaar";707;2694,80;19;72,40;15;57,20
"Waterland";565;3244,50;24;137,80;14;80,40
"Weert";1561;3110,50;84;167,40;26;51,80
"Weesp";839;4214,80;11;55,30;15;75,40
"West Betuwe";1640;3201,10;67;130,80;39;76,10
"West Maas en Waal";468;2417,60;24;124,00;15;77,50
"Westerkwartier";650;1025,60;21;33,10;8;12,60
"Westerveld";219;1125,50;10;51,40;5;25,70
"Westervoort";387;2584,50;13;86,80;7;46,70
"Westerwolde";395;1512,20;14;53,60;3;11,50
"Westland";4348;3931,10;102;92,20;52;47,00
"Weststellingwerf";378;1458,20;5;19,30;12;46,30
"Westvoorne";401;2719,60;9;61,00;1;6,80
"Wierden";1062;4348,20;9;36,80;12;49,10
"Wijchen";1120;2725,50;59;143,60;24;58,40
"Wijdemeren";636;2612,10;14;57,50;5;20,50
"Wijk bij Duurstede";600;2512,70;14;58,60;7;29,30
"Winterswijk";617;2142,20;13;45,10;8;27,80
"Woensdrecht";692;3148,90;11;50,10;21;95,60
"Woerden";1650;3151,30;74;141,30;25;47,70
"Wormerland";490;3012,80;24;147,60;13;79,90
"Woudenberg";377;2815,50;11;82,20;4;29,90
"Zaanstad";5761;3672,80;197;125,60;95;60,60
"Zaltbommel";966;3330,70;26;89,60;10;34,50
"Zandvoort";402;2345,90;15;87,50;9;52,50
"Zeewolde";411;1819,60;16;70,80;7;31,00
"Zeist";1825;2809,50;50;77,00;35;53,90
"Zevenaar";888;2027,20;60;137,00;22;50,20
"Zoetermeer";4262;3402,40;84;67,10;27;21,60
"Zoeterwoude";263;3044,00;4;46,30;1;11,60
"Zuidplas";1640;3723,60;47;106,70;27;61,30
"Zundert";648;2966,80;30;137,40;13;59,50
"Zutphen";1019;2122,50;38;79,20;16;33,30
"Zwartewaterland";593;2610,50;38;167,30;24;105,70
"Zwijndrecht";1944;4349,50;32;71,60;53;118,60
"Zwolle";2430;1882,80;62;48,00;63;48,80