"Category";"Meldingen";"Meldingen per 100000";"Zkh opname";"Zkh opname per 100000";"Overleden";"Overleden per 100000"
"'s-Hertogenbosch";5629;3622,70;176;113,30;114;73,40
"Aa en Hunze";394;1552,20;2;7,90;1;3,90
"Aalsmeer";1178;3694,90;19;59,60;21;65,90
"Aalten";696;2568,90;14;51,70;12;44,30
"Achtkarspelen";364;1307,00;1;3,60;0;0,00
"Alblasserdam";1008;5002,50;15;74,40;13;64,50
"Albrandswaard";1403;5468,70;32;124,70;17;66,30
"Alkmaar";3125;2851,60;82;74,80;44;40,20
"Almelo";3034;4148,70;46;62,90;25;34,20
"Almere";7602;3579,00;193;90,90;51;24,00
"Alphen aan den Rijn";4678;3899,90;111;92,50;58;48,40
"Alphen-Chaam";371;3625,20;20;195,40;5;48,90
"Altena";2627;4693,90;53;94,70;43;76,80
"Ameland";57;1526,50;0;0,00;0;0,00
"Amersfoort";5683;3612,60;135;85,80;63;40,00
"Amstelveen";3343;3642,90;90;98,10;69;75,20
"Amsterdam";44123;5046,80;1234;141,10;449;51,40
"Apeldoorn";4043;2467,50;137;83,60;68;41,50
"Appingedam";188;1615,80;9;77,40;1;8,60
"Arnhem";5048;3123,90;117;72,40;78;48,30
"Assen";1164;1693,30;24;34,90;8;11,60
"Asten";556;3326,60;22;131,60;14;83,80
"Baarle-Nassau";235;3416,20;12;174,40;4;58,10
"Baarn";802;3225,20;24;96,50;19;76,40
"Barendrecht";2304;4731,90;71;145,80;33;67,80
"Barneveld";2333;3933,70;32;54,00;20;33,70
"Beek";431;2716,20;18;113,40;10;63,00
"Beekdaelen";898;2497,80;56;155,80;29;80,70
"Beemster";244;2438,30;4;40,00;2;20,00
"Beesel";346;2567,30;24;178,10;10;74,20
"Berg en Dal";1405;4012,10;44;125,60;35;99,90
"Bergeijk";908;4868,60;22;118,00;6;32,20
"Bergen (L.)";386;2951,10;12;91,70;3;22,90
"Bergen (NH.)";940;3149,20;27;90,50;25;83,80
"Bergen op Zoom";3172;4693,10;66;97,60;30;44,40
"Berkelland";1377;3146,70;29;66,30;29;66,30
"Bernheze";1288;4114,90;102;325,90;67;214,10
"Best";950;3165,00;39;129,90;15;50,00
"Beuningen";788;3038,60;24;92,50;10;38,60
"Beverwijk";1352;3249,20;24;57,70;15;36,00
"Bladel";1174;5748,70;25;122,40;13;63,70
"Blaricum";369;3186,30;8;69,10;2;17,30
"Bloemendaal";587;2493,90;10;42,50;6;25,50
"Bodegraven-Reeuwijk";1417;4055,80;29;83,00;14;40,10
"Boekel";338;3137,20;36;334,10;20;185,60
"Borger-Odoorn";504;1972,40;10;39,10;9;35,20
"Borne";783;3350,70;18;77,00;7;30,00
"Borsele";322;1415,90;7;30,80;2;8,80
"Boxmeer";1006;3421,40;25;85,00;34;115,60
"Boxtel";1062;3445,80;34;110,30;33;107,10
"Breda";6952;3774,40;207;112,40;111;60,30
"Brielle";593;3434,30;23;133,20;4;23,20
"Bronckhorst";1080;2999,50;21;58,30;8;22,20
"Brummen";462;2222,90;22;105,90;7;33,70
"Brunssum";663;2384,50;58;208,60;23;82,70
"Bunnik";479;3148,00;16;105,20;11;72,30
"Bunschoten";1582;7226,70;36;164,50;13;59,40
"Buren";806;3007,80;27;100,80;12;44,80
"Capelle aan den IJssel";3089;4595,60;99;147,30;90;133,90
"Castricum";994;2759,70;18;50,00;12;33,30
"Coevorden";693;1962,80;24;68,00;7;19,80
"Cranendonck";935;4406,40;66;311,00;38;179,10
"Cuijk";886;3522,20;20;79,50;15;59,60
"Culemborg";1054;3631,90;34;117,20;12;41,30
"Dalfsen";796;2775,00;18;62,80;11;38,30
"Dantumadiel";277;1465,00;2;10,60;0;0,00
"De Bilt";1567;3634,60;38;88,10;33;76,50
"De Fryske Marren";855;1656,70;27;52,30;12;23,30
"De Ronde Venen";1592;3577,60;71;159,60;24;53,90
"De Wolden";461;1893,20;17;69,80;6;24,60
"Delft";4234;4089,40;69;66,60;41;39,60
"Delfzijl";389;1577,50;9;36,50;1;4,10
"Den Helder";977;1733,50;19;33,70;8;14,20
"Deurne";1233;3801,10;64;197,30;33;101,70
"Deventer";3097;3069,60;59;58,50;53;52,50
"Diemen";1535;4916,70;30;96,10;20;64,10
"Dinkelland";1241;4691,30;24;90,70;18;68,00
"Doesburg";292;2640,60;12;108,50;8;72,30
"Doetinchem";1483;2554,10;41;70,60;20;34,40
"Dongen";1170;4449,20;38;144,50;19;72,30
"Dordrecht";5684;4760,00;110;92,10;107;89,60
"Drechterland";562;2848,20;7;35,50;8;40,50
"Drimmelen";886;3253,90;31;113,80;16;58,80
"Dronten";926;2223,00;44;105,60;16;38,40
"Druten";566;2990,30;31;163,80;18;95,10
"Duiven";816;3254,60;18;71,80;8;31,90
"Echt-Susteren";613;1938,00;44;139,10;20;63,20
"Edam-Volendam";1439;3979,80;56;154,90;8;22,10
"Ede";4054;3463,70;95;81,20;49;41,90
"Eemnes";293;3161,80;7;75,50;1;10,80
"Eersel";915;4734,80;38;196,60;18;93,10
"Eijsden-Margraten";802;3112,60;62;240,60;32;124,20
"Eindhoven";7713;3284,20;262;111,60;149;63,40
"Elburg";669;2880,00;31;133,50;11;47,40
"Emmen";2616;2445,40;58;54,20;32;29,90
"Enkhuizen";585;3136,10;20;107,20;5;26,80
"Enschede";5555;3480,50;113;70,80;73;45,70
"Epe";802;2417,00;56;168,80;25;75,30
"Ermelo";780;2889,70;33;122,30;26;96,30
"Etten-Leur";1622;3696,70;59;134,50;31;70,70
"Geertruidenberg";754;3493,00;20;92,70;9;41,70
"Geldrop-Mierlo";1389;3490,10;47;118,10;19;47,70
"Gemert-Bakel";967;3145,60;82;266,70;34;110,60
"Gennep";609;3596,50;19;112,20;15;88,60
"Gilze en Rijen";1035;3891,30;29;109,00;18;67,70
"Goeree-Overflakkee";1805;3599,40;77;153,50;47;93,70
"Goes";721;1886,60;26;68,00;14;36,60
"Goirle";929;3884,30;36;150,50;24;100,30
"Gooise Meren";1858;3198,80;37;63,70;21;36,20
"Gorinchem";1592;4288,90;23;62,00;24;64,70
"Gouda";3416;4648,60;105;142,90;88;119,80
"Grave";551;4418,30;28;224,50;23;184,40
"Groningen";4963;2130,20;40;17,20;9;3,90
"Gulpen-Wittem";408;2883,20;27;190,80;16;113,10
"Haaksbergen";1024;4217,10;22;90,60;23;94,70
"Haaren";572;3985,00;23;160,20;11;76,60
"Haarlem";4898;3002,90;136;83,40;103;63,10
"Haarlemmermeer";5483;3506,80;116;74,20;50;32,00
"Halderberge";1135;3749,80;34;112,30;17;56,20
"Hardenberg";1376;2256,80;33;54,10;17;27,90
"Harderwijk";1353;2780,20;55;113,00;23;47,30
"Hardinxveld-Giessendam";829;4521,70;2;10,90;7;38,20
"Harlingen";170;1082,80;5;31,80;2;12,70
"Hattem";276;2257,90;19;155,40;5;40,90
"Heemskerk";1348;3438,90;42;107,10;23;58,70
"Heemstede";790;2895,20;20;73,30;43;157,60
"Heerde";442;2378,90;55;296,00;29;156,10
"Heerenveen";682;1351,30;17;33,70;24;47,60
"Heerhugowaard";1614;2794,70;33;57,10;11;19,00
"Heerlen";2062;2369,50;143;164,30;63;72,40
"Heeze-Leende";608;3768,00;20;123,90;13;80,60
"Heiloo";564;2355,70;14;58,50;10;41,80
"Hellendoorn";1276;3555,80;16;44,60;16;44,60
"Hellevoetsluis";1256;3125,80;34;84,60;11;27,40
"Helmond";3701;4009,20;145;157,10;54;58,50
"Hendrik-Ido-Ambacht";1438;4599,80;14;44,80;10;32,00
"Hengelo";2814;3465,60;49;60,30;33;40,60
"Het Hogeland";824;1721,30;13;27,20;7;14,60
"Heumen";562;3409,60;21;127,40;13;78,90
"Heusden";1790;4003,70;64;143,10;38;85,00
"Hillegom";647;2915,30;10;45,10;2;9,00
"Hilvarenbeek";606;3900,40;17;109,40;15;96,50
"Hilversum";2675;2938,30;49;53,80;46;50,50
"Hoeksche Waard";3023;3453,60;88;100,50;33;37,70
"Hof van Twente";1235;3532,80;25;71,50;14;40,00
"Hollands Kroon";945;1950,10;33;68,10;7;14,40
"Hoogeveen";1161;2086,40;35;62,90;15;27,00
"Hoorn";2124;2897,90;50;68,20;18;24,60
"Horst aan de Maas";1641;3864,70;50;117,80;37;87,10
"Houten";1683;3350,30;43;85,60;47;93,60
"Huizen";1627;3950,80;38;92,30;18;43,70
"Hulst";722;2592,20;21;75,40;10;35,90
"IJsselstein";1230;3616,10;52;152,90;46;135,20
"Kaag en Braassem";877;3203,40;15;54,80;3;11,00
"Kampen";1283;2360,80;66;121,40;40;73,60
"Kapelle";161;1268,00;4;31,50;1;7,90
"Katwijk";3045;4626,50;63;95,70;30;45,60
"Kerkrade";943;2064,20;80;175,10;43;94,10
"Koggenland";659;2893,70;13;57,10;12;52,70
"Krimpen aan den IJssel";1401;4743,50;25;84,60;35;118,50
"Krimpenerwaard";2262;4018,00;73;129,70;52;92,40
"Laarbeek";875;3871,00;42;185,80;28;123,90
"Landerd";709;4502,70;44;279,40;22;139,70
"Landgraaf";815;2177,50;56;149,60;23;61,50
"Landsmeer";410;3551,30;7;60,60;4;34,60
"Langedijk";851;3020,40;22;78,10;7;24,80
"Lansingerland";2736;4375,50;61;97,60;49;78,40
"Laren";380;3353,00;11;97,10;8;70,60
"Leeuwarden";2132;1719,00;54;43,50;16;12,90
"Leiden";4634;3705,20;86;68,80;41;32,80
"Leiderdorp";986;3637,00;30;110,70;11;40,60
"Leidschendam-Voorburg";2732;3570,10;73;95,40;54;70,60
"Lelystad";2182;2764,80;97;122,90;44;55,80
"Leudal";1100;3069,20;58;161,80;41;114,40
"Leusden";898;2951,70;16;52,60;12;39,40
"Lingewaard";1499;3213,60;47;100,80;19;40,70
"Lisse";741;3218,40;18;78,20;5;21,70
"Lochem";831;2463,00;22;65,20;20;59,30
"Loon op Zand";1001;4275,40;38;162,30;29;123,90
"Lopik";604;4170,40;25;172,60;9;62,10
"Loppersum";125;1315,00;1;10,50;0;0,00
"Losser";942;4152,50;18;79,30;6;26,40
"Maasdriel";943;3743,80;26;103,20;22;87,30
"Maasgouw";566;2364,30;29;121,10;16;66,80
"Maassluis";1544;4646,70;44;132,40;20;60,20
"Maastricht";3658;3010,40;215;176,90;146;120,20
"Medemblik";1255;2781,80;23;51,00;8;17,70
"Meerssen";451;2397,00;26;138,20;16;85,00
"Meierijstad";2820;3468,60;225;276,70;140;172,20
"Meppel";597;1756,80;13;38,30;5;14,70
"Middelburg";726;1487,60;29;59,40;15;30,70
"Midden-Delfland";777;4025,50;13;67,40;8;41,40
"Midden-Drenthe";559;1683,40;12;36,10;3;9,00
"Midden-Groningen";878;1444,40;18;29,60;11;18,10
"Mill en Sint Hubert";404;3686,80;14;127,80;6;54,80
"Moerdijk";1283;3453,60;27;72,70;23;61,90
"Molenlanden";1774;4034,00;21;47,80;18;40,90
"Montferland";932;2589,00;28;77,80;12;33,30
"Montfoort";535;3848,60;16;115,10;7;50,40
"Mook en Middelaar";261;3331,20;9;114,90;9;114,90
"Neder-Betuwe";1066;4361,50;47;192,30;25;102,30
"Nederweert";682;3997,00;37;216,80;10;58,60
"Nieuwegein";1999;3147,80;69;108,70;18;28,30
"Nieuwkoop";1012;3504,40;21;72,70;13;45,00
"Nijkerk";1521;3520,70;33;76,40;7;16,20
"Nijmegen";5792;3260,70;199;112,00;120;67,60
"Nissewaard";3701;4343,50;98;115,00;50;58,70
"Noardeast-Fryslân";677;1495,70;14;30,90;8;17,70
"Noord-Beveland";109;1475,80;3;40,60;1;13,50
"Noordenveld";361;1156,30;9;28,80;14;44,80
"Noordoostpolder";1293;2725,40;24;50,60;21;44,30
"Noordwijk";1479;3393,30;42;96,40;9;20,60
"Nuenen, Gerwen en Nederwetten";741;3168,70;22;94,10;14;59,90
"Nunspeet";797;2866,00;65;233,70;24;86,30
"Oegstgeest";833;3346,60;17;68,30;6;24,10
"Oirschot";764;4074,90;21;112,00;19;101,30
"Oisterwijk";966;3675,00;32;121,70;14;53,30
"Oldambt";475;1243,80;11;28,80;6;15,70
"Oldebroek";572;2418,60;41;173,40;20;84,60
"Oldenzaal";1291;4054,40;27;84,80;32;100,50
"Olst-Wijhe";360;1972,80;12;65,80;8;43,80
"Ommen";357;1979,80;9;49,90;7;38,80
"Oost Gelre";974;3287,70;23;77,60;26;87,80
"Oosterhout";2179;3887,50;59;105,30;28;50,00
"Ooststellingwerf";387;1520,30;9;35,40;1;3,90
"Oostzaan";402;4135,80;13;133,70;3;30,90
"Opmeer";307;2599,10;3;25,40;2;16,90
"Opsterland";358;1206,80;14;47,20;1;3,40
"Oss";3686;4006,60;197;214,10;106;115,20
"Oude IJsselstreek";1018;2585,40;28;71,10;20;50,80
"Ouder-Amstel";606;4292,40;8;56,70;0;0,00
"Oudewater";377;3692,50;32;313,40;12;117,50
"Overbetuwe";1234;2572,70;63;131,30;21;43,80
"Papendrecht";1274;3963,80;11;34,20;20;62,20
"Peel en Maas";1391;3188,40;148;339,20;65;149,00
"Pekela";142;1167,50;8;65,80;2;16,40
"Pijnacker-Nootdorp";2319;4185,00;40;72,20;22;39,70
"Purmerend";2351;2886,00;101;124,00;49;60,20
"Putten";737;3055,60;13;53,90;6;24,90
"Raalte";1262;3348,90;27;71,60;25;66,30
"Reimerswaal";512;2253,50;9;39,60;5;22,00
"Renkum";858;2731,70;20;63,70;15;47,80
"Renswoude";188;3426,90;5;91,10;5;91,10
"Reusel-De Mierden";667;5095,50;18;137,50;6;45,80
"Rheden";1241;2841,60;41;93,90;21;48,10
"Rhenen";848;4217,00;15;74,60;8;39,80
"Ridderkerk";2161;4663,30;57;123,00;52;112,20
"Rijssen-Holten";1598;4181,40;34;89,00;33;86,30
"Rijswijk";2210;4046,20;80;146,50;62;113,50
"Roerdalen";456;2222,70;29;141,40;9;43,90
"Roermond";1582;2712,80;68;116,60;27;46,30
"Roosendaal";3335;4314,50;63;81,50;42;54,30
"Rotterdam";37208;5703,60;1164;178,40;632;96,90
"Rozendaal";40;2358,50;1;59,00;0;0,00
"Rucphen";943;4107,90;24;104,50;12;52,30
"s-Gravenhage";24337;4458,40;806;147,70;382;70,00
"Schagen";1327;2855,50;24;51,60;16;34,40
"Scherpenzeel";394;3986,60;5;50,60;4;40,50
"Schiedam";4469;5668,30;142;180,10;46;58,30
"Schiermonnikoog";5;528,50;1;105,70;0;0,00
"Schouwen-Duiveland";624;1841,10;16;47,20;16;47,20
"Simpelveld";260;2465,90;22;208,60;5;47,40
"Sint Anthonis";384;3291,60;21;180,00;11;94,30
"Sint-Michielsgestel";1109;3789,60;39;133,30;23;78,60
"Sittard-Geleen";2215;2399,00;141;152,70;77;83,40
"Sliedrecht";1159;4601,40;12;47,60;18;71,50
"Sluis";572;2465,70;18;77,60;7;30,20
"Smallingerland";710;1264,00;14;24,90;12;21,40
"Soest";1665;3568,70;46;98,60;34;72,90
"Someren";643;3319,90;36;185,90;9;46,50
"Son en Breugel";539;3108,40;33;190,30;22;126,90
"Stadskanaal";827;2614,10;12;37,90;8;25,30
"Staphorst";601;3504,40;11;64,10;5;29,20
"Stede Broec";553;2546,50;20;92,10;5;23,00
"Steenbergen";843;3445,90;20;81,80;14;57,20
"Steenwijkerland";805;1823,00;18;40,80;10;22,60
"Stein";618;2477,30;54;216,50;16;64,10
"Stichtse Vecht";2400;3690,70;69;106,10;38;58,40
"Súdwest-Fryslân";2182;2427,70;27;30,00;31;34,50
"Terneuzen";1334;2452,90;40;73,60;5;9,20
"Terschelling";77;1588,90;1;20,60;1;20,60
"Texel";135;994,50;6;44,20;2;14,70
"Teylingen";1425;3797,60;25;66,60;7;18,70
"Tholen";899;3486,70;51;197,80;20;77,60
"Tiel";1572;3734,70;64;152,00;33;78,40
"Tilburg";8718;3960,10;322;146,30;213;96,80
"Tubbergen";1210;5688,00;14;65,80;9;42,30
"Twenterand";1254;3715,80;18;53,30;6;17,80
"Tynaarlo";458;1354,30;13;38,40;12;35,50
"Tytsjerksteradiel";402;1251,90;9;28,00;3;9,30
"Uden";1258;2985,90;120;284,80;70;166,10
"Uitgeest";490;3587,60;7;51,30;4;29,30
"Uithoorn";1012;3418,70;27;91,20;6;20,30
"Urk";1341;6363,60;38;180,30;11;52,20
"Utrecht";15325;4275,30;464;129,40;171;47,70
"Utrechtse Heuvelrug";1614;3244,10;43;86,40;23;46,20
"Vaals";185;1831,00;11;108,90;5;49,50
"Valkenburg aan de Geul";445;2723,00;25;153,00;11;67,30
"Valkenswaard";1195;3827,30;27;86,50;44;140,90
"Veendam";380;1387,80;4;14,60;2;7,30
"Veenendaal";3205;4811,00;77;115,60;32;48,00
"Veere";255;1164,00;10;45,60;2;9,10
"Veldhoven";1720;3777,90;43;94,40;28;61,50
"Velsen";2327;3385,60;61;88,80;59;85,80
"Venlo";3600;3535,30;156;153,20;91;89,40
"Venray";1744;3997,80;47;107,70;23;52,70
"Vijfheerenlanden";2311;4060,70;60;105,40;53;93,10
"Vlaardingen";4058;5518,20;97;131,90;58;78,90
"Vlieland";19;1636,50;0;0,00;0;0,00
"Vlissingen";621;1400,60;20;45,10;7;15,80
"Voerendaal";253;2025,50;18;144,10;8;64,00
"Voorschoten";757;2957,80;13;50,80;14;54,70
"Voorst";582;2365,80;19;77,20;11;44,70
"Vught";1147;4315,30;49;184,30;28;105,30
"Waadhoeke";699;1517,00;18;39,10;22;47,70
"Waalre";588;3367,50;9;51,50;10;57,30
"Waalwijk";2031;4176,80;57;117,20;55;113,10
"Waddinxveen";1190;4052,40;44;149,80;10;34,10
"Wageningen";1174;2943,80;30;75,20;28;70,20
"Wassenaar";824;3140,70;20;76,20;17;64,80
"Waterland";641;3680,90;25;143,60;14;80,40
"Weert";2018;4021,10;86;171,40;29;57,80
"Weesp";987;4958,30;11;55,30;15;75,40
"West Betuwe";2009;3921,30;69;134,70;40;78,10
"West Maas en Waal";527;2722,40;24;124,00;15;77,50
"Westerkwartier";797;1257,60;21;33,10;8;12,60
"Westerveld";247;1269,40;10;51,40;5;25,70
"Westervoort";468;3125,40;15;100,20;6;40,10
"Westerwolde";514;1967,80;14;53,60;3;11,50
"Westland";5173;4677,00;108;97,60;59;53,30
"Weststellingwerf";419;1616,40;5;19,30;12;46,30
"Westvoorne";438;2970,50;9;61,00;1;6,80
"Wierden";1269;5195,70;11;45,00;14;57,30
"Wijchen";1367;3326,50;61;148,40;25;60,80
"Wijdemeren";746;3063,90;16;65,70;5;20,50
"Wijk bij Duurstede";660;2763,90;14;58,60;8;33,50
"Winterswijk";704;2444,30;13;45,10;8;27,80
"Woensdrecht";732;3330,90;11;50,10;21;95,60
"Woerden";1942;3709,00;76;145,20;25;47,70
"Wormerland";542;3332,50;25;153,70;14;86,10
"Woudenberg";574;4286,80;11;82,20;5;37,30
"Zaanstad";6523;4158,60;204;130,10;104;66,30
"Zaltbommel";1220;4206,50;26;89,60;14;48,30
"Zandvoort";471;2748,60;15;87,50;9;52,50
"Zeewolde";482;2133,90;16;70,80;7;31,00
"Zeist";2091;3219,00;52;80,10;35;53,90
"Zevenaar";1018;2324,00;61;139,30;22;50,20
"Zoetermeer";4922;3929,20;86;68,70;28;22,40
"Zoeterwoude";298;3449,10;4;46,30;1;11,60
"Zuidplas";1843;4184,50;49;111,30;29;65,80
"Zundert";714;3268,90;30;137,40;13;59,50
"Zutphen";1128;2349,50;39;81,20;17;35,40
"Zwartewaterland";682;3002,30;38;167,30;24;105,70
"Zwijndrecht";2123;4750,00;35;78,30;55;123,10
"Zwolle";2795;2165,60;63;48,80;66;51,10