"Category";"Meldingen";"Meldingen per 100000";"Zkh opname";"Zkh opname per 100000";"Overleden";"Overleden per 100000"
"'s-Hertogenbosch";5545;3568,60;176;113,30;114;73,40
"Aa en Hunze";382;1504,90;2;7,90;1;3,90
"Aalsmeer";1168;3663,50;18;56,50;21;65,90
"Aalten";688;2539,40;14;51,70;12;44,30
"Achtkarspelen";356;1278,20;1;3,60;0;0,00
"Alblasserdam";998;4952,90;15;74,40;13;64,50
"Albrandswaard";1384;5394,70;32;124,70;17;66,30
"Alkmaar";3068;2799,60;82;74,80;44;40,20
"Almelo";2983;4078,90;44;60,20;25;34,20
"Almere";7438;3501,80;193;90,90;50;23,50
"Alphen aan den Rijn";4602;3836,50;111;92,50;57;47,50
"Alphen-Chaam";366;3576,30;20;195,40;5;48,90
"Altena";2548;4552,80;53;94,70;43;76,80
"Ameland";55;1473,00;0;0,00;0;0,00
"Amersfoort";5558;3533,10;133;84,50;63;40,00
"Amstelveen";3309;3605,90;90;98,10;69;75,20
"Amsterdam";43788;5008,50;1231;140,80;448;51,20
"Apeldoorn";3939;2404,00;137;83,60;68;41,50
"Appingedam";178;1529,90;9;77,40;1;8,60
"Arnhem";4960;3069,40;117;72,40;78;48,30
"Assen";1143;1662,70;23;33,50;8;11,60
"Asten";547;3272,70;22;131,60;14;83,80
"Baarle-Nassau";233;3387,10;12;174,40;4;58,10
"Baarn";787;3164,80;24;96,50;19;76,40
"Barendrecht";2286;4694,90;71;145,80;33;67,80
"Barneveld";2271;3829,20;32;54,00;20;33,70
"Beek";413;2602,70;18;113,40;10;63,00
"Beekdaelen";874;2431,00;55;153,00;29;80,70
"Beemster";240;2398,30;4;40,00;2;20,00
"Beesel";340;2522,80;24;178,10;10;74,20
"Berg en Dal";1389;3966,40;44;125,60;34;97,10
"Bergeijk";885;4745,30;22;118,00;6;32,20
"Bergen (L.)";378;2889,90;12;91,70;3;22,90
"Bergen (NH.)";921;3085,50;27;90,50;25;83,80
"Bergen op Zoom";3145;4653,10;66;97,60;29;42,90
"Berkelland";1349;3082,70;28;64,00;29;66,30
"Bernheze";1267;4047,80;102;325,90;67;214,10
"Best";920;3065,00;39;129,90;15;50,00
"Beuningen";777;2996,20;24;92,50;10;38,60
"Beverwijk";1342;3225,20;23;55,30;15;36,00
"Bladel";1155;5655,70;25;122,40;13;63,70
"Blaricum";364;3143,10;8;69,10;2;17,30
"Bloemendaal";584;2481,20;10;42,50;6;25,50
"Bodegraven-Reeuwijk";1398;4001,40;29;83,00;14;40,10
"Boekel";333;3090,80;36;334,10;20;185,60
"Borger-Odoorn";495;1937,20;10;39,10;9;35,20
"Borne";770;3295,10;18;77,00;7;30,00
"Borsele";318;1398,40;7;30,80;2;8,80
"Boxmeer";977;3322,80;25;85,00;34;115,60
"Boxtel";1047;3397,10;34;110,30;32;103,80
"Breda";6822;3703,80;206;111,80;110;59,70
"Brielle";580;3359,00;23;133,20;4;23,20
"Bronckhorst";1059;2941,20;21;58,30;8;22,20
"Brummen";448;2155,50;22;105,90;7;33,70
"Brunssum";637;2291,00;56;201,40;23;82,70
"Bunnik";473;3108,60;16;105,20;11;72,30
"Bunschoten";1550;7080,50;36;164,50;13;59,40
"Buren";778;2903,30;27;100,80;12;44,80
"Capelle aan den IJssel";3057;4548,00;99;147,30;90;133,90
"Castricum";975;2707,00;18;50,00;12;33,30
"Coevorden";674;1909,00;24;68,00;7;19,80
"Cranendonck";919;4331,00;65;306,30;38;179,10
"Cuijk";877;3486,40;20;79,50;15;59,60
"Culemborg";1039;3580,20;34;117,20;12;41,30
"Dalfsen";776;2705,20;18;62,80;11;38,30
"Dantumadiel";271;1433,30;2;10,60;0;0,00
"De Bilt";1547;3588,20;38;88,10;33;76,50
"De Fryske Marren";841;1629,60;27;52,30;12;23,30
"De Ronde Venen";1570;3528,20;70;157,30;23;51,70
"De Wolden";443;1819,30;17;69,80;6;24,60
"Delft";4195;4051,70;69;66,60;40;38,60
"Delfzijl";377;1528,90;9;36,50;1;4,10
"Den Helder";934;1657,20;19;33,70;8;14,20
"Deurne";1215;3745,60;64;197,30;33;101,70
"Deventer";3007;2980,40;59;58,50;53;52,50
"Diemen";1528;4894,30;30;96,10;20;64,10
"Dinkelland";1231;4653,50;24;90,70;18;68,00
"Doesburg";289;2613,50;12;108,50;8;72,30
"Doetinchem";1449;2495,50;40;68,90;20;34,40
"Dongen";1151;4376,90;38;144,50;19;72,30
"Dordrecht";5623;4708,90;110;92,10;107;89,60
"Drechterland";553;2802,60;7;35,50;8;40,50
"Drimmelen";870;3195,10;31;113,80;16;58,80
"Dronten";895;2148,60;44;105,60;16;38,40
"Druten";554;2926,90;31;163,80;17;89,80
"Duiven";804;3206,80;18;71,80;8;31,90
"Echt-Susteren";601;1900,00;44;139,10;20;63,20
"Edam-Volendam";1420;3927,20;56;154,90;8;22,10
"Ede";3953;3377,40;94;80,30;49;41,90
"Eemnes";290;3129,40;6;64,70;1;10,80
"Eersel";893;4621,00;38;196,60;18;93,10
"Eijsden-Margraten";778;3019,50;62;240,60;31;120,30
"Eindhoven";7561;3219,50;258;109,90;146;62,20
"Elburg";659;2837,00;31;133,50;11;47,40
"Emmen";2549;2382,80;58;54,20;32;29,90
"Enkhuizen";558;2991,30;20;107,20;5;26,80
"Enschede";5492;3441,00;110;68,90;73;45,70
"Epe";789;2377,80;56;168,80;25;75,30
"Ermelo";760;2815,60;33;122,30;26;96,30
"Etten-Leur";1591;3626,00;59;134,50;31;70,70
"Geertruidenberg";742;3437,40;20;92,70;9;41,70
"Geldrop-Mierlo";1359;3414,70;46;115,60;19;47,70
"Gemert-Bakel";937;3048,00;82;266,70;34;110,60
"Gennep";592;3496,10;19;112,20;15;88,60
"Gilze en Rijen";1016;3819,80;29;109,00;18;67,70
"Goeree-Overflakkee";1774;3537,60;76;151,60;47;93,70
"Goes";714;1868,30;26;68,00;14;36,60
"Goirle";917;3834,10;36;150,50;24;100,30
"Gooise Meren";1831;3152,30;37;63,70;21;36,20
"Gorinchem";1569;4226,90;23;62,00;24;64,70
"Gouda";3389;4611,80;104;141,50;87;118,40
"Grave";541;4338,10;28;224,50;23;184,40
"Groningen";4898;2102,30;39;16,70;9;3,90
"Gulpen-Wittem";394;2784,30;27;190,80;16;113,10
"Haaksbergen";1000;4118,30;22;90,60;23;94,70
"Haaren";563;3922,30;23;160,20;11;76,60
"Haarlem";4861;2980,20;136;83,40;103;63,10
"Haarlemmermeer";5436;3476,70;115;73,60;50;32,00
"Halderberge";1123;3710,20;34;112,30;17;56,20
"Hardenberg";1348;2210,90;33;54,10;17;27,90
"Harderwijk";1328;2728,90;55;113,00;23;47,30
"Hardinxveld-Giessendam";805;4390,70;2;10,90;7;38,20
"Harlingen";167;1063,70;5;31,80;2;12,70
"Hattem";271;2217,00;19;155,40;5;40,90
"Heemskerk";1329;3390,40;42;107,10;23;58,70
"Heemstede";778;2851,20;20;73,30;43;157,60
"Heerde";433;2330,50;55;296,00;29;156,10
"Heerenveen";677;1341,40;17;33,70;24;47,60
"Heerhugowaard";1571;2720,30;33;57,10;11;19,00
"Heerlen";2004;2302,80;142;163,20;62;71,20
"Heeze-Leende";589;3650,20;20;123,90;13;80,60
"Heiloo";555;2318,10;14;58,50;10;41,80
"Hellendoorn";1255;3497,30;16;44,60;16;44,60
"Hellevoetsluis";1241;3088,40;34;84,60;11;27,40
"Helmond";3667;3972,40;144;156,00;53;57,40
"Hendrik-Ido-Ambacht";1414;4523,10;14;44,80;10;32,00
"Hengelo";2777;3420,00;49;60,30;33;40,60
"Het Hogeland";810;1692,00;13;27,20;7;14,60
"Heumen";558;3385,30;21;127,40;13;78,90
"Heusden";1777;3974,60;64;143,10;38;85,00
"Hillegom";640;2883,80;10;45,10;2;9,00
"Hilvarenbeek";596;3836,00;17;109,40;15;96,50
"Hilversum";2642;2902,10;49;53,80;46;50,50
"Hoeksche Waard";2993;3419,40;88;100,50;33;37,70
"Hof van Twente";1222;3495,60;25;71,50;14;40,00
"Hollands Kroon";923;1904,70;33;68,10;7;14,40
"Hoogeveen";1104;1984,00;35;62,90;15;27,00
"Hoorn";2079;2836,50;50;68,20;18;24,60
"Horst aan de Maas";1602;3772,90;50;117,80;37;87,10
"Houten";1657;3298,60;43;85,60;46;91,60
"Huizen";1598;3880,30;38;92,30;18;43,70
"Hulst";711;2552,70;21;75,40;10;35,90
"IJsselstein";1223;3595,50;52;152,90;46;135,20
"Kaag en Braassem";863;3152,30;14;51,10;3;11,00
"Kampen";1254;2307,40;66;121,40;40;73,60
"Kapelle";159;1252,30;4;31,50;1;7,90
"Katwijk";3009;4571,80;61;92,70;29;44,10
"Kerkrade";910;1991,90;80;175,10;42;91,90
"Koggenland";653;2867,30;13;57,10;12;52,70
"Krimpen aan den IJssel";1379;4669,00;25;84,60;35;118,50
"Krimpenerwaard";2228;3957,70;72;127,90;52;92,40
"Laarbeek";857;3791,40;42;185,80;28;123,90
"Landerd";698;4432,90;44;279,40;22;139,70
"Landgraaf";775;2070,60;56;149,60;23;61,50
"Landsmeer";403;3490,70;6;52,00;4;34,60
"Langedijk";835;2963,60;22;78,10;7;24,80
"Lansingerland";2694;4308,30;61;97,60;49;78,40
"Laren";379;3344,20;11;97,10;8;70,60
"Leeuwarden";2089;1684,40;54;43,50;16;12,90
"Leiden";4606;3682,90;85;68,00;41;32,80
"Leiderdorp";976;3600,10;30;110,70;11;40,60
"Leidschendam-Voorburg";2683;3506,10;73;95,40;52;68,00
"Lelystad";2121;2687,50;97;122,90;44;55,80
"Leudal";1074;2996,70;58;161,80;41;114,40
"Leusden";879;2889,30;16;52,60;12;39,40
"Lingewaard";1466;3142,90;47;100,80;19;40,70
"Lisse";733;3183,60;17;73,80;5;21,70
"Lochem";814;2412,60;22;65,20;20;59,30
"Loon op Zand";991;4232,70;38;162,30;29;123,90
"Lopik";598;4129,00;25;172,60;9;62,10
"Loppersum";124;1304,40;1;10,50;0;0,00
"Losser";921;4060,00;17;74,90;6;26,40
"Maasdriel";918;3644,60;26;103,20;22;87,30
"Maasgouw";559;2335,10;29;121,10;16;66,80
"Maassluis";1529;4601,50;44;132,40;20;60,20
"Maastricht";3538;2911,70;213;175,30;146;120,20
"Medemblik";1213;2688,70;23;51,00;8;17,70
"Meerssen";443;2354,50;26;138,20;16;85,00
"Meierijstad";2768;3404,60;225;276,70;140;172,20
"Meppel";578;1700,90;13;38,30;5;14,70
"Middelburg";703;1440,50;29;59,40;15;30,70
"Midden-Delfland";763;3953,00;13;67,40;8;41,40
"Midden-Drenthe";549;1653,30;12;36,10;3;9,00
"Midden-Groningen";862;1418,00;17;28,00;11;18,10
"Mill en Sint Hubert";403;3677,70;14;127,80;6;54,80
"Moerdijk";1259;3389,00;26;70,00;23;61,90
"Molenlanden";1739;3954,40;21;47,80;18;40,90
"Montferland";910;2527,90;28;77,80;12;33,30
"Montfoort";531;3819,90;16;115,10;7;50,40
"Mook en Middelaar";260;3318,40;9;114,90;9;114,90
"Neder-Betuwe";1033;4226,50;47;192,30;25;102,30
"Nederweert";666;3903,20;37;216,80;10;58,60
"Nieuwegein";1972;3105,30;67;105,50;18;28,30
"Nieuwkoop";999;3459,40;19;65,80;13;45,00
"Nijkerk";1489;3446,60;33;76,40;7;16,20
"Nijmegen";5704;3211,20;199;112,00;120;67,60
"Nissewaard";3667;4303,60;97;113,80;50;58,70
"Noardeast-Fryslân";669;1478,00;14;30,90;8;17,70
"Noord-Beveland";109;1475,80;3;40,60;1;13,50
"Noordenveld";351;1124,20;9;28,80;14;44,80
"Noordoostpolder";1267;2670,60;23;48,50;21;44,30
"Noordwijk";1460;3349,70;42;96,40;9;20,60
"Nuenen, Gerwen en Nederwetten";725;3100,30;22;94,10;14;59,90
"Nunspeet";776;2790,50;64;230,10;24;86,30
"Oegstgeest";826;3318,50;17;68,30;6;24,10
"Oirschot";748;3989,50;21;112,00;19;101,30
"Oisterwijk";946;3598,90;32;121,70;14;53,30
"Oldambt";462;1209,80;11;28,80;6;15,70
"Oldebroek";548;2317,10;41;173,40;20;84,60
"Oldenzaal";1277;4010,40;27;84,80;32;100,50
"Olst-Wijhe";353;1934,50;12;65,80;8;43,80
"Ommen";349;1935,40;9;49,90;7;38,80
"Oost Gelre";950;3206,60;23;77,60;26;87,80
"Oosterhout";2145;3826,80;59;105,30;28;50,00
"Ooststellingwerf";383;1504,60;9;35,40;1;3,90
"Oostzaan";392;4032,90;13;133,70;3;30,90
"Opmeer";299;2531,30;3;25,40;2;16,90
"Opsterland";351;1183,20;14;47,20;1;3,40
"Oss";3655;3972,90;196;213,00;106;115,20
"Oude IJsselstreek";996;2529,50;27;68,60;20;50,80
"Ouder-Amstel";603;4271,10;8;56,70;0;0,00
"Oudewater";374;3663,10;32;313,40;12;117,50
"Overbetuwe";1209;2520,60;63;131,30;21;43,80
"Papendrecht";1243;3867,30;11;34,20;20;62,20
"Peel en Maas";1352;3099,00;148;339,20;65;149,00
"Pekela";139;1142,80;8;65,80;2;16,40
"Pijnacker-Nootdorp";2277;4109,20;40;72,20;22;39,70
"Purmerend";2306;2830,80;101;124,00;49;60,20
"Putten";714;2960,20;13;53,90;6;24,90
"Raalte";1218;3232,10;27;71,60;25;66,30
"Reimerswaal";500;2200,70;9;39,60;5;22,00
"Renkum";847;2696,70;20;63,70;15;47,80
"Renswoude";177;3226,40;5;91,10;5;91,10
"Reusel-De Mierden";656;5011,50;18;137,50;6;45,80
"Rheden";1222;2798,10;41;93,90;21;48,10
"Rhenen";808;4018,10;15;74,60;8;39,80
"Ridderkerk";2132;4600,70;56;120,80;52;112,20
"Rijssen-Holten";1558;4076,70;34;89,00;33;86,30
"Rijswijk";2174;3980,30;80;146,50;62;113,50
"Roerdalen";438;2134,90;29;141,40;9;43,90
"Roermond";1536;2633,90;67;114,90;27;46,30
"Roosendaal";3303;4273,10;63;81,50;42;54,30
"Rotterdam";36906;5657,30;1160;177,80;631;96,70
"Rozendaal";40;2358,50;1;59,00;0;0,00
"Rucphen";925;4029,40;24;104,50;12;52,30
"s-Gravenhage";24089;4413,00;804;147,30;382;70,00
"Schagen";1302;2801,70;24;51,60;16;34,40
"Scherpenzeel";383;3875,30;5;50,60;4;40,50
"Schiedam";4434;5623,90;142;180,10;46;58,30
"Schiermonnikoog";5;528,50;1;105,70;0;0,00
"Schouwen-Duiveland";615;1814,60;16;47,20;16;47,20
"Simpelveld";246;2333,10;22;208,60;5;47,40
"Sint Anthonis";381;3265,90;21;180,00;11;94,30
"Sint-Michielsgestel";1077;3680,30;39;133,30;23;78,60
"Sittard-Geleen";2146;2324,30;141;152,70;77;83,40
"Sliedrecht";1129;4482,30;12;47,60;18;71,50
"Sluis";561;2418,30;18;77,60;7;30,20
"Smallingerland";699;1244,40;14;24,90;12;21,40
"Soest";1638;3510,80;46;98,60;34;72,90
"Someren";625;3227,00;36;185,90;9;46,50
"Son en Breugel";528;3045,00;33;190,30;19;109,60
"Stadskanaal";806;2547,70;11;34,80;8;25,30
"Staphorst";584;3405,20;11;64,10;5;29,20
"Stede Broec";531;2445,20;20;92,10;5;23,00
"Steenbergen";836;3417,30;20;81,80;14;57,20
"Steenwijkerland";788;1784,50;18;40,80;10;22,60
"Stein";592;2373,00;54;216,50;16;64,10
"Stichtse Vecht";2354;3619,90;69;106,10;37;56,90
"Súdwest-Fryslân";2140;2380,90;27;30,00;31;34,50
"Terneuzen";1304;2397,80;40;73,60;5;9,20
"Terschelling";77;1588,90;1;20,60;1;20,60
"Texel";131;965,00;6;44,20;2;14,70
"Teylingen";1398;3725,60;25;66,60;7;18,70
"Tholen";885;3432,40;50;193,90;20;77,60
"Tiel";1547;3675,30;64;152,00;33;78,40
"Tilburg";8608;3910,20;320;145,40;213;96,80
"Tubbergen";1195;5617,40;14;65,80;9;42,30
"Twenterand";1217;3606,10;18;53,30;6;17,80
"Tynaarlo";447;1321,80;13;38,40;12;35,50
"Tytsjerksteradiel";394;1227,00;9;28,00;3;9,30
"Uden";1241;2945,50;120;284,80;70;166,10
"Uitgeest";471;3448,50;7;51,30;4;29,30
"Uithoorn";996;3364,60;27;91,20;6;20,30
"Urk";1320;6263,90;38;180,30;11;52,20
"Utrecht";15195;4239,00;461;128,60;171;47,70
"Utrechtse Heuvelrug";1565;3145,60;43;86,40;22;44,20
"Vaals";183;1811,20;11;108,90;5;49,50
"Valkenburg aan de Geul";439;2686,30;25;153,00;11;67,30
"Valkenswaard";1168;3740,80;27;86,50;44;140,90
"Veendam";366;1336,60;4;14,60;2;7,30
"Veenendaal";3091;4639,90;76;114,10;32;48,00
"Veere";247;1127,40;10;45,60;2;9,10
"Veldhoven";1675;3679,10;43;94,40;28;61,50
"Velsen";2296;3340,50;60;87,30;59;85,80
"Venlo";3511;3447,90;156;153,20;91;89,40
"Venray";1700;3896,90;47;107,70;23;52,70
"Vijfheerenlanden";2283;4011,50;60;105,40;53;93,10
"Vlaardingen";4016;5461,00;96;130,50;58;78,90
"Vlieland";19;1636,50;0;0,00;0;0,00
"Vlissingen";609;1373,50;20;45,10;7;15,80
"Voerendaal";245;1961,40;18;144,10;8;64,00
"Voorschoten";747;2918,80;13;50,80;14;54,70
"Voorst";559;2272,30;19;77,20;11;44,70
"Vught";1125;4232,50;48;180,60;28;105,30
"Waadhoeke";684;1484,40;18;39,10;22;47,70
"Waalre";570;3264,40;9;51,50;10;57,30
"Waalwijk";1996;4104,80;57;117,20;55;113,10
"Waddinxveen";1172;3991,10;42;143,00;10;34,10
"Wageningen";1157;2901,10;30;75,20;28;70,20
"Wassenaar";809;3083,50;19;72,40;17;64,80
"Waterland";630;3617,80;25;143,60;14;80,40
"Weert";1968;3921,50;86;171,40;29;57,80
"Weesp";971;4877,90;11;55,30;15;75,40
"West Betuwe";1973;3851,00;69;134,70;40;78,10
"West Maas en Waal";523;2701,70;24;124,00;15;77,50
"Westerkwartier";775;1222,90;21;33,10;8;12,60
"Westerveld";242;1243,70;10;51,40;5;25,70
"Westervoort";460;3072,00;15;100,20;6;40,10
"Westerwolde";496;1898,90;14;53,60;3;11,50
"Westland";5063;4577,50;108;97,60;59;53,30
"Weststellingwerf";417;1608,70;5;19,30;12;46,30
"Westvoorne";433;2936,60;9;61,00;1;6,80
"Wierden";1241;5081,10;11;45,00;14;57,30
"Wijchen";1325;3224,30;61;148,40;25;60,80
"Wijdemeren";739;3035,20;16;65,70;5;20,50
"Wijk bij Duurstede";653;2734,60;14;58,60;8;33,50
"Winterswijk";696;2416,50;13;45,10;8;27,80
"Woensdrecht";723;3290,00;11;50,10;21;95,60
"Woerden";1912;3651,70;76;145,20;25;47,70
"Wormerland";536;3295,60;25;153,70;14;86,10
"Woudenberg";547;4085,10;11;82,20;5;37,30
"Zaanstad";6411;4087,20;202;128,80;103;65,70
"Zaltbommel";1182;4075,40;26;89,60;14;48,30
"Zandvoort";462;2696,10;15;87,50;9;52,50
"Zeewolde";474;2098,50;16;70,80;7;31,00
"Zeist";2047;3151,20;52;80,10;35;53,90
"Zevenaar";1003;2289,70;61;139,30;22;50,20
"Zoetermeer";4823;3850,20;86;68,70;28;22,40
"Zoeterwoude";289;3344,90;4;46,30;1;11,60
"Zuidplas";1828;4150,50;48;109,00;29;65,80
"Zundert";702;3214,00;30;137,40;13;59,50
"Zutphen";1110;2312,00;39;81,20;17;35,40
"Zwartewaterland";676;2975,90;38;167,30;24;105,70
"Zwijndrecht";2103;4705,20;34;76,10;55;123,10
"Zwolle";2751;2131,50;63;48,80;66;51,10