"Category";"Meldingen";"Meldingen per 100000";"Zkh opname";"Zkh opname per 100000";"Overleden";"Overleden per 100000"
"'s-Hertogenbosch";5987;3853,10;180;115,80;117;75,30
"Aa en Hunze";417;1642,80;2;7,90;1;3,90
"Aalsmeer";1230;3858,00;19;59,60;21;65,90
"Aalten";745;2749,80;14;51,70;12;44,30
"Achtkarspelen";403;1447,00;1;3,60;0;0,00
"Alblasserdam";1063;5275,40;15;74,40;13;64,50
"Albrandswaard";1449;5648,00;32;124,70;17;66,30
"Alkmaar";3305;3015,80;83;75,70;45;41,10
"Almelo";3274;4476,80;47;64,30;26;35,60
"Almere";8287;3901,50;196;92,30;51;24,00
"Alphen aan den Rijn";4971;4144,20;113;94,20;61;50,90
"Alphen-Chaam";393;3840,10;20;195,40;5;48,90
"Altena";2875;5137,00;56;100,10;46;82,20
"Ameland";75;2008,60;0;0,00;0;0,00
"Amersfoort";6097;3875,70;140;89,00;67;42,60
"Amstelveen";3495;3808,60;90;98,10;77;83,90
"Amsterdam";45820;5240,90;1250;143,00;461;52,70
"Apeldoorn";4403;2687,20;138;84,20;71;43,30
"Appingedam";219;1882,30;9;77,40;1;8,60
"Arnhem";5355;3313,90;120;74,30;80;49,50
"Assen";1219;1773,30;28;40,70;9;13,10
"Asten";592;3541,90;22;131,60;14;83,80
"Baarle-Nassau";248;3605,20;12;174,40;4;58,10
"Baarn";864;3474,50;25;100,50;19;76,40
"Barendrecht";2389;4906,50;72;147,90;34;69,80
"Barneveld";2637;4446,30;32;54,00;21;35,40
"Beek";489;3081,70;18;113,40;10;63,00
"Beekdaelen";998;2775,90;57;158,50;30;83,40
"Beemster";258;2578,20;4;40,00;2;20,00
"Beesel";372;2760,30;24;178,10;10;74,20
"Berg en Dal";1450;4140,60;45;128,50;35;99,90
"Bergeijk";976;5233,20;22;118,00;6;32,20
"Bergen (L.)";429;3279,80;12;91,70;3;22,90
"Bergen (NH.)";970;3249,70;27;90,50;26;87,10
"Bergen op Zoom";3298;4879,50;66;97,60;31;45,90
"Berkelland";1438;3286,10;30;68,60;30;68,60
"Bernheze";1367;4367,30;102;325,90;67;214,10
"Best";1049;3494,80;39;129,90;16;53,30
"Beuningen";831;3204,40;24;92,50;10;38,60
"Beverwijk";1420;3412,60;25;60,10;16;38,50
"Bladel";1251;6125,70;26;127,30;16;78,30
"Blaricum";394;3402,10;8;69,10;2;17,30
"Bloemendaal";626;2659,60;10;42,50;8;34,00
"Bodegraven-Reeuwijk";1511;4324,80;30;85,90;15;42,90
"Boekel";375;3480,60;37;343,40;20;185,60
"Borger-Odoorn";532;2081,90;10;39,10;9;35,20
"Borne";862;3688,80;19;81,30;8;34,20
"Borsele";362;1591,80;7;30,80;2;8,80
"Boxmeer";1114;3788,70;26;88,40;35;119,00
"Boxtel";1146;3718,40;34;110,30;37;120,10
"Breda";7421;4029,10;211;114,60;111;60,30
"Brielle";629;3642,80;23;133,20;4;23,20
"Bronckhorst";1141;3168,90;21;58,30;9;25,00
"Brummen";511;2458,60;22;105,90;7;33,70
"Brunssum";760;2733,30;58;208,60;23;82,70
"Bunnik";504;3312,30;16;105,20;11;72,30
"Bunschoten";1768;8076,40;37;169,00;17;77,70
"Buren";866;3231,70;27;100,80;12;44,80
"Capelle aan den IJssel";3234;4811,30;99;147,30;90;133,90
"Castricum";1058;2937,40;18;50,00;13;36,10
"Coevorden";770;2180,90;26;73,60;7;19,80
"Cranendonck";1012;4769,30;67;315,80;39;183,80
"Cuijk";935;3717,00;20;79,50;15;59,60
"Culemborg";1116;3845,50;34;117,20;12;41,30
"Dalfsen";853;2973,70;18;62,80;11;38,30
"Dantumadiel";333;1761,20;3;15,90;0;0,00
"De Bilt";1655;3838,70;38;88,10;35;81,20
"De Fryske Marren";917;1776,90;28;54,30;13;25,20
"De Ronde Venen";1700;3820,30;74;166,30;25;56,20
"De Wolden";525;2156,10;18;73,90;6;24,60
"Delft";4369;4219,80;70;67,60;43;41,50
"Delfzijl";454;1841,10;9;36,50;1;4,10
"Den Helder";1088;1930,50;22;39,00;8;14,20
"Deurne";1309;4035,40;64;197,30;34;104,80
"Deventer";3362;3332,20;62;61,50;54;53,50
"Diemen";1574;5041,60;30;96,10;21;67,30
"Dinkelland";1323;5001,30;24;90,70;18;68,00
"Doesburg";310;2803,40;13;117,60;8;72,30
"Doetinchem";1608;2769,40;42;72,30;20;34,40
"Dongen";1261;4795,20;38;144,50;19;72,30
"Dordrecht";6002;5026,30;113;94,60;107;89,60
"Drechterland";606;3071,20;7;35,50;9;45,60
"Drimmelen";971;3566,10;31;113,80;18;66,10
"Dronten";1058;2539,90;46;110,40;16;38,40
"Druten";615;3249,20;31;163,80;18;95,10
"Duiven";867;3458,00;18;71,80;8;31,90
"Echt-Susteren";693;2190,90;44;139,10;20;63,20
"Edam-Volendam";1504;4159,50;57;157,60;8;22,10
"Ede";4457;3808,10;95;81,20;51;43,60
"Eemnes";310;3345,20;7;75,50;1;10,80
"Eersel";965;4993,50;38;196,60;19;98,30
"Eijsden-Margraten";874;3392,10;62;240,60;32;124,20
"Eindhoven";8123;3458,80;267;113,70;155;66,00
"Elburg";733;3155,50;31;133,50;11;47,40
"Emmen";2825;2640,80;62;58,00;32;29,90
"Enkhuizen";696;3731,10;20;107,20;5;26,80
"Enschede";5869;3677,20;117;73,30;79;49,50
"Epe";873;2630,90;58;174,80;27;81,40
"Ermelo";877;3249,10;33;122,30;26;96,30
"Etten-Leur";1756;4002,10;60;136,70;31;70,70
"Geertruidenberg";824;3817,30;21;97,30;14;64,90
"Geldrop-Mierlo";1500;3769,00;47;118,10;19;47,70
"Gemert-Bakel";1038;3376,60;82;266,70;34;110,60
"Gennep";671;3962,70;20;118,10;15;88,60
"Gilze en Rijen";1093;4109,30;30;112,80;18;67,70
"Goeree-Overflakkee";1919;3826,70;78;155,50;47;93,70
"Goes";746;1952,10;30;78,50;14;36,60
"Goirle";973;4068,20;36;150,50;24;100,30
"Gooise Meren";1987;3420,90;37;63,70;21;36,20
"Gorinchem";1690;4552,90;23;62,00;26;70,00
"Gouda";3578;4869,00;110;149,70;91;123,80
"Grave";596;4779,10;28;224,50;23;184,40
"Groningen";5306;2277,40;42;18,00;10;4,30
"Gulpen-Wittem";430;3038,70;27;190,80;16;113,10
"Haaksbergen";1130;4653,70;22;90,60;23;94,70
"Haaren";618;4305,40;25;174,20;13;90,60
"Haarlem";5270;3231,00;137;84,00;108;66,20
"Haarlemmermeer";5831;3729,30;120;76,70;63;40,30
"Halderberge";1203;3974,50;35;115,60;17;56,20
"Hardenberg";1510;2476,60;33;54,10;17;27,90
"Harderwijk";1463;3006,30;56;115,10;24;49,30
"Hardinxveld-Giessendam";883;4816,20;2;10,90;7;38,20
"Harlingen";175;1114,60;5;31,80;2;12,70
"Hattem";295;2413,30;19;155,40;5;40,90
"Heemskerk";1421;3625,10;42;107,10;23;58,70
"Heemstede";830;3041,70;21;77,00;48;175,90
"Heerde";473;2545,70;55;296,00;29;156,10
"Heerenveen";715;1416,70;17;33,70;24;47,60
"Heerhugowaard";1776;3075,20;36;62,30;11;19,00
"Heerlen";2243;2577,40;143;164,30;63;72,40
"Heeze-Leende";651;4034,50;20;123,90;13;80,60
"Heiloo";607;2535,30;15;62,70;10;41,80
"Hellendoorn";1419;3954,30;17;47,40;17;47,40
"Hellevoetsluis";1310;3260,20;35;87,10;11;27,40
"Helmond";3867;4189,10;148;160,30;54;58,50
"Hendrik-Ido-Ambacht";1514;4842,90;14;44,80;14;44,80
"Hengelo";2994;3687,30;50;61,60;33;40,60
"Het Hogeland";907;1894,60;13;27,20;7;14,60
"Heumen";601;3646,20;21;127,40;13;78,90
"Heusden";1854;4146,80;64;143,10;38;85,00
"Hillegom";680;3064,00;11;49,60;2;9,00
"Hilvarenbeek";655;4215,70;18;115,90;16;103,00
"Hilversum";2795;3070,10;49;53,80;46;50,50
"Hoeksche Waard";3181;3634,10;89;101,70;33;37,70
"Hof van Twente";1303;3727,30;25;71,50;14;40,00
"Hollands Kroon";1027;2119,30;34;70,20;8;16,50
"Hoogeveen";1332;2393,70;36;64,70;16;28,80
"Hoorn";2299;3136,70;51;69,60;18;24,60
"Horst aan de Maas";1825;4298,10;50;117,80;37;87,10
"Houten";1803;3589,20;43;85,60;47;93,60
"Huizen";1740;4225,10;38;92,30;19;46,10
"Hulst";737;2646,00;21;75,40;11;39,50
"IJsselstein";1312;3857,10;52;152,90;46;135,20
"Kaag en Braassem";941;3437,20;15;54,80;3;11,00
"Kampen";1385;2548,40;66;121,40;40;73,60
"Kapelle";183;1441,30;5;39,40;1;7,90
"Katwijk";3232;4910,70;64;97,20;31;47,10
"Kerkrade";1011;2213,00;82;179,50;43;94,10
"Koggenland";691;3034,20;13;57,10;12;52,70
"Krimpen aan den IJssel";1520;5146,40;25;84,60;35;118,50
"Krimpenerwaard";2398;4259,60;74;131,40;52;92,40
"Laarbeek";943;4171,80;42;185,80;28;123,90
"Landerd";748;4750,40;44;279,40;22;139,70
"Landgraaf";920;2458,10;57;152,30;23;61,50
"Landsmeer";444;3845,80;7;60,60;4;34,60
"Langedijk";916;3251,10;23;81,60;7;24,80
"Lansingerland";2876;4599,40;61;97,60;49;78,40
"Laren";398;3511,90;12;105,90;9;79,40
"Leeuwarden";2259;1821,40;54;43,50;16;12,90
"Leiden";4820;3854,00;88;70,40;41;32,80
"Leiderdorp";1041;3839,90;30;110,70;12;44,30
"Leidschendam-Voorburg";2915;3809,30;74;96,70;54;70,60
"Lelystad";2427;3075,30;99;125,40;46;58,30
"Leudal";1208;3370,50;58;161,80;42;117,20
"Leusden";962;3162,10;17;55,90;13;42,70
"Lingewaard";1586;3400,20;47;100,80;19;40,70
"Lisse";800;3474,60;19;82,50;6;26,10
"Lochem";873;2587,40;23;68,20;21;62,20
"Loon op Zand";1070;4570,10;38;162,30;29;123,90
"Lopik";643;4439,70;25;172,60;9;62,10
"Loppersum";147;1546,40;2;21,00;0;0,00
"Losser";1038;4575,70;19;83,80;7;30,90
"Maasdriel";1003;3982,10;26;103,20;22;87,30
"Maasgouw";618;2581,60;29;121,10;16;66,80
"Maassluis";1597;4806,20;44;132,40;20;60,20
"Maastricht";3946;3247,40;219;180,20;147;121,00
"Medemblik";1402;3107,70;23;51,00;8;17,70
"Meerssen";509;2705,30;26;138,20;16;85,00
"Meierijstad";3006;3697,40;226;278,00;142;174,70
"Meppel";650;1912,80;14;41,20;5;14,70
"Middelburg";779;1596,20;29;59,40;15;30,70
"Midden-Delfland";836;4331,20;13;67,40;8;41,40
"Midden-Drenthe";619;1864,10;12;36,10;3;9,00
"Midden-Groningen";964;1585,80;19;31,30;13;21,40
"Mill en Sint Hubert";423;3860,20;14;127,80;6;54,80
"Moerdijk";1344;3617,80;27;72,70;23;61,90
"Molenlanden";1889;4295,50;22;50,00;19;43,20
"Montferland";991;2752,90;29;80,60;12;33,30
"Montfoort";577;4150,80;16;115,10;7;50,40
"Mook en Middelaar";275;3509,90;10;127,60;9;114,90
"Neder-Betuwe";1146;4688,80;48;196,40;25;102,30
"Nederweert";763;4471,70;37;216,80;11;64,50
"Nieuwegein";2116;3332,00;69;108,70;18;28,30
"Nieuwkoop";1107;3833,40;22;76,20;14;48,50
"Nijkerk";1665;3854,00;34;78,70;7;16,20
"Nijmegen";6084;3425,10;200;112,60;120;67,60
"Nissewaard";3833;4498,50;102;119,70;52;61,00
"Noardeast-Fryslân";737;1628,30;14;30,90;8;17,70
"Noord-Beveland";112;1516,40;3;40,60;1;13,50
"Noordenveld";382;1223,50;9;28,80;14;44,80
"Noordoostpolder";1456;3068,90;26;54,80;21;44,30
"Noordwijk";1561;3581,40;42;96,40;10;22,90
"Nuenen, Gerwen en Nederwetten";772;3301,30;22;94,10;14;59,90
"Nunspeet";855;3074,50;68;244,50;24;86,30
"Oegstgeest";893;3587,60;17;68,30;10;40,20
"Oirschot";829;4421,60;21;112,00;20;106,70
"Oisterwijk";1044;3971,70;32;121,70;15;57,10
"Oldambt";545;1427,10;11;28,80;8;20,90
"Oldebroek";647;2735,70;42;177,60;21;88,80
"Oldenzaal";1404;4409,30;29;91,10;32;100,50
"Olst-Wijhe";407;2230,40;12;65,80;8;43,80
"Ommen";388;2151,70;10;55,50;7;38,80
"Oost Gelre";1058;3571,20;23;77,60;26;87,80
"Oosterhout";2321;4140,80;61;108,80;31;55,30
"Ooststellingwerf";414;1626,40;9;35,40;1;3,90
"Oostzaan";425;4372,40;13;133,70;3;30,90
"Opmeer";331;2802,20;3;25,40;2;16,90
"Opsterland";393;1324,70;14;47,20;1;3,40
"Oss";3847;4181,60;199;216,30;106;115,20
"Oude IJsselstreek";1130;2869,80;28;71,10;21;53,30
"Ouder-Amstel";634;4490,70;8;56,70;0;0,00
"Oudewater";409;4005,90;32;313,40;12;117,50
"Overbetuwe";1306;2722,80;63;131,30;21;43,80
"Papendrecht";1378;4287,40;11;34,20;21;65,30
"Peel en Maas";1539;3527,60;148;339,20;66;151,30
"Pekela";164;1348,40;10;82,20;2;16,40
"Pijnacker-Nootdorp";2462;4443,10;41;74,00;22;39,70
"Purmerend";2451;3008,80;103;126,40;49;60,20
"Putten";820;3399,70;13;53,90;6;24,90
"Raalte";1384;3672,60;27;71,60;25;66,30
"Reimerswaal";558;2456,00;10;44,00;5;22,00
"Renkum";894;2846,30;22;70,00;17;54,10
"Renswoude";209;3809,70;5;91,10;5;91,10
"Reusel-De Mierden";700;5347,60;18;137,50;6;45,80
"Rheden";1339;3066,00;41;93,90;22;50,40
"Rhenen";938;4664,60;15;74,60;8;39,80
"Ridderkerk";2256;4868,30;60;129,50;54;116,50
"Rijssen-Holten";1770;4631,40;34;89,00;33;86,30
"Rijswijk";2314;4236,60;82;150,10;62;113,50
"Roerdalen";502;2446,90;29;141,40;10;48,70
"Roermond";1704;2922,00;68;116,60;28;48,00
"Roosendaal";3513;4544,80;63;81,50;45;58,20
"Rotterdam";38395;5885,50;1183;181,30;641;98,30
"Rozendaal";43;2535,40;1;59,00;0;0,00
"Rucphen";982;4277,70;25;108,90;12;52,30
"s-Gravenhage";25261;4627,70;822;150,60;389;71,30
"Schagen";1413;3040,60;25;53,80;19;40,90
"Scherpenzeel";453;4583,60;5;50,60;4;40,50
"Schiedam";4595;5828,10;144;182,60;46;58,30
"Schiermonnikoog";6;634,20;1;105,70;0;0,00
"Schouwen-Duiveland";660;1947,40;18;53,10;16;47,20
"Simpelveld";290;2750,40;22;208,60;5;47,40
"Sint Anthonis";419;3591,60;21;180,00;11;94,30
"Sint-Michielsgestel";1187;4056,20;40;136,70;23;78,60
"Sittard-Geleen";2444;2647,00;142;153,80;77;83,40
"Sliedrecht";1290;5121,50;12;47,60;19;75,40
"Sluis";622;2681,30;19;81,90;7;30,20
"Smallingerland";771;1372,50;16;28,50;12;21,40
"Soest";1758;3768,00;47;100,70;35;75,00
"Someren";699;3609,00;36;185,90;9;46,50
"Son en Breugel";559;3223,80;33;190,30;22;126,90
"Stadskanaal";941;2974,50;12;37,90;8;25,30
"Staphorst";672;3918,40;11;64,10;5;29,20
"Stede Broec";618;2845,80;20;92,10;5;23,00
"Steenbergen";882;3605,30;20;81,80;14;57,20
"Steenwijkerland";887;2008,70;19;43,00;10;22,60
"Stein";691;2769,90;55;220,50;16;64,10
"Stichtse Vecht";2518;3872,10;71;109,20;39;60,00
"Súdwest-Fryslân";2380;2647,90;27;30,00;33;36,70
"Terneuzen";1448;2662,50;40;73,60;6;11,00
"Terschelling";77;1588,90;1;20,60;1;20,60
"Texel";145;1068,10;6;44,20;2;14,70
"Teylingen";1538;4098,70;25;66,60;7;18,70
"Tholen";933;3618,50;51;197,80;22;85,30
"Tiel";1685;4003,10;65;154,40;36;85,50
"Tilburg";9237;4195,90;327;148,50;225;102,20
"Tubbergen";1243;5843,10;14;65,80;9;42,30
"Twenterand";1431;4240,30;20;59,30;6;17,80
"Tynaarlo";486;1437,10;13;38,40;12;35,50
"Tytsjerksteradiel";438;1364,10;9;28,00;3;9,30
"Uden";1371;3254,10;120;284,80;70;166,10
"Uitgeest";543;3975,70;7;51,30;5;36,60
"Uithoorn";1057;3570,70;27;91,20;6;20,30
"Urk";1423;6752,70;38;180,30;11;52,20
"Utrecht";15885;4431,50;473;132,00;175;48,80
"Utrechtse Heuvelrug";1774;3565,70;45;90,40;24;48,20
"Vaals";193;1910,10;11;108,90;5;49,50
"Valkenburg aan de Geul";483;2955,60;25;153,00;12;73,40
"Valkenswaard";1304;4176,40;27;86,50;44;140,90
"Veendam";438;1599,60;4;14,60;2;7,30
"Veenendaal";3535;5306,40;79;118,60;34;51,00
"Veere";292;1332,80;10;45,60;2;9,10
"Veldhoven";1823;4004,10;44;96,60;28;61,50
"Velsen";2510;3651,90;62;90,20;62;90,20
"Venlo";4024;3951,70;156;153,20;94;92,30
"Venray";1985;4550,20;47;107,70;23;52,70
"Vijfheerenlanden";2456;4315,40;61;107,20;53;93,10
"Vlaardingen";4194;5703,10;99;134,60;58;78,90
"Vlieland";20;1722,70;0;0,00;0;0,00
"Vlissingen";651;1468,20;20;45,10;7;15,80
"Voerendaal";280;2241,60;18;144,10;8;64,00
"Voorschoten";809;3161,00;13;50,80;14;54,70
"Voorst";642;2609,70;19;77,20;11;44,70
"Vught";1222;4597,40;50;188,10;33;124,20
"Waadhoeke";759;1647,20;18;39,10;22;47,70
"Waalre";620;3550,80;9;51,50;10;57,30
"Waalwijk";2175;4472,90;58;119,30;55;113,10
"Waddinxveen";1248;4250,00;44;149,80;10;34,10
"Wageningen";1261;3161,90;30;75,20;28;70,20
"Wassenaar";876;3338,90;20;76,20;17;64,80
"Waterland";697;4002,50;25;143,60;14;80,40
"Weert";2319;4620,90;86;171,40;30;59,80
"Weesp";1054;5294,90;11;55,30;15;75,40
"West Betuwe";2128;4153,60;71;138,60;41;80,00
"West Maas en Waal";560;2892,90;24;124,00;15;77,50
"Westerkwartier";859;1355,40;21;33,10;8;12,60
"Westerveld";274;1408,20;10;51,40;5;25,70
"Westervoort";489;3265,70;16;106,90;6;40,10
"Westerwolde";575;2201,30;14;53,60;3;11,50
"Westland";5497;4969,90;111;100,40;60;54,20
"Weststellingwerf";457;1763,00;5;19,30;12;46,30
"Westvoorne";456;3092,60;10;67,80;1;6,80
"Wierden";1399;5728,00;11;45,00;15;61,40
"Wijchen";1505;3662,30;61;148,40;27;65,70
"Wijdemeren";785;3224,10;17;69,80;6;24,60
"Wijk bij Duurstede";693;2902,10;15;62,80;8;33,50
"Winterswijk";752;2610,90;13;45,10;8;27,80
"Woensdrecht";762;3467,40;11;50,10;21;95,60
"Woerden";2062;3938,20;76;145,20;25;47,70
"Wormerland";574;3529,30;25;153,70;14;86,10
"Woudenberg";638;4764,70;11;82,20;5;37,30
"Zaanstad";6883;4388,10;210;133,90;109;69,50
"Zaltbommel";1338;4613,30;26;89,60;17;58,60
"Zandvoort";530;3092,90;15;87,50;10;58,40
"Zeewolde";545;2412,80;16;70,80;7;31,00
"Zeist";2275;3502,20;53;81,60;35;53,90
"Zevenaar";1083;2472,40;61;139,30;23;52,50
"Zoetermeer";5196;4148,00;88;70,30;29;23,20
"Zoeterwoude";316;3657,40;4;46,30;1;11,60
"Zuidplas";1935;4393,40;49;111,30;29;65,80
"Zundert";760;3479,50;30;137,40;13;59,50
"Zutphen";1193;2484,90;40;83,30;18;37,50
"Zwartewaterland";722;3178,40;39;171,70;24;105,70
"Zwijndrecht";2213;4951,30;35;78,30;56;125,30
"Zwolle";2981;2309,70;63;48,80;67;51,90