"Category";"Meldingen";"Meldingen per 100000";"Zkh opname";"Zkh opname per 100000";"Overleden";"Overleden per 100000"
"'s-Hertogenbosch";4655;2995,90;163;104,90;102;65,60
"Aa en Hunze";303;1193,70;1;3,90;1;3,90
"Aalsmeer";1020;3199,30;17;53,30;20;62,70
"Aalten";600;2214,60;14;51,70;12;44,30
"Achtkarspelen";282;1012,50;0;0,00;0;0,00
"Alblasserdam";902;4476,40;14;69,50;13;64,50
"Albrandswaard";1222;4763,20;29;113,00;16;62,40
"Alkmaar";2599;2371,60;79;72,10;42;38,30
"Almelo";2509;3430,80;40;54,70;24;32,80
"Almere";6181;2910,00;181;85,20;48;22,60
"Alphen aan den Rijn";3838;3199,60;107;89,20;53;44,20
"Alphen-Chaam";336;3283,20;21;205,20;5;48,90
"Altena";1919;3428,90;47;84,00;36;64,30
"Ameland";47;1258,70;0;0,00;0;0,00
"Amersfoort";4508;2865,60;119;75,60;55;35,00
"Amstelveen";2899;3159,10;85;92,60;64;69,70
"Amsterdam";39213;4485,20;1177;134,60;418;47,80
"Apeldoorn";3176;1938,30;131;79,90;66;40,30
"Appingedam";100;859,50;8;68,80;1;8,60
"Arnhem";4018;2486,50;113;69,90;70;43,30
"Assen";995;1447,40;21;30,50;7;10,20
"Asten";450;2692,40;20;119,70;14;83,80
"Baarle-Nassau";201;2921,90;11;159,90;3;43,60
"Baarn";632;2541,50;23;92,50;15;60,30
"Barendrecht";2062;4234,90;68;139,70;31;63,70
"Barneveld";1687;2844,50;30;50,60;18;30,40
"Beek";300;1890,60;18;113,40;9;56,70
"Beekdaelen";690;1919,20;55;153,00;28;77,90
"Beemster";211;2108,50;4;40,00;2;20,00
"Beesel";285;2114,70;23;170,70;9;66,80
"Berg en Dal";1193;3406,70;43;122,80;34;97,10
"Bergeijk";664;3560,30;21;112,60;6;32,20
"Bergen (L.)";305;2331,80;12;91,70;3;22,90
"Bergen (NH.)";782;2619,90;25;83,80;24;80,40
"Bergen op Zoom";2805;4150,10;56;82,90;28;41,40
"Berkelland";1186;2710,20;26;59,40;27;61,70
"Bernheze";1123;3587,70;101;322,70;67;214,10
"Best";758;2525,30;37;123,30;13;43,30
"Beuningen";636;2452,50;23;88,70;10;38,60
"Beverwijk";1171;2814,20;23;55,30;15;36,00
"Bladel";1015;4970,10;25;122,40;13;63,70
"Blaricum";313;2702,70;8;69,10;2;17,30
"Bloemendaal";514;2183,80;10;42,50;6;25,50
"Bodegraven-Reeuwijk";1142;3268,60;26;74,40;12;34,30
"Boekel";269;2496,80;36;334,10;20;185,60
"Borger-Odoorn";411;1608,40;9;35,20;9;35,20
"Borne";625;2674,60;16;68,50;6;25,70
"Borsele";265;1165,30;6;26,40;2;8,80
"Boxmeer";795;2703,80;25;85,00;32;108,80
"Boxtel";858;2783,90;30;97,30;28;90,90
"Breda";5878;3191,30;200;108,60;107;58,10
"Brielle";491;2843,60;21;121,60;3;17,40
"Bronckhorst";846;2349,60;20;55,50;7;19,40
"Brummen";367;1765,80;22;105,90;7;33,70
"Brunssum";484;1740,70;52;187,00;21;75,50
"Bunnik";412;2707,70;15;98,60;7;46,00
"Bunschoten";1141;5212,20;26;118,80;12;54,80
"Buren";655;2444,30;27;100,80;11;41,00
"Capelle aan den IJssel";2742;4079,30;95;141,30;83;123,50
"Castricum";752;2087,80;18;50,00;12;33,30
"Coevorden";583;1651,30;21;59,50;7;19,80
"Cranendonck";752;3544,00;65;306,30;37;174,40
"Cuijk";709;2818,50;20;79,50;15;59,60
"Culemborg";870;2997,80;32;110,30;11;37,90
"Dalfsen";669;2332,20;18;62,80;9;31,40
"Dantumadiel";201;1063,00;2;10,60;0;0,00
"De Bilt";1330;3084,90;38;88,10;29;67,30
"De Fryske Marren";683;1323,40;26;50,40;11;21,30
"De Ronde Venen";1312;2948,40;69;155,10;22;49,40
"De Wolden";391;1605,70;16;65,70;6;24,60
"Delft";3715;3588,10;62;59,90;33;31,90
"Delfzijl";231;936,80;9;36,50;0;0,00
"Den Helder";792;1405,30;19;33,70;6;10,60
"Deurne";1075;3314,00;61;188,10;31;95,60
"Deventer";2214;2194,40;55;54,50;51;50,50
"Diemen";1316;4215,20;28;89,70;20;64,10
"Dinkelland";997;3768,90;24;90,70;18;68,00
"Doesburg";241;2179,40;11;99,50;7;63,30
"Doetinchem";1214;2090,80;39;67,20;18;31,00
"Dongen";904;3437,70;36;136,90;19;72,30
"Dordrecht";4858;4068,20;102;85,40;100;83,70
"Drechterland";457;2316,00;7;35,50;8;40,50
"Drimmelen";731;2684,60;28;102,80;12;44,10
"Dronten";665;1596,40;43;103,20;16;38,40
"Druten";478;2525,40;29;153,20;15;79,20
"Duiven";646;2576,60;18;71,80;8;31,90
"Echt-Susteren";460;1454,30;44;139,10;20;63,20
"Edam-Volendam";1334;3689,40;54;149,30;9;24,90
"Ede";3111;2658,00;86;73,50;43;36,70
"Eemnes";259;2794,90;4;43,20;1;10,80
"Eersel";767;3969,00;36;186,30;18;93,10
"Eijsden-Margraten";613;2379,10;61;236,70;30;116,40
"Eindhoven";6410;2729,40;244;103,90;130;55,40
"Elburg";510;2195,50;31;133,50;11;47,40
"Emmen";2187;2044,40;54;50,50;30;28,00
"Enkhuizen";408;2187,20;20;107,20;5;26,80
"Enschede";4786;2998,70;97;60,80;63;39,50
"Epe";640;1928,80;54;162,70;25;75,30
"Ermelo";611;2263,60;33;122,30;25;92,60
"Etten-Leur";1385;3156,60;56;127,60;31;70,70
"Geertruidenberg";540;2501,60;18;83,40;6;27,80
"Geldrop-Mierlo";1176;2954,90;43;108,00;18;45,20
"Gemert-Bakel";805;2618,70;80;260,20;34;110,60
"Gennep";433;2557,10;18;106,30;15;88,60
"Gilze en Rijen";820;3082,90;28;105,30;18;67,70
"Goeree-Overflakkee";1478;2947,30;72;143,60;46;91,70
"Goes";624;1632,80;22;57,60;14;36,60
"Goirle";782;3269,60;37;154,70;23;96,20
"Gooise Meren";1573;2708,10;34;58,50;20;34,40
"Gorinchem";1292;3480,70;20;53,90;22;59,30
"Gouda";2879;3917,80;97;132,00;84;114,30
"Grave";462;3704,60;28;224,50;21;168,40
"Groningen";4339;1862,40;35;15,00;5;2,10
"Gulpen-Wittem";329;2324,90;26;183,70;16;113,10
"Haaksbergen";832;3426,40;21;86,50;20;82,40
"Haaren";472;3288,30;20;139,30;9;62,70
"Haarlem";4179;2562,10;123;75,40;91;55,80
"Haarlemmermeer";4672;2988,10;113;72,30;46;29,40
"Halderberge";1022;3376,50;32;105,70;16;52,90
"Hardenberg";1155;1894,30;30;49,20;14;23,00
"Harderwijk";1079;2217,20;54;111,00;22;45,20
"Hardinxveld-Giessendam";651;3550,80;2;10,90;7;38,20
"Harlingen";141;898,10;5;31,80;2;12,70
"Hattem";233;1906,10;18;147,30;5;40,90
"Heemskerk";1110;2831,70;40;102,00;21;53,60
"Heemstede";632;2316,10;18;66,00;36;131,90
"Heerde";395;2125,90;55;296,00;29;156,10
"Heerenveen";585;1159,10;17;33,70;23;45,60
"Heerhugowaard";1267;2193,90;33;57,10;10;17,30
"Heerlen";1608;1847,80;137;157,40;59;67,80
"Heeze-Leende";490;3036,70;19;117,70;11;68,20
"Heiloo";474;1979,80;14;58,50;10;41,80
"Hellendoorn";960;2675,20;15;41,80;15;41,80
"Hellevoetsluis";1097;2730,10;28;69,70;10;24,90
"Helmond";3273;3545,60;139;150,60;53;57,40
"Hendrik-Ido-Ambacht";1225;3918,50;13;41,60;10;32,00
"Hengelo";2357;2902,80;45;55,40;31;38,20
"Het Hogeland";621;1297,20;10;20,90;6;12,50
"Heumen";496;3009,20;20;121,30;13;78,90
"Heusden";1523;3406,50;58;129,70;32;71,60
"Hillegom";545;2455,70;9;40,60;2;9,00
"Hilvarenbeek";515;3314,70;17;109,40;15;96,50
"Hilversum";2280;2504,40;48;52,70;42;46,10
"Hoeksche Waard";2674;3054,90;86;98,30;33;37,70
"Hof van Twente";1054;3015,00;24;68,70;13;37,20
"Hollands Kroon";749;1545,60;32;66,00;6;12,40
"Hoogeveen";927;1665,90;32;57,50;15;27,00
"Hoorn";1706;2327,60;47;64,10;18;24,60
"Horst aan de Maas";1261;2969,80;47;110,70;35;82,40
"Houten";1328;2643,60;41;81,60;45;89,60
"Huizen";1368;3321,80;36;87,40;19;46,10
"Hulst";613;2200,80;19;68,20;9;32,30
"IJsselstein";1066;3133,90;50;147,00;46;135,20
"Kaag en Braassem";713;2604,40;11;40,20;3;11,00
"Kampen";1024;1884,20;66;121,40;38;69,90
"Kapelle";131;1031,70;4;31,50;1;7,90
"Katwijk";2572;3907,90;57;86,60;29;44,10
"Kerkrade";757;1657,00;77;168,50;41;89,70
"Koggenland";557;2445,80;12;52,70;12;52,70
"Krimpen aan den IJssel";1174;3974,90;26;88,00;31;105,00
"Krimpenerwaard";1951;3465,60;70;124,30;50;88,80
"Laarbeek";679;3003,90;42;185,80;27;119,40
"Landerd";613;3893,10;44;279,40;22;139,70
"Landgraaf";584;1560,30;56;149,60;18;48,10
"Landsmeer";366;3170,20;6;52,00;3;26,00
"Langedijk";705;2502,20;22;78,10;7;24,80
"Lansingerland";2271;3631,90;58;92,80;45;72,00
"Laren";340;3000,10;10;88,20;8;70,60
"Leeuwarden";1863;1502,10;51;41,10;16;12,90
"Leiden";4148;3316,60;81;64,80;38;30,40
"Leiderdorp";808;2980,50;29;107,00;10;36,90
"Leidschendam-Voorburg";2285;2986,00;58;75,80;43;56,20
"Lelystad";1766;2237,70;96;121,60;40;50,70
"Leudal";812;2265,60;57;159,00;40;111,60
"Leusden";758;2491,50;16;52,60;12;39,40
"Lingewaard";1210;2594,10;45;96,50;17;36,40
"Lisse";561;2436,60;14;60,80;5;21,70
"Lochem";633;1876,10;22;65,20;19;56,30
"Loon op Zand";826;3528,00;35;149,50;28;119,60
"Lopik";486;3355,70;25;172,60;8;55,20
"Loppersum";85;894,20;1;10,50;0;0,00
"Losser";743;3275,30;15;66,10;5;22,00
"Maasdriel";796;3160,20;26;103,20;16;63,50
"Maasgouw";425;1775,30;28;117,00;16;66,80
"Maassluis";1353;4071,90;44;132,40;16;48,20
"Maastricht";2921;2403,90;210;172,80;143;117,70
"Medemblik";884;1959,50;22;48,80;6;13,30
"Meerssen";332;1764,50;24;127,60;13;69,10
"Meierijstad";2342;2880,70;223;274,30;138;169,70
"Meppel";488;1436,10;13;38,30;5;14,70
"Middelburg";583;1194,60;28;57,40;15;30,70
"Midden-Delfland";624;3232,80;12;62,20;5;25,90
"Midden-Drenthe";485;1460,50;8;24,10;2;6,00
"Midden-Groningen";667;1097,30;17;28,00;9;14,80
"Mill en Sint Hubert";348;3175,80;14;127,80;6;54,80
"Moerdijk";1118;3009,40;25;67,30;21;56,50
"Molenlanden";1501;3413,20;19;43,20;16;36,40
"Montferland";760;2111,20;27;75,00;12;33,30
"Montfoort";434;3122,10;16;115,10;7;50,40
"Mook en Middelaar";233;2973,80;9;114,90;9;114,90
"Neder-Betuwe";820;3355,00;46;188,20;23;94,10
"Nederweert";484;2836,50;37;216,80;9;52,70
"Nieuwegein";1705;2684,80;65;102,40;17;26,80
"Nieuwkoop";805;2787,60;16;55,40;10;34,60
"Nijkerk";1175;2719,80;32;74,10;7;16,20
"Nijmegen";5040;2837,40;197;110,90;119;67,00
"Nissewaard";3289;3860,00;89;104,50;43;50,50
"Noardeast-Fryslân";475;1049,40;10;22,10;6;13,30
"Noord-Beveland";102;1381,00;3;40,60;1;13,50
"Noordenveld";306;980,10;7;22,40;14;44,80
"Noordoostpolder";882;1859,10;23;48,50;17;35,80
"Noordwijk";1244;2854,10;39;89,50;8;18,40
"Nuenen, Gerwen en Nederwetten";630;2694,00;22;94,10;13;55,60
"Nunspeet";652;2344,60;64;230,10;23;82,70
"Oegstgeest";672;2699,80;16;64,30;5;20,10
"Oirschot";639;3408,20;19;101,30;18;96,00
"Oisterwijk";742;2822,80;29;110,30;14;53,30
"Oldambt";335;877,20;11;28,80;6;15,70
"Oldebroek";445;1881,60;40;169,10;20;84,60
"Oldenzaal";1076;3379,20;25;78,50;29;91,10
"Olst-Wijhe";289;1583,70;12;65,80;8;43,80
"Ommen";307;1702,50;9;49,90;5;27,70
"Oost Gelre";831;2805,00;23;77,60;26;87,80
"Oosterhout";1829;3263,00;55;98,10;22;39,20
"Ooststellingwerf";324;1272,80;7;27,50;1;3,90
"Oostzaan";339;3487,70;13;133,70;3;30,90
"Opmeer";237;2006,40;3;25,40;2;16,90
"Opsterland";270;910,10;11;37,10;0;0,00
"Oss";3250;3532,70;192;208,70;106;115,20
"Oude IJsselstreek";826;2097,80;27;68,60;15;38,10
"Ouder-Amstel";514;3640,70;8;56,70;0;0,00
"Oudewater";312;3055,80;32;313,40;12;117,50
"Overbetuwe";1023;2132,80;62;129,30;20;41,70
"Papendrecht";1064;3310,40;10;31,10;17;52,90
"Peel en Maas";1161;2661,20;148;339,20;65;149,00
"Pekela";108;887,90;7;57,60;2;16,40
"Pijnacker-Nootdorp";1893;3416,20;37;66,80;21;37,90
"Purmerend";2021;2480,90;94;115,40;47;57,70
"Putten";564;2338,30;13;53,90;4;16,60
"Raalte";882;2340,50;27;71,60;25;66,30
"Reimerswaal";360;1584,50;9;39,60;5;22,00
"Renkum";696;2215,90;20;63,70;11;35,00
"Renswoude";123;2242,10;5;91,10;5;91,10
"Reusel-De Mierden";582;4446,10;17;129,90;5;38,20
"Rheden";950;2175,30;39;89,30;19;43,50
"Rhenen";562;2794,80;14;69,60;6;29,80
"Ridderkerk";1891;4080,60;52;112,20;37;79,80
"Rijssen-Holten";1226;3208,00;32;83,70;33;86,30
"Rijswijk";1929;3531,70;76;139,10;58;106,20
"Roerdalen";307;1496,40;28;136,50;9;43,90
"Roermond";1158;1985,70;66;113,20;25;42,90
"Roosendaal";2893;3742,70;59;76,30;41;53,00
"Rotterdam";33673;5161,70;1105;169,40;598;91,70
"Rozendaal";25;1474,10;1;59,00;0;0,00
"Rucphen";817;3559,00;20;87,10;11;47,90
"s-Gravenhage";21881;4008,50;771;141,20;371;68,00
"Schagen";1075;2313,30;24;51,60;15;32,30
"Scherpenzeel";242;2448,60;5;50,60;2;20,20
"Schiedam";3945;5003,70;122;154,70;38;48,20
"Schiermonnikoog";4;422,80;1;105,70;0;0,00
"Schouwen-Duiveland";530;1563,80;16;47,20;16;47,20
"Simpelveld";176;1669,20;20;189,70;5;47,40
"Sint Anthonis";304;2605,90;21;180,00;11;94,30
"Sint-Michielsgestel";878;3000,30;39;133,30;23;78,60
"Sittard-Geleen";1619;1753,50;135;146,20;74;80,10
"Sliedrecht";884;3509,60;11;43,70;12;47,60
"Sluis";399;1720,00;15;64,70;5;21,60
"Smallingerland";580;1032,50;14;24,90;9;16,00
"Soest";1418;3039,30;42;90,00;33;70,70
"Someren";532;2746,80;36;185,90;9;46,50
"Son en Breugel";459;2647,10;32;184,50;17;98,00
"Stadskanaal";609;1925,00;9;28,40;7;22,10
"Staphorst";459;2676,40;11;64,10;5;29,20
"Stede Broec";415;1911,00;20;92,10;5;23,00
"Steenbergen";759;3102,50;20;81,80;14;57,20
"Steenwijkerland";615;1392,80;18;40,80;10;22,60
"Stein";424;1699,60;51;204,40;16;64,10
"Stichtse Vecht";1963;3018,70;63;96,90;23;35,40
"Súdwest-Fryslân";1635;1819,10;26;28,90;26;28,90
"Terneuzen";1034;1901,30;35;64,40;5;9,20
"Terschelling";71;1465,10;1;20,60;1;20,60
"Texel";118;869,20;6;44,20;2;14,70
"Teylingen";1141;3040,70;24;64,00;6;16,00
"Tholen";781;3029,00;49;190,00;19;73,70
"Tiel";1352;3212,00;58;137,80;32;76,00
"Tilburg";7141;3243,80;309;140,40;206;93,60
"Tubbergen";1063;4996,90;13;61,10;8;37,60
"Twenterand";991;2936,50;16;47,40;5;14,80
"Tynaarlo";391;1156,20;12;35,50;11;32,50
"Tytsjerksteradiel";332;1033,90;8;24,90;3;9,30
"Uden";1004;2383,00;119;282,40;68;161,40
"Uitgeest";378;2767,60;7;51,30;3;22,00
"Uithoorn";887;2996,40;26;87,80;5;16,90
"Urk";996;4726,40;31;147,10;10;47,50
"Utrecht";13707;3823,90;436;121,60;158;44,10
"Utrechtse Heuvelrug";1271;2554,70;35;70,30;21;42,20
"Vaals";118;1167,90;11;108,90;2;19,80
"Valkenburg aan de Geul";335;2049,90;23;140,70;11;67,30
"Valkenswaard";995;3186,80;24;76,90;43;137,70
"Veendam";262;956,80;4;14,60;1;3,70
"Veenendaal";2408;3614,60;70;105,10;19;28,50
"Veere";192;876,40;10;45,60;2;9,10
"Veldhoven";1443;3169,50;42;92,30;24;52,70
"Velsen";1926;2802,20;55;80,00;50;72,70
"Venlo";2879;2827,30;152;149,30;83;81,50
"Venray";1324;3035,00;44;100,90;23;52,70
"Vijfheerenlanden";1958;3440,40;56;98,40;51;89,60
"Vlaardingen";3593;4885,80;86;116,90;56;76,20
"Vlieland";19;1636,50;0;0,00;0;0,00
"Vlissingen";527;1188,60;16;36,10;7;15,80
"Voerendaal";203;1625,20;18;144,10;8;64,00
"Voorschoten";631;2465,50;12;46,90;13;50,80
"Voorst";447;1817,00;18;73,20;11;44,70
"Vught";772;2904,40;45;169,30;22;82,80
"Waadhoeke";596;1293,40;18;39,10;22;47,70
"Waalre";479;2743,30;9;51,50;10;57,30
"Waalwijk";1655;3403,50;56;115,20;50;102,80
"Waddinxveen";967;3293,00;37;126,00;9;30,60
"Wageningen";959;2404,70;30;75,20;25;62,70
"Wassenaar";663;2527,10;17;64,80;14;53,40
"Waterland";539;3095,20;24;137,80;14;80,40
"Weert";1445;2879,30;84;167,40;25;49,80
"Weesp";818;4109,30;11;55,30;16;80,40
"West Betuwe";1491;2910,20;65;126,90;36;70,30
"West Maas en Waal";457;2360,80;24;124,00;15;77,50
"Westerkwartier";598;943,60;20;31,60;8;12,60
"Westerveld";215;1104,90;10;51,40;5;25,70
"Westervoort";346;2310,70;13;86,80;7;46,70
"Westerwolde";365;1397,30;12;45,90;3;11,50
"Westland";4100;3706,90;100;90,40;49;44,30
"Weststellingwerf";360;1388,80;5;19,30;10;38,60
"Westvoorne";394;2672,10;9;61,00;1;6,80
"Wierden";972;3979,70;8;32,80;11;45,00
"Wijchen";1072;2608,70;58;141,10;23;56,00
"Wijdemeren";619;2542,30;14;57,50;5;20,50
"Wijk bij Duurstede";582;2437,30;14;58,60;7;29,30
"Winterswijk";576;1999,90;11;38,20;8;27,80
"Woensdrecht";669;3044,20;11;50,10;21;95,60
"Woerden";1561;2981,30;73;139,40;25;47,70
"Wormerland";463;2846,80;24;147,60;13;79,90
"Woudenberg";339;2531,70;11;82,20;4;29,90
"Zaanstad";5473;3489,20;192;122,40;88;56,10
"Zaltbommel";913;3148,00;25;86,20;10;34,50
"Zandvoort";378;2205,90;15;87,50;9;52,50
"Zeewolde";393;1739,90;14;62,00;6;26,60
"Zeist";1743;2683,20;50;77,00;34;52,30
"Zevenaar";844;1926,80;60;137,00;21;47,90
"Zoetermeer";4053;3235,50;80;63,90;27;21,60
"Zoeterwoude";250;2893,50;4;46,30;1;11,60
"Zuidplas";1590;3610,10;45;102,20;25;56,80
"Zundert";626;2866,00;30;137,40;13;59,50
"Zutphen";955;1989,20;38;79,20;16;33,30
"Zwartewaterland";558;2456,40;36;158,50;24;105,70
"Zwijndrecht";1867;4177,20;31;69,40;53;118,60
"Zwolle";2329;1804,60;62;48,00;63;48,80