"Category";"Meldingen";"Meldingen per 100000";"Zkh opname";"Zkh opname per 100000";"Overleden";"Overleden per 100000"
"'s-Hertogenbosch";3569;2296,90;156;100,40;97;62,40
"Aa en Hunze";237;933,70;1;3,90;1;3,90
"Aalsmeer";833;2612,80;15;47,00;12;37,60
"Aalten";476;1756,90;13;48,00;9;33,20
"Achtkarspelen";215;772,00;0;0,00;0;0,00
"Alblasserdam";762;3781,60;11;54,60;12;59,60
"Albrandswaard";1018;3968,00;21;81,90;14;54,60
"Alkmaar";1988;1814,10;71;64,80;35;31,90
"Almelo";1816;2483,20;36;49,20;19;26,00
"Almere";4848;2282,40;173;81,40;45;21,20
"Alphen aan den Rijn";2928;2441,00;92;76,70;40;33,30
"Alphen-Chaam";229;2237,60;18;175,90;5;48,90
"Altena";1323;2363,90;41;73,30;22;39,30
"Ameland";46;1231,90;0;0,00;0;0,00
"Amersfoort";3516;2235,00;106;67,40;37;23,50
"Amstelveen";2529;2755,90;79;86,10;51;55,60
"Amsterdam";33721;3857,00;1086;124,20;367;42,00
"Apeldoorn";2500;1525,80;123;75,10;59;36,00
"Appingedam";66;567,30;8;68,80;1;8,60
"Arnhem";3073;1901,70;106;65,60;49;30,30
"Assen";786;1143,40;14;20,40;3;4,40
"Asten";365;2183,80;19;113,70;12;71,80
"Baarle-Nassau";152;2209,60;10;145,40;2;29,10
"Baarn";514;2067,00;18;72,40;11;44,20
"Barendrecht";1768;3631,10;56;115,00;25;51,30
"Barneveld";1210;2040,20;26;43,80;14;23,60
"Beek";208;1310,80;18;113,40;8;50,40
"Beekdaelen";528;1468,60;52;144,60;26;72,30
"Beemster";168;1678,80;4;40,00;2;20,00
"Beesel";228;1691,80;21;155,80;8;59,40
"Berg en Dal";997;2847,00;42;119,90;30;85,70
"Bergeijk";533;2857,90;20;107,20;5;26,80
"Bergen (L.)";247;1888,40;10;76,50;3;22,90
"Bergen (NH.)";652;2184,30;23;77,10;24;80,40
"Bergen op Zoom";2200;3255,00;52;76,90;20;29,60
"Berkelland";931;2127,50;22;50,30;17;38,80
"Bernheze";941;3006,30;98;313,10;67;214,10
"Best";597;1988,90;35;116,60;13;43,30
"Beuningen";513;1978,20;22;84,80;8;30,80
"Beverwijk";963;2314,30;22;52,90;15;36,00
"Bladel";852;4172,00;24;117,50;11;53,90
"Blaricum";244;2106,90;8;69,10;2;17,30
"Bloemendaal";443;1882,10;10;42,50;6;25,50
"Bodegraven-Reeuwijk";843;2412,80;17;48,70;11;31,50
"Boekel";242;2246,10;36;334,10;20;185,60
"Borger-Odoorn";318;1244,50;8;31,30;8;31,30
"Borne";488;2088,30;16;68,50;6;25,70
"Borsele";194;853,10;5;22,00;1;4,40
"Boxmeer";654;2224,30;23;78,20;29;98,60
"Boxtel";678;2199,90;25;81,10;27;87,60
"Breda";4829;2621,80;190;103,20;93;50,50
"Brielle";410;2374,50;18;104,20;1;5,80
"Bronckhorst";675;1874,70;19;52,80;7;19,40
"Brummen";293;1409,70;21;101,00;7;33,70
"Brunssum";379;1363,10;50;179,80;21;75,50
"Bunnik";324;2129,30;12;78,90;4;26,30
"Bunschoten";796;3636,20;19;86,80;8;36,50
"Buren";518;1933,10;23;85,80;9;33,60
"Capelle aan den IJssel";2273;3381,60;79;117,50;74;110,10
"Castricum";569;1579,80;18;50,00;11;30,50
"Coevorden";419;1186,80;19;53,80;4;11,30
"Cranendonck";592;2790,00;65;306,30;36;169,70
"Cuijk";580;2305,70;18;71,60;14;55,70
"Culemborg";697;2401,70;29;99,90;10;34,50
"Dalfsen";555;1934,80;18;62,80;9;31,40
"Dantumadiel";159;840,90;2;10,60;0;0,00
"De Bilt";1102;2556,10;35;81,20;24;55,70
"De Fryske Marren";579;1121,90;24;46,50;9;17,40
"De Ronde Venen";1055;2370,80;60;134,80;19;42,70
"De Wolden";308;1264,90;16;65,70;6;24,60
"Delft";3076;2970,90;54;52,20;23;22,20
"Delfzijl";160;648,90;8;32,40;0;0,00
"Den Helder";547;970,60;17;30,20;4;7,10
"Deurne";895;2759,10;59;181,90;28;86,30
"Deventer";1733;1717,70;53;52,50;44;43,60
"Diemen";1123;3597,10;25;80,10;19;60,90
"Dinkelland";787;2975,10;22;83,20;14;52,90
"Doesburg";209;1890,00;11;99,50;7;63,30
"Doetinchem";967;1665,40;36;62,00;17;29,30
"Dongen";668;2540,20;31;117,90;16;60,80
"Dordrecht";3887;3255,10;98;82,10;91;76,20
"Drechterland";368;1865,00;7;35,50;8;40,50
"Drimmelen";582;2137,40;22;80,80;10;36,70
"Dronten";453;1087,50;40;96,00;15;36,00
"Druten";394;2081,60;29;153,20;13;68,70
"Duiven";444;1770,90;18;71,80;7;27,90
"Echt-Susteren";348;1100,20;43;135,90;19;60,10
"Edam-Volendam";1135;3139,00;48;132,80;5;13,80
"Ede";2392;2043,70;78;66,60;35;29,90
"Eemnes";190;2050,30;3;32,40;1;10,80
"Eersel";585;3027,20;33;170,80;16;82,80
"Eijsden-Margraten";512;1987,10;60;232,90;28;108,70
"Eindhoven";4984;2122,20;216;92,00;115;49,00
"Elburg";375;1614,40;29;124,80;9;38,70
"Emmen";1748;1634,00;52;48,60;24;22,40
"Enkhuizen";284;1522,50;20;107,20;5;26,80
"Enschede";3703;2320,10;79;49,50;50;31,30
"Epe";540;1627,40;53;159,70;24;72,30
"Ermelo";462;1711,60;33;122,30;23;85,20
"Etten-Leur";1155;2632,40;53;120,80;31;70,70
"Geertruidenberg";399;1848,40;17;78,80;6;27,80
"Geldrop-Mierlo";877;2203,60;37;93,00;17;42,70
"Gemert-Bakel";677;2202,30;80;260,20;34;110,60
"Gennep";323;1907,50;18;106,30;11;65,00
"Gilze en Rijen";629;2364,80;25;94,00;16;60,20
"Goeree-Overflakkee";1189;2371,00;64;127,60;39;77,80
"Goes";507;1326,70;15;39,30;13;34,00
"Goirle";607;2537,90;35;146,30;23;96,20
"Gooise Meren";1283;2208,90;32;55,10;16;27,50
"Gorinchem";1008;2715,60;20;53,90;22;59,30
"Gouda";2274;3094,50;79;107,50;63;85,70
"Grave";370;2966,90;27;216,50;14;112,30
"Groningen";3794;1628,50;32;13,70;5;2,10
"Gulpen-Wittem";272;1922,10;26;183,70;16;113,10
"Haaksbergen";646;2660,40;19;78,20;14;57,70
"Haaren";369;2570,70;20;139,30;8;55,70
"Haarlem";3432;2104,10;116;71,10;79;48,40
"Haarlemmermeer";3815;2440,00;105;67,20;42;26,90
"Halderberge";813;2686,00;29;95,80;14;46,30
"Hardenberg";878;1440,00;26;42,60;10;16,40
"Harderwijk";854;1754,90;50;102,70;22;45,20
"Hardinxveld-Giessendam";484;2639,90;2;10,90;7;38,20
"Harlingen";114;726,10;5;31,80;2;12,70
"Hattem";179;1464,30;18;147,30;5;40,90
"Heemskerk";869;2216,90;35;89,30;18;45,90
"Heemstede";499;1828,70;17;62,30;35;128,30
"Heerde";363;1953,70;55;296,00;28;150,70
"Heerenveen";481;953,10;16;31,70;22;43,60
"Heerhugowaard";1006;1741,90;32;55,40;10;17,30
"Heerlen";1237;1421,40;132;151,70;56;64,40
"Heeze-Leende";404;2503,70;18;111,60;9;55,80
"Heiloo";346;1445,20;13;54,30;10;41,80
"Hellendoorn";728;2028,70;13;36,20;14;39,00
"Hellevoetsluis";869;2162,70;20;49,80;7;17,40
"Helmond";2761;2990,90;130;140,80;51;55,20
"Hendrik-Ido-Ambacht";1021;3265,90;13;41,60;8;25,60
"Hengelo";1852;2280,80;41;50,50;26;32,00
"Het Hogeland";464;969,30;9;18,80;6;12,50
"Heumen";424;2572,30;19;115,30;13;78,90
"Heusden";1140;2549,80;53;118,50;28;62,60
"Hillegom";456;2054,70;9;40,60;2;9,00
"Hilvarenbeek";424;2729,00;16;103,00;14;90,10
"Hilversum";1891;2077,20;46;50,50;33;36,20
"Hoeksche Waard";2271;2594,50;85;97,10;31;35,40
"Hof van Twente";749;2142,60;21;60,10;7;20,00
"Hollands Kroon";575;1186,50;30;61,90;6;12,40
"Hoogeveen";740;1329,90;31;55,70;14;25,20
"Hoorn";1280;1746,40;42;57,30;14;19,10
"Horst aan de Maas";910;2143,10;48;113,00;28;65,90
"Houten";1120;2229,60;37;73,70;35;69,70
"Huizen";1106;2685,60;32;77,70;16;38,90
"Hulst";433;1554,60;14;50,30;5;18,00
"IJsselstein";873;2566,50;48;141,10;39;114,70
"Kaag en Braassem";575;2100,30;9;32,90;3;11,00
"Kampen";795;1462,80;63;115,90;37;68,10
"Kapelle";111;874,20;3;23,60;1;7,90
"Katwijk";2158;3278,80;52;79,00;24;36,50
"Kerkrade";647;1416,30;74;162,00;37;81,00
"Koggenland";406;1782,70;10;43,90;8;35,10
"Krimpen aan den IJssel";977;3307,90;22;74,50;17;57,60
"Krimpenerwaard";1556;2764,00;64;113,70;39;69,30
"Laarbeek";522;2309,30;42;185,80;26;115,00
"Landerd";505;3207,20;42;266,70;21;133,40
"Landgraaf";432;1154,20;55;146,90;15;40,10
"Landsmeer";287;2485,90;6;52,00;3;26,00
"Langedijk";560;1987,60;21;74,50;7;24,80
"Lansingerland";1926;3080,10;54;86,40;38;60,80
"Laren";270;2382,40;10;88,20;5;44,10
"Leeuwarden";1544;1244,90;47;37,90;11;8,90
"Leiden";3473;2776,90;66;52,80;28;22,40
"Leiderdorp";673;2482,50;27;99,60;9;33,20
"Leidschendam-Voorburg";1875;2450,20;48;62,70;35;45,70
"Lelystad";1345;1704,30;89;112,80;34;43,10
"Leudal";578;1612,70;55;153,50;38;106,00
"Leusden";604;1985,30;12;39,40;11;36,20
"Lingewaard";970;2079,50;41;87,90;15;32,20
"Lisse";470;2041,30;11;47,80;5;21,70
"Lochem";488;1446,40;19;56,30;16;47,40
"Loon op Zand";624;2665,20;32;136,70;24;102,50
"Lopik";404;2789,50;25;172,60;8;55,20
"Loppersum";62;652,20;0;0,00;0;0,00
"Losser";541;2384,80;13;57,30;3;13,20
"Maasdriel";589;2338,40;25;99,30;10;39,70
"Maasgouw";314;1311,70;28;117,00;15;62,70
"Maassluis";1107;3331,50;35;105,30;16;48,20
"Maastricht";2297;1890,40;204;167,90;141;116,00
"Medemblik";692;1533,90;22;48,80;6;13,30
"Meerssen";261;1387,20;23;122,20;13;69,10
"Meierijstad";1902;2339,50;220;270,60;138;169,70
"Meppel";363;1068,20;11;32,40;5;14,70
"Middelburg";473;969,20;22;45,10;11;22,50
"Midden-Delfland";476;2466,10;9;46,60;2;10,40
"Midden-Drenthe";371;1117,20;6;18,10;0;0,00
"Midden-Groningen";451;741,90;10;16,50;5;8,20
"Mill en Sint Hubert";294;2683,00;13;118,60;6;54,80
"Moerdijk";921;2479,10;23;61,90;16;43,10
"Molenlanden";1122;2551,40;20;45,50;12;27,30
"Montferland";611;1697,30;25;69,40;10;27,80
"Montfoort";335;2409,90;16;115,10;7;50,40
"Mook en Middelaar";196;2501,60;8;102,10;6;76,60
"Neder-Betuwe";573;2344,40;44;180,00;22;90,00
"Nederweert";362;2121,50;34;199,30;7;41,00
"Nieuwegein";1403;2209,30;60;94,50;17;26,80
"Nieuwkoop";608;2105,40;15;51,90;7;24,20
"Nijkerk";932;2157,30;30;69,40;4;9,30
"Nijmegen";4331;2438,20;187;105,30;102;57,40
"Nissewaard";2598;3049,00;81;95,10;30;35,20
"Noardeast-Fryslân";345;762,20;9;19,90;4;8,80
"Noord-Beveland";88;1191,40;1;13,50;1;13,50
"Noordenveld";262;839,20;7;22,40;14;44,80
"Noordoostpolder";528;1112,90;20;42,20;12;25,30
"Noordwijk";1034;2372,30;36;82,60;6;13,80
"Nuenen, Gerwen en Nederwetten";498;2129,60;20;85,50;10;42,80
"Nunspeet";518;1862,70;61;219,40;22;79,10
"Oegstgeest";538;2161,40;14;56,20;3;12,10
"Oirschot";495;2640,10;17;90,70;11;58,70
"Oisterwijk";550;2092,40;29;110,30;14;53,30
"Oldambt";264;691,30;11;28,80;5;13,10
"Oldebroek";352;1488,40;40;169,10;20;84,60
"Oldenzaal";833;2616,00;17;53,40;21;66,00
"Olst-Wijhe";254;1391,90;12;65,80;8;43,80
"Ommen";257;1425,20;9;49,90;4;22,20
"Oost Gelre";701;2366,20;21;70,90;18;60,80
"Oosterhout";1424;2540,50;53;94,60;17;30,30
"Ooststellingwerf";212;832,80;5;19,60;1;3,90
"Oostzaan";294;3024,70;13;133,70;2;20,60
"Opmeer";166;1405,40;1;8,50;2;16,90
"Opsterland";202;680,90;9;30,30;0;0,00
"Oss";2813;3057,70;185;201,10;96;104,40
"Oude IJsselstreek";603;1531,40;25;63,50;9;22,90
"Ouder-Amstel";428;3031,60;8;56,70;0;0,00
"Oudewater";251;2458,40;31;303,60;11;107,70
"Overbetuwe";819;1707,50;63;131,30;19;39,60
"Papendrecht";866;2694,40;9;28,00;12;37,30
"Peel en Maas";946;2168,40;146;334,70;65;149,00
"Pekela";97;797,50;7;57,60;1;8,20
"Pijnacker-Nootdorp";1548;2793,60;34;61,40;18;32,50
"Purmerend";1709;2097,90;90;110,50;39;47,90
"Putten";392;1625,20;12;49,80;1;4,10
"Raalte";702;1862,90;26;69,00;25;66,30
"Reimerswaal";270;1188,40;6;26,40;3;13,20
"Renkum";588;1872,10;19;60,50;11;35,00
"Renswoude";106;1932,20;5;91,10;5;91,10
"Reusel-De Mierden";511;3903,70;15;114,60;4;30,60
"Rheden";742;1699,00;37;84,70;18;41,20
"Rhenen";419;2083,60;14;69,60;6;29,80
"Ridderkerk";1515;3269,20;50;107,90;22;47,50
"Rijssen-Holten";962;2517,20;30;78,50;29;75,90
"Rijswijk";1629;2982,50;64;117,20;50;91,50
"Roerdalen";218;1062,60;28;136,50;8;39,00
"Roermond";830;1423,30;65;111,50;24;41,20
"Roosendaal";2263;2927,70;49;63,40;34;44,00
"Rotterdam";28737;4405,10;936;143,50;486;74,50
"Rozendaal";14;825,50;1;59,00;0;0,00
"Rucphen";669;2914,30;18;78,40;10;43,60
"s-Gravenhage";19211;3519,40;676;123,80;344;63,00
"Schagen";796;1712,90;22;47,30;13;28,00
"Scherpenzeel";191;1932,60;5;50,60;2;20,20
"Schiedam";3164;4013,10;92;116,70;33;41,90
"Schiermonnikoog";4;422,80;1;105,70;0;0,00
"Schouwen-Duiveland";438;1292,30;13;38,40;14;41,30
"Simpelveld";126;1195,00;19;180,20;5;47,40
"Sint Anthonis";252;2160,10;21;180,00;11;94,30
"Sint-Michielsgestel";718;2453,50;38;129,90;20;68,30
"Sittard-Geleen";1217;1318,10;130;140,80;67;72,60
"Sliedrecht";661;2624,30;10;39,70;7;27,80
"Sluis";219;944,00;12;51,70;4;17,20
"Smallingerland";470;836,70;12;21,40;8;14,20
"Soest";1210;2593,40;40;85,70;30;64,30
"Someren";390;2013,60;34;175,50;8;41,30
"Son en Breugel";357;2058,80;32;184,50;15;86,50
"Stadskanaal";416;1315,00;9;28,40;7;22,10
"Staphorst";387;2256,60;10;58,30;4;23,30
"Stede Broec";331;1524,20;20;92,10;5;23,00
"Steenbergen";624;2550,70;18;73,60;14;57,20
"Steenwijkerland";483;1093,80;16;36,20;10;22,60
"Stein";336;1346,90;49;196,40;16;64,10
"Stichtse Vecht";1521;2339,00;56;86,10;17;26,10
"Súdwest-Fryslân";1141;1269,50;23;25,60;10;11,10
"Terneuzen";643;1182,30;28;51,50;4;7,40
"Terschelling";66;1361,90;1;20,60;1;20,60
"Texel";106;780,80;6;44,20;2;14,70
"Teylingen";896;2387,80;19;50,60;4;10,70
"Tholen";567;2199,00;46;178,40;19;73,70
"Tiel";1143;2715,50;53;125,90;24;57,00
"Tilburg";5551;2521,50;286;129,90;182;82,70
"Tubbergen";847;3981,60;12;56,40;8;37,60
"Twenterand";713;2112,70;13;38,50;3;8,90
"Tynaarlo";339;1002,40;11;32,50;4;11,80
"Tytsjerksteradiel";272;847,10;7;21,80;3;9,30
"Uden";818;1941,50;116;275,30;65;154,30
"Uitgeest";286;2094,00;7;51,30;3;22,00
"Uithoorn";722;2439,00;22;74,30;4;13,50
"Urk";333;1580,20;26;123,40;5;23,70
"Utrecht";11882;3314,80;393;109,60;138;38,50
"Utrechtse Heuvelrug";1070;2150,70;33;66,30;20;40,20
"Vaals";84;831,40;10;99,00;2;19,80
"Valkenburg aan de Geul";259;1584,90;23;140,70;9;55,10
"Valkenswaard";833;2667,90;23;73,70;40;128,10
"Veendam";213;777,90;4;14,60;1;3,70
"Veenendaal";1814;2723,00;63;94,60;17;25,50
"Veere";142;648,20;8;36,50;2;9,10
"Veldhoven";1147;2519,30;40;87,90;21;46,10
"Velsen";1547;2250,80;50;72,70;47;68,40
"Venlo";2281;2240,00;147;144,40;78;76,60
"Venray";1084;2484,90;43;98,60;23;52,70
"Vijfheerenlanden";1531;2690,10;52;91,40;45;79,10
"Vlaardingen";2958;4022,40;69;93,80;44;59,80
"Vlieland";18;1550,40;0;0,00;0;0,00
"Vlissingen";407;917,90;13;29,30;5;11,30
"Voerendaal";161;1288,90;18;144,10;8;64,00
"Voorschoten";523;2043,50;12;46,90;12;46,90
"Voorst";355;1443,00;18;73,20;11;44,70
"Vught";599;2253,60;43;161,80;18;67,70
"Waadhoeke";485;1052,50;15;32,60;17;36,90
"Waalre";396;2267,90;8;45,80;9;51,50
"Waalwijk";1304;2681,70;48;98,70;45;92,50
"Waddinxveen";774;2635,80;31;105,60;7;23,80
"Wageningen";744;1865,60;26;65,20;20;50,10
"Wassenaar";558;2126,80;11;41,90;13;49,60
"Waterland";447;2566,90;23;132,10;9;51,70
"Weert";1057;2106,20;75;149,40;19;37,90
"Weesp";677;3401,00;11;55,30;15;75,40
"West Betuwe";1109;2164,60;58;113,20;32;62,50
"West Maas en Waal";389;2009,50;24;124,00;15;77,50
"Westerkwartier";496;782,60;20;31,60;7;11,00
"Westerveld";153;786,30;9;46,30;5;25,70
"Westervoort";233;1556,00;12;80,10;6;40,10
"Westerwolde";241;922,60;12;45,90;3;11,50
"Westland";3049;2756,60;79;71,40;34;30,70
"Weststellingwerf";281;1084,00;3;11,60;5;19,30
"Westvoorne";351;2380,50;8;54,30;1;6,80
"Wierden";722;2956,10;8;32,80;7;28,70
"Wijchen";866;2107,40;55;133,80;22;53,50
"Wijdemeren";519;2131,60;14;57,50;5;20,50
"Wijk bij Duurstede";444;1859,40;12;50,30;6;25,10
"Winterswijk";443;1538,10;9;31,20;4;13,90
"Woensdrecht";534;2429,90;10;45,50;15;68,30
"Woerden";1152;2200,20;66;126,10;23;43,90
"Wormerland";378;2324,20;22;135,30;12;73,80
"Woudenberg";275;2053,80;10;74,70;3;22,40
"Zaanstad";4410;2811,50;176;112,20;76;48,50
"Zaltbommel";641;2210,10;24;82,80;10;34,50
"Zandvoort";307;1791,50;15;87,50;9;52,50
"Zeewolde";320;1416,70;13;57,60;6;26,60
"Zeist";1469;2261,40;47;72,40;30;46,20
"Zevenaar";691;1577,50;59;134,70;19;43,40
"Zoetermeer";3176;2535,40;74;59,10;20;16,00
"Zoeterwoude";183;2118,10;4;46,30;1;11,60
"Zuidplas";1305;2963,00;38;86,30;23;52,20
"Zundert";538;2463,10;27;123,60;11;50,40
"Zutphen";725;1510,10;35;72,90;14;29,20
"Zwartewaterland";476;2095,40;35;154,10;22;96,80
"Zwijndrecht";1549;3465,70;30;67,10;42;94,00
"Zwolle";1908;1478,40;56;43,40;53;41,10