"Category";"Meldingen";"Meldingen per 100000";"Zkh opname";"Zkh opname per 100000";"Overleden";"Overleden per 100000"
"'s-Hertogenbosch";3526;2269,30;154;99,10;93;59,90
"Aa en Hunze";237;933,70;1;3,90;1;3,90
"Aalsmeer";824;2584,50;14;43,90;10;31,40
"Aalten";472;1742,10;13;48,00;9;33,20
"Achtkarspelen";215;772,00;0;0,00;0;0,00
"Alblasserdam";748;3712,20;11;54,60;12;59,60
"Albrandswaard";1007;3925,20;20;78,00;14;54,60
"Alkmaar";1950;1779,40;71;64,80;35;31,90
"Almelo";1803;2465,40;36;49,20;19;26,00
"Almere";4781;2250,90;173;81,40;45;21,20
"Alphen aan den Rijn";2890;2409,30;92;76,70;40;33,30
"Alphen-Chaam";223;2179,00;18;175,90;5;48,90
"Altena";1303;2328,20;41;73,30;22;39,30
"Ameland";46;1231,90;0;0,00;0;0,00
"Amersfoort";3490;2218,50;105;66,70;36;22,90
"Amstelveen";2506;2730,80;79;86,10;51;55,60
"Amsterdam";33501;3831,90;1086;124,20;361;41,30
"Apeldoorn";2478;1512,30;123;75,10;59;36,00
"Appingedam";65;558,70;8;68,80;1;8,60
"Arnhem";3052;1888,70;106;65,60;49;30,30
"Assen";781;1136,10;14;20,40;3;4,40
"Asten";362;2165,80;19;113,70;12;71,80
"Baarle-Nassau";151;2195,10;10;145,40;2;29,10
"Baarn";505;2030,80;18;72,40;11;44,20
"Barendrecht";1753;3600,30;55;113,00;25;51,30
"Barneveld";1191;2008,20;25;42,20;14;23,60
"Beek";205;1291,90;18;113,40;8;50,40
"Beekdaelen";520;1446,40;52;144,60;26;72,30
"Beemster";166;1658,80;4;40,00;2;20,00
"Beesel";226;1676,90;21;155,80;8;59,40
"Berg en Dal";985;2812,80;42;119,90;30;85,70
"Bergeijk";531;2847,20;20;107,20;5;26,80
"Bergen (L.)";242;1850,20;10;76,50;3;22,90
"Bergen (NH.)";646;2164,20;23;77,10;24;80,40
"Bergen op Zoom";2167;3206,10;52;76,90;20;29,60
"Berkelland";918;2097,80;22;50,30;16;36,60
"Bernheze";926;2958,40;98;313,10;67;214,10
"Best";594;1978,90;35;116,60;13;43,30
"Beuningen";503;1939,60;22;84,80;8;30,80
"Beverwijk";926;2225,40;22;52,90;15;36,00
"Bladel";843;4127,90;24;117,50;11;53,90
"Blaricum";236;2037,80;8;69,10;2;17,30
"Bloemendaal";431;1831,20;10;42,50;6;25,50
"Bodegraven-Reeuwijk";838;2398,50;17;48,70;11;31,50
"Boekel";241;2236,90;36;334,10;20;185,60
"Borger-Odoorn";313;1224,90;8;31,30;8;31,30
"Borne";485;2075,50;16;68,50;6;25,70
"Borsele";191;839,90;5;22,00;1;4,40
"Boxmeer";646;2197,10;23;78,20;29;98,60
"Boxtel";660;2141,50;25;81,10;27;87,60
"Breda";4793;2602,20;189;102,60;93;50,50
"Brielle";406;2351,30;18;104,20;1;5,80
"Bronckhorst";665;1846,90;19;52,80;7;19,40
"Brummen";290;1395,30;21;101,00;7;33,70
"Brunssum";371;1334,30;50;179,80;21;75,50
"Bunnik";321;2109,60;12;78,90;4;26,30
"Bunschoten";790;3608,80;19;86,80;8;36,50
"Buren";508;1895,70;23;85,80;9;33,60
"Capelle aan den IJssel";2251;3348,90;79;117,50;73;108,60
"Castricum";558;1549,20;18;50,00;11;30,50
"Coevorden";412;1166,90;19;53,80;3;8,50
"Cranendonck";587;2766,40;65;306,30;36;169,70
"Cuijk";576;2289,80;18;71,60;14;55,70
"Culemborg";693;2387,90;29;99,90;10;34,50
"Dalfsen";548;1910,40;18;62,80;9;31,40
"Dantumadiel";153;809,20;2;10,60;0;0,00
"De Bilt";1082;2509,70;35;81,20;24;55,70
"De Fryske Marren";569;1102,50;24;46,50;9;17,40
"De Ronde Venen";1050;2359,60;59;132,60;19;42,70
"De Wolden";303;1244,40;16;65,70;6;24,60
"Delft";3056;2951,60;54;52,20;23;22,20
"Delfzijl";158;640,70;8;32,40;0;0,00
"Den Helder";539;956,40;17;30,20;4;7,10
"Deurne";883;2722,10;59;181,90;28;86,30
"Deventer";1718;1702,80;51;50,50;44;43,60
"Diemen";1117;3577,80;25;80,10;19;60,90
"Dinkelland";786;2971,30;22;83,20;13;49,10
"Doesburg";208;1881,00;11;99,50;7;63,30
"Doetinchem";956;1646,50;36;62,00;17;29,30
"Dongen";661;2513,60;31;117,90;16;60,80
"Dordrecht";3855;3228,30;98;82,10;90;75,40
"Drechterland";363;1839,70;7;35,50;8;40,50
"Drimmelen";573;2104,40;22;80,80;10;36,70
"Dronten";449;1077,90;40;96,00;15;36,00
"Druten";387;2044,60;29;153,20;13;68,70
"Duiven";440;1754,90;18;71,80;6;23,90
"Echt-Susteren";342;1081,20;43;135,90;19;60,10
"Edam-Volendam";1124;3108,60;48;132,80;5;13,80
"Ede";2358;2014,70;78;66,60;35;29,90
"Eemnes";189;2039,50;3;32,40;1;10,80
"Eersel";582;3011,60;33;170,80;16;82,80
"Eijsden-Margraten";511;1983,20;60;232,90;28;108,70
"Eindhoven";4933;2100,50;216;92,00;115;49,00
"Elburg";371;1597,10;29;124,80;9;38,70
"Emmen";1715;1603,10;52;48,60;24;22,40
"Enkhuizen";277;1484,90;20;107,20;5;26,80
"Enschede";3668;2298,20;76;47,60;50;31,30
"Epe";536;1615,30;53;159,70;24;72,30
"Ermelo";460;1704,20;33;122,30;23;85,20
"Etten-Leur";1140;2598,20;53;120,80;31;70,70
"Geertruidenberg";397;1839,20;17;78,80;6;27,80
"Geldrop-Mierlo";866;2176,00;37;93,00;17;42,70
"Gemert-Bakel";669;2176,20;80;260,20;34;110,60
"Gennep";320;1889,80;18;106,30;11;65,00
"Gilze en Rijen";622;2338,50;25;94,00;16;60,20
"Goeree-Overflakkee";1172;2337,10;64;127,60;39;77,80
"Goes";500;1308,40;15;39,30;13;34,00
"Goirle";594;2483,60;35;146,30;23;96,20
"Gooise Meren";1274;2193,40;32;55,10;16;27,50
"Gorinchem";996;2683,30;20;53,90;22;59,30
"Gouda";2255;3068,70;79;107,50;63;85,70
"Grave";368;2950,80;27;216,50;14;112,30
"Groningen";3752;1610,40;32;13,70;4;1,70
"Gulpen-Wittem";270;1908,00;26;183,70;16;113,10
"Haaksbergen";641;2639,80;18;74,10;14;57,70
"Haaren";364;2535,90;20;139,30;8;55,70
"Haarlem";3358;2058,70;116;71,10;78;47,80
"Haarlemmermeer";3712;2374,10;105;67,20;42;26,90
"Halderberge";802;2649,70;29;95,80;14;46,30
"Hardenberg";872;1430,20;25;41,00;10;16,40
"Harderwijk";845;1736,40;50;102,70;22;45,20
"Hardinxveld-Giessendam";476;2596,30;2;10,90;7;38,20
"Harlingen";114;726,10;5;31,80;2;12,70
"Hattem";175;1431,60;18;147,30;5;40,90
"Heemskerk";843;2150,60;35;89,30;18;45,90
"Heemstede";492;1803,10;17;62,30;35;128,30
"Heerde";363;1953,70;55;296,00;28;150,70
"Heerenveen";472;935,20;16;31,70;22;43,60
"Heerhugowaard";990;1714,20;32;55,40;10;17,30
"Heerlen";1215;1396,20;132;151,70;56;64,40
"Heeze-Leende";404;2503,70;18;111,60;9;55,80
"Heiloo";337;1407,60;13;54,30;10;41,80
"Hellendoorn";723;2014,80;13;36,20;14;39,00
"Hellevoetsluis";859;2137,80;20;49,80;7;17,40
"Helmond";2738;2966,00;130;140,80;51;55,20
"Hendrik-Ido-Ambacht";1011;3234,00;13;41,60;9;28,80
"Hengelo";1844;2271,00;41;50,50;25;30,80
"Het Hogeland";458;956,70;9;18,80;6;12,50
"Heumen";421;2554,10;19;115,30;13;78,90
"Heusden";1113;2489,40;53;118,50;28;62,60
"Hillegom";455;2050,20;9;40,60;2;9,00
"Hilvarenbeek";420;2703,20;16;103,00;14;90,10
"Hilversum";1861;2044,20;45;49,40;33;36,20
"Hoeksche Waard";2242;2561,40;85;97,10;31;35,40
"Hof van Twente";741;2119,70;21;60,10;7;20,00
"Hollands Kroon";568;1172,10;30;61,90;6;12,40
"Hoogeveen";735;1320,90;31;55,70;14;25,20
"Hoorn";1266;1727,30;41;55,90;14;19,10
"Horst aan de Maas";895;2107,80;47;110,70;28;65,90
"Houten";1102;2193,70;37;73,70;33;65,70
"Huizen";1084;2632,20;31;75,30;16;38,90
"Hulst";421;1511,50;14;50,30;5;18,00
"IJsselstein";865;2543,00;48;141,10;38;111,70
"Kaag en Braassem";573;2093,00;9;32,90;3;11,00
"Kampen";791;1455,50;62;114,10;37;68,10
"Kapelle";109;858,50;3;23,60;1;7,90
"Katwijk";2148;3263,60;52;79,00;24;36,50
"Kerkrade";637;1394,40;73;159,80;37;81,00
"Koggenland";393;1725,70;10;43,90;8;35,10
"Krimpen aan den IJssel";961;3253,80;22;74,50;17;57,60
"Krimpenerwaard";1523;2705,30;64;113,70;39;69,30
"Laarbeek";520;2300,50;42;185,80;26;115,00
"Landerd";501;3181,80;42;266,70;21;133,40
"Landgraaf";424;1132,80;55;146,90;15;40,10
"Landsmeer";283;2451,30;6;52,00;3;26,00
"Langedijk";549;1948,50;21;74,50;7;24,80
"Lansingerland";1904;3044,90;53;84,80;38;60,80
"Laren";269;2373,60;10;88,20;5;44,10
"Leeuwarden";1535;1237,70;47;37,90;11;8,90
"Leiden";3439;2749,70;66;52,80;28;22,40
"Leiderdorp";668;2464,00;27;99,60;8;29,50
"Leidschendam-Voorburg";1852;2420,20;48;62,70;34;44,40
"Lelystad";1322;1675,10;88;111,50;34;43,10
"Leudal";563;1570,90;55;153,50;38;106,00
"Leusden";601;1975,50;12;39,40;11;36,20
"Lingewaard";964;2066,70;41;87,90;15;32,20
"Lisse";465;2019,60;11;47,80;5;21,70
"Lochem";484;1434,50;19;56,30;16;47,40
"Loon op Zand";618;2639,60;31;132,40;24;102,50
"Lopik";398;2748,00;25;172,60;8;55,20
"Loppersum";61;641,70;0;0,00;0;0,00
"Losser";540;2380,40;13;57,30;3;13,20
"Maasdriel";579;2298,70;25;99,30;10;39,70
"Maasgouw";307;1282,40;28;117,00;15;62,70
"Maassluis";1094;3292,40;35;105,30;15;45,10
"Maastricht";2279;1875,60;203;167,10;141;116,00
"Medemblik";685;1518,40;22;48,80;6;13,30
"Meerssen";259;1376,60;23;122,20;13;69,10
"Meierijstad";1890;2324,70;220;270,60;138;169,70
"Meppel";361;1062,30;11;32,40;5;14,70
"Middelburg";463;948,70;22;45,10;11;22,50
"Midden-Delfland";473;2450,50;9;46,60;2;10,40
"Midden-Drenthe";367;1105,20;6;18,10;0;0,00
"Midden-Groningen";448;737,00;10;16,50;5;8,20
"Mill en Sint Hubert";290;2646,50;13;118,60;6;54,80
"Moerdijk";908;2444,10;23;61,90;16;43,10
"Molenlanden";1106;2515,00;20;45,50;12;27,30
"Montferland";608;1689,00;25;69,40;10;27,80
"Montfoort";331;2381,10;16;115,10;7;50,40
"Mook en Middelaar";195;2488,80;8;102,10;6;76,60
"Neder-Betuwe";571;2336,20;44;180,00;22;90,00
"Nederweert";353;2068,80;34;199,30;7;41,00
"Nieuwegein";1391;2190,40;60;94,50;17;26,80
"Nieuwkoop";603;2088,10;14;48,50;7;24,20
"Nijkerk";923;2136,50;30;69,40;4;9,30
"Nijmegen";4282;2410,60;186;104,70;102;57,40
"Nissewaard";2550;2992,70;81;95,10;30;35,20
"Noardeast-Fryslân";339;749,00;9;19,90;4;8,80
"Noord-Beveland";88;1191,40;1;13,50;1;13,50
"Noordenveld";261;836,00;7;22,40;14;44,80
"Noordoostpolder";525;1106,60;20;42,20;12;25,30
"Noordwijk";1026;2354,00;36;82,60;6;13,80
"Nuenen, Gerwen en Nederwetten";492;2103,90;20;85,50;10;42,80
"Nunspeet";514;1848,30;61;219,40;22;79,10
"Oegstgeest";535;2149,40;14;56,20;3;12,10
"Oirschot";489;2608,10;17;90,70;11;58,70
"Oisterwijk";539;2050,50;29;110,30;14;53,30
"Oldambt";261;683,40;11;28,80;5;13,10
"Oldebroek";346;1463,00;40;169,10;20;84,60
"Oldenzaal";829;2603,50;17;53,40;21;66,00
"Olst-Wijhe";253;1386,50;12;65,80;8;43,80
"Ommen";254;1408,60;9;49,90;4;22,20
"Oost Gelre";692;2335,80;21;70,90;18;60,80
"Oosterhout";1399;2495,90;53;94,60;17;30,30
"Ooststellingwerf";209;821,10;5;19,60;1;3,90
"Oostzaan";290;2983,50;12;123,50;2;20,60
"Opmeer";161;1363,00;1;8,50;2;16,90
"Opsterland";201;677,50;9;30,30;0;0,00
"Oss";2783;3025,10;185;201,10;96;104,40
"Oude IJsselstreek";595;1511,10;25;63,50;9;22,90
"Ouder-Amstel";427;3024,50;8;56,70;0;0,00
"Oudewater";250;2448,60;31;303,60;11;107,70
"Overbetuwe";812;1692,90;62;129,30;19;39,60
"Papendrecht";856;2663,30;9;28,00;12;37,30
"Peel en Maas";931;2134,00;146;334,70;65;149,00
"Pekela";96;789,30;7;57,60;1;8,20
"Pijnacker-Nootdorp";1532;2764,70;33;59,60;18;32,50
"Purmerend";1693;2078,30;90;110,50;39;47,90
"Putten";383;1587,90;12;49,80;1;4,10
"Raalte";680;1804,50;26;69,00;25;66,30
"Reimerswaal";269;1184,00;6;26,40;3;13,20
"Renkum";584;1859,30;19;60,50;11;35,00
"Renswoude";106;1932,20;5;91,10;5;91,10
"Reusel-De Mierden";504;3850,30;15;114,60;4;30,60
"Rheden";735;1683,00;37;84,70;18;41,20
"Rhenen";415;2063,80;13;64,60;6;29,80
"Ridderkerk";1491;3217,50;50;107,90;22;47,50
"Rijssen-Holten";946;2475,30;30;78,50;29;75,90
"Rijswijk";1620;2966,00;64;117,20;50;91,50
"Roerdalen";213;1038,20;28;136,50;8;39,00
"Roermond";810;1389,00;65;111,50;24;41,20
"Roosendaal";2225;2878,50;49;63,40;34;44,00
"Rotterdam";28393;4352,30;927;142,10;483;74,00
"Rozendaal";13;766,50;1;59,00;0;0,00
"Rucphen";661;2879,40;18;78,40;10;43,60
"s-Gravenhage";19061;3491,90;676;123,80;344;63,00
"Schagen";782;1682,80;21;45,20;13;28,00
"Scherpenzeel";190;1922,50;5;50,60;2;20,20
"Schiedam";3132;3972,50;92;116,70;33;41,90
"Schiermonnikoog";4;422,80;1;105,70;0;0,00
"Schouwen-Duiveland";435;1283,50;13;38,40;14;41,30
"Simpelveld";124;1176,00;19;180,20;5;47,40
"Sint Anthonis";252;2160,10;21;180,00;11;94,30
"Sint-Michielsgestel";711;2429,60;38;129,90;19;64,90
"Sittard-Geleen";1208;1308,40;129;139,70;66;71,50
"Sliedrecht";645;2560,70;10;39,70;7;27,80
"Sluis";206;888,00;12;51,70;4;17,20
"Smallingerland";460;818,90;12;21,40;8;14,20
"Soest";1196;2563,40;39;83,60;30;64,30
"Someren";387;1998,10;34;175,50;8;41,30
"Son en Breugel";352;2030,00;32;184,50;15;86,50
"Stadskanaal";406;1283,30;9;28,40;7;22,10
"Staphorst";382;2227,40;10;58,30;4;23,30
"Stede Broec";328;1510,40;20;92,10;5;23,00
"Steenbergen";614;2509,80;18;73,60;14;57,20
"Steenwijkerland";476;1078,00;16;36,20;10;22,60
"Stein";335;1342,80;49;196,40;16;64,10
"Stichtse Vecht";1507;2317,40;56;86,10;17;26,10
"Súdwest-Fryslân";1134;1261,70;23;25,60;10;11,10
"Terneuzen";630;1158,40;28;51,50;4;7,40
"Terschelling";66;1361,90;1;20,60;1;20,60
"Texel";106;780,80;6;44,20;2;14,70
"Teylingen";888;2366,50;19;50,60;4;10,70
"Tholen";556;2156,40;46;178,40;19;73,70
"Tiel";1133;2691,70;53;125,90;24;57,00
"Tilburg";5471;2485,20;286;129,90;182;82,70
"Tubbergen";844;3967,50;12;56,40;8;37,60
"Twenterand";706;2092,00;12;35,60;3;8,90
"Tynaarlo";334;987,60;11;32,50;4;11,80
"Tytsjerksteradiel";268;834,60;7;21,80;3;9,30
"Uden";813;1929,60;116;275,30;65;154,30
"Uitgeest";278;2035,40;7;51,30;3;22,00
"Uithoorn";713;2408,60;21;70,90;4;13,50
"Urk";319;1513,80;26;123,40;5;23,70
"Utrecht";11788;3288,60;390;108,80;136;37,90
"Utrechtse Heuvelrug";1066;2142,60;33;66,30;20;40,20
"Vaals";84;831,40;10;99,00;2;19,80
"Valkenburg aan de Geul";258;1578,80;23;140,70;9;55,10
"Valkenswaard";825;2642,30;23;73,70;40;128,10
"Veendam";209;763,30;4;14,60;1;3,70
"Veenendaal";1802;2705,00;63;94,60;17;25,50
"Veere";139;634,50;8;36,50;2;9,10
"Veldhoven";1133;2488,60;40;87,90;21;46,10
"Velsen";1515;2204,20;50;72,70;46;66,90
"Venlo";2243;2202,70;147;144,40;78;76,60
"Venray";1070;2452,80;43;98,60;23;52,70
"Vijfheerenlanden";1514;2660,20;51;89,60;45;79,10
"Vlaardingen";2932;3987,00;69;93,80;43;58,50
"Vlieland";18;1550,40;0;0,00;0;0,00
"Vlissingen";403;908,90;13;29,30;5;11,30
"Voerendaal";158;1264,90;18;144,10;8;64,00
"Voorschoten";520;2031,80;12;46,90;12;46,90
"Voorst";353;1434,90;18;73,20;11;44,70
"Vught";593;2231,00;43;161,80;18;67,70
"Waadhoeke";480;1041,70;15;32,60;17;36,90
"Waalre";393;2250,70;8;45,80;9;51,50
"Waalwijk";1285;2642,60;48;98,70;45;92,50
"Waddinxveen";769;2618,80;31;105,60;7;23,80
"Wageningen";736;1845,50;26;65,20;20;50,10
"Wassenaar";555;2115,40;11;41,90;13;49,60
"Waterland";444;2549,70;23;132,10;9;51,70
"Weert";1039;2070,30;75;149,40;19;37,90
"Weesp";654;3285,40;11;55,30;15;75,40
"West Betuwe";1085;2117,80;58;113,20;30;58,60
"West Maas en Waal";386;1994,00;24;124,00;15;77,50
"Westerkwartier";491;774,70;20;31,60;7;11,00
"Westerveld";152;781,20;9;46,30;5;25,70
"Westervoort";230;1536,00;12;80,10;6;40,10
"Westerwolde";241;922,60;12;45,90;3;11,50
"Westland";3018;2728,60;78;70,50;34;30,70
"Weststellingwerf";278;1072,40;3;11,60;5;19,30
"Westvoorne";349;2366,90;8;54,30;1;6,80
"Wierden";710;2907,00;8;32,80;7;28,70
"Wijchen";849;2066,00;55;133,80;22;53,50
"Wijdemeren";511;2098,70;14;57,50;5;20,50
"Wijk bij Duurstede";434;1817,50;12;50,30;6;25,10
"Winterswijk";435;1510,30;9;31,20;4;13,90
"Woensdrecht";531;2416,30;10;45,50;15;68,30
"Woerden";1138;2173,50;66;126,10;23;43,90
"Wormerland";370;2275,00;22;135,30;12;73,80
"Woudenberg";273;2038,80;10;74,70;3;22,40
"Zaanstad";4356;2777,10;176;112,20;75;47,80
"Zaltbommel";626;2158,40;24;82,80;10;34,50
"Zandvoort";304;1774,00;15;87,50;9;52,50
"Zeewolde";317;1403,40;13;57,60;6;26,60
"Zeist";1465;2255,30;47;72,40;30;46,20
"Zevenaar";682;1556,90;59;134,70;19;43,40
"Zoetermeer";3148;2513,10;74;59,10;20;16,00
"Zoeterwoude";181;2094,90;4;46,30;1;11,60
"Zuidplas";1288;2924,40;37;84,00;23;52,20
"Zundert";533;2440,30;27;123,60;11;50,40
"Zutphen";723;1505,90;35;72,90;14;29,20
"Zwartewaterland";472;2077,80;35;154,10;22;96,80
"Zwijndrecht";1529;3421,00;30;67,10;42;94,00
"Zwolle";1878;1455,10;56;43,40;53;41,10