"Category";"Meldingen";"Meldingen per 100000";"Zkh opname";"Zkh opname per 100000";"Overleden";"Overleden per 100000"
"'s-Hertogenbosch";2184;1405,60;144;92,70;84;54,10
"Aa en Hunze";188;740,60;1;3,90;1;3,90
"Aalsmeer";477;1496,10;10;31,40;6;18,80
"Aalten";307;1133,10;13;48,00;7;25,80
"Achtkarspelen";149;535,00;0;0,00;0;0,00
"Alblasserdam";411;2039,70;11;54,60;6;29,80
"Albrandswaard";584;2276,40;17;66,30;8;31,20
"Alkmaar";1117;1019,30;62;56,60;31;28,30
"Almelo";771;1054,30;31;42,40;13;17,80
"Almere";2912;1370,90;163;76,70;39;18,40
"Alphen aan den Rijn";1702;1418,90;79;65,90;31;25,80
"Alphen-Chaam";140;1368,00;18;175,90;5;48,90
"Altena";693;1238,30;38;67,90;12;21,40
"Ameland";32;857,00;0;0,00;0;0,00
"Amersfoort";2094;1331,10;89;56,60;28;17,80
"Amstelveen";1790;1950,60;72;78,50;44;47,90
"Amsterdam";25191;2881,40;939;107,40;313;35,80
"Apeldoorn";1484;905,70;109;66,50;54;33,00
"Appingedam";44;378,20;7;60,20;0;0,00
"Arnhem";1840;1138,70;82;50,70;34;21,00
"Assen";486;707,00;13;18,90;3;4,40
"Asten";207;1238,50;18;107,70;12;71,80
"Baarle-Nassau";72;1046,70;9;130,80;2;29,10
"Baarn";320;1286,80;14;56,30;9;36,20
"Barendrecht";1142;2345,40;45;92,40;15;30,80
"Barneveld";620;1045,40;24;40,50;10;16,90
"Beek";127;800,40;17;107,10;6;37,80
"Beekdaelen";336;934,60;52;144,60;25;69,50
"Beemster";100;999,30;4;40,00;1;10,00
"Beesel";139;1031,40;20;148,40;8;59,40
"Berg en Dal";607;1733,30;36;102,80;22;62,80
"Bergeijk";334;1790,90;19;101,90;5;26,80
"Bergen (L.)";125;955,70;8;61,20;2;15,30
"Bergen (NH.)";448;1500,90;22;73,70;10;33,50
"Bergen op Zoom";1327;1963,30;42;62,10;15;22,20
"Berkelland";467;1067,20;18;41,10;9;20,60
"Bernheze";584;1865,80;96;306,70;65;207,70
"Best";345;1149,40;32;106,60;12;40,00
"Beuningen";312;1203,10;20;77,10;6;23,10
"Beverwijk";552;1326,60;20;48,10;13;31,20
"Bladel";572;2800,90;22;107,70;9;44,10
"Blaricum";151;1303,90;8;69,10;2;17,30
"Bloemendaal";307;1304,30;9;38,20;6;25,50
"Bodegraven-Reeuwijk";518;1482,60;11;31,50;9;25,80
"Boekel";160;1485,10;36;334,10;20;185,60
"Borger-Odoorn";218;853,10;7;27,40;5;19,60
"Borne";270;1155,40;15;64,20;6;25,70
"Borsele";120;527,70;5;22,00;1;4,40
"Boxmeer";391;1329,80;20;68,00;28;95,20
"Boxtel";359;1164,80;24;77,90;26;84,40
"Breda";2792;1515,90;169;91,80;73;39,60
"Brielle";264;1528,90;15;86,90;0;0,00
"Bronckhorst";405;1124,80;18;50,00;7;19,40
"Brummen";147;707,30;19;91,40;6;28,90
"Brunssum";272;978,20;49;176,20;19;68,30
"Bunnik";191;1255,30;12;78,90;1;6,60
"Bunschoten";382;1745,00;13;59,40;7;32,00
"Buren";277;1033,70;23;85,80;8;29,90
"Capelle aan den IJssel";1521;2262,80;67;99,70;65;96,70
"Castricum";337;935,60;18;50,00;10;27,80
"Coevorden";257;727,90;14;39,70;2;5,70
"Cranendonck";396;1866,30;63;296,90;36;169,70
"Cuijk";311;1236,30;13;51,70;10;39,80
"Culemborg";452;1557,50;25;86,10;9;31,00
"Dalfsen";341;1188,80;17;59,30;7;24,40
"Dantumadiel";107;565,90;2;10,60;0;0,00
"De Bilt";744;1725,70;31;71,90;24;55,70
"De Fryske Marren";394;763,40;22;42,60;7;13,60
"De Ronde Venen";683;1534,90;45;101,10;14;31,50
"De Wolden";186;763,90;14;57,50;5;20,50
"Delft";2098;2026,30;44;42,50;15;14,50
"Delfzijl";110;446,10;7;28,40;0;0,00
"Den Helder";284;503,90;15;26,60;2;3,50
"Deurne";533;1643,10;58;178,80;26;80,20
"Deventer";1114;1104,10;50;49,60;38;37,70
"Diemen";849;2719,40;23;73,70;14;44,80
"Dinkelland";409;1546,10;21;79,40;10;37,80
"Doesburg";153;1383,60;10;90,40;6;54,30
"Doetinchem";602;1036,80;30;51,70;16;27,60
"Dongen";332;1262,50;24;91,30;13;49,40
"Dordrecht";2192;1835,60;97;81,20;76;63,60
"Drechterland";211;1069,30;5;25,30;8;40,50
"Drimmelen";295;1083,40;21;77,10;9;33,10
"Dronten";304;729,80;39;93,60;14;33,60
"Druten";250;1320,80;28;147,90;9;47,50
"Duiven";281;1120,80;16;63,80;6;23,90
"Echt-Susteren";208;657,60;43;135,90;19;60,10
"Edam-Volendam";747;2065,90;35;96,80;4;11,10
"Ede";1482;1266,20;70;59,80;27;23,10
"Eemnes";98;1057,50;2;21,60;1;10,80
"Eersel";371;1919,80;28;144,90;10;51,70
"Eijsden-Margraten";347;1346,70;57;221,20;27;104,80
"Eindhoven";3094;1317,40;197;83,90;98;41,70
"Elburg";262;1127,90;28;120,50;8;34,40
"Emmen";1193;1115,20;44;41,10;19;17,80
"Enkhuizen";122;654,00;20;107,20;4;21,40
"Enschede";1715;1074,50;68;42,60;29;18,20
"Epe";322;970,40;52;156,70;23;69,30
"Ermelo";299;1107,70;33;122,30;23;85,20
"Etten-Leur";713;1625,00;47;107,10;30;68,40
"Geertruidenberg";234;1084,00;13;60,20;6;27,80
"Geldrop-Mierlo";459;1153,30;34;85,40;16;40,20
"Gemert-Bakel";444;1444,30;79;257,00;32;104,10
"Gennep";177;1045,30;17;100,40;10;59,10
"Gilze en Rijen";355;1334,70;21;79,00;15;56,40
"Goeree-Overflakkee";726;1447,70;57;113,70;35;69,80
"Goes";331;866,10;13;34,00;13;34,00
"Goirle";357;1492,70;32;133,80;20;83,60
"Gooise Meren";857;1475,40;27;46,50;15;25,80
"Gorinchem";592;1594,90;19;51,20;16;43,10
"Gouda";1523;2072,50;56;76,20;46;62,60
"Grave";208;1667,90;21;168,40;11;88,20
"Groningen";3019;1295,80;30;12,90;3;1,30
"Gulpen-Wittem";194;1370,90;23;162,50;15;106,00
"Haaksbergen";384;1581,40;17;70,00;10;41,20
"Haaren";185;1288,80;20;139,30;8;55,70
"Haarlem";2261;1386,20;98;60,10;72;44,10
"Haarlemmermeer";2491;1593,20;92;58,80;38;24,30
"Halderberge";446;1473,50;23;76,00;10;33,00
"Hardenberg";504;826,60;24;39,40;10;16,40
"Harderwijk";590;1212,40;46;94,50;21;43,20
"Hardinxveld-Giessendam";228;1243,60;2;10,90;2;10,90
"Harlingen";76;484,10;4;25,50;1;6,40
"Hattem";118;965,30;18;147,30;5;40,90
"Heemskerk";486;1239,80;34;86,70;14;35,70
"Heemstede";361;1323,00;15;55,00;35;128,30
"Heerde";289;1555,40;55;296,00;28;150,70
"Heerenveen";338;669,70;16;31,70;22;43,60
"Heerhugowaard";555;961,00;29;50,20;9;15,60
"Heerlen";772;887,10;128;147,10;54;62,10
"Heeze-Leende";239;1481,20;17;105,40;8;49,60
"Heiloo";200;835,40;12;50,10;9;37,60
"Hellendoorn";319;889,00;13;36,20;13;36,20
"Hellevoetsluis";535;1331,40;21;52,30;6;14,90
"Helmond";1733;1877,30;123;133,20;46;49,80
"Hendrik-Ido-Ambacht";568;1816,90;13;41,60;6;19,20
"Hengelo";1056;1300,50;38;46,80;24;29,60
"Het Hogeland";311;649,60;7;14,60;4;8,40
"Heumen";307;1862,50;19;115,30;13;78,90
"Heusden";617;1380,00;47;105,10;26;58,20
"Hillegom";305;1374,30;8;36,00;2;9,00
"Hilvarenbeek";220;1416,00;12;77,20;8;51,50
"Hilversum";1232;1353,30;38;41,70;26;28,60
"Hoeksche Waard";1489;1701,10;82;93,70;25;28,60
"Hof van Twente";394;1127,10;18;51,50;6;17,20
"Hollands Kroon";305;629,40;26;53,70;6;12,40
"Hoogeveen";462;830,30;26;46,70;12;21,60
"Hoorn";713;972,80;38;51,80;12;16,40
"Horst aan de Maas";500;1177,60;41;96,60;28;65,90
"Houten";661;1315,80;33;65,70;17;33,80
"Huizen";688;1670,60;27;65,60;10;24,30
"Hulst";184;660,60;10;35,90;5;18,00
"IJsselstein";574;1687,50;40;117,60;35;102,90
"Kaag en Braassem";341;1245,60;8;29,20;3;11,00
"Kampen";601;1105,90;60;110,40;37;68,10
"Kapelle";73;574,90;3;23,60;1;7,90
"Katwijk";1201;1824,80;41;62,30;17;25,80
"Kerkrade";429;939,10;66;144,50;36;78,80
"Koggenland";215;944,10;7;30,70;8;35,10
"Krimpen aan den IJssel";627;2122,90;18;60,90;10;33,90
"Krimpenerwaard";1009;1792,30;52;92,40;37;65,70
"Laarbeek";321;1420,10;41;181,40;26;115,00
"Landerd";347;2203,70;42;266,70;21;133,40
"Landgraaf";269;718,70;53;141,60;14;37,40
"Landsmeer";177;1533,10;5;43,30;3;26,00
"Langedijk";296;1050,60;21;74,50;7;24,80
"Lansingerland";1256;2008,60;49;78,40;32;51,20
"Laren";159;1403,00;9;79,40;3;26,50
"Leeuwarden";1208;974,00;45;36,30;8;6,50
"Leiden";2204;1762,30;57;45,60;25;20,00
"Leiderdorp";419;1545,60;21;77,50;7;25,80
"Leidschendam-Voorburg";1251;1634,80;36;47,00;28;36,60
"Lelystad";802;1016,20;79;100,10;32;40,50
"Leudal";359;1001,70;54;150,70;33;92,10
"Leusden";369;1212,90;10;32,90;9;29,60
"Lingewaard";595;1275,60;37;79,30;11;23,60
"Lisse";251;1090,20;11;47,80;3;13,00
"Lochem";344;1019,60;16;47,40;15;44,50
"Loon op Zand";313;1336,90;29;123,90;16;68,30
"Lopik";245;1691,60;22;151,90;8;55,20
"Loppersum";32;336,60;0;0,00;0;0,00
"Losser";263;1159,40;11;48,50;2;8,80
"Maasdriel";285;1131,50;17;67,50;8;31,80
"Maasgouw";209;873,10;28;117,00;15;62,70
"Maassluis";711;2139,80;27;81,30;9;27,10
"Maastricht";1664;1369,40;196;161,30;140;115,20
"Medemblik";337;747,00;19;42,10;6;13,30
"Meerssen";198;1052,40;23;122,20;13;69,10
"Meierijstad";1257;1546,10;212;260,80;134;164,80
"Meppel";218;641,50;11;32,40;5;14,70
"Middelburg";263;538,90;19;38,90;10;20,50
"Midden-Delfland";302;1564,60;5;25,90;0;0,00
"Midden-Drenthe";214;644,40;6;18,10;0;0,00
"Midden-Groningen";309;508,30;9;14,80;5;8,20
"Mill en Sint Hubert";186;1697,40;9;82,10;5;45,60
"Moerdijk";487;1310,90;18;48,50;10;26,90
"Molenlanden";544;1237,00;20;45,50;10;22,70
"Montferland";337;936,20;24;66,70;9;25,00
"Montfoort";192;1381,20;15;107,90;7;50,40
"Mook en Middelaar";131;1672,00;7;89,30;5;63,80
"Neder-Betuwe";362;1481,10;42;171,80;22;90,00
"Nederweert";177;1037,30;33;193,40;7;41,00
"Nieuwegein";875;1377,80;54;85,00;14;22,00
"Nieuwkoop";336;1163,50;12;41,60;6;20,80
"Nijkerk";609;1409,70;26;60,20;4;9,30
"Nijmegen";3060;1722,70;169;95,10;77;43,30
"Nissewaard";1438;1687,70;68;79,80;23;27,00
"Noardeast-Fryslân";223;492,70;7;15,50;4;8,80
"Noord-Beveland";48;649,90;1;13,50;0;0,00
"Noordenveld";218;698,20;6;19,20;14;44,80
"Noordoostpolder";351;739,80;18;37,90;11;23,20
"Noordwijk";593;1360,50;27;61,90;4;9,20
"Nuenen, Gerwen en Nederwetten";296;1265,80;19;81,20;10;42,80
"Nunspeet";378;1359,30;61;219,40;21;75,50
"Oegstgeest";345;1386,00;11;44,20;3;12,10
"Oirschot";319;1701,40;17;90,70;9;48,00
"Oisterwijk";301;1145,10;27;102,70;12;45,70
"Oldambt";186;487,10;10;26,20;4;10,50
"Oldebroek";257;1086,70;40;169,10;19;80,30
"Oldenzaal";468;1469,80;16;50,20;13;40,80
"Olst-Wijhe";165;904,20;12;65,80;8;43,80
"Ommen";150;831,90;9;49,90;4;22,20
"Oost Gelre";397;1340,00;20;67,50;11;37,10
"Oosterhout";727;1297,00;52;92,80;17;30,30
"Ooststellingwerf";116;455,70;5;19,60;1;3,90
"Oostzaan";203;2088,50;12;123,50;2;20,60
"Opmeer";69;584,20;1;8,50;1;8,50
"Opsterland";154;519,10;8;27,00;0;0,00
"Oss";1736;1887,00;174;189,10;91;98,90
"Oude IJsselstreek";335;850,80;23;58,40;9;22,90
"Ouder-Amstel";326;2309,10;7;49,60;0;0,00
"Oudewater";176;1723,80;28;274,20;10;97,90
"Overbetuwe";552;1150,80;60;125,10;16;33,40
"Papendrecht";427;1328,50;9;28,00;9;28,00
"Peel en Maas";632;1448,60;145;332,40;65;149,00
"Pekela";56;460,40;5;41,10;0;0,00
"Pijnacker-Nootdorp";990;1786,60;30;54,10;18;32,50
"Purmerend";1067;1309,80;80;98,20;38;46,60
"Putten";200;829,20;11;45,60;1;4,10
"Raalte";442;1172,90;25;66,30;23;61,00
"Reimerswaal";165;726,20;6;26,40;2;8,80
"Renkum";396;1260,80;15;47,80;10;31,80
"Renswoude";54;984,30;5;91,10;5;91,10
"Reusel-De Mierden";321;2452,30;15;114,60;2;15,30
"Rheden";408;934,20;35;80,10;15;34,30
"Rhenen";260;1293,00;12;59,70;6;29,80
"Ridderkerk";933;2013,30;43;92,80;19;41,00
"Rijssen-Holten";443;1159,20;30;78,50;26;68,00
"Rijswijk";1085;1986,50;53;97,00;31;56,80
"Roerdalen";118;575,20;27;131,60;8;39,00
"Roermond";490;840,20;64;109,70;24;41,20
"Roosendaal";1240;1604,20;44;56,90;26;33,60
"Rotterdam";19050;2920,20;770;118,00;407;62,40
"Rozendaal";11;648,60;1;59,00;0;0,00
"Rucphen";384;1672,80;14;61,00;10;43,60
"s-Gravenhage";13632;2497,30;533;97,60;313;57,30
"Schagen";379;815,60;20;43,00;10;21,50
"Scherpenzeel";120;1214,20;5;50,60;2;20,20
"Schiedam";1931;2449,20;72;91,30;25;31,70
"Schiermonnikoog";1;105,70;1;105,70;0;0,00
"Schouwen-Duiveland";275;811,40;12;35,40;13;38,40
"Simpelveld";78;739,80;19;180,20;5;47,40
"Sint Anthonis";178;1525,80;21;180,00;11;94,30
"Sint-Michielsgestel";447;1527,50;37;126,40;19;64,90
"Sittard-Geleen";829;897,90;123;133,20;65;70,40
"Sliedrecht";314;1246,60;9;35,70;5;19,90
"Sluis";61;263,00;9;38,80;4;17,20
"Smallingerland";305;543,00;12;21,40;6;10,70
"Soest";794;1701,80;33;70,70;14;30,00
"Someren";218;1125,60;34;175,50;8;41,30
"Son en Breugel";221;1274,50;31;178,80;14;80,70
"Stadskanaal";182;575,30;5;15,80;2;6,30
"Staphorst";247;1440,20;8;46,60;4;23,30
"Stede Broec";170;782,80;19;87,50;5;23,00
"Steenbergen";369;1508,30;18;73,60;13;53,10
"Steenwijkerland";330;747,30;15;34,00;8;18,10
"Stein";213;853,80;45;180,40;15;60,10
"Stichtse Vecht";963;1480,90;46;70,70;14;21,50
"Súdwest-Fryslân";688;765,50;21;23,40;6;6,70
"Terneuzen";361;663,80;25;46,00;4;7,40
"Terschelling";50;1031,80;1;20,60;0;0,00
"Texel";68;500,90;6;44,20;2;14,70
"Teylingen";530;1412,40;18;48,00;4;10,70
"Tholen";323;1252,70;43;166,80;18;69,80
"Tiel";596;1415,90;46;109,30;22;52,30
"Tilburg";3313;1504,90;263;119,50;172;78,10
"Tubbergen";473;2223,50;12;56,40;6;28,20
"Twenterand";263;779,30;12;35,60;2;5,90
"Tynaarlo";233;689,00;11;32,50;0;0,00
"Tytsjerksteradiel";195;607,30;7;21,80;1;3,10
"Uden";552;1310,20;115;273,00;63;149,50
"Uitgeest";174;1274,00;6;43,90;1;7,30
"Uithoorn";465;1570,80;21;70,90;2;6,80
"Urk";125;593,20;23;109,10;4;19,00
"Utrecht";8117;2264,40;343;95,70;124;34,60
"Utrechtse Heuvelrug";740;1487,40;31;62,30;16;32,20
"Vaals";58;574,00;10;99,00;2;19,80
"Valkenburg aan de Geul";182;1113,70;19;116,30;7;42,80
"Valkenswaard";514;1646,20;21;67,30;37;118,50
"Veendam";143;522,20;2;7,30;1;3,70
"Veenendaal";1081;1622,70;53;79,60;15;22,50
"Veere";105;479,30;8;36,50;2;9,10
"Veldhoven";666;1462,80;34;74,70;18;39,50
"Velsen";956;1390,90;46;66,90;44;64,00
"Venlo";1376;1351,30;138;135,50;69;67,80
"Venray";585;1341,00;38;87,10;19;43,60
"Vijfheerenlanden";979;1720,20;44;77,30;43;75,60
"Vlaardingen";1752;2382,40;55;74,80;32;43,50
"Vlieland";14;1205,90;0;0,00;0;0,00
"Vlissingen";246;554,80;9;20,30;5;11,30
"Voerendaal";92;736,50;17;136,10;8;64,00
"Voorschoten";329;1285,50;11;43,00;11;43,00
"Voorst";221;898,30;17;69,10;11;44,70
"Vught";363;1365,70;43;161,80;17;64,00
"Waadhoeke";352;763,90;14;30,40;16;34,70
"Waalre";218;1248,50;8;45,80;5;28,60
"Waalwijk";686;1410,80;42;86,40;39;80,20
"Waddinxveen";487;1658,40;25;85,10;7;23,80
"Wageningen";526;1318,90;22;55,20;18;45,10
"Wassenaar";391;1490,30;10;38,10;13;49,60
"Waterland";280;1607,90;19;109,10;5;28,70
"Weert";542;1080,00;69;137,50;16;31,90
"Weesp";457;2295,80;10;50,20;14;70,30
"West Betuwe";633;1235,50;49;95,60;30;58,60
"West Maas en Waal";235;1214,00;23;118,80;10;51,70
"Westerkwartier";354;558,60;19;30,00;4;6,30
"Westerveld";95;488,20;9;46,30;4;20,60
"Westervoort";129;861,50;12;80,10;6;40,10
"Westerwolde";151;578,10;11;42,10;1;3,80
"Westland";1855;1677,10;69;62,40;30;27,10
"Weststellingwerf";156;601,80;3;11,60;4;15,40
"Westvoorne";246;1668,40;6;40,70;0;0,00
"Wierden";329;1347,00;7;28,70;6;24,60
"Wijchen";540;1314,10;50;121,70;15;36,50
"Wijdemeren";337;1384,10;11;45,20;1;4,10
"Wijk bij Duurstede";257;1076,30;11;46,10;2;8,40
"Winterswijk";199;690,90;8;27,80;4;13,90
"Woensdrecht";310;1410,60;8;36,40;9;41,00
"Woerden";740;1413,30;61;116,50;22;42,00
"Wormerland";228;1401,90;21;129,10;12;73,80
"Woudenberg";158;1180,00;9;67,20;2;14,90
"Zaanstad";2669;1701,60;150;95,60;58;37,00
"Zaltbommel";358;1234,40;23;79,30;10;34,50
"Zandvoort";207;1208,00;12;70,00;9;52,50
"Zeewolde";209;925,30;13;57,60;6;26,60
"Zeist";1032;1588,70;42;64,70;27;41,60
"Zevenaar";426;972,50;54;123,30;17;38,80
"Zoetermeer";2079;1659,70;65;51,90;16;12,80
"Zoeterwoude";109;1261,60;4;46,30;1;11,60
"Zuidplas";882;2002,60;31;70,40;23;52,20
"Zundert";335;1533,70;24;109,90;11;50,40
"Zutphen";378;787,30;32;66,70;13;27,10
"Zwartewaterland";296;1303,00;35;154,10;22;96,80
"Zwijndrecht";884;1977,80;29;64,90;30;67,10
"Zwolle";1175;910,40;54;41,80;50;38,70