"Category";"Meldingen";"Meldingen per 100000";"Zkh opname";"Zkh opname per 100000";"Overleden";"Overleden per 100000"
"'s-Hertogenbosch";4033;2595,60;157;101,00;100;64,40
"Aa en Hunze";259;1020,30;1;3,90;1;3,90
"Aalsmeer";907;2844,90;16;50,20;19;59,60
"Aalten";541;1996,80;14;51,70;9;33,20
"Achtkarspelen";246;883,30;0;0,00;0;0,00
"Alblasserdam";851;4223,30;11;54,60;12;59,60
"Albrandswaard";1094;4264,30;25;97,40;14;54,60
"Alkmaar";2277;2077,80;75;68,40;40;36,50
"Almelo";2187;2990,50;39;53,30;22;30,10
"Almere";5389;2537,10;175;82,40;46;21,70
"Alphen aan den Rijn";3333;2778,60;100;83,40;45;37,50
"Alphen-Chaam";279;2726,20;18;175,90;5;48,90
"Altena";1516;2708,80;43;76,80;29;51,80
"Ameland";46;1231,90;0;0,00;0;0,00
"Amersfoort";3946;2508,40;112;71,20;45;28,60
"Amstelveen";2691;2932,40;83;90,40;56;61,00
"Amsterdam";36224;4143,30;1135;129,80;393;45,00
"Apeldoorn";2787;1700,90;124;75,70;61;37,20
"Appingedam";74;636,00;8;68,80;1;8,60
"Arnhem";3445;2131,90;109;67,50;60;37,10
"Assen";847;1232,10;17;24,70;5;7,30
"Asten";400;2393,20;20;119,70;14;83,80
"Baarle-Nassau";169;2456,80;10;145,40;2;29,10
"Baarn";560;2252,00;20;80,40;12;48,30
"Barendrecht";1882;3865,20;60;123,20;26;53,40
"Barneveld";1418;2390,90;30;50,60;16;27,00
"Beek";247;1556,60;18;113,40;8;50,40
"Beekdaelen";587;1632,70;53;147,40;27;75,10
"Beemster";197;1968,60;4;40,00;2;20,00
"Beesel";253;1877,30;23;170,70;8;59,40
"Berg en Dal";1090;3112,60;42;119,90;32;91,40
"Bergeijk";567;3040,20;20;107,20;6;32,20
"Bergen (L.)";273;2087,20;11;84,10;3;22,90
"Bergen (NH.)";695;2328,40;23;77,10;24;80,40
"Bergen op Zoom";2523;3732,90;53;78,40;26;38,50
"Berkelland";1047;2392,60;24;54,80;23;52,60
"Bernheze";1026;3277,90;100;319,50;67;214,10
"Best";663;2208,80;36;119,90;13;43,30
"Beuningen";574;2213,40;22;84,80;9;34,70
"Beverwijk";1066;2561,90;23;55,30;15;36,00
"Bladel";930;4553,90;24;117,50;12;58,80
"Blaricum";278;2400,50;8;69,10;2;17,30
"Bloemendaal";479;2035,10;10;42,50;6;25,50
"Bodegraven-Reeuwijk";952;2724,80;23;65,80;11;31,50
"Boekel";255;2366,80;36;334,10;20;185,60
"Borger-Odoorn";345;1350,10;8;31,30;8;31,30
"Borne";546;2336,50;16;68,50;6;25,70
"Borsele";220;967,40;6;26,40;1;4,40
"Boxmeer";719;2445,30;25;85,00;31;105,40
"Boxtel";736;2388,10;26;84,40;28;90,90
"Breda";5272;2862,30;197;107,00;103;55,90
"Brielle";452;2617,70;18;104,20;2;11,60
"Bronckhorst";752;2088,50;19;52,80;7;19,40
"Brummen";338;1626,30;21;101,00;7;33,70
"Brunssum";429;1542,90;51;183,40;21;75,50
"Bunnik";356;2339,60;12;78,90;6;39,40
"Bunschoten";912;4166,10;22;100,50;11;50,20
"Buren";578;2157,00;24;89,60;10;37,30
"Capelle aan den IJssel";2481;3691,00;86;127,90;77;114,60
"Castricum";626;1738,00;18;50,00;11;30,50
"Coevorden";473;1339,70;20;56,60;6;17,00
"Cranendonck";657;3096,30;65;306,30;36;169,70
"Cuijk";634;2520,40;19;75,50;15;59,60
"Culemborg";762;2625,70;30;103,40;11;37,90
"Dalfsen";620;2161,40;18;62,80;9;31,40
"Dantumadiel";176;930,80;2;10,60;0;0,00
"De Bilt";1222;2834,40;37;85,80;26;60,30
"De Fryske Marren";614;1189,70;24;46,50;10;19,40
"De Ronde Venen";1177;2645,00;60;134,80;20;44,90
"De Wolden";337;1384,00;16;65,70;6;24,60
"Delft";3393;3277,10;56;54,10;25;24,10
"Delfzijl";173;701,60;9;36,50;0;0,00
"Den Helder";631;1119,60;19;33,70;6;10,60
"Deurne";976;3008,80;61;188,10;28;86,30
"Deventer";1900;1883,20;53;52,50;48;47,60
"Diemen";1202;3850,10;26;83,30;19;60,90
"Dinkelland";888;3356,90;23;86,90;17;64,30
"Doesburg";225;2034,70;11;99,50;7;63,30
"Doetinchem";1074;1849,70;38;65,40;17;29,30
"Dongen";767;2916,70;34;129,30;18;68,40
"Dordrecht";4330;3626,10;99;82,90;94;78,70
"Drechterland";413;2093,00;7;35,50;8;40,50
"Drimmelen";654;2401,90;23;84,50;11;40,40
"Dronten";513;1231,50;40;96,00;16;38,40
"Druten";432;2282,30;29;153,20;14;74,00
"Duiven";511;2038,10;18;71,80;8;31,90
"Echt-Susteren";401;1267,70;44;139,10;20;63,20
"Edam-Volendam";1254;3468,10;50;138,30;6;16,60
"Ede";2670;2281,30;82;70,10;39;33,30
"Eemnes";234;2525,10;4;43,20;1;10,80
"Eersel";660;3415,30;35;181,10;17;88,00
"Eijsden-Margraten";550;2134,60;60;232,90;29;112,60
"Eindhoven";5648;2404,90;224;95,40;125;53,20
"Elburg";413;1777,90;30;129,10;9;38,70
"Emmen";1927;1801,30;53;49,50;26;24,30
"Enkhuizen";338;1811,90;20;107,20;5;26,80
"Enschede";4195;2628,40;93;58,30;59;37,00
"Epe";572;1723,80;54;162,70;24;72,30
"Ermelo";510;1889,40;33;122,30;24;88,90
"Etten-Leur";1248;2844,30;56;127,60;32;72,90
"Geertruidenberg";449;2080,10;17;78,80;6;27,80
"Geldrop-Mierlo";1020;2562,90;41;103,00;18;45,20
"Gemert-Bakel";746;2426,70;80;260,20;34;110,60
"Gennep";357;2108,30;18;106,30;11;65,00
"Gilze en Rijen";691;2597,90;27;101,50;18;67,70
"Goeree-Overflakkee";1321;2634,30;70;139,60;41;81,80
"Goes";566;1481,10;19;49,70;14;36,60
"Goirle";677;2830,60;36;150,50;23;96,20
"Gooise Meren";1412;2431,00;33;56,80;17;29,30
"Gorinchem";1127;3036,20;20;53,90;22;59,30
"Gouda";2507;3411,60;85;115,70;76;103,40
"Grave";425;3407,90;28;224,50;18;144,30
"Groningen";4041;1734,50;33;14,20;5;2,10
"Gulpen-Wittem";295;2084,70;26;183,70;16;113,10
"Haaksbergen";723;2977,50;20;82,40;17;70,00
"Haaren";417;2905,10;20;139,30;9;62,70
"Haarlem";3741;2293,60;117;71,70;83;50,90
"Haarlemmermeer";4186;2677,20;110;70,40;44;28,10
"Halderberge";901;2976,70;30;99,10;16;52,90
"Hardenberg";1005;1648,30;26;42,60;11;18,00
"Harderwijk";944;1939,80;51;104,80;22;45,20
"Hardinxveld-Giessendam";579;3158,10;2;10,90;7;38,20
"Harlingen";126;802,50;5;31,80;2;12,70
"Hattem";205;1677,00;18;147,30;5;40,90
"Heemskerk";960;2449,00;36;91,80;20;51,00
"Heemstede";552;2022,90;17;62,30;35;128,30
"Heerde";381;2050,60;55;296,00;28;150,70
"Heerenveen";523;1036,30;17;33,70;22;43,60
"Heerhugowaard";1122;1942,80;33;57,10;10;17,30
"Heerlen";1396;1604,20;136;156,30;57;65,50
"Heeze-Leende";434;2689,60;18;111,60;11;68,20
"Heiloo";391;1633,10;13;54,30;10;41,80
"Hellendoorn";836;2329,70;15;41,80;15;41,80
"Hellevoetsluis";974;2424,00;25;62,20;8;19,90
"Helmond";2990;3239,00;135;146,20;53;57,40
"Hendrik-Ido-Ambacht";1121;3585,80;13;41,60;10;32,00
"Hengelo";2100;2586,30;42;51,70;27;33,30
"Het Hogeland";502;1048,60;9;18,80;6;12,50
"Heumen";450;2730,10;19;115,30;13;78,90
"Heusden";1301;2909,90;56;125,30;30;67,10
"Hillegom";491;2212,40;9;40,60;2;9,00
"Hilvarenbeek";471;3031,50;16;103,00;15;96,50
"Hilversum";2071;2274,90;47;51,60;33;36,20
"Hoeksche Waard";2404;2746,50;84;96,00;31;35,40
"Hof van Twente";912;2608,80;21;60,10;8;22,90
"Hollands Kroon";645;1331,00;31;64,00;6;12,40
"Hoogeveen";822;1477,20;32;57,50;15;27,00
"Hoorn";1459;1990,60;45;61,40;17;23,20
"Horst aan de Maas";1034;2435,20;47;110,70;29;68,30
"Houten";1221;2430,60;40;79,60;42;83,60
"Huizen";1237;3003,70;34;82,60;16;38,90
"Hulst";514;1845,40;16;57,40;7;25,10
"IJsselstein";945;2778,20;49;144,10;41;120,50
"Kaag en Braassem";623;2275,60;10;36,50;3;11,00
"Kampen";866;1593,50;63;115,90;37;68,10
"Kapelle";115;905,70;4;31,50;1;7,90
"Katwijk";2337;3550,80;54;82,00;26;39,50
"Kerkrade";696;1523,50;75;164,20;40;87,60
"Koggenland";471;2068,10;12;52,70;10;43,90
"Krimpen aan den IJssel";1059;3585,60;25;84,60;29;98,20
"Krimpenerwaard";1728;3069,50;65;115,50;42;74,60
"Laarbeek";585;2588,00;42;185,80;26;115,00
"Landerd";548;3480,20;42;266,70;21;133,40
"Landgraaf";486;1298,50;55;146,90;15;40,10
"Landsmeer";325;2815,10;6;52,00;3;26,00
"Langedijk";612;2172,10;21;74,50;7;24,80
"Lansingerland";2080;3326,40;57;91,20;39;62,40
"Laren";310;2735,40;10;88,20;6;52,90
"Leeuwarden";1671;1347,30;47;37,90;12;9,70
"Leiden";3774;3017,60;74;59,20;35;28,00
"Leiderdorp";726;2678,00;28;103,30;10;36,90
"Leidschendam-Voorburg";2061;2693,30;52;68,00;36;47,00
"Lelystad";1501;1901,90;94;119,10;37;46,90
"Leudal";684;1908,50;57;159,00;38;106,00
"Leusden";667;2192,40;14;46,00;12;39,40
"Lingewaard";1078;2311,10;42;90,00;17;36,40
"Lisse";510;2215,10;13;56,50;5;21,70
"Lochem";537;1591,60;19;56,30;16;47,40
"Loon op Zand";708;3024,00;32;136,70;24;102,50
"Lopik";446;3079,50;25;172,60;8;55,20
"Loppersum";72;757,40;1;10,50;0;0,00
"Losser";611;2693,40;13;57,30;4;17,60
"Maasdriel";688;2731,50;26;103,20;13;51,60
"Maasgouw";372;1553,90;28;117,00;16;66,80
"Maassluis";1211;3644,50;39;117,40;16;48,20
"Maastricht";2558;2105,20;207;170,40;143;117,70
"Medemblik";771;1709,00;22;48,80;6;13,30
"Meerssen";289;1536,00;23;122,20;13;69,10
"Meierijstad";2099;2581,80;223;274,30;138;169,70
"Meppel";409;1203,60;13;38,30;5;14,70
"Middelburg";511;1047,10;24;49,20;14;28,70
"Midden-Delfland";540;2797,60;11;57,00;5;25,90
"Midden-Drenthe";435;1310,00;7;21,10;0;0,00
"Midden-Groningen";502;825,80;14;23,00;6;9,90
"Mill en Sint Hubert";319;2911,10;14;127,80;6;54,80
"Moerdijk";1009;2716,00;24;64,60;21;56,50
"Molenlanden";1296;2947,10;20;45,50;14;31,80
"Montferland";692;1922,30;26;72,20;12;33,30
"Montfoort";380;2733,60;16;115,10;7;50,40
"Mook en Middelaar";216;2756,90;8;102,10;8;102,10
"Neder-Betuwe";640;2618,60;44;180,00;22;90,00
"Nederweert";404;2367,70;37;216,80;8;46,90
"Nieuwegein";1526;2403,00;61;96,10;17;26,80
"Nieuwkoop";682;2361,70;16;55,40;8;27,70
"Nijkerk";1018;2356,40;32;74,10;6;13,90
"Nijmegen";4661;2624,00;191;107,50;111;62,50
"Nissewaard";2892;3394,10;86;100,90;33;38,70
"Noardeast-Fryslân";399;881,50;9;19,90;4;8,80
"Noord-Beveland";95;1286,20;1;13,50;1;13,50
"Noordenveld";274;877,60;7;22,40;14;44,80
"Noordoostpolder";625;1317,40;21;44,30;13;27,40
"Noordwijk";1121;2571,90;38;87,20;7;16,10
"Nuenen, Gerwen en Nederwetten";550;2351,90;21;89,80;12;51,30
"Nunspeet";570;2049,70;61;219,40;22;79,10
"Oegstgeest";579;2326,10;15;60,30;3;12,10
"Oirschot";567;3024,20;17;90,70;17;90,70
"Oisterwijk";626;2381,50;29;110,30;14;53,30
"Oldambt";289;756,80;11;28,80;5;13,10
"Oldebroek";392;1657,50;40;169,10;20;84,60
"Oldenzaal";940;2952,10;22;69,10;23;72,20
"Olst-Wijhe";272;1490,60;12;65,80;8;43,80
"Ommen";276;1530,60;9;49,90;4;22,20
"Oost Gelre";761;2568,70;22;74,30;21;70,90
"Oosterhout";1592;2840,20;53;94,60;21;37,50
"Ooststellingwerf";251;986,10;6;23,60;1;3,90
"Oostzaan";307;3158,40;13;133,70;2;20,60
"Opmeer";198;1676,30;3;25,40;2;16,90
"Opsterland";227;765,20;9;30,30;0;0,00
"Oss";3037;3301,20;188;204,40;99;107,60
"Oude IJsselstreek";693;1760,00;25;63,50;12;30,50
"Ouder-Amstel";468;3314,90;8;56,70;0;0,00
"Oudewater";275;2693,40;31;303,60;11;107,70
"Overbetuwe";898;1872,20;62;129,30;20;41,70
"Papendrecht";955;2971,30;9;28,00;15;46,70
"Peel en Maas";1046;2397,60;147;336,90;65;149,00
"Pekela";103;846,80;7;57,60;2;16,40
"Pijnacker-Nootdorp";1705;3077,00;36;65,00;20;36,10
"Purmerend";1839;2257,50;93;114,20;43;52,80
"Putten";442;1832,50;12;49,80;2;8,30
"Raalte";775;2056,60;26;69,00;25;66,30
"Reimerswaal";294;1294,00;6;26,40;3;13,20
"Renkum";635;2021,70;20;63,70;11;35,00
"Renswoude";112;2041,60;5;91,10;5;91,10
"Reusel-De Mierden";551;4209,30;15;114,60;4;30,60
"Rheden";842;1928,00;38;87,00;19;43,50
"Rhenen";465;2312,40;14;69,60;6;29,80
"Ridderkerk";1676;3616,70;50;107,90;25;53,90
"Rijssen-Holten";1079;2823,40;31;81,10;32;83,70
"Rijswijk";1765;3231,50;68;124,50;54;98,90
"Roerdalen";259;1262,40;28;136,50;9;43,90
"Roermond";987;1692,50;66;113,20;25;42,90
"Roosendaal";2532;3275,70;53;68,60;39;50,50
"Rotterdam";31029;4756,40;1014;155,40;522;80,00
"Rozendaal";16;943,40;1;59,00;0;0,00
"Rucphen";750;3267,10;19;82,80;11;47,90
"s-Gravenhage";20430;3742,70;720;131,90;357;65,40
"Schagen";895;1925,90;23;49,50;14;30,10
"Scherpenzeel";205;2074,30;5;50,60;2;20,20
"Schiedam";3514;4457,00;104;131,90;34;43,10
"Schiermonnikoog";4;422,80;1;105,70;0;0,00
"Schouwen-Duiveland";486;1434,00;15;44,30;16;47,20
"Simpelveld";149;1413,10;20;189,70;5;47,40
"Sint Anthonis";275;2357,30;21;180,00;11;94,30
"Sint-Michielsgestel";810;2767,90;38;129,90;20;68,30
"Sittard-Geleen";1388;1503,30;132;143,00;69;74,70
"Sliedrecht";774;3072,90;11;43,70;11;43,70
"Sluis";306;1319,10;15;64,70;5;21,60
"Smallingerland";526;936,40;13;23,10;8;14,20
"Soest";1311;2809,90;40;85,70;32;68,60
"Someren";433;2235,60;34;175,50;9;46,50
"Son en Breugel";395;2278,00;32;184,50;17;98,00
"Stadskanaal";499;1577,30;9;28,40;7;22,10
"Staphorst";406;2367,30;11;64,10;5;29,20
"Stede Broec";367;1690,00;20;92,10;5;23,00
"Steenbergen";684;2795,90;19;77,70;14;57,20
"Steenwijkerland";537;1216,10;18;40,80;10;22,60
"Stein";373;1495,20;49;196,40;16;64,10
"Stichtse Vecht";1695;2606,50;60;92,30;20;30,80
"Súdwest-Fryslân";1331;1480,80;23;25,60;18;20,00
"Terneuzen";793;1458,10;29;53,30;4;7,40
"Terschelling";66;1361,90;1;20,60;1;20,60
"Texel";114;839,80;6;44,20;2;14,70
"Teylingen";1019;2715,60;21;56,00;5;13,30
"Tholen";663;2571,40;48;186,20;19;73,70
"Tiel";1236;2936,40;55;130,70;29;68,90
"Tilburg";6203;2817,70;296;134,50;191;86,80
"Tubbergen";942;4428,10;13;61,10;8;37,60
"Twenterand";847;2509,80;14;41,50;5;14,80
"Tynaarlo";358;1058,60;12;35,50;7;20,70
"Tytsjerksteradiel";300;934,30;8;24,90;3;9,30
"Uden";886;2102,90;117;277,70;67;159,00
"Uitgeest";321;2350,30;7;51,30;3;22,00
"Uithoorn";788;2662,00;23;77,70;4;13,50
"Urk";536;2543,50;27;128,10;5;23,70
"Utrecht";12684;3538,50;414;115,50;151;42,10
"Utrechtse Heuvelrug";1148;2307,40;33;66,30;21;42,20
"Vaals";91;900,60;10;99,00;2;19,80
"Valkenburg aan de Geul";279;1707,30;23;140,70;10;61,20
"Valkenswaard";895;2866,50;23;73,70;42;134,50
"Veendam";228;832,70;4;14,60;1;3,70
"Veenendaal";2003;3006,70;65;97,60;17;25,50
"Veere";169;771,40;9;41,10;2;9,10
"Veldhoven";1287;2826,80;40;87,90;22;48,30
"Velsen";1683;2448,60;53;77,10;49;71,30
"Venlo";2557;2511,00;149;146,30;79;77,60
"Venray";1184;2714,10;43;98,60;23;52,70
"Vijfheerenlanden";1738;3053,80;54;94,90;46;80,80
"Vlaardingen";3273;4450,70;79;107,40;50;68,00
"Vlieland";18;1550,40;0;0,00;0;0,00
"Vlissingen";478;1078,10;15;33,80;6;13,50
"Voerendaal";181;1449,00;18;144,10;8;64,00
"Voorschoten";573;2238,90;12;46,90;12;46,90
"Voorst";397;1613,80;18;73,20;11;44,70
"Vught";671;2524,50;44;165,50;21;79,00
"Waadhoeke";520;1128,50;16;34,70;18;39,10
"Waalre";439;2514,20;9;51,50;9;51,50
"Waalwijk";1450;2981,90;50;102,80;47;96,70
"Waddinxveen";862;2935,50;33;112,40;7;23,80
"Wageningen";819;2053,60;27;67,70;22;55,20
"Wassenaar";590;2248,80;13;49,60;13;49,60
"Waterland";498;2859,80;24;137,80;10;57,40
"Weert";1232;2454,90;81;161,40;21;41,80
"Weesp";752;3777,80;11;55,30;15;75,40
"West Betuwe";1241;2422,30;61;119,10;33;64,40
"West Maas en Waal";418;2159,30;24;124,00;15;77,50
"Westerkwartier";522;823,70;20;31,60;8;12,60
"Westerveld";185;950,80;9;46,30;5;25,70
"Westervoort";267;1783,10;13;86,80;7;46,70
"Westerwolde";270;1033,70;12;45,90;3;11,50
"Westland";3457;3125,50;88;79,60;37;33,50
"Weststellingwerf";315;1215,20;5;19,30;6;23,10
"Westvoorne";371;2516,10;8;54,30;1;6,80
"Wierden";835;3418,80;8;32,80;7;28,70
"Wijchen";960;2336,10;57;138,70;23;56,00
"Wijdemeren";574;2357,50;14;57,50;5;20,50
"Wijk bij Duurstede";485;2031,10;13;54,40;7;29,30
"Winterswijk";489;1697,80;10;34,70;6;20,80
"Woensdrecht";584;2657,40;10;45,50;20;91,00
"Woerden";1324;2528,70;70;133,70;23;43,90
"Wormerland";411;2527,10;24;147,60;12;73,80
"Woudenberg";295;2203,10;11;82,20;4;29,90
"Zaanstad";4862;3099,70;182;116,00;80;51,00
"Zaltbommel";781;2692,80;25;86,20;10;34,50
"Zandvoort";342;1995,80;15;87,50;9;52,50
"Zeewolde";347;1536,20;14;62,00;6;26,60
"Zeist";1587;2443,10;47;72,40;32;49,30
"Zevenaar";761;1737,30;60;137,00;20;45,70
"Zoetermeer";3565;2845,90;76;60,70;21;16,80
"Zoeterwoude";208;2407,40;4;46,30;1;11,60
"Zuidplas";1419;3221,90;40;90,80;23;52,20
"Zundert";586;2682,90;28;128,20;11;50,40
"Zutphen";829;1726,70;38;79,20;16;33,30
"Zwartewaterland";492;2165,90;36;158,50;22;96,80
"Zwijndrecht";1725;3859,50;30;67,10;47;105,20
"Zwolle";2085;1615,50;57;44,20;58;44,90