"Category";"Meldingen";"Meldingen per 100000";"Zkh opname";"Zkh opname per 100000";"Overleden";"Overleden per 100000"
"'s-Hertogenbosch";1293;832,10;137;88,20;80;51,50
"Aa en Hunze";80;315,20;1;3,90;0;0,00
"Aalsmeer";266;834,30;10;31,40;5;15,70
"Aalten";149;550,00;11;40,60;7;25,80
"Achtkarspelen";70;251,30;0;0,00;0;0,00
"Alblasserdam";244;1210,90;11;54,60;5;24,80
"Albrandswaard";359;1399,30;16;62,40;8;31,20
"Alkmaar";663;605,00;58;52,90;31;28,30
"Almelo";394;538,80;29;39,70;10;13,70
"Almere";1792;843,70;141;66,40;37;17,40
"Alphen aan den Rijn";942;785,30;71;59,20;26;21,70
"Alphen-Chaam";90;879,40;18;175,90;5;48,90
"Altena";366;654,00;35;62,50;11;19,70
"Ameland";14;374,90;0;0,00;0;0,00
"Amersfoort";1182;751,40;81;51,50;25;15,90
"Amstelveen";1176;1281,50;69;75,20;42;45,80
"Amsterdam";16789;1920,30;828;94,70;307;35,10
"Apeldoorn";1001;610,90;105;64,10;52;31,70
"Appingedam";26;223,50;4;34,40;0;0,00
"Arnhem";1119;692,50;75;46,40;34;21,00
"Assen";195;283,70;12;17,50;2;2,90
"Asten";138;825,70;18;107,70;12;71,80
"Baarle-Nassau";44;639,60;9;130,80;2;29,10
"Baarn";162;651,50;12;48,30;9;36,20
"Barendrecht";685;1406,80;43;88,30;13;26,70
"Barneveld";318;536,20;19;32,00;8;13,50
"Beek";68;428,50;16;100,80;6;37,80
"Beekdaelen";258;717,60;52;144,60;23;64,00
"Beemster";63;629,60;4;40,00;1;10,00
"Beesel";64;474,90;20;148,40;8;59,40
"Berg en Dal";382;1090,80;32;91,40;20;57,10
"Bergeijk";225;1206,40;19;101,90;5;26,80
"Bergen (L.)";68;519,90;7;53,50;2;15,30
"Bergen (NH.)";265;887,80;20;67,00;6;20,10
"Bergen op Zoom";794;1174,70;32;47,30;13;19,20
"Berkelland";236;539,30;14;32,00;7;16,00
"Bernheze";407;1300,30;95;303,50;65;207,70
"Best";191;636,30;31;103,30;11;36,60
"Beuningen";229;883,00;19;73,30;5;19,30
"Beverwijk";334;802,70;16;38,50;12;28,80
"Bladel";358;1753,00;21;102,80;9;44,10
"Blaricum";95;820,30;8;69,10;2;17,30
"Bloemendaal";200;849,70;8;34,00;5;21,20
"Bodegraven-Reeuwijk";301;861,50;9;25,80;8;22,90
"Boekel";106;983,90;34;315,60;20;185,60
"Borger-Odoorn";59;230,90;4;15,70;4;15,70
"Borne";115;492,10;14;59,90;6;25,70
"Borsele";84;369,40;5;22,00;1;4,40
"Boxmeer";232;789,00;20;68,00;28;95,20
"Boxtel";215;697,60;24;77,90;26;84,40
"Breda";1602;869,80;154;83,60;69;37,50
"Brielle";148;857,10;12;69,50;0;0,00
"Bronckhorst";183;508,20;17;47,20;7;19,40
"Brummen";101;486,00;18;86,60;6;28,90
"Brunssum";198;712,10;46;165,40;19;68,30
"Bunnik";122;801,80;10;65,70;1;6,60
"Bunschoten";169;772,00;12;54,80;7;32,00
"Buren";139;518,70;19;70,90;8;29,90
"Capelle aan den IJssel";997;1483,30;60;89,30;62;92,20
"Castricum";183;508,10;16;44,40;10;27,80
"Coevorden";124;351,20;13;36,80;2;5,70
"Cranendonck";277;1305,40;63;296,90;36;169,70
"Cuijk";170;675,80;12;47,70;10;39,80
"Culemborg";255;878,70;24;82,70;8;27,60
"Dalfsen";192;669,30;16;55,80;7;24,40
"Dantumadiel";75;396,70;2;10,60;0;0,00
"De Bilt";449;1041,40;30;69,60;24;55,70
"De Fryske Marren";202;391,40;18;34,90;6;11,60
"De Ronde Venen";425;955,10;41;92,10;13;29,20
"De Wolden";89;365,50;11;45,20;5;20,50
"Delft";1342;1296,20;42;40,60;12;11,60
"Delfzijl";79;320,40;6;24,30;0;0,00
"Den Helder";131;232,40;13;23,10;2;3,50
"Deurne";338;1042,00;56;172,60;25;77,10
"Deventer";720;713,60;49;48,60;36;35,70
"Diemen";560;1793,70;20;64,10;14;44,80
"Dinkelland";192;725,80;20;75,60;10;37,80
"Doesburg";85;768,70;10;90,40;6;54,30
"Doetinchem";334;575,20;27;46,50;15;25,80
"Dongen";184;699,70;21;79,90;13;49,40
"Dordrecht";1350;1130,50;96;80,40;69;57,80
"Drechterland";92;466,20;5;25,30;8;40,50
"Drimmelen";164;602,30;20;73,50;9;33,10
"Dronten";189;453,70;34;81,60;13;31,20
"Druten";159;840,00;25;132,10;8;42,30
"Duiven";173;690,00;15;59,80;6;23,90
"Echt-Susteren";128;404,70;40;126,50;18;56,90
"Edam-Volendam";410;1133,90;28;77,40;3;8,30
"Ede";854;729,70;62;53,00;24;20,50
"Eemnes";55;593,50;2;21,60;1;10,80
"Eersel";225;1164,30;27;139,70;10;51,70
"Eijsden-Margraten";243;943,10;54;209,60;27;104,80
"Eindhoven";1878;799,70;190;80,90;92;39,20
"Elburg";195;839,50;28;120,50;8;34,40
"Emmen";581;543,10;29;27,10;17;15,90
"Enkhuizen";61;327,00;19;101,90;4;21,40
"Enschede";808;506,30;60;37,60;26;16,30
"Epe";213;641,90;49;147,70;23;69,30
"Ermelo";228;844,70;33;122,30;23;85,20
"Etten-Leur";382;870,60;43;98,00;30;68,40
"Geertruidenberg";113;523,50;12;55,60;6;27,80
"Geldrop-Mierlo";270;678,40;34;85,40;16;40,20
"Gemert-Bakel";307;998,70;79;257,00;32;104,10
"Gennep";122;720,50;17;100,40;10;59,10
"Gilze en Rijen";203;763,20;20;75,20;15;56,40
"Goeree-Overflakkee";501;999,10;57;113,70;35;69,80
"Goes";262;685,60;12;31,40;13;34,00
"Goirle";238;995,10;32;133,80;19;79,40
"Gooise Meren";499;859,10;25;43,00;15;25,80
"Gorinchem";388;1045,30;19;51,20;16;43,10
"Gouda";984;1339,00;51;69,40;43;58,50
"Grave";126;1010,30;21;168,40;11;88,20
"Groningen";1896;813,80;22;9,40;3;1,30
"Gulpen-Wittem";125;883,30;22;155,50;15;106,00
"Haaksbergen";265;1091,30;15;61,80;7;28,80
"Haaren";102;710,60;19;132,40;8;55,70
"Haarlem";1395;855,30;84;51,50;67;41,10
"Haarlemmermeer";1494;955,50;80;51,20;33;21,10
"Halderberge";228;753,30;16;52,90;8;26,40
"Hardenberg";257;421,50;23;37,70;10;16,40
"Harderwijk";395;811,70;44;90,40;20;41,10
"Hardinxveld-Giessendam";118;643,60;2;10,90;2;10,90
"Harlingen";36;229,30;4;25,50;1;6,40
"Hattem";79;646,30;18;147,30;5;40,90
"Heemskerk";263;670,90;32;81,60;11;28,10
"Heemstede";261;956,50;13;47,60;33;120,90
"Heerde";252;1356,30;55;296,00;28;150,70
"Heerenveen";206;408,20;14;27,70;21;41,60
"Heerhugowaard";360;623,40;27;46,80;9;15,60
"Heerlen";588;675,70;126;144,80;54;62,10
"Heeze-Leende";132;818,00;16;99,20;8;49,60
"Heiloo";106;442,70;11;45,90;8;33,40
"Hellendoorn";136;379,00;8;22,30;12;33,40
"Hellevoetsluis";325;808,80;17;42,30;5;12,40
"Helmond";1026;1111,40;119;128,90;45;48,70
"Hendrik-Ido-Ambacht";351;1122,80;13;41,60;6;19,20
"Hengelo";525;646,60;31;38,20;21;25,90
"Het Hogeland";175;365,60;7;14,60;3;6,30
"Heumen";200;1213,40;19;115,30;11;66,70
"Heusden";364;814,20;45;100,70;25;55,90
"Hillegom";194;874,10;8;36,00;2;9,00
"Hilvarenbeek";137;881,80;10;64,40;7;45,10
"Hilversum";750;823,80;37;40,60;25;27,50
"Hoeksche Waard";930;1062,50;80;91,40;21;24,00
"Hof van Twente";207;592,10;15;42,90;5;14,30
"Hollands Kroon";160;330,20;26;53,70;6;12,40
"Hoogeveen";181;325,30;21;37,70;8;14,40
"Hoorn";393;536,20;37;50,50;12;16,40
"Horst aan de Maas";266;626,50;41;96,60;27;63,60
"Houten";377;750,50;28;55,70;15;29,90
"Huizen";396;961,60;25;60,70;10;24,30
"Hulst";104;373,40;9;32,30;5;18,00
"IJsselstein";322;946,60;37;108,80;35;102,90
"Kaag en Braassem";151;551,60;8;29,20;3;11,00
"Kampen";482;886,90;60;110,40;37;68,10
"Kapelle";47;370,20;3;23,60;1;7,90
"Katwijk";615;934,40;37;56,20;15;22,80
"Kerkrade";305;667,60;64;140,10;35;76,60
"Koggenland";144;632,30;7;30,70;7;30,70
"Krimpen aan den IJssel";342;1157,90;13;44,00;8;27,10
"Krimpenerwaard";625;1110,20;47;83,50;35;62,20
"Laarbeek";211;933,50;41;181,40;26;115,00
"Landerd";224;1422,60;42;266,70;21;133,40
"Landgraaf";208;555,70;53;141,60;14;37,40
"Landsmeer";117;1013,40;3;26,00;3;26,00
"Langedijk";194;688,60;19;67,40;4;14,20
"Lansingerland";768;1228,20;46;73,60;27;43,20
"Laren";105;926,50;8;70,60;2;17,60
"Leeuwarden";739;595,90;42;33,90;6;4,80
"Leiden";1325;1059,40;50;40,00;22;17,60
"Leiderdorp";192;708,20;17;62,70;7;25,80
"Leidschendam-Voorburg";828;1082,00;34;44,40;25;32,70
"Lelystad";510;646,20;73;92,50;31;39,30
"Leudal";246;686,40;54;150,70;33;92,10
"Leusden";230;756,00;9;29,60;8;26,30
"Lingewaard";337;722,50;36;77,20;10;21,40
"Lisse";104;451,70;9;39,10;2;8,70
"Lochem";211;625,40;16;47,40;15;44,50
"Loon op Zand";187;798,70;27;115,30;7;29,90
"Lopik";155;1070,20;20;138,10;8;55,20
"Loppersum";20;210,40;0;0,00;0;0,00
"Losser";133;586,30;11;48,50;0;0,00
"Maasdriel";151;599,50;16;63,50;7;27,80
"Maasgouw";151;630,80;28;117,00;15;62,70
"Maassluis";395;1188,80;23;69,20;9;27,10
"Maastricht";1311;1078,90;193;158,80;140;115,20
"Medemblik";175;387,90;19;42,10;6;13,30
"Meerssen";153;813,20;23;122,20;13;69,10
"Meierijstad";859;1056,60;211;259,50;131;161,10
"Meppel";128;376,70;11;32,40;5;14,70
"Middelburg";204;418,00;19;38,90;10;20,50
"Midden-Delfland";153;792,70;5;25,90;0;0,00
"Midden-Drenthe";67;201,80;6;18,10;0;0,00
"Midden-Groningen";147;241,80;7;11,50;4;6,60
"Mill en Sint Hubert";104;949,10;9;82,10;5;45,60
"Moerdijk";238;640,60;17;45,80;8;21,50
"Molenlanden";305;693,60;20;45,50;9;20,50
"Montferland";177;491,70;22;61,10;9;25,00
"Montfoort";130;935,20;15;107,90;6;43,20
"Mook en Middelaar";87;1110,40;7;89,30;5;63,80
"Neder-Betuwe";206;842,80;40;163,70;21;85,90
"Nederweert";105;615,40;31;181,70;7;41,00
"Nieuwegein";498;784,20;47;74,00;14;22,00
"Nieuwkoop";179;619,80;10;34,60;6;20,80
"Nijkerk";348;805,50;22;50,90;3;6,90
"Nijmegen";2212;1245,30;152;85,60;73;41,10
"Nissewaard";782;917,80;63;73,90;22;25,80
"Noardeast-Fryslân";147;324,80;7;15,50;4;8,80
"Noord-Beveland";32;433,30;1;13,50;0;0,00
"Noordenveld";130;416,40;4;12,80;13;41,60
"Noordoostpolder";175;368,90;17;35,80;10;21,10
"Noordwijk";322;738,80;22;50,50;3;6,90
"Nuenen, Gerwen en Nederwetten";192;821,00;18;77,00;9;38,50
"Nunspeet";306;1100,40;58;208,60;21;75,50
"Oegstgeest";185;743,20;10;40,20;3;12,10
"Oirschot";191;1018,70;13;69,30;9;48,00
"Oisterwijk";164;623,90;24;91,30;11;41,80
"Oldambt";106;277,60;8;20,90;3;7,90
"Oldebroek";215;909,10;40;169,10;19;80,30
"Oldenzaal";202;634,40;15;47,10;7;22,00
"Olst-Wijhe";103;564,40;12;65,80;8;43,80
"Ommen";114;632,20;9;49,90;4;22,20
"Oost Gelre";207;698,70;18;60,80;6;20,30
"Oosterhout";394;702,90;51;91,00;17;30,30
"Ooststellingwerf";38;149,30;3;11,80;1;3,90
"Oostzaan";104;1070,00;12;123,50;2;20,60
"Opmeer";39;330,20;1;8,50;1;8,50
"Opsterland";75;252,80;8;27,00;0;0,00
"Oss";1094;1189,20;171;185,90;88;95,70
"Oude IJsselstreek";215;546,00;22;55,90;9;22,90
"Ouder-Amstel";212;1501,60;6;42,50;0;0,00
"Oudewater";113;1106,80;26;254,70;9;88,10
"Overbetuwe";359;748,50;56;116,80;16;33,40
"Papendrecht";229;712,50;9;28,00;8;24,90
"Peel en Maas";373;855,00;144;330,10;65;149,00
"Pekela";18;148,00;4;32,90;0;0,00
"Pijnacker-Nootdorp";594;1072,00;30;54,10;17;30,70
"Purmerend";635;779,50;74;90,80;35;43,00
"Putten";119;493,40;10;41,50;1;4,10
"Raalte";272;721,80;24;63,70;21;55,70
"Reimerswaal";84;369,70;5;22,00;2;8,80
"Renkum";254;808,70;14;44,60;9;28,70
"Renswoude";40;729,10;5;91,10;5;91,10
"Reusel-De Mierden";196;1497,30;12;91,70;2;15,30
"Rheden";262;599,90;34;77,90;14;32,10
"Rhenen";105;522,20;11;54,70;6;29,80
"Ridderkerk";507;1094,10;40;86,30;19;41,00
"Rijssen-Holten";310;811,20;29;75,90;25;65,40
"Rijswijk";656;1201,00;47;86,10;27;49,40
"Roerdalen";81;394,80;27;131,60;8;39,00
"Roermond";316;541,90;62;106,30;23;39,40
"Roosendaal";675;873,30;36;46,60;24;31,00
"Rotterdam";12832;1967,00;686;105,20;376;57,60
"Rozendaal";8;471,70;1;59,00;0;0,00
"Rucphen";200;871,20;11;47,90;10;43,60
"s-Gravenhage";9547;1749,00;473;86,70;288;52,80
"Schagen";202;434,70;19;40,90;10;21,50
"Scherpenzeel";63;637,50;4;40,50;2;20,20
"Schiedam";1196;1517,00;64;81,20;25;31,70
"Schiermonnikoog";0;0,00;0;0,00;0;0,00
"Schouwen-Duiveland";176;519,30;12;35,40;9;26,60
"Simpelveld";61;578,50;19;180,20;5;47,40
"Sint Anthonis";106;908,60;20;171,40;11;94,30
"Sint-Michielsgestel";267;912,40;37;126,40;19;64,90
"Sittard-Geleen";601;650,90;120;130,00;64;69,30
"Sliedrecht";184;730,50;9;35,70;5;19,90
"Sluis";36;155,20;9;38,80;4;17,20
"Smallingerland";142;252,80;9;16,00;6;10,70
"Soest";416;891,60;26;55,70;13;27,90
"Someren";140;722,80;33;170,40;8;41,30
"Son en Breugel";133;767,00;31;178,80;14;80,70
"Stadskanaal";87;275,00;2;6,30;2;6,30
"Staphorst";119;693,90;8;46,60;4;23,30
"Stede Broec";98;451,30;19;87,50;5;23,00
"Steenbergen";190;776,70;13;53,10;13;53,10
"Steenwijkerland";227;514,10;15;34,00;8;18,10
"Stein";158;633,30;44;176,40;15;60,10
"Stichtse Vecht";566;870,40;42;64,60;14;21,50
"Súdwest-Fryslân";302;336,00;19;21,10;6;6,70
"Terneuzen";225;413,70;25;46,00;4;7,40
"Terschelling";12;247,60;0;0,00;0;0,00
"Texel";43;316,80;5;36,80;2;14,70
"Teylingen";301;802,20;17;45,30;2;5,30
"Tholen";238;923,10;40;155,10;16;62,10
"Tiel";342;812,50;44;104,50;21;49,90
"Tilburg";2167;984,40;259;117,70;168;76,30
"Tubbergen";197;926,10;12;56,40;5;23,50
"Twenterand";113;334,80;12;35,60;2;5,90
"Tynaarlo";112;331,20;9;26,60;0;0,00
"Tytsjerksteradiel";114;355,00;6;18,70;1;3,10
"Uden";375;890,10;115;273,00;63;149,50
"Uitgeest";92;673,60;5;36,60;1;7,30
"Uithoorn";282;952,60;18;60,80;2;6,80
"Urk";100;474,50;23;109,10;4;19,00
"Utrecht";4997;1394,00;312;87,00;122;34,00
"Utrechtse Heuvelrug";375;753,70;29;58,30;14;28,10
"Vaals";38;376,10;10;99,00;2;19,80
"Valkenburg aan de Geul";115;703,70;19;116,30;7;42,80
"Valkenswaard";308;986,50;19;60,90;37;118,50
"Veendam";77;281,20;2;7,30;1;3,70
"Veenendaal";517;776,10;49;73,60;14;21,00
"Veere";72;328,60;6;27,40;2;9,10
"Veldhoven";372;817,10;31;68,10;18;39,50
"Velsen";636;925,30;38;55,30;42;61,10
"Venlo";780;766,00;135;132,60;67;65,80
"Venray";295;676,20;37;84,80;18;41,30
"Vijfheerenlanden";683;1200,10;40;70,30;43;75,60
"Vlaardingen";1031;1402,00;50;68,00;30;40,80
"Vlieland";8;689,10;0;0,00;0;0,00
"Vlissingen";163;367,60;9;20,30;5;11,30
"Voerendaal";66;528,40;17;136,10;8;64,00
"Voorschoten";206;804,90;10;39,10;11;43,00
"Voorst";156;634,10;17;69,10;11;44,70
"Vught";213;801,40;43;161,80;17;64,00
"Waadhoeke";200;434,00;13;28,20;15;32,60
"Waalre";121;693,00;7;40,10;5;28,60
"Waalwijk";401;824,70;40;82,30;37;76,10
"Waddinxveen";292;994,40;21;71,50;7;23,80
"Wageningen";334;837,50;21;52,70;9;22,60
"Wassenaar";247;941,50;10;38,10;13;49,60
"Waterland";144;826,90;17;97,60;4;23,00
"Weert";294;585,80;68;135,50;16;31,90
"Weesp";314;1577,40;9;45,20;13;65,30
"West Betuwe";353;689,00;44;85,90;28;54,70
"West Maas en Waal";142;733,50;21;108,50;9;46,50
"Westerkwartier";181;285,60;15;23,70;4;6,30
"Westerveld";60;308,40;9;46,30;4;20,60
"Westervoort";88;587,70;12;80,10;6;40,10
"Westerwolde";59;225,90;6;23,00;1;3,80
"Westland";1074;971,00;66;59,70;30;27,10
"Weststellingwerf";77;297,00;3;11,60;4;15,40
"Westvoorne";120;813,80;6;40,70;0;0,00
"Wierden";139;569,10;7;28,70;6;24,60
"Wijchen";357;868,70;46;111,90;13;31,60
"Wijdemeren";173;710,50;9;37,00;0;0,00
"Wijk bij Duurstede";122;510,90;10;41,90;1;4,20
"Winterswijk";96;333,30;7;24,30;3;10,40
"Woensdrecht";156;709,90;7;31,90;7;31,90
"Woerden";442;844,20;55;105,00;20;38,20
"Wormerland";116;713,20;20;123,00;6;36,90
"Woudenberg";86;642,30;9;67,20;2;14,90
"Zaanstad";1520;969,00;137;87,30;54;34,40
"Zaltbommel";200;689,60;21;72,40;9;31,00
"Zandvoort";141;822,80;12;70,00;9;52,50
"Zeewolde";128;566,70;12;53,10;6;26,60
"Zeist";640;985,20;39;60,00;27;41,60
"Zevenaar";270;616,40;49;111,90;16;36,50
"Zoetermeer";1320;1053,80;62;49,50;14;11,20
"Zoeterwoude";57;659,70;3;34,70;1;11,60
"Zuidplas";587;1332,80;28;63,60;21;47,70
"Zundert";186;851,60;24;109,90;11;50,40
"Zutphen";229;477,00;31;64,60;13;27,10
"Zwartewaterland";202;889,20;35;154,10;21;92,40
"Zwijndrecht";535;1197,00;27;60,40;28;62,60
"Zwolle";744;576,50;53;41,10;49;38,00