"Category";"Meldingen";"Meldingen per 100000";"Zkh opname";"Zkh opname per 100000";"Overleden";"Overleden per 100000"
"'s-Hertogenbosch";4408;2836,90;159;102,30;100;64,40
"Aa en Hunze";285;1122,80;1;3,90;1;3,90
"Aalsmeer";982;3080,10;17;53,30;20;62,70
"Aalten";575;2122,30;14;51,70;12;44,30
"Achtkarspelen";263;944,30;0;0,00;0;0,00
"Alblasserdam";886;4397,00;11;54,60;13;64,50
"Albrandswaard";1168;4552,70;28;109,10;15;58,50
"Alkmaar";2480;2263,00;77;70,30;40;36,50
"Almelo";2388;3265,30;40;54,70;22;30,10
"Almere";5842;2750,40;179;84,30;47;22,10
"Alphen aan den Rijn";3654;3046,20;103;85,90;48;40,00
"Alphen-Chaam";320;3126,80;20;195,40;5;48,90
"Altena";1726;3084,00;45;80,40;32;57,20
"Ameland";46;1231,90;0;0,00;0;0,00
"Amersfoort";4274;2716,90;117;74,40;49;31,10
"Amstelveen";2818;3070,80;83;90,40;60;65,40
"Amsterdam";37955;4341,30;1156;132,20;403;46,10
"Apeldoorn";2983;1820,50;127;77,50;63;38,40
"Appingedam";89;764,90;8;68,80;1;8,60
"Arnhem";3769;2332,40;110;68,10;65;40,20
"Assen";942;1370,30;20;29,10;6;8,70
"Asten";433;2590,60;20;119,70;14;83,80
"Baarle-Nassau";186;2703,90;10;145,40;2;29,10
"Baarn";604;2428,90;22;88,50;15;60,30
"Barendrecht";1993;4093,20;66;135,50;27;55,50
"Barneveld";1584;2670,80;30;50,60;17;28,70
"Beek";280;1764,60;18;113,40;8;50,40
"Beekdaelen";656;1824,70;54;150,20;27;75,10
"Beemster";206;2058,60;4;40,00;2;20,00
"Beesel";273;2025,70;23;170,70;9;66,80
"Berg en Dal";1146;3272,50;42;119,90;33;94,20
"Bergeijk";612;3281,50;21;112,60;6;32,20
"Bergen (L.)";292;2232,40;12;91,70;3;22,90
"Bergen (NH.)";737;2469,10;23;77,10;24;80,40
"Bergen op Zoom";2716;4018,40;55;81,40;27;39,90
"Berkelland";1128;2577,70;25;57,10;25;57,10
"Bernheze";1090;3482,30;101;322,70;67;214,10
"Best";704;2345,40;36;119,90;13;43,30
"Beuningen";604;2329,10;23;88,70;10;38,60
"Beverwijk";1118;2686,90;23;55,30;15;36,00
"Bladel";975;4774,30;25;122,40;12;58,80
"Blaricum";303;2616,40;8;69,10;2;17,30
"Bloemendaal";492;2090,30;10;42,50;6;25,50
"Bodegraven-Reeuwijk";1060;3033,90;23;65,80;11;31,50
"Boekel";266;2468,90;36;334,10;20;185,60
"Borger-Odoorn";383;1498,80;9;35,20;8;31,30
"Borne";590;2524,80;16;68,50;6;25,70
"Borsele";251;1103,70;6;26,40;1;4,40
"Boxmeer";761;2588,20;25;85,00;32;108,80
"Boxtel";808;2621,70;29;94,10;28;90,90
"Breda";5624;3053,40;198;107,50;106;57,60
"Brielle";474;2745,10;19;110,00;2;11,60
"Bronckhorst";815;2263,50;20;55,50;7;19,40
"Brummen";355;1708,00;22;105,90;7;33,70
"Brunssum";458;1647,20;51;183,40;21;75,50
"Bunnik";395;2596,00;13;85,40;6;39,40
"Bunschoten";1017;4645,70;25;114,20;11;50,20
"Buren";616;2298,80;25;93,30;11;41,00
"Capelle aan den IJssel";2628;3909,70;91;135,40;79;117,50
"Castricum";695;1929,60;18;50,00;12;33,30
"Coevorden";551;1560,60;21;59,50;7;19,80
"Cranendonck";710;3346,10;65;306,30;37;174,40
"Cuijk";667;2651,60;19;75,50;15;59,60
"Culemborg";817;2815,20;31;106,80;11;37,90
"Dalfsen";650;2266,00;18;62,80;9;31,40
"Dantumadiel";190;1004,90;2;10,60;0;0,00
"De Bilt";1287;2985,20;37;85,80;28;64,90
"De Fryske Marren";657;1273,10;26;50,40;10;19,40
"De Ronde Venen";1254;2818,00;66;148,30;20;44,90
"De Wolden";360;1478,40;16;65,70;6;24,60
"Delft";3588;3465,50;60;58,00;27;26,10
"Delfzijl";208;843,50;9;36,50;0;0,00
"Den Helder";743;1318,30;19;33,70;6;10,60
"Deurne";1042;3212,30;61;188,10;30;92,50
"Deventer";2064;2045,70;54;53,50;50;49,60
"Diemen";1269;4064,70;27;86,50;20;64,10
"Dinkelland";952;3598,80;23;86,90;17;64,30
"Doesburg";232;2098,00;11;99,50;7;63,30
"Doetinchem";1154;1987,50;39;67,20;18;31,00
"Dongen";849;3228,50;36;136,90;18;68,40
"Dordrecht";4652;3895,70;99;82,90;98;82,10
"Drechterland";444;2250,20;7;35,50;8;40,50
"Drimmelen";702;2578,10;26;95,50;12;44,10
"Dronten";584;1402,00;43;103,20;16;38,40
"Druten";455;2403,80;29;153,20;14;74,00
"Duiven";603;2405,10;18;71,80;8;31,90
"Echt-Susteren";436;1378,40;44;139,10;20;63,20
"Edam-Volendam";1306;3611,90;53;146,60;9;24,90
"Ede";2920;2494,90;85;72,60;40;34,20
"Eemnes";252;2719,30;4;43,20;1;10,80
"Eersel";714;3694,70;36;186,30;18;93,10
"Eijsden-Margraten";573;2223,90;61;236,70;29;112,60
"Eindhoven";6054;2577,80;235;100,10;128;54,50
"Elburg";469;2019,00;30;129,10;10;43,00
"Emmen";2077;1941,50;54;50,50;27;25,20
"Enkhuizen";381;2042,50;20;107,20;5;26,80
"Enschede";4540;2844,60;93;58,30;60;37,60
"Epe";610;1838,30;54;162,70;25;75,30
"Ermelo";578;2141,40;33;122,30;25;92,60
"Etten-Leur";1340;3054,00;56;127,60;32;72,90
"Geertruidenberg";505;2339,50;18;83,40;6;27,80
"Geldrop-Mierlo";1105;2776,50;42;105,50;18;45,20
"Gemert-Bakel";783;2547,10;80;260,20;34;110,60
"Gennep";406;2397,70;18;106,30;14;82,70
"Gilze en Rijen";758;2849,80;27;101,50;18;67,70
"Goeree-Overflakkee";1404;2799,80;70;139,60;45;89,70
"Goes";600;1570,00;21;55,00;14;36,60
"Goirle";741;3098,20;37;154,70;23;96,20
"Gooise Meren";1517;2611,70;34;58,50;17;29,30
"Gorinchem";1234;3324,40;20;53,90;22;59,30
"Gouda";2709;3686,50;92;125,20;78;106,10
"Grave";445;3568,30;28;224,50;20;160,40
"Groningen";4224;1813,00;34;14,60;5;2,10
"Gulpen-Wittem";308;2176,50;26;183,70;16;113,10
"Haaksbergen";792;3261,70;21;86,50;19;78,20
"Haaren";451;3142,00;20;139,30;9;62,70
"Haarlem";3968;2432,70;119;73,00;86;52,70
"Haarlemmermeer";4444;2842,30;111;71,00;45;28,80
"Halderberge";988;3264,20;32;105,70;16;52,90
"Hardenberg";1098;1800,90;27;44,30;13;21,30
"Harderwijk";1021;2098,00;53;108,90;22;45,20
"Hardinxveld-Giessendam";621;3387,10;2;10,90;7;38,20
"Harlingen";130;828,00;5;31,80;2;12,70
"Hattem";220;1799,70;18;147,30;5;40,90
"Heemskerk";1042;2658,20;38;96,90;21;53,60
"Heemstede";589;2158,50;17;62,30;35;128,30
"Heerde";390;2099,00;55;296,00;29;156,10
"Heerenveen";563;1115,50;17;33,70;22;43,60
"Heerhugowaard";1221;2114,20;33;57,10;10;17,30
"Heerlen";1505;1729,40;137;157,40;58;66,60
"Heeze-Leende";474;2937,50;19;117,70;11;68,20
"Heiloo";439;1833,60;14;58,50;10;41,80
"Hellendoorn";912;2541,50;15;41,80;15;41,80
"Hellevoetsluis";1060;2638,00;27;67,20;8;19,90
"Helmond";3158;3421,00;138;149,50;53;57,40
"Hendrik-Ido-Ambacht";1189;3803,30;13;41,60;10;32,00
"Hengelo";2252;2773,50;43;53,00;29;35,70
"Het Hogeland";544;1136,40;10;20,90;6;12,50
"Heumen";485;2942,40;20;121,30;13;78,90
"Heusden";1434;3207,40;57;127,50;31;69,30
"Hillegom";517;2329,60;9;40,60;2;9,00
"Hilvarenbeek";500;3218,10;17;109,40;15;96,50
"Hilversum";2200;2416,60;48;52,70;34;37,30
"Hoeksche Waard";2575;2941,80;85;97,10;33;37,70
"Hof van Twente";991;2834,80;23;65,80;10;28,60
"Hollands Kroon";722;1489,90;32;66,00;6;12,40
"Hoogeveen";891;1601,20;32;57,50;15;27,00
"Hoorn";1615;2203,50;47;64,10;18;24,60
"Horst aan de Maas";1171;2757,80;47;110,70;31;73,00
"Houten";1277;2542,10;41;81,60;45;89,60
"Huizen";1318;3200,40;36;87,40;16;38,90
"Hulst";576;2068,00;19;68,20;7;25,10
"IJsselstein";1012;2975,20;50;147,00;42;123,50
"Kaag en Braassem";673;2458,30;10;36,50;3;11,00
"Kampen";948;1744,30;63;115,90;37;68,10
"Kapelle";124;976,60;4;31,50;1;7,90
"Katwijk";2459;3736,20;57;86,60;27;41,00
"Kerkrade";736;1611,10;77;168,50;41;89,70
"Koggenland";531;2331,60;12;52,70;10;43,90
"Krimpen aan den IJssel";1142;3866,60;26;88,00;29;98,20
"Krimpenerwaard";1878;3335,90;67;119,00;45;79,90
"Laarbeek";645;2853,50;42;185,80;26;115,00
"Landerd";586;3721,60;42;266,70;21;133,40
"Landgraaf";544;1453,50;56;149,60;16;42,70
"Landsmeer";355;3074,90;6;52,00;3;26,00
"Langedijk";671;2381,50;21;74,50;7;24,80
"Lansingerland";2194;3508,70;57;91,20;42;67,20
"Laren";328;2894,20;10;88,20;6;52,90
"Leeuwarden";1777;1432,80;49;39,50;16;12,90
"Leiden";3999;3197,50;78;62,40;36;28,80
"Leiderdorp";774;2855,00;28;103,30;10;36,90
"Leidschendam-Voorburg";2196;2869,70;53;69,30;41;53,60
"Lelystad";1646;2085,70;95;120,40;39;49,40
"Leudal";760;2120,50;57;159,00;39;108,80
"Leusden";722;2373,20;16;52,60;12;39,40
"Lingewaard";1146;2456,90;44;94,30;17;36,40
"Lisse";543;2358,40;13;56,50;5;21,70
"Lochem";597;1769,40;22;65,20;17;50,40
"Loon op Zand";778;3322,90;34;145,20;26;111,00
"Lopik";472;3259,00;25;172,60;8;55,20
"Loppersum";77;810,00;1;10,50;0;0,00
"Losser";685;3019,60;13;57,30;4;17,60
"Maasdriel";760;3017,30;26;103,20;14;55,60
"Maasgouw";404;1687,60;28;117,00;16;66,80
"Maassluis";1299;3909,40;44;132,40;16;48,20
"Maastricht";2746;2259,90;207;170,40;143;117,70
"Medemblik";840;1861,90;22;48,80;6;13,30
"Meerssen";302;1605,10;24;127,60;13;69,10
"Meierijstad";2236;2750,30;223;274,30;138;169,70
"Meppel";450;1324,20;13;38,30;5;14,70
"Middelburg";556;1139,30;27;55,30;14;28,70
"Midden-Delfland";591;3061,90;12;62,20;5;25,90
"Midden-Drenthe";469;1412,40;8;24,10;1;3,00
"Midden-Groningen";607;998,60;15;24,70;7;11,50
"Mill en Sint Hubert";341;3111,90;14;127,80;6;54,80
"Moerdijk";1078;2901,70;24;64,60;21;56,50
"Molenlanden";1428;3247,20;19;43,20;16;36,40
"Montferland";732;2033,40;27;75,00;12;33,30
"Montfoort";416;2992,60;16;115,10;7;50,40
"Mook en Middelaar";225;2871,70;8;102,10;8;102,10
"Neder-Betuwe";753;3080,90;46;188,20;22;90,00
"Nederweert";450;2637,30;37;216,80;8;46,90
"Nieuwegein";1637;2577,70;62;97,60;17;26,80
"Nieuwkoop";751;2600,60;16;55,40;9;31,20
"Nijkerk";1098;2541,50;32;74,10;6;13,90
"Nijmegen";4894;2755,20;194;109,20;116;65,30
"Nissewaard";3157;3705,10;88;103,30;37;43,40
"Noardeast-Fryslân";440;972,10;9;19,90;4;8,80
"Noord-Beveland";101;1367,50;1;13,50;1;13,50
"Noordenveld";290;928,90;7;22,40;14;44,80
"Noordoostpolder";766;1614,60;21;44,30;13;27,40
"Noordwijk";1198;2748,60;38;87,20;8;18,40
"Nuenen, Gerwen en Nederwetten";595;2544,40;22;94,10;12;51,30
"Nunspeet";619;2225,90;64;230,10;23;82,70
"Oegstgeest";636;2555,10;16;64,30;4;16,10
"Oirschot";604;3221,50;18;96,00;17;90,70
"Oisterwijk";691;2628,80;29;110,30;14;53,30
"Oldambt";311;814,40;11;28,80;6;15,70
"Oldebroek";424;1792,80;40;169,10;20;84,60
"Oldenzaal";1023;3212,70;22;69,10;24;75,40
"Olst-Wijhe";276;1512,50;12;65,80;8;43,80
"Ommen";297;1647,10;9;49,90;5;27,70
"Oost Gelre";802;2707,10;22;74,30;23;77,60
"Oosterhout";1739;3102,50;55;98,10;22;39,20
"Ooststellingwerf";305;1198,20;7;27,50;1;3,90
"Oostzaan";323;3323,00;13;133,70;3;30,90
"Opmeer";220;1862,50;3;25,40;2;16,90
"Opsterland";246;829,20;11;37,10;0;0,00
"Oss";3154;3428,30;192;208,70;103;112,00
"Oude IJsselstreek";764;1940,30;25;63,50;13;33,00
"Ouder-Amstel";487;3449,50;8;56,70;0;0,00
"Oudewater";293;2869,70;32;313,40;12;117,50
"Overbetuwe";969;2020,20;62;129,30;20;41,70
"Papendrecht";1019;3170,40;10;31,10;16;49,80
"Peel en Maas";1109;2542,00;148;339,20;65;149,00
"Pekela";105;863,30;7;57,60;2;16,40
"Pijnacker-Nootdorp";1794;3237,60;37;66,80;21;37,90
"Purmerend";1945;2387,60;94;115,40;47;57,70
"Putten";513;2126,90;13;53,90;2;8,30
"Raalte";833;2210,50;26;69,00;25;66,30
"Reimerswaal";326;1434,90;8;35,20;5;22,00
"Renkum";664;2114,00;20;63,70;11;35,00
"Renswoude";119;2169,20;5;91,10;5;91,10
"Reusel-De Mierden";568;4339,20;15;114,60;4;30,60
"Rheden";904;2070,00;39;89,30;19;43,50
"Rhenen";517;2571,00;14;69,60;6;29,80
"Ridderkerk";1804;3892,90;52;112,20;28;60,40
"Rijssen-Holten";1156;3024,80;32;83,70;33;86,30
"Rijswijk";1864;3412,70;73;133,70;54;98,90
"Roerdalen";290;1413,50;28;136,50;9;43,90
"Roermond";1094;1876,00;66;113,20;24;41,20
"Roosendaal";2745;3551,20;57;73,70;40;51,70
"Rotterdam";32575;4993,40;1070;164,00;561;86,00
"Rozendaal";20;1179,20;1;59,00;0;0,00
"Rucphen";787;3428,30;20;87,10;11;47,90
"s-Gravenhage";21266;3895,80;749;137,20;363;66,50
"Schagen";999;2149,70;23;49,50;15;32,30
"Scherpenzeel";228;2307,00;5;50,60;2;20,20
"Schiedam";3771;4783,00;114;144,60;36;45,70
"Schiermonnikoog";4;422,80;1;105,70;0;0,00
"Schouwen-Duiveland";510;1504,80;16;47,20;16;47,20
"Simpelveld";167;1583,80;20;189,70;5;47,40
"Sint Anthonis";286;2451,60;21;180,00;11;94,30
"Sint-Michielsgestel";855;2921,70;39;133,30;23;78,60
"Sittard-Geleen";1515;1640,90;133;144,00;69;74,70
"Sliedrecht";833;3307,10;11;43,70;12;47,60
"Sluis";362;1560,50;15;64,70;5;21,60
"Smallingerland";551;980,90;13;23,10;9;16,00
"Soest";1370;2936,40;42;90,00;32;68,60
"Someren";497;2566,10;36;185,90;9;46,50
"Son en Breugel";436;2514,40;32;184,50;17;98,00
"Stadskanaal";572;1808,10;9;28,40;7;22,10
"Staphorst";430;2507,30;11;64,10;5;29,20
"Stede Broec";396;1823,50;20;92,10;5;23,00
"Steenbergen";740;3024,90;20;81,80;14;57,20
"Steenwijkerland";580;1313,50;18;40,80;10;22,60
"Stein";391;1567,30;49;196,40;16;64,10
"Stichtse Vecht";1843;2834,10;62;95,30;22;33,80
"Súdwest-Fryslân";1514;1684,40;25;27,80;25;27,80
"Terneuzen";934;1717,40;33;60,70;4;7,40
"Terschelling";71;1465,10;1;20,60;1;20,60
"Texel";115;847,10;6;44,20;2;14,70
"Teylingen";1084;2888,80;24;64,00;6;16,00
"Tholen";745;2889,40;49;190,00;19;73,70
"Tiel";1302;3093,20;58;137,80;31;73,60
"Tilburg";6754;3068,00;302;137,20;196;89,00
"Tubbergen";1008;4738,40;13;61,10;8;37,60
"Twenterand";935;2770,50;16;47,40;5;14,80
"Tynaarlo";380;1123,70;12;35,50;9;26,60
"Tytsjerksteradiel";320;996,60;8;24,90;3;9,30
"Uden";949;2252,40;117;277,70;67;159,00
"Uitgeest";350;2562,60;7;51,30;3;22,00
"Uithoorn";855;2888,30;23;77,70;4;13,50
"Urk";777;3687,20;29;137,60;6;28,50
"Utrecht";13303;3711,20;423;118,00;153;42,70
"Utrechtse Heuvelrug";1208;2428,00;33;66,30;21;42,20
"Vaals";96;950,10;10;99,00;2;19,80
"Valkenburg aan de Geul";312;1909,20;23;140,70;11;67,30
"Valkenswaard";944;3023,40;24;76,90;42;134,50
"Veendam";249;909,40;4;14,60;1;3,70
"Veenendaal";2207;3312,90;66;99,10;17;25,50
"Veere";182;830,70;9;41,10;2;9,10
"Veldhoven";1382;3035,50;40;87,90;23;50,50
"Velsen";1802;2621,80;54;78,60;49;71,30
"Venlo";2754;2704,50;149;146,30;81;79,50
"Venray";1274;2920,40;43;98,60;23;52,70
"Vijfheerenlanden";1868;3282,30;56;98,40;49;86,10
"Vlaardingen";3477;4728,10;84;114,20;55;74,80
"Vlieland";19;1636,50;0;0,00;0;0,00
"Vlissingen";508;1145,70;16;36,10;7;15,80
"Voerendaal";194;1553,10;18;144,10;8;64,00
"Voorschoten";612;2391,30;12;46,90;12;46,90
"Voorst";423;1719,40;18;73,20;11;44,70
"Vught";725;2727,60;45;169,30;22;82,80
"Waadhoeke";568;1232,70;17;36,90;20;43,40
"Waalre";460;2634,40;9;51,50;9;51,50
"Waalwijk";1585;3259,60;52;106,90;47;96,70
"Waddinxveen";911;3102,30;34;115,80;7;23,80
"Wageningen";913;2289,30;30;75,20;22;55,20
"Wassenaar";628;2393,70;16;61,00;14;53,40
"Waterland";524;3009,10;24;137,80;13;74,70
"Weert";1354;2698,00;84;167,40;23;45,80
"Weesp";794;3988,70;11;55,30;15;75,40
"West Betuwe";1363;2660,40;64;124,90;34;66,40
"West Maas en Waal";438;2262,60;24;124,00;15;77,50
"Westerkwartier";566;893,10;20;31,60;8;12,60
"Westerveld";205;1053,60;10;51,40;5;25,70
"Westervoort";313;2090,30;13;86,80;7;46,70
"Westerwolde";328;1255,70;12;45,90;3;11,50
"Westland";3815;3449,20;96;86,80;42;38,00
"Weststellingwerf";344;1327,10;5;19,30;9;34,70
"Westvoorne";384;2604,30;9;61,00;1;6,80
"Wierden";910;3725,80;8;32,80;10;40,90
"Wijchen";1023;2489,40;57;138,70;23;56,00
"Wijdemeren";606;2488,90;14;57,50;5;20,50
"Wijk bij Duurstede";545;2282,30;14;58,60;7;29,30
"Winterswijk";536;1861,00;11;38,20;7;24,30
"Woensdrecht";636;2894,10;10;45,50;20;91,00
"Woerden";1481;2828,50;71;135,60;23;43,90
"Wormerland";435;2674,60;24;147,60;13;79,90
"Woudenberg";319;2382,40;11;82,20;4;29,90
"Zaanstad";5224;3330,40;188;119,90;86;54,80
"Zaltbommel";868;2992,80;25;86,20;10;34,50
"Zandvoort";357;2083,30;15;87,50;9;52,50
"Zeewolde";367;1624,80;14;62,00;6;26,60
"Zeist";1682;2589,30;48;73,90;33;50,80
"Zevenaar";815;1860,60;60;137,00;20;45,70
"Zoetermeer";3821;3050,30;78;62,30;25;20,00
"Zoeterwoude";236;2731,50;4;46,30;1;11,60
"Zuidplas";1527;3467,10;42;95,40;23;52,20
"Zundert";616;2820,30;29;132,80;13;59,50
"Zutphen";895;1864,20;38;79,20;16;33,30
"Zwartewaterland";527;2320,00;36;158,50;24;105,70
"Zwijndrecht";1816;4063,10;30;67,10;51;114,10
"Zwolle";2207;1710,00;60;46,50;63;48,80