"Category";"Meldingen";"Meldingen per 100000";"Zkh opname";"Zkh opname per 100000";"Overleden";"Overleden per 100000"
"'s-Hertogenbosch";4916;3163,80;169;108,80;108;69,50
"Aa en Hunze";330;1300,00;1;3,90;1;3,90
"Aalsmeer";1079;3384,40;17;53,30;20;62,70
"Aalten";635;2343,80;14;51,70;12;44,30
"Achtkarspelen";306;1098,70;0;0,00;0;0,00
"Alblasserdam";933;4630,30;15;74,40;13;64,50
"Albrandswaard";1271;4954,20;31;120,80;16;62,40
"Alkmaar";2769;2526,70;80;73,00;42;38,30
"Almelo";2661;3638,60;42;57,40;25;34,20
"Almere";6583;3099,20;185;87,10;49;23,10
"Alphen aan den Rijn";4043;3370,50;109;90,90;56;46,70
"Alphen-Chaam";344;3361,30;20;195,40;5;48,90
"Altena";2163;3864,80;49;87,60;37;66,10
"Ameland";47;1258,70;0;0,00;0;0,00
"Amersfoort";4855;3086,20;125;79,50;58;36,90
"Amstelveen";3021;3292,00;87;94,80;66;71,90
"Amsterdam";40861;4673,70;1197;136,90;427;48,80
"Apeldoorn";3409;2080,50;133;81,20;67;40,90
"Appingedam";122;1048,60;8;68,80;1;8,60
"Arnhem";4363;2700,00;115;71,20;72;44,60
"Assen";1054;1533,20;22;32,00;7;10,20
"Asten";489;2925,70;21;125,60;14;83,80
"Baarle-Nassau";208;3023,70;11;159,90;4;58,10
"Baarn";685;2754,70;23;92,50;18;72,40
"Barendrecht";2146;4407,40;69;141,70;31;63,70
"Barneveld";1839;3100,80;31;52,30;18;30,40
"Beek";327;2060,80;18;113,40;9;56,70
"Beekdaelen";740;2058,30;55;153,00;28;77,90
"Beemster";221;2208,50;4;40,00;2;20,00
"Beesel";302;2240,90;23;170,70;9;66,80
"Berg en Dal";1270;3626,60;43;122,80;34;97,10
"Bergeijk";740;3967,80;22;118,00;6;32,20
"Bergen (L.)";325;2484,70;12;91,70;3;22,90
"Bergen (NH.)";836;2800,80;25;83,80;24;80,40
"Bergen op Zoom";2929;4333,50;62;91,70;28;41,40
"Berkelland";1252;2861,10;27;61,70;28;64,00
"Bernheze";1154;3686,80;101;322,70;67;214,10
"Best";808;2691,90;39;129,90;13;43,30
"Beuningen";697;2687,70;24;92,50;10;38,60
"Beverwijk";1225;2944,00;23;55,30;15;36,00
"Bladel";1045;5117,00;25;122,40;13;63,70
"Blaricum";325;2806,30;8;69,10;2;17,30
"Bloemendaal";541;2298,50;10;42,50;6;25,50
"Bodegraven-Reeuwijk";1237;3540,60;27;77,30;12;34,30
"Boekel";284;2636,00;36;334,10;20;185,60
"Borger-Odoorn";435;1702,30;9;35,20;9;35,20
"Borne";672;2875,70;18;77,00;6;25,70
"Borsele";279;1226,90;7;30,80;2;8,80
"Boxmeer";841;2860,30;25;85,00;33;112,20
"Boxtel";921;2988,30;31;100,60;29;94,10
"Breda";6198;3365,10;202;109,70;108;58,60
"Brielle";531;3075,20;23;133,20;4;23,20
"Bronckhorst";915;2541,20;20;55,50;7;19,40
"Brummen";388;1866,80;22;105,90;7;33,70
"Brunssum";532;1913,30;53;190,60;21;75,50
"Bunnik";441;2898,30;15;98,60;10;65,70
"Bunschoten";1261;5760,40;32;146,20;12;54,80
"Buren";681;2541,30;27;100,80;12;44,80
"Capelle aan den IJssel";2864;4260,80;96;142,80;85;126,50
"Castricum";825;2290,50;18;50,00;12;33,30
"Coevorden";607;1719,30;22;62,30;7;19,80
"Cranendonck";803;3784,30;65;306,30;37;174,40
"Cuijk";763;3033,20;20;79,50;15;59,60
"Culemborg";920;3170,10;34;117,20;11;37,90
"Dalfsen";704;2454,20;18;62,80;9;31,40
"Dantumadiel";224;1184,70;2;10,60;0;0,00
"De Bilt";1386;3214,80;38;88,10;32;74,20
"De Fryske Marren";733;1420,30;26;50,40;11;21,30
"De Ronde Venen";1399;3143,90;70;157,30;22;49,40
"De Wolden";411;1687,90;16;65,70;6;24,60
"Delft";3864;3732,00;66;63,70;37;35,70
"Delfzijl";266;1078,70;9;36,50;0;0,00
"Den Helder";843;1495,80;19;33,70;7;12,40
"Deurne";1133;3492,80;63;194,20;32;98,60
"Deventer";2468;2446,20;55;54,50;51;50,50
"Diemen";1398;4477,90;28;89,70;20;64,10
"Dinkelland";1109;4192,30;24;90,70;18;68,00
"Doesburg";256;2315,10;11;99,50;7;63,30
"Doetinchem";1305;2247,50;40;68,90;19;32,70
"Dongen";986;3749,50;38;144,50;19;72,30
"Dordrecht";5150;4312,80;107;89,60;105;87,90
"Drechterland";488;2473,10;7;35,50;8;40,50
"Drimmelen";777;2853,60;28;102,80;13;47,70
"Dronten";740;1776,50;43;103,20;16;38,40
"Druten";494;2609,90;29;153,20;17;89,80
"Duiven";709;2827,90;18;71,80;8;31,90
"Echt-Susteren";505;1596,50;44;139,10;20;63,20
"Edam-Volendam";1367;3780,60;55;152,10;9;24,90
"Ede";3396;2901,50;86;73,50;45;38,40
"Eemnes";273;2945,90;6;64,70;1;10,80
"Eersel";815;4217,30;36;186,30;18;93,10
"Eijsden-Margraten";657;2549,90;61;236,70;30;116,40
"Eindhoven";6811;2900,20;247;105,20;137;58,30
"Elburg";566;2436,60;31;133,50;11;47,40
"Emmen";2318;2166,80;56;52,30;31;29,00
"Enkhuizen";439;2353,40;20;107,20;5;26,80
"Enschede";5066;3174,10;99;62,00;67;42,00
"Epe";681;2052,30;55;165,80;25;75,30
"Ermelo";667;2471,10;33;122,30;25;92,60
"Etten-Leur";1467;3343,40;58;132,20;31;70,70
"Geertruidenberg";618;2863,00;18;83,40;7;32,40
"Geldrop-Mierlo";1240;3115,70;44;110,60;18;45,20
"Gemert-Bakel";839;2729,30;80;260,20;34;110,60
"Gennep";474;2799,30;18;106,30;15;88,60
"Gilze en Rijen";901;3387,50;29;109,00;18;67,70
"Goeree-Overflakkee";1579;3148,70;74;147,60;46;91,70
"Goes";658;1721,80;24;62,80;14;36,60
"Goirle";823;3441,10;36;150,50;23;96,20
"Gooise Meren";1649;2839,00;36;62,00;20;34,40
"Gorinchem";1392;3750,10;20;53,90;22;59,30
"Gouda";3063;4168,20;102;138,80;85;115,70
"Grave";483;3873,00;28;224,50;23;184,40
"Groningen";4530;1944,40;37;15,90;7;3,00
"Gulpen-Wittem";344;2430,90;27;190,80;16;113,10
"Haaksbergen";881;3628,20;22;90,60;22;90,60
"Haaren";513;3573,90;22;153,30;10;69,70
"Haarlem";4423;2711,70;129;79,10;97;59,50
"Haarlemmermeer";4948;3164,60;114;72,90;46;29,40
"Halderberge";1051;3472,30;32;105,70;16;52,90
"Hardenberg";1210;1984,60;31;50,80;16;26,20
"Harderwijk";1172;2408,30;54;111,00;22;45,20
"Hardinxveld-Giessendam";723;3943,50;2;10,90;7;38,20
"Harlingen";155;987,30;5;31,80;2;12,70
"Hattem";244;1996,10;18;147,30;5;40,90
"Heemskerk";1185;3023,00;40;102,00;22;56,10
"Heemstede";684;2506,70;18;66,00;37;135,60
"Heerde";407;2190,50;55;296,00;29;156,10
"Heerenveen";611;1210,60;17;33,70;23;45,60
"Heerhugowaard";1346;2330,70;33;57,10;11;19,00
"Heerlen";1722;1978,80;137;157,40;61;70,10
"Heeze-Leende";518;3210,20;19;117,70;11;68,20
"Heiloo";505;2109,30;14;58,50;10;41,80
"Hellendoorn";1069;2979,00;15;41,80;15;41,80
"Hellevoetsluis";1149;2859,50;32;79,60;11;27,40
"Helmond";3428;3713,50;139;150,60;53;57,40
"Hendrik-Ido-Ambacht";1281;4097,60;13;41,60;10;32,00
"Hengelo";2511;3092,40;46;56,70;32;39,40
"Het Hogeland";697;1456,00;10;20,90;6;12,50
"Heumen";516;3130,50;20;121,30;13;78,90
"Heusden";1624;3632,40;61;136,40;36;80,50
"Hillegom";577;2599,90;9;40,60;2;9,00
"Hilvarenbeek";530;3411,20;17;109,40;15;96,50
"Hilversum";2384;2618,70;49;53,80;44;48,30
"Hoeksche Waard";2791;3188,60;88;100,50;33;37,70
"Hof van Twente";1113;3183,80;24;68,70;13;37,20
"Hollands Kroon";809;1669,40;32;66,00;7;14,40
"Hoogeveen";968;1739,60;33;59,30;15;27,00
"Hoorn";1829;2495,40;48;65,50;18;24,60
"Horst aan de Maas";1361;3205,30;49;115,40;37;87,10
"Houten";1452;2890,50;43;85,60;45;89,60
"Huizen";1427;3465,10;37;89,80;18;43,70
"Hulst";652;2340,90;21;75,40;9;32,30
"IJsselstein";1109;3260,30;51;149,90;46;135,20
"Kaag en Braassem";747;2728,60;12;43,80;3;11,00
"Kampen";1107;2036,90;66;121,40;39;71,80
"Kapelle";138;1086,90;4;31,50;1;7,90
"Katwijk";2706;4111,50;57;86,60;29;44,10
"Kerkrade";817;1788,40;77;168,50;41;89,70
"Koggenland";592;2599,50;12;52,70;12;52,70
"Krimpen aan den IJssel";1245;4215,30;26;88,00;31;105,00
"Krimpenerwaard";2023;3593,50;70;124,30;50;88,80
"Laarbeek";742;3282,60;42;185,80;28;123,90
"Landerd";646;4102,60;44;279,40;22;139,70
"Landgraaf";638;1704,60;56;149,60;18;48,10
"Landsmeer";382;3308,80;6;52,00;4;34,60
"Langedijk";740;2626,40;22;78,10;7;24,80
"Lansingerland";2430;3886,10;59;94,40;48;76,80
"Laren";351;3097,10;10;88,20;8;70,60
"Leeuwarden";1938;1562,60;54;43,50;16;12,90
"Leiden";4302;3439,80;83;66,40;40;32,00
"Leiderdorp";863;3183,30;29;107,00;10;36,90
"Leidschendam-Voorburg";2407;3145,40;65;84,90;48;62,70
"Lelystad";1863;2360,60;95;120,40;43;54,50
"Leudal";890;2483,30;57;159,00;41;114,40
"Leusden";785;2580,30;16;52,60;12;39,40
"Lingewaard";1302;2791,30;46;98,60;19;40,70
"Lisse";605;2627,70;15;65,10;5;21,70
"Lochem";689;2042,10;22;65,20;19;56,30
"Loon op Zand";872;3724,40;36;153,80;29;123,90
"Lopik";524;3618,00;25;172,60;8;55,20
"Loppersum";95;999,40;1;10,50;0;0,00
"Losser";815;3592,70;14;61,70;5;22,00
"Maasdriel";839;3331,00;26;103,20;17;67,50
"Maasgouw";480;2005,10;28;117,00;16;66,80
"Maassluis";1404;4225,40;44;132,40;17;51,20
"Maastricht";3120;2567,70;213;175,30;145;119,30
"Medemblik";984;2181,10;23;51,00;7;15,50
"Meerssen";368;1955,90;25;132,90;14;74,40
"Meierijstad";2478;3047,90;224;275,50;139;171,00
"Meppel";525;1544,90;13;38,30;5;14,70
"Middelburg";622;1274,50;28;57,40;15;30,70
"Midden-Delfland";671;3476,30;13;67,40;6;31,10
"Midden-Drenthe";503;1514,70;8;24,10;2;6,00
"Midden-Groningen";738;1214,10;17;28,00;11;18,10
"Mill en Sint Hubert";360;3285,30;14;127,80;6;54,80
"Moerdijk";1173;3157,50;26;70,00;23;61,90
"Molenlanden";1592;3620,20;20;45,50;16;36,40
"Montferland";810;2250,10;27;75,00;12;33,30
"Montfoort";464;3337,90;16;115,10;7;50,40
"Mook en Middelaar";244;3114,20;9;114,90;9;114,90
"Neder-Betuwe";892;3649,60;46;188,20;24;98,20
"Nederweert";538;3153,00;37;216,80;9;52,70
"Nieuwegein";1801;2836,00;65;102,40;17;26,80
"Nieuwkoop";862;2985,00;17;58,90;11;38,10
"Nijkerk";1277;2955,90;33;76,40;7;16,20
"Nijmegen";5302;2984,90;198;111,50;120;67,60
"Nissewaard";3444;4041,90;90;105,60;50;58,70
"Noardeast-Fryslân";538;1188,60;12;26,50;7;15,50
"Noord-Beveland";102;1381,00;3;40,60;1;13,50
"Noordenveld";320;1025,00;7;22,40;14;44,80
"Noordoostpolder";1020;2149,90;23;48,50;19;40,00
"Noordwijk";1327;3044,60;41;94,10;8;18,40
"Nuenen, Gerwen en Nederwetten";660;2822,30;22;94,10;13;55,60
"Nunspeet";701;2520,80;65;233,70;23;82,70
"Oegstgeest";716;2876,50;17;68,30;6;24,10
"Oirschot";685;3653,50;20;106,70;18;96,00
"Oisterwijk";803;3054,90;30;114,10;14;53,30
"Oldambt";389;1018,60;11;28,80;6;15,70
"Oldebroek";468;1978,90;40;169,10;20;84,60
"Oldenzaal";1150;3611,60;25;78,50;30;94,20
"Olst-Wijhe";304;1665,90;12;65,80;8;43,80
"Ommen";321;1780,20;9;49,90;7;38,80
"Oost Gelre";858;2896,10;23;77,60;26;87,80
"Oosterhout";1919;3423,60;56;99,90;23;41,00
"Ooststellingwerf";351;1378,90;8;31,40;1;3,90
"Oostzaan";351;3611,10;13;133,70;3;30,90
"Opmeer";253;2141,90;3;25,40;2;16,90
"Opsterland";296;997,80;11;37,10;0;0,00
"Oss";3390;3684,90;193;209,80;106;115,20
"Oude IJsselstreek";898;2280,60;27;68,60;19;48,30
"Ouder-Amstel";539;3817,80;8;56,70;0;0,00
"Oudewater";332;3251,70;32;313,40;12;117,50
"Overbetuwe";1096;2285,00;63;131,30;21;43,80
"Papendrecht";1113;3462,90;11;34,20;18;56,00
"Peel en Maas";1223;2803,30;148;339,20;65;149,00
"Pekela";117;961,90;7;57,60;2;16,40
"Pijnacker-Nootdorp";2018;3641,80;39;70,40;22;39,70
"Purmerend";2131;2615,90;96;117,80;48;58,90
"Putten";629;2607,80;13;53,90;5;20,70
"Raalte";971;2576,70;27;71,60;25;66,30
"Reimerswaal";410;1804,60;9;39,60;5;22,00
"Renkum";761;2422,90;20;63,70;11;35,00
"Renswoude";132;2406,10;5;91,10;5;91,10
"Reusel-De Mierden";605;4621,80;17;129,90;5;38,20
"Rheden";1054;2413,40;39;89,30;20;45,80
"Rhenen";632;3142,90;15;74,60;7;34,80
"Ridderkerk";1978;4268,40;53;114,40;46;99,30
"Rijssen-Holten";1321;3456,60;32;83,70;33;86,30
"Rijswijk";2014;3687,40;78;142,80;61;111,70
"Roerdalen";355;1730,40;28;136,50;9;43,90
"Roermond";1316;2256,70;66;113,20;26;44,60
"Roosendaal";3061;3960,10;62;80,20;42;54,30
"Rotterdam";34965;5359,80;1128;172,90;615;94,30
"Rozendaal";31;1827,80;1;59,00;0;0,00
"Rucphen";864;3763,70;22;95,80;12;52,30
"s-Gravenhage";22578;4136,20;791;144,90;374;68,50
"Schagen";1177;2532,80;24;51,60;15;32,30
"Scherpenzeel";271;2742,10;5;50,60;2;20,20
"Schiedam";4175;5295,40;128;162,40;39;49,50
"Schiermonnikoog";4;422,80;1;105,70;0;0,00
"Schouwen-Duiveland";542;1599,20;16;47,20;16;47,20
"Simpelveld";205;1944,20;21;199,20;5;47,40
"Sint Anthonis";325;2785,90;21;180,00;11;94,30
"Sint-Michielsgestel";929;3174,50;39;133,30;23;78,60
"Sittard-Geleen";1773;1920,30;138;149,50;75;81,20
"Sliedrecht";961;3815,30;12;47,60;15;59,60
"Sluis";421;1814,80;16;69,00;7;30,20
"Smallingerland";630;1121,50;14;24,90;11;19,60
"Soest";1485;3182,90;43;92,20;33;70,70
"Someren";577;2979,10;36;185,90;9;46,50
"Son en Breugel";493;2843,10;32;184,50;18;103,80
"Stadskanaal";653;2064,10;9;28,40;7;22,10
"Staphorst";508;2962,10;11;64,10;5;29,20
"Stede Broec";435;2003,10;20;92,10;5;23,00
"Steenbergen";780;3188,40;20;81,80;14;57,20
"Steenwijkerland";672;1521,80;18;40,80;10;22,60
"Stein";465;1864,00;51;204,40;16;64,10
"Stichtse Vecht";2100;3229,30;67;103,00;27;41,50
"Súdwest-Fryslân";1813;2017,10;26;28,90;30;33,40
"Terneuzen";1138;2092,50;39;71,70;5;9,20
"Terschelling";72;1485,80;1;20,60;1;20,60
"Texel";122;898,70;6;44,20;2;14,70
"Teylingen";1215;3237,90;24;64,00;6;16,00
"Tholen";820;3180,30;50;193,90;20;77,60
"Tiel";1416;3364,10;60;142,50;33;78,40
"Tilburg";7700;3497,70;314;142,60;209;94,90
"Tubbergen";1122;5274,30;14;65,80;9;42,30
"Twenterand";1051;3114,30;16;47,40;5;14,80
"Tynaarlo";408;1206,50;13;38,40;12;35,50
"Tytsjerksteradiel";359;1118,00;9;28,00;3;9,30
"Uden";1078;2558,60;120;284,80;70;166,10
"Uitgeest";405;2965,30;7;51,30;3;22,00
"Uithoorn";931;3145,10;26;87,80;6;20,30
"Urk";1169;5547,40;34;161,30;10;47,50
"Utrecht";14239;3972,30;453;126,40;168;46,90
"Utrechtse Heuvelrug";1345;2703,40;37;74,40;21;42,20
"Vaals";152;1504,40;11;108,90;2;19,80
"Valkenburg aan de Geul";361;2209,00;23;140,70;11;67,30
"Valkenswaard";1054;3375,70;25;80,10;44;140,90
"Veendam";292;1066,40;4;14,60;1;3,70
"Veenendaal";2652;3980,90;71;106,60;22;33,00
"Veere";199;908,30;10;45,60;2;9,10
"Veldhoven";1513;3323,20;43;94,40;26;57,10
"Velsen";2049;2981,10;58;84,40;56;81,50
"Venlo";3062;3007,00;153;150,30;89;87,40
"Venray";1421;3257,40;46;105,40;23;52,70
"Vijfheerenlanden";2086;3665,30;57;100,20;52;91,40
"Vlaardingen";3757;5108,90;90;122,40;57;77,50
"Vlieland";19;1636,50;0;0,00;0;0,00
"Vlissingen";565;1274,30;17;38,30;7;15,80
"Voerendaal";214;1713,20;18;144,10;8;64,00
"Voorschoten";659;2574,90;12;46,90;14;54,70
"Voorst";476;1934,90;18;73,20;11;44,70
"Vught";913;3434,90;45;169,30;25;94,10
"Waadhoeke";624;1354,20;18;39,10;22;47,70
"Waalre";502;2875,00;9;51,50;10;57,30
"Waalwijk";1767;3633,90;57;117,20;53;109,00
"Waddinxveen";1031;3511,00;41;139,60;9;30,60
"Wageningen";1034;2592,70;30;75,20;26;65,20
"Wassenaar";713;2717,60;19;72,40;15;57,20
"Waterland";574;3296,20;24;137,80;14;80,40
"Weert";1577;3142,40;84;167,40;26;51,80
"Weesp";845;4245,00;11;55,30;15;75,40
"West Betuwe";1663;3246,00;67;130,80;40;78,10
"West Maas en Waal";470;2427,90;24;124,00;15;77,50
"Westerkwartier";659;1039,80;21;33,10;8;12,60
"Westerveld";220;1130,60;10;51,40;5;25,70
"Westervoort";397;2651,30;13;86,80;7;46,70
"Westerwolde";403;1542,80;14;53,60;3;11,50
"Westland";4396;3974,50;103;93,10;52;47,00
"Weststellingwerf";381;1469,80;5;19,30;12;46,30
"Westvoorne";407;2760,30;9;61,00;1;6,80
"Wierden";1087;4450,50;11;45,00;12;49,10
"Wijchen";1134;2759,50;59;143,60;25;60,80
"Wijdemeren";641;2632,70;14;57,50;5;20,50
"Wijk bij Duurstede";606;2537,80;14;58,60;7;29,30
"Winterswijk";633;2197,80;13;45,10;8;27,80
"Woensdrecht";695;3162,50;11;50,10;21;95,60
"Woerden";1678;3204,80;74;141,30;25;47,70
"Wormerland";497;3055,80;24;147,60;13;79,90
"Woudenberg";393;2935,00;11;82,20;4;29,90
"Zaanstad";5807;3702,10;197;125,60;95;60,60
"Zaltbommel";977;3368,60;26;89,60;10;34,50
"Zandvoort";408;2381,00;15;87,50;9;52,50
"Zeewolde";421;1863,80;16;70,80;7;31,00
"Zeist";1852;2851,00;50;77,00;35;53,90
"Zevenaar";914;2086,60;60;137,00;22;50,20
"Zoetermeer";4319;3447,90;85;67,90;27;21,60
"Zoeterwoude";263;3044,00;4;46,30;1;11,60
"Zuidplas";1649;3744,10;47;106,70;27;61,30
"Zundert";655;2998,80;30;137,40;13;59,50
"Zutphen";1027;2139,10;38;79,20;16;33,30
"Zwartewaterland";610;2685,30;38;167,30;24;105,70
"Zwijndrecht";1946;4354,00;32;71,60;53;118,60
"Zwolle";2461;1906,80;62;48,00;66;51,10