0014,8000,63,26
0034,13503,248,70
0037,1559,15,9
0047,1100,7,9
0050,1120,18,12
0059,1326,10,18
0060,135,0,0
0072,321,5,2
0074,1467,21,28
0080,4025,65,41
0085,714,13,6
0086,920,20,4
0088,10,1,0
0090,1759,23,25
0093,160,1,1
0096,36,0,0
0098,860,9,16
0106,1994,38,12
0109,1769,40,23
0114,4922,81,52
0118,3022,54,36
0119,1378,20,24
0141,5183,77,49
0147,1695,28,34
0148,1455,21,18
0150,5206,75,78
0153,9469,174,154
0158,2073,30,31
0160,3739,44,36
0163,2800,31,44
0164,5241,61,63
0166,2215,70,41
0168,1968,40,30
0171,2309,28,26
0173,2305,44,40
0175,900,13,15
0177,2405,31,34
0180,1546,14,18
0183,1992,18,16
0184,1884,43,12
0189,2267,17,23
0193,4654,69,82
0197,1349,19,18
0200,7155,159,138
0202,8282,155,107
0203,5452,42,51
0209,1336,31,17
0213,858,28,15
0214,1499,32,15
0216,1704,40,18
0221,503,16,9
0222,2766,52,27
0225,1212,36,24
0226,1361,24,10
0228,8155,121,65
0230,1239,34,13
0232,1617,64,38
0233,1735,35,31
0243,2742,65,39
0244,500,19,6
0246,761,55,30
0252,921,25,16
0262,1287,30,26
0263,1684,31,27
0267,3242,45,24
0268,9092,226,167
0269,1333,44,29
0273,1738,17,13
0274,1350,28,23
0275,2300,57,48
0277,73,1,0
0279,763,5,12
0281,2562,74,61
0285,1142,27,27
0289,1939,35,35
0293,752,19,8
0294,1262,13,13
0296,2497,70,50
0297,2325,35,37
0299,1983,69,39
0301,1788,45,26
0302,1388,74,30
0303,1932,53,22
0307,9254,189,100
0308,1363,28,23
0310,2441,48,64
0312,744,18,11
0313,2865,44,38
0317,576,13,2
0321,2580,54,51
0327,1561,25,20
0331,892,26,9
0335,844,18,7
0339,390,6,5
0340,1586,26,17
0342,2675,64,43
0344,20720,539,210
0345,5505,102,67
0351,1065,18,7
0352,1112,24,10
0353,1815,63,48
0355,3364,63,47
0356,3167,85,22
0358,1747,26,22
0361,5541,102,62
0362,4631,100,84
0363,59557,1520,639
0370,442,6,2
0373,1484,31,30
0375,2271,30,19
0376,583,9,5
0377,1038,12,12
0383,1662,19,19
0384,2090,37,29
0385,2479,70,12
0388,1298,26,10
0392,7913,162,138
0394,8527,148,95
0396,2228,47,24
0397,1197,21,56
0398,3097,45,24
0399,1018,18,12
0400,2581,31,17
0402,4303,61,72
0405,4782,63,41
0406,2767,49,51
0415,690,9,5
0416,1550,24,7
0417,649,15,25
0420,3261,35,18
0431,703,15,7
0432,765,4,3
0437,846,10,4
0439,4424,129,63
0441,2555,35,35
0448,309,6,3
0450,850,9,7
0451,1518,30,11
0453,3955,76,74
0457,1374,16,19
0473,810,17,41
0479,9915,249,150
0482,1528,24,18
0484,7180,147,94
0489,3215,77,38
0498,1384,13,11
0501,871,28,9
0502,4487,124,112
0503,5930,81,66
0505,8325,170,133
0512,2553,36,30
0513,4940,164,141
0518,33333,1077,493
0523,1606,6,16
0530,1943,43,35
0531,2132,23,25
0532,1567,27,14
0534,1107,15,15
0537,5379,86,44
0542,2365,38,62
0546,6527,103,53
0547,1425,34,21
0553,1283,24,17
0556,2165,55,29
0569,1736,31,19
0575,2441,56,18
0579,1279,18,29
0589,625,34,12
0590,2058,26,33
0597,3237,77,65
0599,47968,1413,770
0603,3089,96,70
0606,5808,167,95
0610,2080,23,34
0613,1941,36,19
0614,643,14,14
0622,5245,119,78
0626,1152,19,21
0627,1880,56,13
0629,1270,30,28
0632,3028,92,29
0637,7114,116,53
0638,495,6,1
0642,3098,56,72
0654,796,24,5
0664,1321,46,18
0668,1197,24,15
0677,1154,25,11
0678,446,8,5
0687,1643,47,17
0703,1298,21,7
0715,2450,74,24
0716,1383,54,22
0717,666,17,2
0718,1476,41,9
0736,2462,89,32
0737,1147,15,14
0743,945,26,16
0744,305,12,4
0748,4165,78,36
0753,1906,49,26
0755,666,40,23
0756,2169,34,40
0757,1959,44,62
0758,10107,222,137
0762,2107,77,37
0765,497,14,8
0766,1862,42,23
0770,1400,43,21
0772,12878,338,258
0777,2419,63,35
0779,1393,25,23
0784,1525,30,19
0785,1435,38,33
0786,918,29,24
0794,6087,168,71
0796,9222,202,143
0797,2849,70,44
0798,1039,18,20
0809,1665,40,33
0815,749,16,8
0820,1267,30,16
0823,1285,24,23
0824,1927,48,21
0826,3260,70,33
0828,5903,212,116
0840,1419,33,12
0845,1869,44,28
0847,1228,41,11
0848,829,39,26
0851,1283,28,15
0852,1129,28,14
0855,13641,355,269
0856,2115,123,77
0858,2171,37,47
0861,2986,59,40
0865,2097,63,50
0866,955,12,10
0867,3235,65,74
0873,1179,16,23
0879,1057,32,17
0880,898,29,14
0882,2170,79,49
0888,846,25,12
0889,743,25,10
0893,1045,15,10
0899,1501,69,37
0907,1203,26,16
0917,4316,183,110
0928,2351,111,85
0935,5964,253,178
0938,871,29,22
0944,448,11,11
0946,1503,40,16
0957,3319,75,38
0965,581,26,6
0971,1302,61,19
0981,424,18,13
0983,6966,182,126
0984,3768,55,40
0986,596,21,10
0988,4339,103,66
0994,779,29,14
0995,3699,115,57
1507,3361,52,58
1509,2237,35,40
1525,2337,32,10
1581,2793,60,50
1586,1820,27,36
1598,1439,17,19
1621,4191,77,58
1640,2327,63,44
1641,1427,33,19
1652,1699,88,37
1655,1808,45,23
1658,986,21,13
1659,1507,52,33
1667,1067,21,7
1669,1055,35,24
1674,4748,80,61
1676,1050,28,21
1680,870,5,12
1681,955,17,12
1684,1562,28,20
1685,1200,47,22
1690,1094,23,18
1695,244,7,3
1696,1230,18,11
1699,791,14,20
1700,3058,33,27
1701,512,12,11
1702,756,22,11
1705,2448,54,24
1706,1647,72,47
1708,1639,21,17
1709,1916,36,31
1711,1765,55,28
1714,1012,33,18
1719,1462,36,24
1721,2145,105,73
1723,509,21,5
1724,1498,27,7
1728,1872,33,23
1729,748,30,18
1730,923,14,20
1731,1190,20,23
1734,2130,69,26
1735,2374,30,22
1740,1784,56,30
1742,3330,43,45
1771,2547,62,23
1773,706,15,9
1774,2259,33,32
1783,8352,148,80
1842,1246,16,13
1859,2522,32,40
1876,1888,27,14
1883,4643,171,112
1884,1448,18,9
1891,847,5,12
1892,2905,90,41
1894,2554,153,71
1895,1547,27,26
1896,1150,41,25
1900,4369,39,63
1901,2568,48,31
1903,1448,68,38
1904,3613,90,58
1911,2419,38,17
1916,4178,104,73
1924,2681,98,64
1926,3416,47,29
1930,5074,116,82
1931,3797,106,59
1940,1687,36,24
1942,3006,46,28
1945,1977,47,42
1948,4679,240,160
1949,1482,20,31
1950,1460,26,16
1952,2037,33,29
1954,1858,72,39
1955,1741,33,18
1959,4691,77,65
1960,3521,75,43
1961,3809,85,58
1963,4698,111,48
1966,2016,22,19
1969,1738,28,14
1970,1674,27,24
1978,3061,35,24
1979,1782,34,10