0014,47576,9999,63
0034,56403,9999,125
0037,6537,9999,24
0047,5034,9999,19
0050,4787,9999,18
0059,6438,9999,41
0060,392,9999,1
0072,2469,9999,8
0074,9620,9999,44
0080,23862,9999,97
0085,4119,9999,7
0086,5762,9999,11
0088,102,9999,2
0090,10908,9999,42
0093,816,9999,2
0096,211,9999,1
0098,4654,9999,31
0106,11272,9999,26
0109,7009,9999,35
0114,21535,9999,96
0118,11703,9999,48
0119,6614,9999,37
0141,19280,9999,72
0147,6395,9999,41
0148,6474,9999,24
0150,22199,9999,101
0153,40849,9999,199
0158,6401,9999,34
0160,14106,9999,51
0163,9642,9999,54
0164,20369,9999,74
0166,13076,9999,58
0168,6090,9999,38
0171,10396,9999,34
0173,8612,9999,53
0175,3987,9999,19
0177,8955,9999,52
0180,5951,9999,29
0183,6915,9999,21
0184,5914,9999,24
0189,7541,9999,31
0193,29186,9999,147
0197,5554,9999,33
0200,38360,9999,197
0202,34815,9999,160
0203,17364,9999,82
0209,6353,9999,28
0213,4194,9999,25
0214,6382,9999,26
0216,7361,9999,24
0221,1837,9999,9
0222,13438,9999,54
0225,5122,9999,31
0226,4760,9999,18
0228,28073,9999,118
0230,6162,9999,25
0232,7250,9999,55
0233,6708,9999,45
0243,11937,9999,62
0244,2865,9999,7
0246,3623,9999,33
0252,3787,9999,21
0262,6973,9999,43
0263,7860,9999,45
0267,10815,9999,34
0268,44197,9999,235
0269,6091,9999,42
0273,6987,9999,21
0274,4938,9999,38
0275,8426,9999,87
0277,333,9999,0
0279,2905,9999,12
0281,11222,9999,80
0285,5561,9999,34
0289,7877,9999,72
0293,2866,9999,11
0294,6133,9999,25
0296,9741,9999,71
0297,8940,9999,50
0299,7897,9999,51
0301,9940,9999,48
0302,7009,9999,44
0303,8584,9999,32
0307,45018,9999,153
0308,6707,9999,30
0310,10474,9999,84
0312,3309,9999,15
0313,8916,9999,43
0317,2613,9999,7
0321,12804,9999,53
0327,7341,9999,32
0331,4244,9999,12
0335,4240,9999,10
0339,1743,9999,5
0340,6045,9999,26
0342,12856,9999,55
0344,102608,9999,306
0345,20207,9999,91
0351,4145,9999,9
0352,5468,9999,19
0353,9593,9999,59
0355,15936,9999,82
0356,16162,9999,37
0358,9463,9999,30
0361,28796,9999,93
0362,24085,9999,119
0363,260008,9999,984
0373,7005,9999,41
0375,10922,9999,46
0376,3215,9999,8
0377,6136,9999,22
0383,8950,9999,33
0384,9343,9999,43
0385,13050,9999,27
0388,4382,9999,17
0392,42685,9999,192
0394,42303,9999,139
0396,10396,9999,46
0397,6868,9999,67
0399,5466,9999,18
0400,13731,9999,51
0402,23241,9999,107
0405,20664,9999,59
0406,11295,9999,64
0415,3493,9999,13
0417,2865,9999,31
0420,12100,9999,29
0431,2841,9999,8
0432,3225,9999,7
0437,4097,9999,6
0439,24636,9999,107
0441,11787,9999,78
0448,1971,9999,4
0450,3652,9999,16
0451,8279,9999,21
0453,17632,9999,98
0457,5499,9999,23
0473,4167,9999,47
0479,44881,9999,193
0482,6446,9999,30
0484,29960,9999,148
0489,14080,9999,50
0498,5150,9999,13
0501,4114,9999,12
0502,19072,9999,159
0503,26211,9999,89
0505,34399,9999,219
0512,10730,9999,48
0513,20074,9999,166
0518,146172,9999,652
0523,6415,9999,31
0530,9187,9999,50
0531,9751,9999,41
0532,5640,9999,17
0534,5297,9999,23
0537,21413,9999,71
0542,8789,9999,79
0546,31768,9999,84
0547,6364,9999,28
0553,5928,9999,24
0556,8643,9999,46
0569,8370,9999,26
0575,11404,9999,32
0579,6004,9999,32
0589,2818,9999,12
0590,8626,9999,52
0597,13353,9999,109
0599,200800,9999,1079
0603,14492,9999,78
0606,22438,9999,127
0610,8297,9999,52
0613,7719,9999,23
0614,3213,9999,20
0622,20992,9999,112
0626,5928,9999,24
0627,8726,9999,19
0629,6287,9999,37
0632,14715,9999,46
0637,32443,9999,78
0638,2416,9999,1
0642,12340,9999,119
0654,5971,9999,12
0664,9391,9999,44
0668,5108,9999,20
0677,7130,9999,18
0678,3171,9999,8
0687,11582,9999,41
0703,7608,9999,25
0715,12886,9999,41
0716,7883,9999,36
0717,4987,9999,18
0718,10250,9999,42
0736,12448,9999,55
0737,6683,9999,36
0743,4452,9999,20
0744,1731,9999,4
0748,18448,9999,51
0753,7726,9999,38
0755,2662,9999,23
0757,8761,9999,73
0758,49512,9999,184
0762,9132,9999,51
0765,2530,9999,14
0766,6880,9999,32
0770,5488,9999,35
0772,59909,9999,413
0777,10894,9999,40
0779,5812,9999,30
0784,6410,9999,21
0785,6564,9999,43
0794,25275,9999,93
0796,43095,9999,194
0797,12448,9999,56
0798,4070,9999,20
0809,6434,9999,47
0820,5417,9999,27
0823,5179,9999,27
0824,8175,9999,27
0826,14746,9999,44
0828,23263,9999,143
0840,5985,9999,18
0845,8038,9999,44
0847,5373,9999,21
0848,4138,9999,30
0851,5800,9999,22
0852,4581,9999,18
0855,62360,9999,300
0858,8241,9999,72
0861,11265,9999,54
0865,8618,9999,56
0866,4469,9999,18
0867,12677,9999,83
0873,5071,9999,26
0879,4987,9999,18
0880,4318,9999,37
0882,10188,9999,93
0888,4240,9999,16
0889,3653,9999,15
0893,3622,9999,20
0899,7700,9999,71
0907,4621,9999,31
0917,22547,9999,161
0928,11313,9999,108
0935,30654,9999,254
0938,5016,9999,43
0944,1615,9999,13
0946,4860,9999,28
0957,15692,9999,79
0965,2434,9999,12
0971,6770,9999,28
0981,1935,9999,23
0983,31894,9999,201
0984,12915,9999,58
0986,3173,9999,14
0988,13789,9999,98
0994,3927,9999,36
0995,18393,9999,83
1507,13345,9999,78
1509,8846,9999,58
1525,9934,9999,28
1581,11202,9999,87
1586,7305,9999,49
1598,6273,9999,24
1621,18419,9999,72
1640,9351,9999,59
1641,6249,9999,44
1652,7493,9999,44
1655,7627,9999,31
1658,3698,9999,13
1659,5560,9999,45
1667,3627,9999,14
1669,4894,9999,40
1674,20548,9999,88
1676,7201,9999,40
1680,4009,9999,23
1681,4195,9999,27
1690,5108,9999,32
1695,1432,9999,12
1696,6136,9999,24
1699,4910,9999,27
1700,10097,9999,36
1701,2927,9999,24
1705,10052,9999,54
1706,5819,9999,60
1708,8290,9999,30
1709,9046,9999,54
1711,8142,9999,45
1714,4608,9999,26
1719,6902,9999,32
1721,8726,9999,82
1723,2415,9999,5
1724,5392,9999,15
1728,6050,9999,33
1729,3262,9999,22
1730,5031,9999,26
1731,5423,9999,32
1734,9582,9999,40
1735,9315,9999,39
1740,8306,9999,51
1742,12059,9999,68
1771,10373,9999,33
1773,3504,9999,10
1774,8006,9999,38
1783,34171,9999,101
1842,5455,9999,15
1859,9989,9999,58
1876,7906,9999,28
1883,23805,9999,171
1884,6938,9999,11
1891,4883,9999,27
1892,12901,9999,51
1894,11913,9999,93
1895,7032,9999,40
1896,6563,9999,35
1900,20053,9999,98
1901,10584,9999,39
1903,6476,9999,60
1904,17542,9999,77
1911,10810,9999,38
1916,18451,9999,107
1924,12250,9999,95
1926,15698,9999,43
1930,22170,9999,108
1931,15559,9999,69
1940,11277,9999,39
1942,16728,9999,45
1945,8248,9999,69
1948,20562,9999,180
1949,8757,9999,44
1950,5944,9999,25
1952,11051,9999,47
1954,9423,9999,71
1955,7921,9999,31
1959,16025,9999,76
1960,14990,9999,69
1961,17126,9999,82
1963,23408,9999,76
1966,10922,9999,38
1969,11038,9999,36
1970,10363,9999,57
1978,13901,9999,45
1979,7305,9999,29
1980,22735,9999,71
1982,23023,9999,137
1991,14414,9999,123