0014,8392,64,27
0034,13934,257,75
0037,1661,15,11
0047,1185,7,9
0050,1152,19,13
0059,1471,13,27
0060,141,0,0
0072,359,5,3
0074,1552,22,31
0080,4419,79,58
0085,762,13,6
0086,973,21,4
0088,17,1,0
0090,1908,25,27
0093,168,1,1
0096,38,0,0
0098,954,11,17
0106,2162,40,12
0109,1897,43,25
0114,5352,90,57
0118,3215,58,37
0119,1427,20,24
0141,5435,84,51
0147,1733,28,36
0148,1493,22,18
0150,5303,77,80
0153,9770,187,159
0158,2095,32,32
0160,3887,45,37
0163,2967,33,47
0164,5351,63,65
0166,2282,70,41
0168,2039,43,32
0171,2353,28,26
0173,2361,49,41
0175,944,13,15
0177,2487,34,34
0180,1581,14,18
0183,2036,18,16
0184,1890,44,12
0189,2326,18,27
0193,4873,69,84
0197,1402,19,18
0200,7381,163,138
0202,8487,155,112
0203,5595,43,53
0209,1422,32,17
0213,878,28,16
0214,1554,35,17
0216,1757,40,18
0221,526,16,9
0222,2855,53,27
0225,1278,37,24
0226,1415,25,10
0228,8370,124,71
0230,1289,34,13
0232,1692,64,41
0233,1758,36,32
0243,2856,70,42
0244,519,19,7
0246,788,55,30
0252,949,25,16
0262,1329,30,26
0263,1778,31,27
0267,3295,45,26
0268,9382,228,168
0269,1389,45,29
0273,1770,17,13
0274,1368,29,24
0275,2358,58,50
0277,73,1,0
0279,787,5,12
0281,2680,75,68
0285,1170,27,28
0289,1974,37,38
0293,771,19,8
0294,1298,13,13
0296,2622,70,50
0297,2494,36,38
0299,2070,70,40
0301,1821,46,28
0302,1436,74,30
0303,2014,54,22
0307,9602,197,113
0308,1431,28,25
0310,2558,52,68
0312,782,18,11
0313,3059,46,38
0317,611,13,2
0321,2655,59,51
0327,1644,27,22
0331,973,27,9
0335,900,19,7
0339,397,6,5
0340,1654,26,18
0342,2769,65,45
0344,21269,550,220
0345,5644,104,68
0351,1079,20,8
0352,1146,24,10
0353,1876,64,48
0355,3483,66,58
0356,3297,88,25
0358,1811,26,22
0361,5902,105,64
0362,4769,104,85
0363,61524,1555,668
0370,478,6,2
0373,1547,31,32
0375,2495,33,26
0376,616,9,5
0377,1065,13,15
0383,1744,20,20
0384,2158,37,30
0385,2610,71,13
0388,1380,26,11
0392,8200,166,139
0394,8807,153,97
0396,2440,47,24
0397,1244,21,57
0398,3275,49,28
0399,1052,19,12
0400,2863,34,25
0402,4542,64,73
0405,5302,67,45
0406,2894,49,52
0415,783,10,5
0416,1632,24,10
0417,687,15,25
0420,3497,42,21
0431,726,16,8
0432,852,6,4
0437,873,10,4
0439,4838,143,66
0441,2690,37,42
0448,317,6,3
0450,875,10,7
0451,1581,30,11
0453,4226,78,80
0457,1433,16,19
0473,831,17,41
0479,10311,254,151
0482,1575,29,18
0484,7477,152,99
0489,3343,82,38
0498,1454,15,11
0501,915,29,9
0502,4615,130,115
0503,6114,83,70
0505,8674,175,142
0512,2634,37,32
0513,5094,165,146
0518,34420,1121,509
0523,1714,7,17
0530,2030,44,38
0531,2216,24,26
0532,1658,27,14
0534,1158,15,16
0537,5705,89,50
0542,2442,39,64
0546,6714,104,60
0547,1480,34,21
0553,1316,25,17
0556,2233,56,29
0569,1882,32,19
0575,2532,57,19
0579,1313,19,29
0589,650,34,12
0590,2122,30,36
0597,3369,84,69
0599,49283,1473,786
0603,3178,99,70
0606,5991,172,99
0610,2202,23,34
0613,1979,36,19
0614,657,16,16
0622,5393,125,80
0626,1184,19,21
0627,1954,57,13
0629,1312,32,29
0632,3169,95,33
0637,7312,123,54
0638,525,7,1
0642,3268,59,76
0654,845,25,5
0664,1423,49,20
0668,1286,24,16
0677,1186,27,12
0678,482,9,5
0687,1787,52,18
0703,1362,23,7
0715,2520,78,24
0716,1432,54,22
0717,764,18,3
0718,1628,45,12
0736,2560,89,33
0737,1262,17,23
0743,990,27,17
0744,319,12,4
0748,4300,80,37
0753,1984,49,27
0755,674,40,23
0756,2233,35,43
0757,2043,46,64
0758,10322,224,140
0762,2210,78,38
0765,547,15,8
0766,1920,42,23
0770,1482,42,23
0772,13563,349,284
0777,2482,63,36
0779,1440,25,24
0784,1569,30,19
0785,1485,38,35
0786,953,29,24
0794,6501,174,75
0796,9597,204,148
0797,2991,70,44
0798,1102,18,20
0809,1732,42,34
0815,774,17,9
0820,1339,30,18
0823,1367,26,24
0824,2003,49,22
0826,3373,70,33
0828,6209,215,120
0840,1487,36,13
0845,1957,45,28
0847,1283,41,12
0848,891,39,26
0851,1347,29,15
0852,1193,28,14
0855,14068,360,270
0856,2191,123,79
0858,2280,40,50
0861,3179,62,43
0865,2177,66,52
0866,979,13,10
0867,3337,65,76
0873,1214,17,24
0879,1083,32,17
0880,961,30,30
0882,2345,81,53
0888,867,25,12
0889,772,25,11
0893,1102,15,10
0899,1571,70,44
0907,1237,27,16
0917,4547,191,115
0928,2530,114,90
0935,6165,255,182
0938,910,30,22
0944,459,11,11
0946,1560,41,17
0957,3503,77,38
0965,608,26,7
0971,1368,62,20
0981,434,18,13
0983,7236,182,134
0984,3910,57,41
0986,623,21,10
0988,4431,103,66
0994,819,29,17
0995,3838,117,58
1507,3505,53,58
1509,2316,36,41
1525,2454,33,16
1581,2894,63,60
1586,1879,27,37
1598,1589,18,20
1621,4293,79,58
1640,2455,63,44
1641,1547,35,20
1652,1747,89,37
1655,1867,46,25
1658,1047,21,13
1659,1572,54,33
1667,1111,22,8
1669,1137,35,24
1674,4999,85,63
1676,1099,29,21
1680,920,5,15
1681,1003,18,12
1684,1602,28,20
1685,1221,47,25
1690,1141,24,19
1695,269,9,3
1696,1305,21,13
1699,900,15,21
1700,3142,34,27
1701,550,12,11
1702,788,22,11
1705,2473,55,26
1706,1762,73,49
1708,1709,21,18
1709,2049,38,35
1711,1880,56,29
1714,1034,37,18
1719,1508,38,25
1721,2248,105,73
1723,528,23,5
1724,1591,27,8
1728,1947,33,23
1729,805,30,19
1730,969,15,20
1731,1290,22,23
1734,2193,69,28
1735,2475,30,26
1740,1882,57,31
1742,3444,46,46
1771,2676,68,24
1773,744,15,9
1774,2304,33,33
1783,8620,156,83
1842,1278,16,13
1859,2608,34,41
1876,1964,28,16
1883,4811,176,117
1884,1522,19,9
1891,927,8,13
1892,3012,91,42
1894,2663,153,74
1895,1698,30,27
1896,1209,43,25
1900,4673,45,71
1901,2672,52,33
1903,1482,68,41
1904,3763,94,59
1911,2610,38,26
1916,4294,109,76
1924,2802,106,70
1926,3535,51,32
1930,5248,126,88
1931,3953,108,61
1940,1826,38,29
1942,3156,47,28
1945,2031,47,45
1948,4996,244,161
1949,1582,20,32
1950,1576,29,18
1952,2268,40,32
1954,1950,74,42
1955,1814,33,21
1959,4817,79,65
1960,3680,77,47
1961,3969,88,59
1963,4877,114,50
1966,2185,22,20
1969,1934,29,19
1970,1793,29,28
1978,3258,39,26
1979,1872,36,11