0014,61058,9999,65
0034,70420,9999,126
0037,8281,9999,24
0047,6440,9999,19
0050,6905,9999,18
0059,8957,9999,41
0060,507,9999,1
0072,3437,9999,8
0074,13153,9999,44
0080,32248,9999,97
0085,5706,9999,7
0086,7696,9999,11
0088,128,9999,2
0090,14463,9999,42
0093,987,9999,2
0096,282,9999,1
0098,6333,9999,31
0106,14938,9999,26
0109,9181,9999,35
0114,28233,9999,96
0118,15315,9999,48
0119,8874,9999,37
0141,23540,9999,72
0147,8167,9999,41
0148,8709,9999,24
0150,29981,9999,102
0153,50827,9999,201
0158,7937,9999,34
0160,18970,9999,51
0163,11779,9999,54
0164,25206,9999,74
0166,17554,9999,59
0168,7426,9999,38
0171,14698,9999,34
0173,10631,9999,53
0175,5245,9999,19
0177,12020,9999,52
0180,7313,9999,29
0183,8182,9999,22
0184,7833,9999,24
0189,9146,9999,31
0193,39261,9999,149
0197,7043,9999,33
0200,48943,9999,197
0202,49601,9999,162
0203,23441,9999,83
0209,8137,9999,28
0213,5258,9999,25
0214,8066,9999,26
0216,9126,9999,25
0221,2716,9999,10
0222,17040,9999,54
0225,6215,9999,31
0226,7110,9999,18
0228,40833,9999,118
0230,7989,9999,26
0232,9468,9999,55
0233,8664,9999,45
0243,15936,9999,63
0244,3769,9999,7
0246,4931,9999,33
0252,4891,9999,21
0262,8724,9999,43
0263,9362,9999,45
0267,15601,9999,34
0268,57094,9999,238
0269,7909,9999,43
0273,8821,9999,21
0274,7584,9999,38
0275,11722,9999,87
0277,544,9999,0
0279,3964,9999,12
0281,14044,9999,80
0285,7131,9999,34
0289,11113,9999,72
0293,4136,9999,11
0294,7763,9999,25
0296,12522,9999,73
0297,11041,9999,50
0299,11984,9999,51
0301,12578,9999,49
0302,9023,9999,44
0303,12307,9999,32
0307,55290,9999,153
0308,8020,9999,30
0310,13093,9999,84
0312,4426,9999,15
0313,10437,9999,43
0317,3152,9999,7
0321,16299,9999,53
0327,9424,9999,32
0331,5106,9999,12
0335,5144,9999,10
0339,2172,9999,5
0340,7344,9999,26
0342,15319,9999,55
0344,126834,9999,306
0345,24957,9999,90
0351,5090,9999,9
0352,6878,9999,19
0353,11611,9999,59
0355,20053,9999,84
0356,19520,9999,37
0358,11567,9999,30
0361,35634,9999,96
0362,29172,9999,119
0363,304060,9999,998
0373,8409,9999,41
0375,13789,9999,46
0376,3862,9999,8
0377,7656,9999,23
0383,11472,9999,33
0384,10927,9999,43
0385,15265,9999,27
0388,5650,9999,17
0392,53600,9999,196
0394,51789,9999,141
0396,13033,9999,46
0397,8761,9999,68
0399,7032,9999,18
0400,17784,9999,51
0402,28899,9999,107
0405,25809,9999,59
0406,13503,9999,64
0415,4055,9999,13
0417,3333,9999,31
0420,15024,9999,29
0431,3379,9999,8
0432,4100,9999,7
0437,4811,9999,6
0439,29591,9999,108
0441,14730,9999,78
0448,2712,9999,4
0450,4612,9999,17
0451,9980,9999,21
0453,22465,9999,99
0457,6503,9999,23
0473,5033,9999,47
0479,53579,9999,195
0482,7809,9999,30
0484,36583,9999,148
0489,17459,9999,50
0498,6567,9999,13
0501,5154,9999,12
0502,22727,9999,159
0503,32585,9999,92
0505,42300,9999,220
0512,13136,9999,48
0513,25391,9999,166
0518,175094,9999,652
0523,7710,9999,32
0530,11417,9999,50
0531,11967,9999,41
0532,7240,9999,17
0534,6623,9999,23
0537,25967,9999,71
0542,10430,9999,78
0546,39710,9999,84
0547,8087,9999,28
0553,7270,9999,24
0556,10770,9999,46
0569,9977,9999,26
0575,14202,9999,32
0579,7792,9999,32
0589,3369,9999,12
0590,10710,9999,51
0597,16173,9999,109
0599,236990,9999,1078
0603,17462,9999,78
0606,26674,9999,128
0610,10021,9999,52
0613,9286,9999,23
0614,3960,9999,20
0622,25402,9999,113
0626,7576,9999,24
0627,10728,9999,19
0629,7802,9999,37
0632,17612,9999,46
0637,40058,9999,79
0638,2980,9999,1
0642,15057,9999,121
0654,7703,9999,13
0664,11947,9999,44
0668,6186,9999,20
0677,8088,9999,18
0678,4156,9999,8
0687,14842,9999,41
0703,9843,9999,25
0715,15296,9999,41
0716,9934,9999,37
0717,6531,9999,18
0718,12815,9999,42
0736,14778,9999,55
0737,8832,9999,37
0743,5408,9999,20
0744,2096,9999,4
0748,23224,9999,51
0753,9610,9999,38
0755,3726,9999,23
0757,11114,9999,73
0758,62165,9999,186
0762,11301,9999,51
0765,3098,9999,14
0766,8871,9999,32
0770,6974,9999,35
0772,73761,9999,414
0777,14033,9999,41
0779,7422,9999,30
0784,8519,9999,21
0785,8479,9999,43
0794,31676,9999,93
0796,55187,9999,195
0797,16134,9999,56
0798,5359,9999,20
0809,8237,9999,47
0820,7057,9999,27
0823,6313,9999,27
0824,10264,9999,27
0826,18481,9999,44
0828,30832,9999,143
0840,7439,9999,19
0845,10185,9999,47
0847,6560,9999,21
0848,5433,9999,30
0851,7564,9999,22
0852,5612,9999,18
0855,79983,9999,301
0858,10070,9999,72
0861,14313,9999,55
0865,10872,9999,56
0866,5479,9999,18
0867,16395,9999,83
0873,6244,9999,26
0879,6409,9999,19
0880,5268,9999,37
0882,12129,9999,96
0888,5056,9999,16
0889,4416,9999,15
0893,4509,9999,20
0899,9097,9999,71
0907,5781,9999,31
0917,26703,9999,161
0928,13258,9999,108
0935,36410,9999,255
0938,5822,9999,43
0944,2146,9999,13
0946,5785,9999,28
0957,19123,9999,79
0965,3011,9999,12
0971,8054,9999,28
0981,2272,9999,23
0983,37761,9999,201
0984,15686,9999,58
0986,3858,9999,14
0988,16911,9999,99
0994,4586,9999,36
0995,23936,9999,86
1507,16138,9999,78
1509,11362,9999,58
1525,12377,9999,28
1581,14381,9999,88
1586,9259,9999,49
1598,7907,9999,24
1621,22652,9999,72
1640,11136,9999,59
1641,7470,9999,44
1652,9607,9999,44
1655,9755,9999,31
1658,4562,9999,13
1659,7067,9999,45
1667,4649,9999,14
1669,6021,9999,40
1674,25422,9999,88
1676,9068,9999,40
1680,5204,9999,23
1681,5616,9999,27
1690,6735,9999,32
1695,1793,9999,12
1696,7783,9999,24
1699,6421,9999,27
1700,12367,9999,36
1701,3860,9999,25
1705,14120,9999,55
1706,7031,9999,60
1708,11204,9999,30
1709,11274,9999,54
1711,9928,9999,45
1714,5272,9999,26
1719,8563,9999,32
1721,11430,9999,82
1723,3123,9999,5
1724,6665,9999,15
1728,7317,9999,33
1729,3888,9999,22
1730,6977,9999,26
1731,7133,9999,32
1734,14776,9999,40
1735,11339,9999,39
1740,9979,9999,51
1742,15173,9999,68
1771,12800,9999,33
1773,4836,9999,10
1774,9385,9999,38
1783,41980,9999,101
1842,6720,9999,15
1859,12855,9999,58
1876,9699,9999,28
1883,28756,9999,171
1884,8566,9999,11
1891,6220,9999,27
1892,15984,9999,51
1894,14410,9999,93
1895,8914,9999,40
1896,8628,9999,35
1900,25896,9999,98
1901,13058,9999,39
1903,7621,9999,60
1904,21575,9999,77
1911,14127,9999,38
1916,22786,9999,107
1924,15471,9999,94
1926,19701,9999,43
1930,26797,9999,108
1931,19160,9999,69
1940,15165,9999,39
1942,20109,9999,46
1945,10490,9999,69
1948,26872,9999,180
1949,11450,9999,45
1950,7300,9999,25
1952,14138,9999,48
1954,11303,9999,72
1955,9991,9999,31
1959,20605,9999,76
1960,18044,9999,69
1961,20544,9999,82
1963,28910,9999,76
1966,13422,9999,38
1969,14897,9999,36
1970,13989,9999,57
1978,16901,9999,45
1979,9489,9999,29
1980,28920,9999,72
1982,29896,9999,138
1991,19239,9999,123