0014,8292,64,27
0034,13840,256,74
0037,1646,15,9
0047,1168,7,9
0050,1147,19,13
0059,1445,13,26
0060,141,0,0
0072,351,5,3
0074,1531,22,31
0080,4325,75,57
0085,747,13,6
0086,969,21,4
0088,14,1,0
0090,1874,24,26
0093,167,1,1
0096,38,0,0
0098,933,9,17
0106,2107,39,12
0109,1874,43,25
0114,5250,89,56
0118,3182,56,37
0119,1418,20,24
0141,5376,83,50
0147,1727,28,36
0148,1487,22,18
0150,5284,76,80
0153,9713,187,159
0158,2087,32,32
0160,3862,44,37
0163,2927,32,45
0164,5338,63,65
0166,2269,70,41
0168,2020,42,32
0171,2340,28,26
0173,2345,48,41
0175,938,13,15
0177,2478,34,34
0180,1575,14,18
0183,2029,18,16
0184,1889,44,12
0189,2309,17,26
0193,4826,69,83
0197,1392,19,18
0200,7331,162,138
0202,8429,155,112
0203,5583,43,52
0209,1401,32,17
0213,878,28,16
0214,1535,34,17
0216,1750,40,18
0221,519,16,9
0222,2830,53,27
0225,1259,37,24
0226,1399,24,10
0228,8340,123,69
0230,1282,34,13
0232,1676,64,40
0233,1752,36,32
0243,2833,69,41
0244,509,19,7
0246,787,55,30
0252,945,25,16
0262,1315,30,26
0263,1756,31,27
0267,3289,45,25
0268,9319,227,168
0269,1374,45,29
0273,1768,17,13
0274,1362,29,24
0275,2349,58,49
0277,73,1,0
0279,784,5,12
0281,2654,75,68
0285,1159,27,28
0289,1962,36,38
0293,769,19,8
0294,1295,13,13
0296,2600,70,50
0297,2455,36,38
0299,2044,69,39
0301,1811,46,28
0302,1427,74,30
0303,1996,54,22
0307,9531,196,111
0308,1421,28,24
0310,2540,51,68
0312,774,18,11
0313,3011,45,38
0317,603,13,2
0321,2636,58,51
0327,1631,26,21
0331,959,27,9
0335,883,18,7
0339,397,6,5
0340,1642,26,18
0342,2755,65,45
0344,21161,549,219
0345,5614,103,68
0351,1076,19,8
0352,1140,24,10
0353,1867,64,48
0355,3469,66,58
0356,3271,87,25
0358,1797,26,22
0361,5811,104,63
0362,4746,104,85
0363,61198,1550,664
0370,472,6,2
0373,1527,31,32
0375,2449,33,26
0376,610,9,5
0377,1057,13,15
0383,1718,20,20
0384,2146,37,30
0385,2571,71,12
0388,1348,26,11
0392,8137,166,139
0394,8752,152,97
0396,2394,47,24
0397,1236,21,57
0398,3225,48,27
0399,1045,19,12
0400,2790,33,23
0402,4510,64,73
0405,5195,66,44
0406,2866,49,52
0415,764,10,5
0416,1605,24,8
0417,677,15,25
0420,3440,39,21
0431,719,16,8
0432,829,6,4
0437,867,10,4
0439,4725,140,66
0441,2662,37,41
0448,313,7,3
0450,865,10,7
0451,1572,30,11
0453,4164,78,79
0457,1414,16,19
0473,823,17,41
0479,10191,254,151
0482,1565,29,18
0484,7425,151,97
0489,3313,82,38
0498,1442,15,11
0501,904,29,9
0502,4579,127,115
0503,6073,83,69
0505,8602,173,139
0512,2621,37,32
0513,5059,165,146
0518,34201,1116,503
0523,1694,7,17
0530,2013,43,38
0531,2200,24,26
0532,1644,27,14
0534,1150,15,16
0537,5653,89,50
0542,2427,39,64
0546,6681,104,60
0547,1468,34,21
0553,1313,24,17
0556,2214,56,29
0569,1852,32,19
0575,2499,56,18
0579,1308,19,29
0589,647,34,12
0590,2109,30,36
0597,3334,83,68
0599,48971,1453,786
0603,3154,99,70
0606,5945,171,99
0610,2184,23,34
0613,1974,36,19
0614,654,16,16
0622,5355,121,80
0626,1177,19,21
0627,1942,56,13
0629,1301,32,29
0632,3147,93,32
0637,7273,122,54
0638,520,7,1
0642,3225,58,76
0654,840,25,5
0664,1392,49,20
0668,1256,24,15
0677,1178,27,12
0678,480,9,5
0687,1731,52,18
0703,1344,22,7
0715,2500,76,24
0716,1424,54,22
0717,747,18,3
0718,1594,44,12
0736,2544,89,33
0737,1243,17,23
0743,983,27,17
0744,318,12,4
0748,4280,79,36
0753,1961,49,27
0755,672,40,23
0756,2213,35,43
0757,2014,45,63
0758,10294,224,138
0762,2184,78,38
0765,535,15,8
0766,1909,42,23
0770,1470,42,23
0772,13401,346,283
0777,2475,63,35
0779,1429,25,24
0784,1558,30,19
0785,1468,38,33
0786,942,29,24
0794,6372,171,74
0796,9509,204,148
0797,2953,70,44
0798,1084,18,20
0809,1724,42,34
0815,771,16,9
0820,1322,30,17
0823,1350,26,24
0824,1985,49,22
0826,3346,70,33
0828,6128,215,120
0840,1461,33,12
0845,1939,45,28
0847,1272,41,12
0848,881,39,26
0851,1334,29,15
0852,1168,28,14
0855,13954,358,270
0856,2169,123,79
0858,2260,40,49
0861,3129,62,42
0865,2160,66,51
0866,972,13,10
0867,3311,65,76
0873,1211,16,24
0879,1081,32,17
0880,944,29,29
0882,2317,81,53
0888,863,25,12
0889,765,25,11
0893,1086,15,10
0899,1554,69,40
0907,1231,27,16
0917,4509,188,114
0928,2493,114,88
0935,6122,254,182
0938,905,29,22
0944,459,11,11
0946,1551,41,17
0957,3467,77,38
0965,600,26,7
0971,1348,61,20
0981,433,18,13
0983,7162,182,134
0984,3888,57,41
0986,619,21,10
0988,4424,103,66
0994,806,29,17
0995,3812,117,58
1507,3474,53,58
1509,2304,36,41
1525,2434,32,12
1581,2881,63,56
1586,1864,27,37
1598,1546,18,20
1621,4266,77,58
1640,2426,63,44
1641,1525,35,20
1652,1739,89,37
1655,1851,46,25
1658,1036,21,13
1659,1556,54,33
1667,1108,22,8
1669,1114,35,24
1674,4923,82,62
1676,1090,29,21
1680,912,5,15
1681,993,18,12
1684,1591,28,20
1685,1217,47,25
1690,1134,24,19
1695,267,9,3
1696,1280,20,12
1699,872,15,21
1700,3131,34,27
1701,545,12,11
1702,778,22,11
1705,2468,55,26
1706,1728,73,49
1708,1688,21,18
1709,2012,37,34
1711,1861,56,28
1714,1032,36,18
1719,1502,37,25
1721,2210,105,73
1723,526,23,5
1724,1577,27,8
1728,1930,33,23
1729,792,30,18
1730,961,15,20
1731,1259,22,23
1734,2174,69,27
1735,2444,30,26
1740,1864,57,31
1742,3427,46,45
1771,2643,66,23
1773,727,15,9
1774,2299,33,33
1783,8568,151,82
1842,1270,16,13
1859,2593,33,40
1876,1945,28,16
1883,4764,174,117
1884,1508,18,9
1891,908,7,13
1892,2995,91,42
1894,2638,153,73
1895,1661,29,27
1896,1189,42,25
1900,4601,45,71
1901,2651,50,33
1903,1479,68,41
1904,3721,94,59
1911,2547,38,22
1916,4264,106,76
1924,2780,105,69
1926,3521,50,31
1930,5220,126,88
1931,3926,108,60
1940,1795,38,29
1942,3129,47,28
1945,2022,47,45
1948,4922,244,161
1949,1551,20,32
1950,1551,29,18
1952,2223,38,31
1954,1927,73,42
1955,1797,33,19
1959,4791,79,65
1960,3633,77,46
1961,3942,87,59
1963,4851,112,50
1966,2163,22,20
1969,1898,29,18
1970,1778,29,26
1978,3194,37,25
1979,1835,35,11