0014,11887,82,44
0034,18002,317,95
0037,2289,20,16
0047,1652,11,10
0050,1526,21,13
0059,2024,21,37
0060,181,2,1
0072,715,9,3
0074,2398,31,37
0080,6513,87,69
0085,1295,14,6
0086,1430,25,7
0088,45,1,2
0090,2985,32,33
0093,231,3,2
0096,50,0,0
0098,1499,15,28
0106,3316,51,14
0109,2585,54,31
0114,8181,145,75
0118,4057,68,40
0119,2092,29,25
0141,6601,95,55
0147,2192,29,37
0148,2020,25,20
0150,7065,87,83
0153,12135,207,167
0158,2380,32,32
0160,5169,58,37
0163,3891,41,49
0164,6331,70,66
0166,3131,77,43
0168,2305,47,32
0171,3026,32,27
0173,2854,52,45
0175,1321,15,15
0177,3115,39,41
0180,1958,15,19
0183,2582,22,18
0184,2303,47,14
0189,2804,19,27
0193,7214,94,108
0197,2177,26,21
0200,10994,193,142
0202,11018,175,122
0203,6943,53,61
0209,2019,38,21
0213,1252,32,17
0214,2131,39,19
0216,2397,45,22
0221,690,17,9
0222,4263,57,27
0225,1684,40,27
0226,1771,27,13
0228,10527,133,81
0230,1782,37,14
0232,2460,75,50
0233,2228,40,33
0243,3886,80,47
0244,796,20,7
0246,1148,56,32
0252,1215,26,17
0262,1835,34,29
0263,3123,40,42
0267,4071,49,28
0268,13277,255,183
0269,2016,48,30
0273,2182,19,16
0274,1820,33,26
0275,3195,59,56
0277,95,1,0
0279,967,5,12
0281,3820,84,73
0285,1655,30,28
0289,2638,40,41
0293,990,19,8
0294,1699,15,15
0296,3352,74,51
0297,3441,39,41
0299,2831,75,47
0301,2698,49,29
0302,2016,78,31
0303,2711,61,24
0307,12724,233,134
0308,1910,33,28
0310,3302,75,78
0312,1037,21,12
0313,3967,60,39
0317,849,18,5
0321,3639,66,51
0327,2117,39,23
0331,1445,38,12
0335,1271,24,8
0339,538,7,5
0340,2166,37,20
0342,3551,71,46
0344,28636,670,234
0345,7336,129,72
0351,1341,22,8
0352,1657,34,14
0353,2825,80,55
0355,4464,85,71
0356,4783,123,28
0358,2702,36,26
0361,8526,126,74
0362,6456,125,89
0363,78830,1832,754
0370,819,8,3
0373,2270,37,36
0375,3802,43,41
0376,879,12,6
0377,1481,14,17
0383,2827,25,22
0384,2712,45,31
0385,4537,87,20
0388,1825,30,11
0392,11532,197,147
0394,12422,170,106
0396,3603,59,32
0397,1748,25,59
0398,5061,56,34
0399,1522,23,15
0400,4826,56,34
0402,6012,81,80
0405,8011,92,55
0406,3676,58,53
0415,1045,12,6
0416,2315,31,13
0417,905,16,26
0420,5075,56,25
0431,882,16,8
0432,1200,9,5
0437,1128,14,5
0439,7318,181,82
0441,4099,49,54
0448,464,6,4
0450,1183,12,7
0451,2274,34,15
0453,6340,96,89
0457,1879,17,20
0473,1264,20,42
0479,14094,286,172
0482,2338,38,21
0484,10233,180,113
0489,4786,96,47
0498,1986,20,12
0501,1410,30,9
0502,6905,168,136
0503,8123,92,74
0505,12837,243,165
0512,3582,45,37
0513,6990,227,153
0518,46875,1465,542
0523,2485,16,23
0530,3087,59,43
0531,3217,37,30
0532,2460,29,15
0534,1618,19,17
0537,7963,107,57
0542,3363,47,69
0546,9118,121,70
0547,1994,34,22
0553,1862,27,17
0556,3033,64,34
0569,2937,38,22
0575,3745,65,21
0579,1774,22,30
0589,919,38,12
0590,3064,44,45
0597,5126,106,86
0599,67455,1763,919
0603,4368,127,75
0606,8316,215,109
0610,3035,29,41
0613,2635,42,21
0614,1005,21,16
0622,7558,162,89
0626,1653,22,23
0627,2676,64,14
0629,1818,39,30
0632,4449,130,39
0637,10082,156,67
0638,711,10,1
0642,4775,83,92
0654,1262,35,6
0664,2280,75,26
0668,1685,24,19
0677,1588,39,13
0678,838,12,6
0687,3057,71,25
0703,2401,44,16
0715,3633,110,28
0716,2266,61,24
0717,1238,29,7
0718,2928,116,32
0736,3523,113,34
0737,1770,21,28
0743,1465,33,17
0744,448,13,4
0748,6002,91,41
0753,2715,53,30
0755,858,40,23
0756,2915,38,43
0757,3049,49,67
0758,13875,235,145
0762,3072,84,41
0765,896,23,12
0766,2653,43,25
0770,2135,46,25
0772,19576,412,343
0777,3208,68,38
0779,1930,28,25
0784,2281,34,19
0785,2096,39,36
0786,1279,30,24
0794,9569,196,83
0796,14196,233,160
0797,4360,78,48
0798,1475,20,20
0809,2340,47,35
0815,1096,17,10
0820,1894,32,21
0823,2060,28,26
0824,2751,54,22
0826,4478,81,35
0828,9150,236,127
0840,2015,43,16
0845,2803,50,34
0847,1997,46,13
0848,1348,41,27
0851,2008,31,19
0852,1630,33,15
0855,20658,385,272
0856,3623,138,85
0858,3013,54,60
0861,4489,79,49
0865,2834,71,53
0866,1364,18,15
0867,4525,70,76
0873,1718,20,25
0879,1418,35,17
0880,1416,35,33
0882,3075,89,64
0888,1231,27,12
0889,1235,28,12
0893,1340,20,13
0899,2367,80,49
0907,1578,28,19
0917,6341,224,123
0928,3372,127,96
0935,8470,295,193
0938,1255,39,23
0944,543,11,11
0946,2060,44,20
0957,5312,96,54
0965,761,26,7
0971,2023,70,22
0981,612,21,14
0983,11420,206,154
0984,4993,61,44
0986,900,25,11
0988,5475,106,68
0994,1128,34,22
0995,5243,130,59
1507,5079,60,61
1509,3518,40,44
1525,3471,36,24
1581,3656,86,73
1586,2480,32,38
1598,2412,24,21
1621,5770,85,63
1640,3586,73,48
1641,2234,41,34
1652,2459,98,38
1655,2565,55,27
1658,1458,23,13
1659,2153,58,36
1667,1461,23,9
1669,1779,45,33
1674,6913,100,72
1676,1746,42,23
1680,1272,6,20
1681,1368,27,15
1684,2286,36,25
1685,1693,51,27
1690,1661,30,23
1695,474,15,9
1696,1744,22,17
1699,1487,27,25
1700,3951,38,30
1701,853,15,22
1702,1032,27,11
1705,3344,62,30
1706,2325,78,51
1708,2809,28,26
1709,2951,44,39
1711,2639,62,34
1714,1290,41,18
1719,2168,44,27
1721,3235,109,78
1723,769,24,5
1724,2065,28,10
1728,2479,37,26
1729,1032,30,19
1730,1369,21,24
1731,1844,32,28
1734,3048,71,29
1735,3150,32,29
1740,2427,61,32
1742,4078,51,50
1771,3816,74,27
1773,1132,17,9
1774,2710,35,35
1783,12278,177,86
1842,1772,17,14
1859,3439,39,43
1876,2707,35,19
1883,6976,191,134
1884,2312,24,10
1891,1296,13,17
1892,4207,109,45
1894,4314,161,82
1895,2560,42,36
1896,2212,48,29
1900,7006,66,88
1901,3584,71,36
1903,1865,75,46
1904,5154,134,65
1911,4028,47,33
1916,5695,136,82
1924,3927,122,86
1926,4693,64,35
1930,7842,165,95
1931,5624,136,62
1940,3127,48,31
1942,4436,54,31
1945,2822,55,49
1948,7597,254,163
1949,2669,31,35
1950,2086,35,21
1952,3382,52,38
1954,2930,84,45
1955,2680,41,23
1959,6137,84,68
1960,5131,84,60
1961,5557,114,68
1963,7570,146,61
1966,3063,29,20
1969,2837,34,22
1970,2901,41,36
1978,4898,48,33
1979,2566,44,18