0014,33792,141,63
0034,41029,445,122
0037,4794,41,23
0047,3580,20,18
0050,3780,27,17
0059,5267,46,41
0060,368,3,1
0072,1977,13,8
0074,7962,58,44
0080,18727,151,96
0085,3481,26,7
0086,4685,38,11
0088,77,1,2
0090,9123,76,41
0093,681,3,2
0096,137,1,1
0098,3914,26,31
0106,8218,83,25
0109,5757,68,35
0114,16954,229,94
0118,9196,100,48
0119,4728,40,37
0141,13747,146,71
0147,4577,39,41
0148,4718,37,24
0150,15996,144,100
0153,28686,309,199
0158,4887,37,34
0160,11103,85,50
0163,7359,57,54
0164,14502,105,74
0166,9381,99,57
0168,4737,55,38
0171,8241,44,34
0173,6197,66,52
0175,2886,16,19
0177,7010,51,52
0180,4653,29,29
0183,5275,27,21
0184,4639,71,24
0189,5712,29,31
0193,20363,150,145
0197,4238,36,33
0200,28041,271,194
0202,28056,263,157
0203,15427,91,82
0209,4701,49,28
0213,3181,44,25
0214,4757,54,26
0216,5506,54,24
0221,1535,25,9
0222,10059,83,52
0225,3640,50,31
0226,4034,35,18
0228,23856,187,118
0230,4472,50,23
0232,5613,88,55
0233,5071,55,45
0243,8552,102,62
0244,1890,25,7
0246,2641,60,33
0252,2838,31,21
0262,4970,46,43
0263,5851,50,45
0267,8865,58,34
0268,33139,354,234
0269,4683,63,41
0273,5081,26,21
0274,4197,44,38
0275,7059,79,87
0277,246,1,0
0279,2397,7,12
0281,8194,105,80
0285,4163,34,34
0289,6649,56,71
0293,2382,33,11
0294,4313,28,25
0296,7638,92,69
0297,6600,57,50
0299,6720,102,50
0301,7716,74,46
0302,5559,95,42
0303,6474,79,32
0307,30367,291,152
0308,4773,36,30
0310,7502,89,83
0312,2455,29,15
0313,6618,66,42
0317,1941,21,7
0321,9160,83,53
0327,5173,44,32
0331,3151,42,12
0335,2856,34,10
0339,1325,11,5
0340,4711,50,26
0342,8598,87,55
0344,71275,841,301
0345,15194,158,88
0351,3229,25,9
0352,3880,39,19
0353,6605,95,59
0355,11172,110,82
0356,11006,159,37
0358,7056,51,30
0361,20277,175,93
0362,16348,162,118
0363,185675,2429,966
0370,1978,10,4
0373,5207,44,41
0375,8088,65,46
0376,2214,17,8
0377,4201,20,20
0383,6313,41,33
0384,6585,64,43
0385,9429,108,27
0388,3461,35,17
0392,30319,283,189
0394,30007,249,137
0396,7766,81,46
0397,4955,36,67
0398,11035,83,50
0399,3949,26,18
0400,10206,99,51
0402,15546,131,106
0405,15058,112,59
0406,8329,75,61
0415,2455,16,13
0416,5253,39,21
0417,2150,20,31
0420,9256,68,29
0431,1990,19,8
0432,2418,14,7
0437,2994,20,6
0439,15684,227,97
0441,8354,69,78
0448,1525,7,4
0450,2614,15,16
0451,5803,45,21
0453,12881,132,98
0457,3779,24,23
0473,3034,33,46
0479,30898,392,191
0482,5026,54,27
0484,22187,219,146
0489,10663,119,50
0498,3936,29,13
0501,3227,34,12
0502,14472,220,159
0503,19112,129,87
0505,25990,310,217
0512,7972,57,47
0513,14708,324,165
0518,103274,2197,641
0523,5202,24,31
0530,7338,91,49
0531,7110,49,41
0532,4154,36,16
0534,3718,25,23
0537,15620,134,71
0542,6818,59,78
0546,23490,165,83
0547,4558,40,28
0553,4323,35,23
0556,6575,79,45
0569,6500,51,26
0575,8353,76,32
0579,4101,24,32
0589,1938,40,12
0590,6621,51,52
0597,10390,134,107
0599,149015,2335,1072
0603,10051,154,78
0606,16739,280,127
0610,6538,40,51
0613,5798,54,23
0614,2365,28,20
0622,15741,216,108
0626,4133,29,24
0627,6512,90,19
0629,4260,51,37
0632,10489,154,46
0637,22584,217,77
0638,1715,11,1
0642,9493,95,119
0654,4067,63,12
0664,7202,151,43
0668,3729,26,20
0677,4721,69,18
0678,2303,21,8
0687,8750,115,41
0703,6093,80,24
0715,9281,176,41
0716,5935,83,35
0717,3494,46,17
0718,7375,183,41
0736,8909,130,55
0737,5089,41,34
0743,3557,37,20
0744,1247,16,4
0748,13177,122,50
0753,5962,63,37
0755,2205,46,23
0756,6493,51,53
0757,6694,61,73
0758,36228,311,182
0762,7093,101,50
0765,1802,27,13
0766,5289,53,32
0770,4007,58,34
0772,44162,539,409
0777,7799,84,40
0779,4337,38,30
0784,4888,48,21
0785,4729,49,43
0786,2529,35,27
0794,18928,220,92
0796,32683,300,192
0797,9632,97,56
0798,2982,21,20
0809,5149,57,47
0815,2272,17,12
0820,3942,38,27
0823,4112,33,27
0824,6246,64,26
0826,10966,118,44
0828,18291,265,142
0840,4224,54,18
0845,6192,57,44
0847,4369,51,21
0848,2913,46,30
0851,4203,44,22
0852,3213,36,18
0855,47488,489,299
0856,8074,151,93
0858,6050,70,71
0861,8595,94,54
0865,6379,86,56
0866,3201,29,18
0867,10016,90,83
0873,3737,28,26
0879,3717,48,18
0880,3030,41,37
0882,8135,130,92
0888,3287,41,16
0889,3013,42,15
0893,3015,31,19
0899,6173,122,71
0907,3739,32,31
0917,17871,309,161
0928,9023,175,107
0935,23952,442,253
0938,3840,70,43
0944,1130,13,13
0946,4105,54,28
0957,12718,139,79
0965,1974,38,12
0971,5248,89,28
0981,1480,29,23
0983,26202,282,201
0984,10553,78,58
0986,2547,30,12
0988,11394,148,93
0994,3215,47,35
0995,14193,184,82
1507,11168,73,78
1509,7200,58,58
1525,7417,45,28
1581,8421,111,87
1586,5447,44,49
1598,4744,30,24
1621,13570,110,72
1640,7473,91,59
1641,5261,53,44
1652,5879,108,44
1655,5563,62,31
1658,2821,25,13
1659,4299,69,45
1667,2890,26,14
1669,4012,55,40
1674,15264,130,86
1676,5028,80,39
1680,3036,10,22
1681,3154,37,23
1684,5466,44,34
1685,3242,51,29
1690,3864,44,29
1695,1121,30,11
1696,4351,38,24
1699,3741,40,27
1700,7387,53,35
1701,2192,21,24
1702,2310,29,11
1705,8151,80,54
1706,4532,84,59
1708,6587,40,30
1709,6801,62,54
1711,6543,80,45
1714,3282,67,25
1719,5104,59,32
1721,6815,121,82
1723,1858,26,5
1724,3844,31,15
1728,4739,48,33
1729,2617,39,21
1730,3669,31,26
1731,4257,45,32
1734,7788,89,38
1735,7211,43,39
1740,6493,81,51
1742,9682,66,68
1771,7618,89,33
1773,2709,23,10
1774,5784,40,38
1783,25376,232,101
1842,3940,19,14
1859,7526,54,58
1876,6151,52,28
1883,18426,276,168
1884,4939,27,11
1891,3803,34,26
1892,9351,140,50
1894,9656,177,93
1895,5067,56,40
1896,4944,67,35
1900,15742,108,98
1901,8120,93,39
1903,5141,109,60
1904,12276,164,77
1911,8260,59,38
1916,13012,199,106
1924,9101,143,95
1926,10899,86,43
1930,16599,220,106
1931,11923,171,68
1940,8753,77,38
1942,11357,75,44
1945,6343,71,67
1948,16276,280,180
1949,6541,56,44
1950,4496,44,25
1952,7419,73,47
1954,7465,117,71
1955,6043,55,31
1959,13027,113,76
1960,11219,108,69
1961,13085,151,82
1963,17325,173,76
1966,7661,51,37
1969,8029,46,35
1970,8373,86,57
1978,10869,65,44
1979,5153,58,29