0014,11768,82,44
0034,17872,316,95
0037,2268,20,16
0047,1637,11,10
0050,1505,21,13
0059,1989,21,37
0060,176,2,0
0072,696,9,3
0074,2366,30,37
0080,6455,87,69
0085,1287,14,6
0086,1406,25,7
0088,45,1,2
0090,2939,32,33
0093,229,3,2
0096,48,0,0
0098,1487,15,28
0106,3294,51,14
0109,2572,54,31
0114,8129,142,75
0118,4023,68,40
0119,2075,28,25
0141,6554,95,55
0147,2159,29,37
0148,2007,25,20
0150,6977,87,83
0153,12011,207,167
0158,2361,32,32
0160,5125,58,37
0163,3874,41,49
0164,6287,70,66
0166,3099,76,43
0168,2284,47,32
0171,2999,32,27
0173,2834,52,45
0175,1312,15,15
0177,3083,39,41
0180,1925,15,19
0183,2546,21,18
0184,2266,47,14
0189,2788,19,27
0193,7125,93,108
0197,2163,26,21
0200,10844,193,141
0202,10888,175,122
0203,6857,52,60
0209,1982,36,21
0213,1228,32,17
0214,2115,39,19
0216,2367,45,22
0221,690,17,9
0222,4221,57,27
0225,1671,40,27
0226,1751,27,13
0228,10406,132,80
0230,1762,37,14
0232,2430,75,49
0233,2210,40,33
0243,3839,80,47
0244,787,20,7
0246,1144,56,32
0252,1203,26,17
0262,1807,34,29
0263,3081,40,42
0267,4022,49,28
0268,13107,254,182
0269,1999,48,30
0273,2159,19,16
0274,1801,33,26
0275,3169,59,56
0277,95,1,0
0279,958,5,12
0281,3779,84,73
0285,1646,30,28
0289,2617,40,41
0293,985,19,8
0294,1683,15,15
0296,3299,74,51
0297,3412,39,41
0299,2796,75,47
0301,2672,49,29
0302,1988,78,31
0303,2689,61,24
0307,12591,232,134
0308,1887,33,28
0310,3295,75,78
0312,1028,21,12
0313,3940,59,39
0317,844,18,5
0321,3587,66,51
0327,2091,39,23
0331,1430,38,12
0335,1259,24,8
0339,533,7,5
0340,2152,37,20
0342,3518,70,46
0344,28335,667,233
0345,7278,128,71
0351,1331,22,8
0352,1645,34,13
0353,2783,79,55
0355,4427,84,71
0356,4738,122,28
0358,2660,36,26
0361,8457,125,74
0362,6399,125,89
0363,78221,1824,752
0370,815,8,3
0373,2251,37,36
0375,3782,43,41
0376,869,12,6
0377,1472,14,17
0383,2800,25,22
0384,2688,45,31
0385,4504,87,19
0388,1818,30,11
0392,11435,197,147
0394,12310,170,106
0396,3573,59,32
0397,1734,25,59
0398,4996,56,34
0399,1488,22,15
0400,4768,56,34
0402,5949,81,80
0405,7972,91,55
0406,3648,58,53
0415,1040,12,6
0416,2282,31,13
0417,897,16,26
0420,5037,56,25
0431,878,16,8
0432,1196,9,5
0437,1121,14,5
0439,7248,181,82
0441,4052,49,54
0448,447,6,4
0450,1174,12,7
0451,2256,34,15
0453,6302,96,89
0457,1871,17,20
0473,1242,20,42
0479,13994,284,172
0482,2309,38,21
0484,10114,179,113
0489,4732,95,47
0498,1977,20,12
0501,1386,30,9
0502,6835,167,136
0503,8052,92,74
0505,12700,243,164
0512,3559,45,37
0513,6906,221,152
0518,46307,1452,542
0523,2461,16,23
0530,3045,58,42
0531,3187,37,30
0532,2436,29,15
0534,1602,19,17
0537,7889,107,56
0542,3329,46,69
0546,9021,120,69
0547,1974,34,22
0553,1844,27,17
0556,3002,64,34
0569,2914,38,22
0575,3722,65,21
0579,1748,22,30
0589,917,38,12
0590,3035,44,45
0597,5051,106,86
0599,66617,1753,915
0603,4318,126,75
0606,8239,215,109
0610,3002,29,41
0613,2598,42,21
0614,989,21,16
0622,7480,161,89
0626,1627,22,23
0627,2643,65,14
0629,1807,39,30
0632,4415,129,39
0637,9943,156,67
0638,696,10,1
0642,4729,83,91
0654,1239,35,6
0664,2240,75,26
0668,1665,24,19
0677,1565,39,13
0678,823,12,6
0687,3025,71,25
0703,2359,43,16
0715,3584,110,28
0716,2228,61,24
0717,1222,29,7
0718,2891,115,32
0736,3493,113,34
0737,1752,21,28
0743,1426,33,17
0744,444,12,4
0748,5933,91,41
0753,2686,52,30
0755,849,40,23
0756,2867,38,43
0757,3008,49,67
0758,13697,235,145
0762,3018,84,41
0765,883,23,12
0766,2627,43,25
0770,2106,46,25
0772,19266,409,341
0777,3158,68,38
0779,1903,28,25
0784,2245,34,19
0785,2074,39,36
0786,1264,30,24
0794,9418,195,83
0796,14010,231,160
0797,4288,77,48
0798,1468,20,20
0809,2317,47,35
0815,1083,17,10
0820,1867,31,21
0823,2032,28,26
0824,2735,54,22
0826,4429,81,35
0828,9017,236,127
0840,1992,42,16
0845,2777,50,34
0847,1972,46,13
0848,1332,40,27
0851,1979,31,19
0852,1621,33,15
0855,20395,381,272
0856,3558,137,85
0858,2982,54,60
0861,4454,79,49
0865,2810,71,53
0866,1344,18,15
0867,4462,70,76
0873,1704,20,25
0879,1383,35,17
0880,1404,35,33
0882,2998,88,64
0888,1209,27,12
0889,1210,28,12
0893,1334,20,13
0899,2330,79,49
0907,1564,28,19
0917,6206,222,123
0928,3307,124,96
0935,8339,292,193
0938,1230,39,23
0944,535,11,11
0946,2049,44,20
0957,5225,95,54
0965,737,26,7
0971,1999,69,22
0981,600,21,14
0983,11279,204,154
0984,4938,60,44
0986,882,24,11
0988,5424,106,68
0994,1114,32,22
0995,5181,130,59
1507,5013,60,61
1509,3476,40,44
1525,3404,36,24
1581,3636,86,73
1586,2462,31,38
1598,2394,24,21
1621,5724,85,63
1640,3536,73,48
1641,2201,41,34
1652,2417,98,38
1655,2525,55,27
1658,1438,23,13
1659,2127,58,36
1667,1437,23,9
1669,1759,45,33
1674,6838,100,72
1676,1722,42,23
1680,1264,6,20
1681,1360,26,15
1684,2252,36,25
1685,1675,51,27
1690,1644,30,23
1695,470,15,9
1696,1732,22,17
1699,1472,27,25
1700,3926,38,30
1701,847,15,22
1702,1012,27,11
1705,3281,62,30
1706,2298,78,51
1708,2779,28,25
1709,2910,43,39
1711,2595,62,34
1714,1278,41,18
1719,2143,44,27
1721,3176,109,78
1723,758,24,5
1724,2041,28,10
1728,2451,37,26
1729,1021,30,19
1730,1356,21,23
1731,1825,32,28
1734,2997,71,29
1735,3099,32,29
1740,2401,61,32
1742,4042,51,50
1771,3774,74,27
1773,1121,17,9
1774,2696,34,35
1783,12153,176,86
1842,1757,17,14
1859,3382,39,42
1876,2684,33,19
1883,6821,189,133
1884,2297,24,10
1891,1289,13,17
1892,4157,109,45
1894,4260,161,82
1895,2540,42,36
1896,2184,47,29
1900,6956,65,88
1901,3560,70,35
1903,1853,74,45
1904,5084,133,65
1911,3983,47,32
1916,5637,135,82
1924,3882,122,86
1926,4658,64,35
1930,7739,164,94
1931,5556,136,62
1940,3091,47,31
1942,4401,54,31
1945,2787,55,49
1948,7497,253,163
1949,2640,29,35
1950,2071,35,21
1952,3359,50,37
1954,2879,84,45
1955,2641,41,23
1959,6085,84,68
1960,5067,84,60
1961,5503,114,68
1963,7506,145,61
1966,3021,29,20
1969,2812,34,22
1970,2868,40,36
1978,4838,48,33
1979,2552,44,18