0014,24677,121,51
0034,30040,398,114
0037,3446,35,21
0047,2678,13,11
0050,2638,22,15
0059,3750,34,40
0060,310,3,1
0072,1316,13,6
0074,5764,49,41
0080,12356,121,75
0085,2304,20,6
0086,3262,33,8
0088,52,1,2
0090,6172,60,36
0093,481,3,2
0096,110,1,0
0098,2924,21,29
0106,5816,76,15
0109,4148,64,33
0114,13058,209,86
0118,6606,89,42
0119,3397,36,35
0141,10593,131,64
0147,3465,35,40
0148,3489,32,22
0150,12520,130,91
0153,21374,286,181
0158,3645,36,33
0160,8566,73,41
0163,5722,55,52
0164,10929,96,71
0166,6514,89,50
0168,3710,53,38
0171,5789,41,29
0173,4840,60,47
0175,2224,16,16
0177,5240,48,47
0180,4085,24,29
0183,4031,27,21
0184,4131,67,22
0189,4323,26,30
0193,14531,134,133
0197,3375,33,28
0200,20540,235,170
0202,20203,231,135
0203,12615,86,74
0209,3495,44,26
0213,2331,37,22
0214,3678,46,22
0216,4088,53,23
0221,1163,22,9
0222,7896,71,35
0225,2808,49,30
0226,2971,32,16
0228,19321,178,109
0230,3428,44,21
0232,4175,83,54
0233,3788,51,39
0243,6451,95,50
0244,1474,24,7
0246,2023,57,32
0252,2061,31,20
0262,3464,41,31
0263,4597,45,42
0267,6549,57,30
0268,24293,319,209
0269,3829,60,37
0273,3799,23,21
0274,3078,43,36
0275,5182,71,69
0277,163,1,0
0279,1924,7,12
0281,6432,95,75
0285,2896,33,31
0289,5053,51,47
0293,1749,29,9
0294,3233,21,20
0296,5675,89,64
0297,5301,50,47
0299,5121,91,50
0301,5165,62,34
0302,4409,89,39
0303,4537,73,28
0307,21790,284,143
0308,3487,36,28
0310,5518,86,79
0312,1696,26,13
0313,5140,63,39
0317,1459,21,6
0321,6791,80,52
0327,3521,42,25
0331,2420,41,12
0335,2194,33,9
0339,1090,10,5
0340,3836,47,21
0342,6251,85,49
0344,51717,818,265
0345,12583,151,84
0351,2433,24,9
0352,2852,38,17
0353,4908,93,58
0355,7950,105,77
0356,8020,151,31
0358,5173,46,26
0361,14528,153,86
0362,11871,153,103
0363,137392,2281,893
0370,1365,9,3
0373,3560,41,40
0375,5904,50,42
0376,1527,15,7
0377,2828,20,18
0383,4699,36,25
0384,4799,61,39
0385,6593,103,26
0388,2670,32,14
0392,21309,254,161
0394,21704,219,122
0396,5794,70,34
0397,3509,34,65
0398,8192,72,38
0399,2816,25,17
0400,7300,80,42
0402,11019,113,95
0405,11599,102,55
0406,6011,71,58
0415,1760,15,7
0416,3767,38,17
0417,1528,19,30
0420,7325,62,28
0431,1469,17,8
0432,1891,13,6
0437,2145,19,5
0439,11671,215,87
0441,6296,62,62
0448,957,6,4
0450,1896,12,11
0451,4304,36,16
0453,9604,116,93
0457,2832,21,23
0473,2095,28,43
0479,23019,361,184
0482,4171,49,24
0484,16896,204,137
0489,8157,116,49
0498,2927,28,13
0501,2333,34,11
0502,11110,205,149
0503,14280,120,81
0505,19925,286,194
0512,6110,54,45
0513,11403,309,165
0518,78709,1984,586
0523,4183,22,28
0530,5277,81,46
0531,5475,45,35
0532,3254,31,15
0534,2668,23,20
0537,12248,126,66
0542,5189,53,74
0546,17455,157,80
0547,3458,39,28
0553,3288,33,19
0556,5074,74,35
0569,4987,49,25
0575,6332,73,25
0579,3051,23,32
0589,1450,39,12
0590,5105,48,48
0597,8095,125,96
0599,114024,2209,1007
0603,7475,151,77
0606,12835,262,123
0610,5121,34,45
0613,4398,53,23
0614,1702,27,19
0622,12021,199,101
0626,2946,27,24
0627,4859,81,17
0629,3027,44,34
0632,7728,154,44
0637,16963,201,71
0638,1257,11,1
0642,7308,94,107
0654,2727,46,9
0664,4883,111,31
0668,2861,25,19
0677,3086,47,13
0678,1702,18,6
0687,5828,89,31
0703,4579,65,17
0715,6367,146,32
0716,4461,77,31
0717,2438,36,7
0718,5076,145,35
0736,6448,128,40
0737,3472,33,32
0743,2465,34,18
0744,878,13,4
0748,9811,107,49
0753,4262,59,32
0755,1672,46,23
0756,5274,49,51
0757,4966,56,71
0758,26590,284,162
0762,5343,100,47
0765,1322,26,13
0766,4093,49,26
0770,3131,53,32
0772,32849,489,367
0777,5759,76,39
0779,3231,34,26
0784,3564,45,20
0785,3540,45,37
0786,2031,33,24
0794,14943,215,87
0796,24147,282,181
0797,7262,93,51
0798,2233,21,20
0809,3724,53,41
0815,1765,17,10
0820,2881,35,24
0823,2999,33,27
0824,4523,60,24
0826,7875,103,41
0828,14359,259,132
0840,3092,50,18
0845,4583,55,37
0847,3185,48,14
0848,2072,43,28
0851,3256,41,20
0852,2497,34,18
0855,34952,458,283
0856,5968,143,87
0858,4452,62,65
0861,6606,92,51
0865,4594,81,53
0866,2335,26,17
0867,7553,86,78
0873,2614,24,26
0879,2770,43,17
0880,2273,38,35
0882,5865,118,81
0888,2458,37,14
0889,2302,36,14
0893,2370,27,19
0899,4567,110,57
0907,3094,31,30
0917,12798,276,142
0928,6587,158,103
0935,16800,393,221
0938,2679,64,37
0944,905,13,12
0946,3236,52,24
0957,9691,130,69
0965,1388,31,9
0971,3836,83,24
0981,1034,27,15
0983,19903,254,184
0984,8228,76,53
0986,1891,27,12
0988,9150,132,80
0994,2221,42,27
0995,10150,166,68
1507,8748,67,72
1509,5916,53,48
1525,5710,42,25
1581,6278,103,75
1586,4298,39,43
1598,3578,25,24
1621,10054,106,69
1640,5851,84,54
1641,3797,52,39
1652,4332,108,39
1655,4184,60,30
1658,2170,25,13
1659,3516,67,41
1667,2260,26,10
1669,3083,52,38
1674,11087,119,80
1676,3546,66,28
1680,2053,9,21
1681,2306,35,16
1684,4178,42,31
1685,2573,51,29
1690,2894,40,27
1695,793,23,10
1696,3160,30,21
1699,2599,36,25
1700,5779,47,33
1701,1556,19,23
1702,1905,29,11
1705,5890,72,40
1706,3595,80,56
1708,4885,36,28
1709,5042,55,49
1711,4813,72,42
1714,2213,52,22
1719,3731,52,30
1721,5236,117,78
1723,1332,25,5
1724,2933,30,12
1728,3649,41,28
1729,1927,38,21
1730,2471,29,26
1731,2897,41,32
1734,5820,82,33
1735,5359,39,33
1740,5509,74,44
1742,7668,59,60
1771,5967,84,29
1773,1991,21,10
1774,4443,39,37
1783,19758,213,92
1842,2995,19,14
1859,5561,47,47
1876,4753,45,25
1883,13638,250,151
1884,3725,27,10
1891,2728,29,18
1892,7093,131,47
1894,7313,172,87
1895,3573,48,39
1896,4021,64,32
1900,11425,93,93
1901,6345,87,39
1903,3524,100,52
1904,8986,159,71
1911,5897,55,34
1916,9715,182,93
1924,6845,139,92
1926,8065,83,40
1930,12557,202,100
1931,9384,162,65
1940,6154,65,36
1942,8148,67,41
1945,4863,63,54
1948,12392,274,173
1949,4556,49,38
1950,3370,38,24
1952,5431,62,40
1954,5615,109,62
1955,4542,52,27
1959,10394,100,73
1960,8691,99,64
1961,9831,145,78
1963,13137,169,69
1966,5484,42,21
1969,5722,40,29
1970,6173,77,48
1978,8743,61,39
1979,3951,54,25