0014,23552,120,51
0034,28397,394,114
0037,3212,33,21
0047,2506,13,11
0050,2470,22,14
0059,3497,33,39
0060,307,3,1
0072,1194,13,6
0074,5138,48,41
0080,11252,121,75
0085,2115,20,6
0086,2942,32,8
0088,50,1,2
0090,5565,57,35
0093,451,3,2
0096,104,1,0
0098,2631,21,29
0106,5409,74,15
0109,3937,63,33
0114,12274,200,85
0118,6320,88,42
0119,3209,35,32
0141,10066,129,63
0147,3286,33,40
0148,3226,31,22
0150,11865,126,91
0153,20232,284,179
0158,3415,35,33
0160,7936,68,38
0163,5399,53,52
0164,10166,95,71
0166,6076,85,48
0168,3531,52,38
0171,5188,40,29
0173,4564,59,45
0175,2067,16,16
0177,4909,48,45
0180,3959,24,28
0183,3834,27,21
0184,3823,65,20
0189,4095,26,30
0193,13354,128,128
0197,3157,33,28
0200,19299,229,166
0202,18788,228,130
0203,11651,83,67
0209,3270,44,24
0213,2162,37,22
0214,3456,44,21
0216,3899,52,23
0221,1089,22,9
0222,7318,69,34
0225,2584,48,29
0226,2775,31,16
0228,17993,177,103
0230,3178,44,19
0232,3900,82,54
0233,3524,51,38
0243,5985,94,50
0244,1302,23,7
0246,1822,57,32
0252,1905,31,19
0262,3155,41,31
0263,4368,45,42
0267,6103,57,30
0268,22472,313,208
0269,3574,59,36
0273,3509,23,21
0274,2868,42,33
0275,4768,71,66
0277,147,1,0
0279,1780,7,12
0281,6096,94,75
0285,2683,33,31
0289,4730,50,46
0293,1647,28,9
0294,2995,20,18
0296,5332,89,63
0297,5015,48,46
0299,4820,91,49
0301,4691,61,30
0302,4067,89,39
0303,4259,72,28
0307,20460,284,143
0308,3124,36,28
0310,5202,86,79
0312,1582,26,13
0313,4916,63,39
0317,1365,21,6
0321,6192,80,52
0327,3326,42,25
0331,2269,41,12
0335,2023,32,8
0339,1028,10,5
0340,3617,47,21
0342,5698,84,48
0344,48812,817,263
0345,11793,151,81
0351,2257,24,9
0352,2628,37,17
0353,4517,93,57
0355,7317,104,76
0356,7622,150,31
0358,4813,45,26
0361,13420,151,86
0362,11108,153,103
0363,131378,2252,881
0370,1279,9,3
0373,3320,41,40
0375,5595,50,42
0376,1433,14,6
0377,2591,19,17
0383,4386,34,24
0384,4588,61,39
0385,6253,101,25
0388,2464,32,14
0392,19816,251,158
0394,20482,213,119
0396,5368,67,33
0397,3199,33,65
0398,7673,70,38
0399,2566,24,16
0400,6734,80,42
0402,10244,110,93
0405,10900,101,55
0406,5674,70,57
0415,1669,14,7
0416,3534,37,17
0417,1427,19,30
0420,6842,62,28
0431,1365,17,8
0432,1766,12,6
0437,1974,20,5
0439,11131,210,87
0441,5962,61,61
0448,870,6,4
0450,1767,12,8
0451,3950,35,16
0453,9195,113,92
0457,2654,21,23
0473,1936,28,43
0479,21818,355,183
0482,3939,47,23
0484,15853,203,136
0489,7718,115,48
0498,2732,28,13
0501,2189,33,11
0502,10512,199,148
0503,13606,119,80
0505,18634,285,191
0512,5705,52,45
0513,10878,304,165
0518,75218,1952,586
0523,3925,22,27
0530,5003,81,45
0531,5165,45,35
0532,3096,30,15
0534,2520,23,20
0537,11472,123,65
0542,4882,52,74
0546,16607,154,79
0547,3263,39,27
0553,3114,32,18
0556,4875,74,35
0569,4707,48,25
0575,5945,73,25
0579,2908,23,32
0589,1392,39,12
0590,4776,48,47
0597,7745,124,96
0599,109915,2191,1004
0603,6941,149,77
0606,12254,260,123
0610,4809,34,44
0613,4124,53,23
0614,1583,26,19
0622,11460,196,99
0626,2778,26,24
0627,4494,77,17
0629,2837,43,32
0632,7251,153,44
0637,16019,200,70
0638,1176,11,1
0642,6944,94,103
0654,2442,46,9
0664,4318,108,31
0668,2695,25,19
0677,2734,47,13
0678,1517,18,6
0687,5302,88,30
0703,4311,64,17
0715,5722,144,31
0716,4071,76,30
0717,2179,36,7
0718,4594,140,35
0736,5969,128,39
0737,3187,30,31
0743,2239,34,18
0744,821,13,4
0748,9216,105,48
0753,4033,58,32
0755,1563,46,23
0756,4939,46,50
0757,4625,56,71
0758,24624,280,159
0762,4949,100,45
0765,1234,26,13
0766,3836,49,26
0770,2995,51,32
0772,30938,477,363
0777,5322,74,39
0779,3012,34,26
0784,3316,43,20
0785,3240,44,37
0786,1901,31,24
0794,14213,214,87
0796,22504,278,181
0797,6823,93,51
0798,2116,21,20
0809,3463,53,38
0815,1620,17,10
0820,2740,35,23
0823,2850,33,27
0824,4167,58,24
0826,7164,102,41
0828,13620,256,132
0840,2886,49,18
0845,4312,55,36
0847,2985,48,13
0848,1932,43,28
0851,3025,40,20
0852,2376,33,18
0855,32860,454,283
0856,5557,143,86
0858,4160,60,64
0861,6273,90,50
0865,4196,80,53
0866,2195,24,17
0867,7032,86,77
0873,2472,24,26
0879,2563,42,17
0880,2149,38,35
0882,5258,115,79
0888,2186,36,14
0889,2144,36,14
0893,2186,26,18
0899,4159,106,56
0907,2913,31,30
0917,11499,270,137
0928,5965,155,100
0935,15227,385,209
0938,2381,64,36
0944,849,13,12
0946,3019,51,22
0957,9029,128,67
0965,1259,30,9
0971,3461,81,24
0981,953,26,14
0983,18370,252,184
0984,7668,74,52
0986,1651,27,11
0988,8644,132,78
0994,1996,42,26
0995,9396,165,66
1507,8207,67,71
1509,5531,53,46
1525,5311,42,25
1581,5779,102,75
1586,4117,39,42
1598,3334,25,24
1621,9424,105,69
1640,5501,80,54
1641,3487,50,38
1652,4045,105,39
1655,3973,60,30
1658,2038,25,13
1659,3335,66,39
1667,2111,24,10
1669,2829,51,37
1674,10464,118,78
1676,3211,63,28
1680,1908,8,21
1681,2154,35,16
1684,3833,41,30
1685,2422,51,29
1690,2730,39,27
1695,725,23,9
1696,2889,29,21
1699,2405,34,25
1700,5475,45,33
1701,1445,18,23
1702,1749,29,11
1705,5341,71,38
1706,3358,80,54
1708,4487,33,27
1709,4685,50,47
1711,4420,69,40
1714,1982,51,22
1719,3415,52,30
1721,4913,115,78
1723,1242,25,5
1724,2737,29,12
1728,3454,40,28
1729,1765,38,20
1730,2288,28,25
1731,2730,41,32
1734,5381,80,30
1735,5043,39,31
1740,5107,72,44
1742,7089,59,59
1771,5583,82,29
1773,1874,21,10
1774,4255,39,36
1783,18617,210,89
1842,2824,19,14
1859,5194,46,47
1876,4363,44,24
1883,12641,246,150
1884,3538,26,10
1891,2506,25,18
1892,6739,128,47
1894,6877,171,87
1895,3408,48,39
1896,3860,61,31
1900,10668,92,93
1901,5934,87,38
1903,3166,99,51
1904,8357,159,71
1911,5525,55,34
1916,9171,179,91
1924,6522,137,92
1926,7569,82,40
1930,11940,199,100
1931,8925,161,65
1940,5572,64,36
1942,7559,65,40
1945,4474,62,53
1948,11693,272,171
1949,4198,46,37
1950,3161,38,22
1952,5162,60,40
1954,5181,108,57
1955,4235,50,26
1959,9802,98,72
1960,8123,97,62
1961,9124,143,77
1963,12340,166,69
1966,5198,41,21
1969,5242,40,29
1970,5682,72,46
1978,8224,60,39
1979,3759,54,24