0014,26234,125,55
0034,32383,414,115
0037,3682,36,21
0047,2863,14,16
0050,2917,23,15
0059,4167,39,40
0060,323,3,1
0072,1462,13,7
0074,6345,50,42
0080,14019,132,81
0085,2638,22,6
0086,3629,33,9
0088,60,1,2
0090,7094,64,36
0093,533,3,2
0096,114,1,1
0098,3234,22,29
0106,6420,79,20
0109,4522,66,33
0114,14013,216,88
0118,7246,90,43
0119,3734,38,36
0141,11403,137,68
0147,3770,36,40
0148,3819,34,23
0150,13394,132,91
0153,23345,295,184
0158,3948,36,33
0160,9363,77,42
0163,6248,57,53
0164,11943,97,72
0166,7276,94,51
0168,3947,53,38
0171,6543,43,30
0173,5208,61,49
0175,2424,16,16
0177,5657,48,47
0180,4267,27,29
0183,4274,27,21
0184,4333,69,22
0189,4711,26,30
0193,16195,138,135
0197,3663,34,30
0200,22253,247,181
0202,22183,238,140
0203,13507,87,77
0209,3811,47,27
0213,2571,38,23
0214,3966,48,24
0216,4448,53,24
0221,1263,22,9
0222,8542,74,40
0225,3040,49,30
0226,3210,32,17
0228,20629,183,115
0230,3670,48,22
0232,4499,84,55
0233,4156,53,42
0243,7039,97,54
0244,1645,24,7
0246,2202,58,32
0252,2235,31,21
0262,3889,42,36
0263,4861,48,43
0267,7112,57,31
0268,26589,334,213
0269,4057,62,39
0273,4106,23,21
0274,3352,43,37
0275,5690,73,72
0277,186,1,0
0279,2099,7,12
0281,6927,99,78
0285,3185,33,31
0289,5349,52,55
0293,1913,30,9
0294,3513,24,22
0296,6184,91,65
0297,5709,53,48
0299,5507,93,50
0301,5818,65,39
0302,4734,92,41
0303,4965,75,28
0307,23952,284,145
0308,3922,36,28
0310,5969,86,79
0312,1890,27,14
0313,5542,63,39
0317,1548,21,6
0321,7614,81,53
0327,4001,43,26
0331,2576,41,12
0335,2362,34,9
0339,1147,10,5
0340,4094,47,21
0342,6921,85,50
0344,55563,819,270
0345,13443,154,84
0351,2661,24,9
0352,3114,38,17
0353,5284,93,58
0355,8755,105,78
0356,8653,153,32
0358,5594,47,29
0361,15893,161,87
0362,12863,156,107
0363,145619,2309,907
0370,1521,9,3
0373,3851,43,40
0375,6502,57,43
0376,1648,15,7
0377,3192,20,18
0383,5127,38,26
0384,5137,61,40
0385,7097,105,26
0388,2881,32,16
0392,23391,260,166
0394,23511,228,125
0396,6433,71,37
0397,3848,34,65
0398,8904,74,40
0399,3075,26,17
0400,8131,85,44
0402,12102,118,99
0405,12460,104,55
0406,6439,72,60
0415,1899,16,7
0416,4117,39,18
0417,1657,20,31
0420,7778,65,29
0431,1583,17,8
0432,2026,13,6
0437,2328,19,5
0439,12496,221,87
0441,6742,64,66
0448,1049,6,4
0450,2081,12,12
0451,4705,40,16
0453,10400,120,95
0457,3072,22,23
0473,2310,30,44
0479,24704,373,186
0482,4447,51,24
0484,18314,213,144
0489,8808,117,50
0498,3174,28,13
0501,2535,34,11
0502,12043,209,152
0503,15196,125,82
0505,21730,294,200
0512,6644,55,45
0513,12401,314,165
0518,83866,2026,601
0523,4518,22,30
0530,5712,84,47
0531,6007,46,37
0532,3472,34,16
0534,2926,24,21
0537,13150,130,69
0542,5598,53,75
0546,18530,159,81
0547,3725,39,28
0553,3551,35,22
0556,5455,75,37
0569,5391,50,25
0575,6812,74,25
0579,3314,23,32
0589,1518,40,12
0590,5569,49,49
0597,8639,130,99
0599,120944,2233,1014
0603,8188,153,77
0606,13734,268,123
0610,5631,37,47
0613,4786,54,23
0614,1831,27,19
0622,12881,204,104
0626,3202,28,24
0627,5392,82,18
0629,3280,45,34
0632,8424,154,44
0637,18314,205,72
0638,1374,11,1
0642,7989,94,114
0654,3136,49,9
0664,5508,124,33
0668,3074,25,19
0677,3634,54,13
0678,1848,20,6
0687,6775,96,32
0703,4947,69,18
0715,7277,158,32
0716,4947,79,32
0717,2745,39,9
0718,5722,155,35
0736,7034,128,43
0737,3858,36,32
0743,2798,37,18
0744,992,15,4
0748,10603,110,49
0753,4672,60,33
0755,1750,46,23
0756,5682,50,52
0757,5523,57,71
0758,29019,294,173
0762,5831,100,49
0765,1426,26,13
0766,4437,49,26
0770,3335,53,32
0772,35378,504,375
0777,6397,78,40
0779,3518,36,26
0784,3881,45,20
0785,3951,47,41
0786,2202,34,24
0794,16032,215,87
0796,26355,289,186
0797,7879,96,51
0798,2382,21,20
0809,4103,55,41
0815,1933,17,11
0820,3166,35,24
0823,3209,33,27
0824,5078,61,24
0826,8767,106,42
0828,15467,259,134
0840,3386,53,18
0845,4937,55,43
0847,3501,49,15
0848,2298,43,28
0851,3506,42,21
0852,2686,35,18
0855,38181,465,292
0856,6526,145,89
0858,4966,64,68
0861,7062,92,52
0865,5114,82,53
0866,2552,27,17
0867,8244,86,78
0873,2866,26,26
0879,3057,45,17
0880,2432,40,35
0882,6786,123,84
0888,2792,39,15
0889,2534,37,14
0893,2590,28,19
0899,5193,115,61
0907,3246,32,31
0917,14717,288,147
0928,7491,162,103
0935,19216,401,232
0938,3058,65,40
0944,979,13,13
0946,3590,52,25
0957,10674,132,74
0965,1582,32,9
0971,4387,83,24
0981,1165,27,16
0983,22001,262,187
0984,8939,77,55
0986,2125,27,12
0988,9920,136,85
0994,2589,43,29
0995,11069,173,71
1507,9565,69,75
1509,6312,55,55
1525,6170,44,26
1581,6833,104,77
1586,4515,41,46
1598,3820,27,24
1621,10989,107,70
1640,6361,85,57
1641,4321,52,40
1652,4692,108,41
1655,4502,62,31
1658,2309,25,13
1659,3753,68,43
1667,2440,26,10
1669,3419,53,38
1674,12270,121,82
1676,4039,72,31
1680,2224,9,21
1681,2483,36,19
1684,4656,43,33
1685,2737,51,29
1690,3106,41,27
1695,890,23,10
1696,3530,30,23
1699,2904,36,26
1700,6260,50,33
1701,1738,19,23
1702,2039,29,11
1705,6615,76,43
1706,3858,83,57
1708,5339,37,30
1709,5501,60,52
1711,5472,77,43
1714,2556,55,22
1719,4163,57,31
1721,5660,118,81
1723,1480,25,5
1724,3178,30,13
1728,3955,43,29
1729,2151,38,21
1730,2735,29,26
1731,3242,43,32
1734,6310,85,36
1735,5911,40,35
1740,5894,81,49
1742,8345,63,64
1771,6392,85,31
1773,2139,21,10
1774,4681,39,37
1783,21232,216,93
1842,3245,19,14
1859,6156,49,50
1876,5121,46,27
1883,15308,258,154
1884,3970,27,11
1891,3015,32,18
1892,7702,135,48
1894,8093,174,88
1895,3855,51,39
1896,4257,64,32
1900,12528,101,95
1901,6777,90,39
1903,4116,103,55
1904,9750,160,72
1911,6413,55,36
1916,10472,188,99
1924,7336,141,93
1926,8762,85,41
1930,13619,209,101
1931,10049,163,66
1940,6792,70,37
1942,8941,68,43
1945,5310,64,57
1948,13266,276,177
1949,5114,53,39
1950,3612,42,24
1952,5879,66,41
1954,6300,111,65
1955,4863,54,29
1959,11235,109,73
1960,9409,100,65
1961,10813,147,78
1963,14130,171,74
1966,6126,46,30
1969,6279,42,32
1970,6750,79,48
1978,9445,62,42
1979,4284,55,27