0014,13564,91,45
0034,19673,334,96
0037,2519,24,20
0047,1867,12,11
0050,1754,22,14
0059,2300,26,39
0060,206,3,1
0072,819,11,3
0074,2740,37,39
0080,7493,100,74
0085,1467,16,6
0086,1709,27,7
0088,45,1,2
0090,3408,43,33
0093,248,3,2
0096,68,0,0
0098,1808,19,28
0106,3720,67,15
0109,2875,57,31
0114,9089,165,79
0118,4544,74,41
0119,2340,34,27
0141,7611,104,58
0147,2496,30,38
0148,2320,26,20
0150,8206,104,87
0153,13947,237,171
0158,2652,34,32
0160,5825,59,37
0163,4272,44,51
0164,7208,77,67
0166,3640,79,44
0168,2623,50,32
0171,3493,35,28
0173,3370,54,45
0175,1457,15,15
0177,3389,42,41
0180,2325,16,21
0183,2955,25,18
0184,2600,54,19
0189,3089,19,27
0193,8160,105,113
0197,2412,32,22
0200,12479,199,146
0202,12792,195,124
0203,7708,62,62
0209,2342,40,22
0213,1470,33,18
0214,2502,40,20
0216,2678,47,22
0221,792,19,9
0222,4819,64,29
0225,1858,40,27
0226,2060,28,14
0228,11776,141,86
0230,2041,39,14
0232,2725,78,52
0233,2432,48,34
0243,4330,87,48
0244,896,21,7
0246,1278,57,32
0252,1405,27,19
0262,2146,37,29
0263,3528,43,42
0267,4446,51,29
0268,15327,271,189
0269,2230,49,30
0273,2493,21,18
0274,2087,36,26
0275,3557,61,58
0277,106,1,0
0279,1062,5,12
0281,4467,87,73
0285,1875,31,28
0289,3015,40,42
0293,1158,20,9
0294,2105,17,17
0296,4014,79,58
0297,3865,40,42
0299,3323,81,48
0301,3162,54,29
0302,2353,80,32
0303,3068,63,25
0307,14130,254,138
0308,2202,34,28
0310,3575,75,78
0312,1156,22,12
0313,4206,62,39
0317,916,19,5
0321,4134,73,51
0327,2358,41,24
0331,1624,39,12
0335,1421,29,8
0339,600,7,5
0340,2440,42,21
0342,3974,76,47
0344,32437,716,248
0345,7991,134,74
0351,1456,22,8
0352,1850,34,17
0353,3297,87,55
0355,5041,88,73
0356,5385,133,30
0358,3110,37,26
0361,9428,141,85
0362,7234,133,90
0363,87690,1938,801
0370,889,8,3
0373,2474,39,38
0375,4148,44,41
0376,999,13,6
0377,1628,16,17
0383,3129,27,23
0384,3028,52,33
0385,5101,94,22
0388,1909,30,11
0392,12798,216,149
0394,14044,183,108
0396,3924,61,32
0397,1919,26,60
0398,5706,57,36
0399,1702,23,15
0400,5254,65,39
0402,6741,89,85
0405,8517,94,55
0406,4025,62,53
0415,1141,12,6
0416,2559,35,15
0417,986,16,26
0420,5415,58,26
0431,945,16,8
0432,1280,11,6
0437,1242,16,5
0439,8053,189,84
0441,4505,55,58
0448,580,6,4
0450,1298,12,7
0451,2535,34,15
0453,6921,103,90
0457,2022,20,20
0473,1404,21,43
0479,15501,308,175
0482,2636,43,22
0484,11257,189,115
0489,5407,104,48
0498,2179,24,13
0501,1644,31,9
0502,7822,183,145
0503,9370,102,74
0505,14271,257,179
0512,4161,46,39
0513,7791,272,160
0518,53440,1667,551
0523,2754,17,25
0530,3498,66,43
0531,3610,40,32
0532,2629,29,15
0534,1768,21,17
0537,8741,113,59
0542,3675,49,70
0546,10516,135,70
0547,2263,36,23
0553,2049,28,17
0556,3546,68,35
0569,3311,45,22
0575,4037,66,22
0579,1912,23,31
0589,1039,38,12
0590,3556,45,46
0597,5814,113,89
0599,77855,1930,960
0603,4914,130,76
0606,9291,235,114
0610,3345,31,41
0613,2984,47,22
0614,1146,22,18
0622,8734,173,91
0626,1837,23,24
0627,3031,71,16
0629,2045,40,31
0632,5184,143,39
0637,11345,170,69
0638,845,10,1
0642,5335,88,101
0654,1485,38,6
0664,2664,89,31
0668,1947,25,19
0677,1806,40,13
0678,1029,14,6
0687,3522,78,25
0703,3013,59,17
0715,4121,117,29
0716,2852,71,29
0717,1372,31,7
0718,3340,129,32
0736,4009,117,35
0737,2004,22,28
0743,1681,33,18
0744,553,13,4
0748,6641,93,44
0753,3050,55,30
0755,1063,41,23
0756,3289,40,45
0757,3514,51,69
0758,16170,250,147
0762,3740,91,41
0765,1033,25,13
0766,2978,46,25
0770,2395,48,25
0772,22615,447,355
0777,3740,69,38
0779,2282,31,25
0784,2629,39,19
0785,2438,42,36
0786,1439,30,24
0794,10961,205,84
0796,16808,256,171
0797,5223,89,50
0798,1603,20,20
0809,2720,52,37
0815,1230,17,10
0820,2141,34,22
0823,2365,32,27
0824,3122,55,22
0826,5080,84,36
0828,10771,241,129
0840,2268,46,16
0845,3261,52,34
0847,2260,48,13
0848,1528,42,28
0851,2270,32,19
0852,1771,33,15
0855,23896,407,276
0856,4294,139,86
0858,3353,57,62
0861,5055,83,50
0865,3239,74,53
0866,1588,19,17
0867,5469,78,77
0873,1948,22,26
0879,1667,36,17
0880,1556,35,33
0882,3579,99,70
0888,1494,29,12
0889,1478,30,12
0893,1585,23,15
0899,2787,88,52
0907,1771,28,19
0917,7453,239,126
0928,4032,140,96
0935,9983,335,197
0938,1444,49,23
0944,605,11,11
0946,2275,47,20
0957,6283,105,59
0965,889,27,9
0971,2382,77,24
0981,710,23,14
0983,13491,225,165
0984,5711,64,48
0986,1038,25,11
0988,6113,111,68
0994,1286,37,23
0995,5930,137,62
1507,5774,61,65
1509,3998,48,45
1525,3814,38,25
1581,4041,91,73
1586,2856,35,41
1598,2628,24,24
1621,6500,90,63
1640,4034,76,52
1641,2543,42,36
1652,2919,100,38
1655,3018,57,27
1658,1575,23,13
1659,2577,62,36
1667,1618,23,10
1669,2078,47,35
1674,7659,103,74
1676,2123,53,25
1680,1406,7,20
1681,1596,31,15
1684,2624,37,26
1685,1892,51,28
1690,2005,31,24
1695,553,17,9
1696,1944,25,18
1699,1674,31,25
1700,4511,40,30
1701,976,16,22
1702,1214,27,11
1705,3780,62,34
1706,2558,79,51
1708,3205,33,27
1709,3434,46,40
1711,3111,65,36
1714,1434,43,18
1719,2515,49,30
1721,3811,111,78
1723,910,24,5
1724,2270,28,11
1728,2798,38,27
1729,1147,31,19
1730,1524,22,24
1731,2041,35,30
1734,3694,73,30
1735,3614,34,29
1740,2916,63,34
1742,4706,54,54
1771,4334,76,28
1773,1325,20,10
1774,3142,36,35
1783,13844,186,86
1842,2003,18,14
1859,3877,42,42
1876,3052,37,21
1883,8458,212,144
1884,2566,25,10
1891,1466,18,17
1892,4754,117,47
1894,4887,165,84
1895,2825,44,37
1896,2403,51,30
1900,7741,74,90
1901,3992,75,36
1903,2112,86,46
1904,5773,146,69
1911,4406,49,34
1916,6426,153,84
1924,4579,127,88
1926,5302,67,38
1930,8860,179,99
1931,6319,151,64
1940,3587,55,33
1942,4997,60,33
1945,3205,56,51
1948,8948,261,166
1949,2952,39,36
1950,2299,36,21
1952,3708,53,39
1954,3466,99,49
1955,3078,42,24
1959,6854,87,68
1960,5868,87,61
1961,6183,123,76
1963,8496,152,66
1966,3483,31,20
1969,3331,38,25
1970,3222,47,37
1978,5666,51,35
1979,2829,49,23