0014,19683,100,45
0034,22061,354,96
0037,2658,24,21
0047,2102,12,11
0050,1968,22,14
0059,2495,28,39
0060,274,3,1
0072,934,13,6
0074,3283,39,39
0080,8384,105,74
0085,1639,17,6
0086,2022,29,8
0088,48,1,2
0090,3942,45,34
0093,291,3,2
0096,79,0,0
0098,1957,20,29
0106,4301,69,15
0109,3073,57,31
0114,9531,169,79
0118,5020,77,41
0119,2532,34,27
0141,8313,109,59
0147,2764,31,38
0148,2536,26,20
0150,9580,109,88
0153,16218,251,175
0158,2851,34,32
0160,6162,61,37
0163,4669,44,51
0164,8130,82,68
0166,4100,81,44
0168,2971,50,36
0171,3787,36,29
0173,3782,56,45
0175,1583,15,16
0177,3863,43,41
0180,2445,18,21
0183,3457,26,19
0184,2647,55,19
0189,3361,21,27
0193,9358,109,114
0197,2649,32,22
0200,14444,210,148
0202,14862,211,126
0203,8254,65,64
0209,2694,41,22
0213,1725,33,18
0214,2735,40,20
0216,3050,48,22
0221,860,19,9
0222,5443,65,31
0225,2098,41,27
0226,2319,29,14
0228,12961,145,86
0230,2247,39,14
0232,2961,78,52
0233,2624,49,34
0243,4735,87,48
0244,994,21,7
0246,1346,57,32
0252,1587,28,19
0262,2515,40,29
0263,3849,43,42
0267,4894,52,29
0268,18371,278,192
0269,2378,50,30
0273,2699,21,18
0274,2333,37,26
0275,3902,64,59
0277,122,1,0
0279,1160,5,12
0281,4889,89,73
0285,2119,31,30
0289,3549,43,42
0293,1357,21,9
0294,2299,18,17
0296,4549,82,60
0297,4084,41,42
0299,3677,84,48
0301,3553,55,29
0302,2580,80,32
0303,3379,64,25
0307,16148,270,139
0308,2472,35,28
0310,4220,76,78
0312,1307,22,12
0313,4397,62,39
0317,1067,20,6
0321,4750,75,51
0327,2683,42,25
0331,1760,39,12
0335,1571,29,8
0339,667,7,5
0340,2573,42,21
0342,4534,81,47
0344,39906,749,252
0345,8488,135,75
0351,1578,22,8
0352,2105,34,17
0353,3655,88,55
0355,5816,96,74
0356,5982,139,30
0358,3781,40,26
0361,11046,143,86
0362,8888,139,92
0363,108273,2043,824
0370,1019,9,3
0373,2808,39,38
0375,4661,46,42
0376,1186,13,6
0377,2087,18,17
0383,3570,28,24
0384,3742,55,36
0385,5465,97,23
0388,2066,31,11
0392,15544,224,153
0394,16276,190,110
0396,4396,63,32
0397,2398,26,60
0398,6437,62,38
0399,2117,23,15
0400,5721,68,40
0402,8149,93,86
0405,9186,95,55
0406,4516,63,54
0415,1319,14,6
0416,2981,35,17
0417,1184,17,26
0420,5721,58,26
0431,1057,16,8
0432,1403,11,6
0437,1521,16,5
0439,9239,197,84
0441,5009,57,58
0448,704,6,4
0450,1473,12,7
0451,2980,34,15
0453,7848,105,90
0457,2278,20,22
0473,1651,24,43
0479,17322,319,176
0482,2873,46,22
0484,12352,192,116
0489,6188,106,48
0498,2348,25,13
0501,1808,31,10
0502,8811,187,145
0503,11297,104,75
0505,15354,268,181
0512,4608,48,42
0513,8458,280,160
0518,60541,1725,559
0523,2892,17,25
0530,3976,69,43
0531,3880,41,32
0532,2769,30,15
0534,2065,21,18
0537,9295,114,60
0542,4025,49,71
0546,13006,140,72
0547,2575,36,23
0553,2431,29,17
0556,3844,71,34
0569,3605,46,22
0575,4932,67,23
0579,2247,23,31
0589,1134,38,12
0590,3826,47,46
0597,6396,114,90
0599,91348,2005,975
0603,5495,136,76
0606,10070,242,115
0610,3582,33,41
0613,3422,50,23
0614,1265,23,19
0622,9494,178,91
0626,2124,23,24
0627,3250,73,16
0629,2368,41,31
0632,5815,145,39
0637,12573,177,70
0638,942,10,1
0642,5752,90,102
0654,1712,42,8
0664,3033,100,31
0668,2183,25,19
0677,1979,41,13
0678,1142,16,6
0687,3875,78,25
0703,3174,59,17
0715,4406,122,29
0716,3166,72,30
0717,1587,32,7
0718,3573,130,32
0736,4659,118,35
0737,2168,23,28
0743,1931,33,18
0744,655,13,4
0748,7722,96,44
0753,3395,57,31
0755,1147,42,23
0756,3575,40,45
0757,3837,51,69
0758,20075,259,147
0762,4115,91,42
0765,1081,25,13
0766,3272,47,25
0770,2597,49,26
0772,25881,456,356
0777,4236,71,38
0779,2577,31,25
0784,2899,41,19
0785,2735,42,36
0786,1588,31,24
0794,12245,207,85
0796,19149,264,172
0797,5750,91,50
0798,1763,20,20
0809,2902,52,37
0815,1313,17,10
0820,2369,34,22
0823,2521,32,27
0824,3435,55,22
0826,5894,85,37
0828,11601,246,129
0840,2512,46,16
0845,3615,53,34
0847,2451,48,13
0848,1684,43,28
0851,2549,34,19
0852,2016,33,15
0855,27204,418,277
0856,4618,139,86
0858,3656,59,63
0861,5415,85,50
0865,3590,76,53
0866,1816,23,17
0867,5890,80,77
0873,2119,23,26
0879,1907,37,17
0880,1762,37,33
0882,3737,100,70
0888,1668,32,12
0889,1603,30,13
0893,1702,25,15
0899,2960,90,52
0907,1918,29,20
0917,8124,246,126
0928,4314,142,96
0935,11913,349,199
0938,1665,52,23
0944,680,11,11
0946,2440,47,20
0957,6874,107,62
0965,979,28,9
0971,2579,78,24
0981,757,24,14
0983,14645,234,170
0984,6070,65,49
0986,1180,26,11
0988,6729,115,69
0994,1490,38,23
0995,6521,143,63
1507,6286,61,66
1509,4470,50,45
1525,4425,40,25
1581,4500,95,73
1586,3276,35,41
1598,2898,24,24
1621,7331,97,64
1640,4304,76,52
1641,2694,43,37
1652,3191,102,38
1655,3356,57,27
1658,1710,23,13
1659,2787,63,36
1667,1751,23,10
1669,2213,48,35
1674,8539,106,75
1676,2402,56,25
1680,1587,7,20
1681,1684,32,15
1684,2907,37,27
1685,2021,51,28
1690,2147,33,24
1695,595,20,9
1696,2245,25,18
1699,1987,31,25
1700,4812,42,30
1701,1046,17,22
1702,1283,27,11
1705,4256,63,35
1706,2764,79,52
1708,3475,33,27
1709,3889,47,41
1711,3320,65,36
1714,1563,46,18
1719,2910,49,30
1721,4213,113,78
1723,1009,24,5
1724,2431,28,11
1728,2978,39,27
1729,1285,33,19
1730,1865,25,24
1731,2213,35,30
1734,4275,74,30
1735,3985,34,29
1740,3037,63,34
1742,5201,55,54
1771,4752,78,28
1773,1516,21,10
1774,3616,37,35
1783,15464,190,86
1842,2266,19,14
1859,4254,43,42
1876,3376,37,21
1883,9155,219,145
1884,2853,25,10
1891,1543,18,17
1892,5305,121,47
1894,5330,165,85
1895,3000,45,37
1896,2584,52,30
1900,8534,79,90
1901,4336,79,37
1903,2415,89,47
1904,6580,147,69
1911,4764,50,34
1916,7434,163,85
1924,5175,133,90
1926,6116,74,38
1930,9731,185,99
1931,6845,153,64
1940,4152,57,33
1942,6019,62,35
1945,3558,56,51
1948,9689,265,168
1949,3205,42,37
1950,2460,36,21
1952,4159,56,40
1954,3750,102,52
1955,3392,42,25
1959,7321,87,68
1960,6489,87,61
1961,6734,124,76
1963,9461,156,67
1966,4106,34,20
1969,4025,38,25
1970,3464,48,38
1978,6127,54,35
1979,3048,51,23