0014,8746,65,28
0034,14245,263,80
0037,1718,15,14
0047,1224,7,10
0050,1169,20,13
0059,1539,14,30
0060,143,0,0
0072,389,6,3
0074,1626,22,33
0080,4623,80,59
0085,801,13,6
0086,1002,21,5
0088,31,1,0
0090,1999,25,27
0093,177,1,1
0096,40,0,0
0098,1012,10,20
0106,2248,42,12
0109,1943,44,26
0114,5584,93,58
0118,3280,60,40
0119,1455,20,24
0141,5570,85,52
0147,1763,28,36
0148,1512,22,18
0150,5351,78,80
0153,9936,189,163
0158,2116,32,32
0160,3971,45,37
0163,3065,34,49
0164,5415,63,65
0166,2324,70,41
0168,2062,43,32
0171,2373,28,26
0173,2406,49,42
0175,969,13,15
0177,2534,34,36
0180,1592,14,18
0183,2059,18,16
0184,1896,44,12
0189,2357,18,27
0193,5009,71,89
0197,1433,19,18
0200,7571,167,139
0202,8628,157,113
0203,5648,43,55
0209,1469,32,17
0213,892,28,16
0214,1603,36,17
0216,1784,41,18
0221,537,16,9
0222,2907,53,27
0225,1307,38,24
0226,1426,26,11
0228,8481,125,72
0230,1308,35,13
0232,1717,64,44
0233,1776,36,32
0243,2903,71,44
0244,531,19,7
0246,799,55,30
0252,958,25,16
0262,1350,30,26
0263,1879,31,29
0267,3328,45,26
0268,9575,230,170
0269,1418,45,29
0273,1790,17,13
0274,1387,29,24
0275,2403,58,50
0277,73,1,0
0279,797,5,12
0281,2792,75,72
0285,1185,27,28
0289,2003,38,38
0293,785,19,8
0294,1311,13,13
0296,2658,70,51
0297,2580,36,38
0299,2111,71,44
0301,1851,46,29
0302,1462,74,30
0303,2047,56,22
0307,9797,199,116
0308,1461,28,25
0310,2622,55,68
0312,794,19,11
0313,3199,46,38
0317,640,13,2
0321,2726,59,51
0327,1678,29,22
0331,1014,28,9
0335,954,19,7
0339,411,6,5
0340,1705,26,18
0342,2814,65,45
0344,21605,558,221
0345,5791,107,70
0351,1092,20,8
0352,1178,24,10
0353,1964,64,53
0355,3542,68,63
0356,3376,90,25
0358,1847,26,22
0361,6119,106,64
0362,4867,106,87
0363,62763,1569,681
0370,532,6,2
0373,1598,33,32
0375,2661,35,33
0376,634,9,5
0377,1082,13,15
0383,1801,22,20
0384,2225,37,30
0385,2733,71,14
0388,1432,27,11
0392,8389,168,140
0394,9024,154,99
0396,2593,48,28
0397,1271,21,57
0398,3413,49,28
0399,1081,19,12
0400,3075,36,26
0402,4630,66,74
0405,5649,70,47
0406,2969,50,52
0415,808,10,5
0416,1680,25,10
0417,709,15,25
0420,3629,42,23
0431,736,16,8
0432,883,6,4
0437,886,11,4
0439,5077,147,67
0441,2786,38,44
0448,326,6,3
0450,919,10,7
0451,1621,31,11
0453,4426,84,83
0457,1466,17,19
0473,858,17,41
0479,10575,254,151
0482,1605,29,18
0484,7651,153,105
0489,3412,85,38
0498,1501,15,11
0501,932,29,9
0502,4734,135,119
0503,6223,83,72
0505,8907,183,142
0512,2681,41,35
0513,5172,169,148
0518,35014,1138,517
0523,1781,8,18
0530,2078,44,38
0531,2246,24,29
0532,1725,27,15
0534,1192,15,17
0537,5841,92,50
0542,2498,41,65
0546,6840,105,61
0547,1504,34,21
0553,1351,25,17
0556,2276,56,30
0569,1971,33,20
0575,2601,57,19
0579,1331,20,29
0589,666,34,12
0590,2155,32,38
0597,3449,86,77
0599,50147,1500,795
0603,3221,99,70
0606,6141,178,100
0610,2250,23,40
0613,2008,37,19
0614,674,17,16
0622,5539,129,81
0626,1195,19,21
0627,2000,57,14
0629,1334,32,29
0632,3319,97,33
0637,7468,125,57
0638,529,7,1
0642,3372,60,78
0654,867,25,5
0664,1454,49,21
0668,1325,24,16
0677,1213,27,12
0678,501,9,6
0687,1913,52,18
0703,1380,23,9
0715,2579,78,25
0716,1457,55,22
0717,805,18,3
0718,1765,46,12
0736,2644,90,33
0737,1305,18,25
0743,1033,27,17
0744,331,12,4
0748,4388,80,38
0753,2029,49,29
0755,682,40,23
0756,2304,35,43
0757,2107,46,65
0758,10509,225,144
0762,2291,78,38
0765,580,15,8
0766,2015,42,23
0770,1532,42,23
0772,13990,355,294
0777,2534,63,36
0779,1498,25,24
0784,1613,30,19
0785,1529,39,35
0786,974,29,24
0794,6848,178,77
0796,9883,207,149
0797,3087,70,45
0798,1140,18,20
0809,1776,42,35
0815,792,17,10
0820,1377,29,18
0823,1440,26,24
0824,2050,50,22
0826,3460,70,33
0828,6414,216,120
0840,1542,39,13
0845,2040,45,28
0847,1332,41,12
0848,927,39,26
0851,1402,29,17
0852,1232,28,14
0855,14444,360,270
0856,2282,125,79
0858,2331,41,51
0861,3258,62,44
0865,2249,67,53
0866,1004,14,10
0867,3406,65,76
0873,1237,18,24
0879,1119,32,17
0880,1010,32,31
0882,2414,82,56
0888,873,25,12
0889,781,25,11
0893,1143,16,10
0899,1597,72,45
0907,1274,27,17
0917,4652,192,116
0928,2574,114,91
0935,6312,259,184
0938,937,30,22
0944,459,11,11
0946,1609,41,17
0957,3619,77,39
0965,615,26,7
0971,1398,63,21
0981,455,18,13
0983,7441,182,137
0984,3986,57,42
0986,648,21,10
0988,4502,103,66
0994,835,30,17
0995,3908,117,58
1507,3603,54,59
1509,2365,36,41
1525,2532,33,20
1581,2940,64,61
1586,1920,27,37
1598,1685,18,20
1621,4387,80,58
1640,2566,63,45
1641,1615,36,22
1652,1784,89,37
1655,1913,47,25
1658,1081,21,13
1659,1607,54,35
1667,1119,22,8
1669,1178,35,24
1674,5184,89,65
1676,1128,30,21
1680,946,5,15
1681,1025,20,13
1684,1641,28,20
1685,1234,47,25
1690,1176,24,20
1695,290,9,5
1696,1335,21,15
1699,954,15,21
1700,3183,36,28
1701,575,12,15
1702,800,22,11
1705,2510,56,26
1706,1795,73,49
1708,1751,21,18
1709,2128,39,35
1711,1919,56,30
1714,1044,37,18
1719,1531,38,25
1721,2331,105,73
1723,541,23,5
1724,1630,27,8
1728,1990,34,24
1729,828,30,19
1730,988,15,20
1731,1349,24,23
1734,2248,70,29
1735,2527,30,26
1740,1922,57,32
1742,3483,48,46
1771,2773,68,24
1773,773,15,9
1774,2319,33,34
1783,8794,156,83
1842,1302,16,13
1859,2640,35,41
1876,2000,28,16
1883,4911,176,117
1884,1559,19,9
1891,964,8,14
1892,3094,92,44
1894,2761,154,74
1895,1793,30,29
1896,1293,43,25
1900,4888,47,74
1901,2731,58,33
1903,1503,68,42
1904,3861,97,59
1911,2776,39,28
1916,4370,111,76
1924,2875,110,71
1926,3588,52,32
1930,5353,128,89
1931,4084,110,61
1940,1949,39,29
1942,3266,48,29
1945,2072,48,45
1948,5186,246,162
1949,1654,21,32
1950,1627,30,19
1952,2422,41,32
1954,1984,74,42
1955,1844,33,21
1959,4933,80,65
1960,3790,77,53
1961,4073,88,61
1963,4971,115,52
1966,2258,21,20
1969,2043,29,21
1970,1873,30,29
1978,3375,40,27
1979,1968,36,11