0014,21386,114,46
0034,24840,377,102
0037,2843,27,21
0047,2251,13,11
0050,2124,22,14
0059,2850,30,39
0060,280,3,1
0072,993,13,6
0074,3847,44,40
0080,9471,114,74
0085,1765,19,6
0086,2299,30,8
0088,49,1,2
0090,4463,52,34
0093,340,3,2
0096,84,0,0
0098,2120,21,29
0106,4592,72,15
0109,3380,60,32
0114,10425,187,80
0118,5516,81,42
0119,2720,34,27
0141,8996,119,60
0147,2915,32,39
0148,2659,29,21
0150,10359,119,89
0153,18028,269,175
0158,3000,35,32
0160,6627,62,37
0163,4824,47,51
0164,8909,90,71
0166,4504,82,45
0168,3125,51,38
0171,4112,39,29
0173,4049,59,45
0175,1732,16,16
0177,4149,45,42
0180,2840,19,21
0183,3546,27,19
0184,2716,55,19
0189,3565,22,28
0193,10453,116,119
0197,2758,33,22
0200,15855,218,160
0202,16292,218,128
0203,9026,73,64
0209,2829,41,23
0213,1850,35,22
0214,2860,41,20
0216,3272,49,22
0221,931,22,9
0222,5743,65,31
0225,2234,43,28
0226,2437,30,15
0228,14410,156,94
0230,2491,39,15
0232,3186,80,53
0233,2818,49,34
0243,5104,92,48
0244,1047,23,7
0246,1413,57,32
0252,1663,29,19
0262,2705,40,29
0263,3968,43,42
0267,5215,55,29
0268,19623,295,202
0269,2551,51,31
0273,2878,22,19
0274,2464,38,31
0275,4150,65,64
0277,128,1,0
0279,1261,5,12
0281,5254,91,73
0285,2233,33,30
0289,3930,45,42
0293,1437,26,9
0294,2510,19,17
0296,4765,86,61
0297,4316,46,46
0299,3888,86,48
0301,3840,56,29
0302,3124,86,37
0303,3642,70,25
0307,17780,282,143
0308,2611,35,28
0310,4508,79,78
0312,1366,22,12
0313,4521,62,39
0317,1127,21,6
0321,5099,78,51
0327,2859,42,25
0331,1884,40,12
0335,1684,31,8
0339,740,8,5
0340,2802,44,21
0342,4845,82,48
0344,43335,798,259
0345,9308,141,76
0351,1749,24,8
0352,2223,34,17
0353,3873,90,55
0355,6312,101,76
0356,6539,145,31
0358,4016,43,26
0361,11756,145,86
0362,9604,145,99
0363,118400,2178,859
0370,1084,9,3
0373,2982,39,39
0375,5000,47,42
0376,1286,14,6
0377,2203,19,17
0383,3788,30,24
0384,4089,57,39
0385,5793,99,24
0388,2190,31,11
0392,16957,241,157
0394,17699,202,112
0396,4634,64,32
0397,2662,29,63
0398,6756,65,38
0399,2241,24,16
0400,6106,74,41
0402,8805,104,89
0405,9725,98,55
0406,4943,64,56
0415,1432,14,6
0416,3150,37,17
0417,1275,18,29
0420,6065,60,26
0431,1118,17,8
0432,1508,11,6
0437,1664,18,5
0439,9842,204,87
0441,5255,58,60
0448,735,6,4
0450,1546,12,7
0451,3231,34,15
0453,8184,107,91
0457,2391,20,23
0473,1723,26,43
0479,18972,343,180
0482,3062,47,22
0484,13156,194,117
0489,6703,112,48
0498,2423,26,13
0501,1903,32,10
0502,9485,194,146
0503,12257,114,76
0505,16443,277,186
0512,4921,49,44
0513,9195,289,160
0518,66830,1853,573
0523,3049,20,25
0530,4278,76,44
0531,4228,42,32
0532,2850,30,15
0534,2179,23,18
0537,9820,117,61
0542,4217,50,73
0546,14122,149,75
0547,2760,37,23
0553,2539,29,17
0556,4175,73,35
0569,3841,46,23
0575,5182,70,24
0579,2386,23,31
0589,1200,38,12
0590,4073,48,46
0597,6801,121,91
0599,99509,2126,987
0603,6048,141,77
0606,11084,255,117
0610,3764,33,41
0613,3624,52,23
0614,1345,25,19
0622,10313,186,98
0626,2249,23,24
0627,3544,76,16
0629,2506,43,31
0632,6124,148,40
0637,13742,190,70
0638,982,10,1
0642,6133,94,102
0654,1852,44,9
0664,3315,102,31
0668,2322,25,19
0677,2038,41,13
0678,1217,16,6
0687,4222,80,27
0703,3388,61,17
0715,4768,129,31
0716,3415,73,30
0717,1653,32,7
0718,3921,136,33
0736,5057,123,36
0737,2491,23,29
0743,2011,34,18
0744,710,13,4
0748,8124,100,48
0753,3601,58,32
0755,1259,43,23
0756,3845,42,45
0757,4083,54,69
0758,21265,270,150
0762,4294,94,42
0765,1133,25,13
0766,3431,48,25
0770,2681,49,26
0772,27513,470,360
0777,4470,71,38
0779,2655,32,25
0784,3021,41,20
0785,2840,42,36
0786,1644,31,24
0794,12827,210,86
0796,20137,270,173
0797,5983,93,50
0798,1817,21,20
0809,3012,52,37
0815,1370,17,10
0820,2457,34,22
0823,2614,32,27
0824,3554,56,22
0826,6265,90,37
0828,12191,250,131
0840,2588,46,17
0845,3738,53,34
0847,2551,48,13
0848,1739,43,28
0851,2656,39,19
0852,2100,33,16
0855,29111,435,280
0856,4849,142,86
0858,3759,60,64
0861,5610,89,50
0865,3769,77,53
0866,1897,23,17
0867,6179,82,77
0873,2171,23,26
0879,2024,38,17
0880,1865,38,34
0882,4076,107,74
0888,1789,35,13
0889,1730,32,13
0893,1803,25,15
0899,3259,99,54
0907,2030,29,20
0917,9007,259,131
0928,4649,149,97
0935,12694,364,204
0938,1811,54,25
0944,709,11,11
0946,2571,50,21
0957,7502,123,65
0965,1047,29,9
0971,2784,78,24
0981,800,25,14
0983,15580,242,178
0984,6380,67,50
0986,1252,26,11
0988,7150,118,70
0994,1597,38,23
0995,7636,154,63
1507,6641,61,67
1509,4626,50,45
1525,4632,41,25
1581,4834,99,73
1586,3468,36,41
1598,3019,25,24
1621,7977,102,68
1640,4497,77,52
1641,2839,46,37
1652,3389,102,38
1655,3503,57,28
1658,1779,24,13
1659,2877,64,36
1667,1879,23,10
1669,2334,49,35
1674,8987,108,75
1676,2616,60,27
1680,1651,7,20
1681,1814,32,15
1684,3057,38,27
1685,2104,51,29
1690,2255,34,26
1695,617,20,9
1696,2369,28,18
1699,2106,33,25
1700,4944,44,31
1701,1129,18,22
1702,1397,28,11
1705,4433,65,36
1706,2846,79,52
1708,3753,33,27
1709,4042,50,44
1711,3581,65,36
1714,1657,46,18
1719,3020,50,30
1721,4420,115,78
1723,1061,24,5
1724,2509,28,11
1728,3059,40,28
1729,1368,34,20
1730,1987,25,25
1731,2356,38,30
1734,4547,76,30
1735,4273,34,29
1740,3500,65,35
1742,5611,57,55
1771,4980,81,28
1773,1603,21,10
1774,3760,39,36
1783,16445,199,87
1842,2429,19,14
1859,4462,45,43
1876,3566,39,21
1883,9887,233,147
1884,3014,26,10
1891,1896,21,17
1892,5731,124,47
1894,5757,168,86
1895,3108,45,38
1896,2717,53,30
1900,9302,87,91
1901,4826,82,37
1903,2522,91,47
1904,7016,152,69
1911,4941,54,34
1916,8018,169,90
1924,5445,133,91
1926,6579,81,39
1930,10543,189,99
1931,7230,153,64
1940,4595,59,34
1942,6480,64,38
1945,3708,57,51
1948,10067,268,169
1949,3519,44,37
1950,2765,37,21
1952,4516,57,40
1954,4060,103,54
1955,3564,46,25
1959,7726,89,68
1960,6840,89,61
1961,7272,132,77
1963,10104,159,67
1966,4513,39,20
1969,4325,39,26
1970,4250,57,39
1978,6440,56,35
1979,3206,52,23