0014,10560,75,36
0034,16199,296,93
0037,2005,17,16
0047,1480,9,10
0050,1320,20,13
0059,1764,18,36
0060,146,0,0
0072,547,7,3
0074,1974,28,35
0080,5722,83,66
0085,1043,13,6
0086,1204,25,7
0088,43,1,2
0090,2544,30,32
0093,197,3,2
0096,45,0,0
0098,1253,12,27
0106,2848,45,14
0109,2369,50,28
0114,7262,120,68
0118,3691,63,40
0119,1767,23,24
0141,6030,90,54
0147,1958,28,36
0148,1793,25,19
0150,6030,81,82
0153,10767,195,164
0158,2239,32,32
0160,4615,53,37
0163,3483,39,49
0164,5804,66,65
0166,2729,73,42
0168,2167,44,32
0171,2650,30,27
0173,2620,50,43
0175,1169,14,15
0177,2836,37,40
0180,1739,14,18
0183,2276,19,18
0184,1974,44,12
0189,2606,18,27
0193,6189,85,102
0197,1822,21,19
0200,9139,184,139
0202,9682,165,120
0203,6141,46,56
0209,1702,34,18
0213,1068,30,16
0214,1862,38,18
0216,2105,43,22
0221,619,16,9
0222,3613,56,27
0225,1524,40,27
0226,1565,27,13
0228,9378,128,77
0230,1529,35,13
0232,2074,68,46
0233,1962,39,33
0243,3434,78,46
0244,642,19,7
0246,997,55,31
0252,1073,25,17
0262,1584,33,27
0263,2568,37,38
0267,3641,46,27
0268,11083,240,174
0269,1725,46,29
0273,1973,18,14
0274,1548,31,25
0275,2861,59,56
0277,78,1,0
0279,870,5,12
0281,3386,82,72
0285,1371,29,28
0289,2320,40,41
0293,885,19,8
0294,1468,15,15
0296,2931,72,51
0297,3077,37,41
0299,2415,73,46
0301,2190,47,29
0302,1707,77,30
0303,2343,58,22
0307,11201,214,129
0308,1724,31,26
0310,3039,63,72
0312,934,21,11
0313,3641,54,39
0317,742,18,5
0321,3076,63,51
0327,1892,33,23
0331,1281,32,10
0335,1144,23,8
0339,473,6,5
0340,1900,28,19
0342,3152,67,46
0344,24680,603,226
0345,6576,119,70
0351,1228,22,8
0352,1433,26,11
0353,2367,75,53
0355,3997,77,70
0356,4084,99,25
0358,2224,31,23
0361,7538,119,71
0362,5676,120,88
0363,70881,1702,717
0370,735,7,3
0373,2007,34,34
0375,3376,39,41
0376,779,12,6
0377,1280,13,16
0383,2399,25,22
0384,2489,39,30
0385,3788,79,16
0388,1704,30,11
0392,10059,179,143
0394,10778,163,103
0396,3193,57,31
0397,1485,22,57
0398,4331,56,34
0399,1313,21,15
0400,4240,50,32
0402,5218,73,77
0405,7307,86,53
0406,3347,53,52
0415,956,11,5
0416,2035,30,13
0417,804,16,26
0420,4559,53,25
0431,809,16,8
0432,1106,8,4
0437,1012,13,5
0439,6323,163,80
0441,3506,48,53
0448,366,6,4
0450,1035,12,7
0451,1956,32,13
0453,5611,93,87
0457,1669,17,20
0473,1038,19,42
0479,12452,268,164
0482,1962,35,21
0484,8925,164,111
0489,4105,89,45
0498,1827,18,12
0501,1096,30,9
0502,5874,152,131
0503,7242,90,74
0505,10719,225,157
0512,3141,44,36
0513,5858,189,149
0518,40079,1276,537
0523,2116,16,23
0530,2468,52,40
0531,2736,36,30
0532,2161,27,15
0534,1379,15,17
0537,6867,98,54
0542,2940,45,67
0546,7864,114,65
0547,1688,34,21
0553,1625,26,17
0556,2644,60,33
0569,2528,36,21
0575,3128,63,20
0579,1528,22,30
0589,813,36,12
0590,2619,43,43
0597,4235,95,83
0599,57992,1625,880
0603,3759,114,72
0606,7250,200,104
0610,2644,29,41
0613,2315,39,20
0614,807,18,16
0622,6548,151,89
0626,1401,20,22
0627,2318,63,14
0629,1505,35,30
0632,3918,116,38
0637,8625,142,63
0638,599,7,1
0642,4084,77,88
0654,1049,31,5
0664,1847,64,25
0668,1464,24,19
0677,1369,34,13
0678,673,9,6
0687,2539,61,23
0703,1851,32,15
0715,3086,99,28
0716,1832,59,23
0717,1031,25,6
0718,2420,96,28
0736,3094,94,33
0737,1569,20,27
0743,1221,30,17
0744,376,12,4
0748,5129,85,41
0753,2347,51,30
0755,737,40,23
0756,2572,36,43
0757,2518,48,67
0758,11837,231,143
0762,2664,82,41
0765,735,17,9
0766,2330,43,25
0770,1864,43,25
0772,16541,381,327
0777,2825,64,38
0779,1695,27,25
0784,1884,32,19
0785,1768,39,36
0786,1138,29,24
0794,8156,191,81
0796,11859,218,156
0797,3683,74,47
0798,1293,19,20
0809,2053,43,35
0815,953,17,10
0820,1602,31,20
0823,1780,27,26
0824,2387,54,22
0826,3878,76,34
0828,7724,230,126
0840,1768,42,16
0845,2398,47,31
0847,1662,44,13
0848,1148,39,27
0851,1686,31,18
0852,1470,32,15
0855,17334,366,272
0856,2923,129,84
0858,2704,48,59
0861,3974,73,47
0865,2510,69,53
0866,1191,16,13
0867,3904,66,76
0873,1516,19,24
0879,1245,34,17
0880,1253,34,33
0882,2638,86,63
0888,990,26,12
0889,961,26,11
0893,1211,18,11
0899,1901,73,47
0907,1381,28,19
0917,5301,205,119
0928,2947,115,95
0935,7166,275,191
0938,1032,32,22
0944,486,11,11
0946,1856,43,19
0957,4292,86,47
0965,684,26,7
0971,1638,66,21
0981,522,20,14
0983,9335,191,144
0984,4518,60,43
0986,733,23,11
0988,4892,105,68
0994,919,31,21
0995,4527,126,58
1507,4260,57,60
1509,2875,37,43
1525,2976,33,22
1581,3306,74,69
1586,2155,30,38
1598,2199,23,21
1621,5093,83,60
1640,3069,68,47
1641,1898,41,34
1652,2034,96,38
1655,2192,50,26
1658,1289,22,13
1659,1899,57,36
1667,1270,23,8
1669,1445,43,30
1674,6019,95,69
1676,1389,38,22
1680,1097,5,20
1681,1227,23,14
1684,1963,35,22
1685,1421,47,26
1690,1419,28,22
1695,387,13,9
1696,1535,22,16
1699,1323,22,25
1700,3560,37,29
1701,736,12,21
1702,908,25,11
1705,2923,56,26
1706,2034,74,49
1708,2255,23,22
1709,2486,41,37
1711,2183,59,31
1714,1143,41,18
1719,1756,40,25
1721,2715,107,78
1723,601,23,5
1724,1817,28,9
1728,2240,36,25
1729,887,30,19
1730,1231,18,20
1731,1591,27,28
1734,2503,71,29
1735,2834,32,28
1740,2224,60,32
1742,3757,49,48
1771,3353,72,26
1773,957,17,9
1774,2485,34,34
1783,10344,167,86
1842,1537,16,13
1859,2938,37,42
1876,2398,30,17
1883,5579,178,129
1884,1950,21,9
1891,1147,11,16
1892,3590,98,45
1894,3483,161,78
1895,2263,38,33
1896,1964,47,27
1900,6074,54,84
1901,3177,65,36
1903,1612,69,44
1904,4491,114,65
1911,3579,47,32
1916,4971,124,81
1924,3338,117,85
1926,4118,58,34
1930,6552,146,93
1931,4885,120,62
1940,2571,43,31
1942,3980,51,31
1945,2393,51,46
1948,6425,249,162
1949,2250,27,35
1950,1884,35,20
1952,3005,46,36
1954,2345,79,44
1955,2216,38,23
1959,5457,81,66
1960,4420,82,58
1961,4819,98,64
1963,6308,139,60
1966,2656,26,20
1969,2429,34,22
1970,2453,35,35
1978,4112,47,29
1979,2239,40,15