0014,9537,70,30
0034,14836,276,88
0037,1823,16,16
0047,1313,8,10
0050,1230,20,13
0059,1647,16,33
0060,146,0,0
0072,457,7,3
0074,1779,26,35
0080,5058,80,62
0085,852,13,6
0086,1066,22,5
0088,39,1,2
0090,2131,27,28
0093,187,1,1
0096,45,0,0
0098,1076,10,27
0106,2388,42,13
0109,2133,45,27
0114,6130,105,65
0118,3411,61,40
0119,1516,21,24
0141,5758,86,53
0147,1824,28,36
0148,1590,23,19
0150,5552,78,80
0153,10187,194,164
0158,2159,32,32
0160,4224,48,37
0163,3221,37,49
0164,5549,64,65
0166,2441,72,41
0168,2080,44,32
0171,2465,29,26
0173,2489,50,42
0175,1055,13,15
0177,2671,36,36
0180,1628,14,18
0183,2103,18,16
0184,1904,44,12
0189,2466,18,27
0193,5339,77,92
0197,1530,19,18
0200,8003,176,139
0202,8965,160,117
0203,5808,44,56
0209,1542,32,17
0213,949,29,16
0214,1688,37,17
0216,1878,41,19
0221,566,16,9
0222,3131,53,27
0225,1406,39,26
0226,1471,26,12
0228,8736,126,74
0230,1361,35,13
0232,1857,66,45
0233,1825,37,32
0243,3082,74,45
0244,565,19,7
0246,840,55,30
0252,1002,25,17
0262,1402,32,27
0263,2085,32,31
0267,3411,45,26
0268,9940,233,170
0269,1491,46,29
0273,1841,17,13
0274,1448,29,24
0275,2592,58,56
0277,74,1,0
0279,815,5,12
0281,2985,75,73
0285,1221,28,28
0289,2078,38,40
0293,809,19,8
0294,1340,13,13
0296,2760,70,51
0297,2767,36,41
0299,2213,72,45
0301,1986,47,29
0302,1546,74,30
0303,2168,57,22
0307,10236,204,125
0308,1537,30,25
0310,2790,59,72
0312,841,20,11
0313,3423,52,38
0317,687,16,3
0321,2838,62,51
0327,1763,31,23
0331,1125,30,10
0335,1042,23,8
0339,420,6,5
0340,1766,26,18
0342,2934,67,46
0344,22484,583,222
0345,6010,114,70
0351,1133,21,8
0352,1267,24,10
0353,2122,69,53
0355,3723,70,69
0356,3575,92,25
0358,1952,27,23
0361,6679,112,66
0362,5090,110,87
0363,65520,1619,694
0370,661,6,2
0373,1770,33,32
0375,2948,35,37
0376,684,11,6
0377,1140,13,16
0383,1959,23,20
0384,2339,39,30
0385,3070,74,14
0388,1570,28,11
0392,8916,171,141
0394,9535,157,99
0396,2838,52,28
0397,1314,22,57
0398,3751,54,33
0399,1178,20,12
0400,3523,44,30
0402,4840,68,76
0405,6449,77,50
0406,3118,52,52
0415,870,10,5
0416,1834,28,11
0417,753,16,26
0420,3999,46,24
0431,755,16,8
0432,968,6,4
0437,920,12,4
0439,5538,154,73
0441,3063,40,46
0448,340,6,4
0450,970,10,7
0451,1728,32,12
0453,4870,85,85
0457,1525,17,20
0473,908,17,41
0479,11193,262,153
0482,1700,32,19
0484,8079,158,111
0489,3574,85,43
0498,1640,15,11
0501,980,30,9
0502,5052,144,125
0503,6523,83,73
0505,9509,202,148
0512,2830,42,36
0513,5352,174,149
0518,36513,1184,527
0523,1932,13,23
0530,2162,47,40
0531,2387,33,29
0532,1894,27,15
0534,1242,15,17
0537,6065,94,54
0542,2630,45,66
0546,7175,109,64
0547,1531,34,21
0553,1428,25,17
0556,2380,57,32
0569,2126,34,20
0575,2723,59,19
0579,1400,20,29
0589,719,34,12
0590,2288,37,41
0597,3723,89,79
0599,52533,1563,833
0603,3380,104,71
0606,6433,189,102
0610,2387,26,40
0613,2089,38,20
0614,706,19,16
0622,5879,139,85
0626,1250,19,21
0627,2085,58,14
0629,1380,32,29
0632,3513,109,37
0637,7841,128,58
0638,554,7,1
0642,3645,66,85
0654,901,25,5
0664,1556,54,22
0668,1397,24,19
0677,1258,27,12
0678,541,10,6
0687,2129,54,21
0703,1464,26,10
0715,2697,82,26
0716,1578,56,23
0717,877,21,5
0718,2029,70,23
0736,2779,93,33
0737,1375,19,26
0743,1095,29,17
0744,345,12,4
0748,4593,83,38
0753,2159,51,30
0755,699,40,23
0756,2369,35,43
0757,2232,46,65
0758,10863,228,143
0762,2434,80,40
0765,638,17,9
0766,2136,42,24
0770,1603,42,24
0772,14784,364,309
0777,2629,63,37
0779,1574,26,24
0784,1670,30,19
0785,1607,39,35
0786,1039,29,24
0794,7262,181,78
0796,10540,209,154
0797,3253,71,46
0798,1200,19,20
0809,1857,42,35
0815,842,17,10
0820,1441,29,19
0823,1568,26,25
0824,2168,52,22
0826,3626,72,33
0828,6883,223,122
0840,1599,39,14
0845,2172,46,29
0847,1433,41,13
0848,1006,39,27
0851,1479,29,18
0852,1310,29,15
0855,15311,362,271
0856,2481,125,80
0858,2444,44,53
0861,3455,66,45
0865,2338,69,53
0866,1041,15,12
0867,3535,65,76
0873,1362,18,24
0879,1159,34,17
0880,1095,33,32
0882,2510,85,60
0888,894,25,12
0889,816,26,11
0893,1168,18,11
0899,1660,72,46
0907,1312,27,19
0917,4840,196,117
0928,2658,114,95
0935,6570,262,188
0938,970,31,22
0944,461,11,11
0946,1719,43,17
0957,3797,81,41
0965,645,26,7
0971,1467,66,21
0981,485,19,13
0983,7962,183,140
0984,4149,59,42
0986,678,22,10
0988,4638,103,67
0994,857,31,18
0995,4109,121,58
1507,3852,56,59
1509,2493,37,41
1525,2703,33,22
1581,3048,68,66
1586,2000,29,38
1598,1838,20,20
1621,4562,82,60
1640,2693,67,47
1641,1718,39,33
1652,1860,91,37
1655,2027,48,25
1658,1153,21,13
1659,1680,54,36
1667,1171,22,8
1669,1247,38,28
1674,5422,95,68
1676,1228,30,21
1680,1002,5,20
1681,1084,21,14
1684,1734,32,21
1685,1312,47,26
1690,1266,27,21
1695,326,11,7
1696,1407,22,15
1699,1071,19,24
1700,3302,36,28
1701,633,12,18
1702,835,22,11
1705,2585,56,26
1706,1870,74,49
1708,1901,21,18
1709,2226,40,36
1711,1974,57,30
1714,1076,39,18
1719,1579,38,25
1721,2447,105,77
1723,559,23,5
1724,1683,28,9
1728,2093,35,25
1729,849,30,19
1730,1089,16,20
1731,1447,27,27
1734,2326,70,29
1735,2610,30,27
1740,2041,58,32
1742,3563,49,46
1771,2942,68,25
1773,854,16,9
1774,2360,34,34
1783,9232,161,84
1842,1356,16,13
1859,2721,35,42
1876,2096,29,17
1883,5084,177,123
1884,1672,21,9
1891,1005,9,15
1892,3238,97,45
1894,3020,159,74
1895,1992,37,31
1896,1570,44,26
1900,5216,48,82
1901,2896,60,34
1903,1547,68,44
1904,4050,103,64
1911,3057,42,29
1916,4509,119,80
1924,3059,114,74
1926,3726,53,33
1930,5626,137,91
1931,4413,113,61
1940,2127,40,29
1942,3620,50,31
1945,2159,49,45
1948,5645,247,162
1949,1871,23,33
1950,1715,33,20
1952,2665,44,34
1954,2082,76,42
1955,1997,35,23
1959,5094,80,65
1960,4006,79,57
1961,4276,95,64
1963,5306,124,56
1966,2418,23,20
1969,2158,33,22
1970,2016,33,34
1978,3622,42,27
1979,2099,38,13