0014,20258,104,46
0034,23220,366,99
0037,2706,25,21
0047,2152,13,11
0050,2031,22,14
0059,2593,29,39
0060,277,3,1
0072,959,13,6
0074,3363,40,40
0080,8692,109,74
0085,1687,18,6
0086,2091,30,8
0088,48,1,2
0090,4062,46,34
0093,296,3,2
0096,80,0,0
0098,2009,20,29
0106,4406,69,15
0109,3137,57,31
0114,9734,171,79
0118,5155,77,41
0119,2605,34,27
0141,8558,113,59
0147,2813,31,39
0148,2593,26,20
0150,9901,112,89
0153,16815,256,175
0158,2891,34,32
0160,6274,61,37
0163,4739,47,51
0164,8402,84,68
0166,4250,81,44
0168,3026,50,38
0171,3863,39,29
0173,3859,56,45
0175,1639,15,16
0177,3952,43,41
0180,2501,18,21
0183,3497,27,19
0184,2672,55,19
0189,3445,21,27
0193,9756,109,114
0197,2690,32,22
0200,14915,211,153
0202,15274,214,128
0203,8403,68,64
0209,2754,41,22
0213,1801,34,19
0214,2773,40,20
0216,3125,49,22
0221,878,19,9
0222,5538,65,31
0225,2163,41,27
0226,2354,29,15
0228,13285,149,91
0230,2286,39,14
0232,3037,78,52
0233,2684,49,34
0243,4845,88,48
0244,1023,22,7
0246,1388,57,32
0252,1616,28,19
0262,2586,40,29
0263,3891,43,42
0267,5020,53,29
0268,18802,285,197
0269,2419,50,30
0273,2752,21,18
0274,2393,37,31
0275,3982,64,59
0277,125,1,0
0279,1173,5,12
0281,4992,89,73
0285,2156,31,30
0289,3646,43,42
0293,1385,22,9
0294,2371,19,17
0296,4633,84,60
0297,4152,42,42
0299,3736,84,48
0301,3661,56,29
0302,2633,81,32
0303,3486,65,25
0307,16575,273,140
0308,2518,35,28
0310,4301,76,78
0312,1319,22,12
0313,4430,62,39
0317,1079,20,6
0321,4838,76,51
0327,2736,42,25
0331,1808,40,12
0335,1602,29,8
0339,675,7,5
0340,2614,42,21
0342,4619,81,47
0344,40860,765,255
0345,8680,136,75
0351,1604,24,8
0352,2135,34,17
0353,3736,89,55
0355,5969,98,75
0356,6170,142,30
0358,3871,41,26
0361,11339,144,86
0362,9184,142,94
0363,112242,2102,840
0370,1048,9,3
0373,2890,39,38
0375,4793,46,42
0376,1232,14,6
0377,2150,18,17
0383,3650,29,24
0384,3881,57,36
0385,5595,98,23
0388,2090,31,11
0392,15959,229,153
0394,16763,196,111
0396,4465,63,32
0397,2448,26,60
0398,6568,63,38
0399,2167,24,15
0400,5846,68,40
0402,8351,97,87
0405,9382,96,55
0406,4631,63,54
0415,1363,14,6
0416,3038,36,17
0417,1228,17,29
0420,5836,59,26
0431,1085,17,8
0432,1443,11,6
0437,1575,18,5
0439,9451,199,86
0441,5117,57,60
0448,712,6,4
0450,1506,12,7
0451,3070,34,15
0453,7970,106,90
0457,2321,20,23
0473,1679,25,43
0479,17846,326,177
0482,2942,46,22
0484,12588,192,117
0489,6321,107,48
0498,2373,25,13
0501,1842,31,10
0502,8995,189,145
0503,11582,107,75
0505,15657,270,181
0512,4677,48,43
0513,8637,281,160
0518,62338,1765,567
0523,2938,18,25
0530,4062,72,44
0531,3977,41,32
0532,2794,30,15
0534,2093,22,18
0537,9465,115,61
0542,4082,50,71
0546,13339,142,75
0547,2628,37,23
0553,2463,29,17
0556,3933,71,34
0569,3642,46,22
0575,5039,69,24
0579,2286,23,31
0589,1145,38,12
0590,3902,47,46
0597,6516,118,90
0599,93681,2048,978
0603,5654,137,76
0606,10335,244,115
0610,3636,33,41
0613,3491,51,23
0614,1309,24,19
0622,9736,181,94
0626,2175,23,24
0627,3360,75,16
0629,2417,42,31
0632,5902,147,40
0637,12879,182,70
0638,952,10,1
0642,5889,91,102
0654,1742,42,9
0664,3123,101,31
0668,2237,25,19
0677,2002,41,13
0678,1173,16,6
0687,4041,78,26
0703,3248,59,17
0715,4507,122,29
0716,3269,72,30
0717,1612,32,7
0718,3699,131,32
0736,4771,120,35
0737,2260,23,28
0743,1969,34,18
0744,665,13,4
0748,7862,98,46
0753,3462,57,31
0755,1220,42,23
0756,3661,41,45
0757,3904,53,69
0758,20467,264,147
0762,4207,92,42
0765,1113,25,13
0766,3325,47,25
0770,2626,49,26
0772,26395,459,357
0777,4320,71,38
0779,2598,31,25
0784,2952,41,19
0785,2776,42,36
0786,1606,31,24
0794,12454,208,85
0796,19501,267,172
0797,5833,91,50
0798,1789,20,20
0809,2954,52,37
0815,1338,17,10
0820,2393,34,22
0823,2553,32,27
0824,3482,55,22
0826,6034,87,37
0828,11795,246,129
0840,2536,46,16
0845,3663,53,34
0847,2486,48,13
0848,1714,43,28
0851,2574,35,19
0852,2034,33,15
0855,27799,423,277
0856,4722,139,86
0858,3697,59,63
0861,5491,86,50
0865,3663,76,53
0866,1843,23,17
0867,5984,81,77
0873,2138,23,26
0879,1934,37,17
0880,1800,38,33
0882,3816,102,70
0888,1715,35,12
0889,1626,30,13
0893,1726,25,15
0899,3046,91,52
0907,1958,29,20
0917,8360,248,126
0928,4399,143,96
0935,12190,353,202
0938,1704,54,23
0944,686,11,11
0946,2475,47,20
0957,7085,115,63
0965,1003,28,9
0971,2653,78,24
0981,766,24,14
0983,14898,237,173
0984,6202,66,49
0986,1195,26,11
0988,6865,117,69
0994,1522,38,23
0995,6883,145,63
1507,6378,61,66
1509,4540,50,45
1525,4492,41,25
1581,4588,96,73
1586,3366,35,41
1598,2956,24,24
1621,7504,99,65
1640,4368,77,52
1641,2738,43,37
1652,3280,102,38
1655,3403,57,28
1658,1746,23,13
1659,2815,63,36
1667,1780,23,10
1669,2259,48,35
1674,8701,108,75
1676,2510,57,25
1680,1601,7,20
1681,1707,32,15
1684,2949,37,27
1685,2053,51,28
1690,2190,33,24
1695,605,20,9
1696,2265,26,18
1699,2032,31,25
1700,4865,42,30
1701,1063,17,22
1702,1300,28,11
1705,4316,64,35
1706,2788,79,52
1708,3527,33,27
1709,3946,49,43
1711,3417,65,36
1714,1583,46,18
1719,2936,49,30
1721,4309,113,78
1723,1021,24,5
1724,2457,28,11
1728,3007,40,28
1729,1313,34,20
1730,1915,25,24
1731,2268,38,30
1734,4373,74,30
1735,4089,34,29
1740,3108,65,34
1742,5293,55,54
1771,4853,79,28
1773,1550,21,10
1774,3677,37,35
1783,15770,196,86
1842,2314,19,14
1859,4330,44,43
1876,3419,37,21
1883,9445,221,145
1884,2906,26,10
1891,1604,20,17
1892,5421,124,47
1894,5446,165,85
1895,3039,45,37
1896,2625,52,30
1900,8730,80,91
1901,4444,80,37
1903,2449,89,47
1904,6700,148,69
1911,4840,53,34
1916,7606,163,87
1924,5259,133,90
1926,6267,75,39
1930,9954,186,99
1931,6941,153,64
1940,4329,57,34
1942,6186,63,37
1945,3613,56,51
1948,9846,265,168
1949,3273,43,37
1950,2543,36,21
1952,4259,56,40
1954,3830,102,52
1955,3437,43,25
1959,7433,88,68
1960,6604,87,60
1961,6858,125,77
1963,9712,157,67
1966,4263,37,20
1969,4124,39,26
1970,3616,48,38
1978,6209,54,35
1979,3105,51,23