0014,10823,78,39
0034,16527,300,93
0037,2061,17,16
0047,1520,10,10
0050,1355,21,13
0059,1805,18,37
0060,150,0,0
0072,564,7,3
0074,2048,28,36
0080,5885,83,67
0085,1100,13,6
0086,1234,25,7
0088,43,1,2
0090,2632,31,32
0093,207,3,2
0096,45,0,0
0098,1291,13,28
0106,2963,47,14
0109,2406,50,28
0114,7430,123,68
0118,3755,63,40
0119,1852,23,25
0141,6117,90,54
0147,1990,28,36
0148,1842,25,19
0150,6253,82,82
0153,10980,195,164
0158,2251,32,32
0160,4724,55,37
0163,3588,39,49
0164,5880,66,65
0166,2786,73,42
0168,2182,45,32
0171,2721,30,27
0173,2653,50,43
0175,1209,14,15
0177,2880,39,40
0180,1762,14,18
0183,2338,19,18
0184,2007,44,12
0189,2653,19,27
0193,6387,89,103
0197,1912,21,19
0200,9529,186,139
0202,9868,168,121
0203,6263,47,58
0209,1745,35,19
0213,1083,30,16
0214,1923,38,18
0216,2165,43,22
0221,631,17,9
0222,3716,56,27
0225,1543,40,27
0226,1613,27,13
0228,9630,129,78
0230,1582,36,13
0232,2147,69,47
0233,2005,39,33
0243,3519,79,46
0244,669,19,7
0246,1040,55,31
0252,1093,25,17
0262,1614,33,27
0263,2663,39,40
0267,3731,47,27
0268,11550,244,176
0269,1774,46,29
0273,2009,18,14
0274,1599,32,25
0275,2923,59,56
0277,81,1,0
0279,877,5,12
0281,3471,82,72
0285,1427,30,28
0289,2404,40,41
0293,891,19,8
0294,1507,15,15
0296,2994,73,51
0297,3131,37,41
0299,2473,73,46
0301,2252,47,29
0302,1775,77,30
0303,2413,58,23
0307,11508,216,130
0308,1759,32,27
0310,3092,64,72
0312,953,21,11
0313,3719,55,39
0317,756,18,5
0321,3153,63,51
0327,1957,33,23
0331,1326,34,12
0335,1170,24,8
0339,480,6,5
0340,1947,29,19
0342,3216,67,46
0344,25333,608,228
0345,6737,120,70
0351,1252,22,8
0352,1469,26,11
0353,2420,75,55
0355,4089,77,70
0356,4204,102,25
0358,2321,32,23
0361,7757,122,73
0362,5810,122,88
0363,72463,1723,723
0370,760,7,3
0373,2051,35,35
0375,3490,40,41
0376,799,12,6
0377,1308,13,16
0383,2509,25,22
0384,2545,41,30
0385,3971,82,16
0388,1728,30,11
0392,10382,185,145
0394,11056,166,104
0396,3292,57,32
0397,1541,22,57
0398,4491,56,34
0399,1359,21,15
0400,4365,53,34
0402,5325,75,78
0405,7482,89,53
0406,3421,55,52
0415,965,12,6
0416,2080,30,13
0417,814,16,26
0420,4676,53,25
0431,825,16,8
0432,1128,9,5
0437,1043,14,5
0439,6532,169,81
0441,3639,48,54
0448,374,6,4
0450,1060,12,7
0451,2009,33,15
0453,5826,94,88
0457,1712,17,20
0473,1084,19,42
0479,12789,270,164
0482,2038,37,21
0484,9222,166,111
0489,4232,92,45
0498,1862,18,12
0501,1134,30,9
0502,6114,158,130
0503,7428,91,74
0505,11081,229,158
0512,3241,44,37
0513,6035,199,150
0518,41376,1316,539
0523,2170,16,23
0530,2564,52,40
0531,2819,36,30
0532,2201,28,15
0534,1418,15,17
0537,7126,100,54
0542,3016,45,68
0546,8114,116,65
0547,1770,34,21
0553,1690,26,17
0556,2751,61,34
0569,2623,36,21
0575,3239,63,20
0579,1583,22,30
0589,828,37,12
0590,2712,43,44
0597,4379,98,84
0599,59713,1657,889
0603,3873,114,72
0606,7453,205,105
0610,2708,29,41
0613,2365,39,20
0614,842,19,16
0622,6743,151,90
0626,1447,20,22
0627,2375,63,14
0629,1571,35,30
0632,4002,116,38
0637,8870,142,64
0638,627,8,1
0642,4242,78,88
0654,1090,31,5
0664,1925,64,25
0668,1498,24,19
0677,1405,34,13
0678,728,9,6
0687,2642,62,23
0703,1950,32,15
0715,3174,101,28
0716,1904,59,23
0717,1082,25,6
0718,2529,98,29
0736,3182,97,33
0737,1608,20,28
0743,1259,32,17
0744,395,12,4
0748,5289,86,41
0753,2416,51,30
0755,753,40,23
0756,2641,36,43
0757,2628,49,67
0758,12157,232,143
0762,2722,82,41
0765,774,18,9
0766,2404,43,25
0770,1904,43,25
0772,17081,386,330
0777,2884,64,38
0779,1739,28,25
0784,1960,32,19
0785,1832,39,36
0786,1150,29,24
0794,8401,192,82
0796,12315,222,158
0797,3793,74,47
0798,1327,19,20
0809,2099,44,35
0815,987,17,10
0820,1657,31,20
0823,1827,27,26
0824,2455,54,22
0826,3944,76,34
0828,7951,231,126
0840,1816,42,16
0845,2475,47,33
0847,1719,45,13
0848,1189,39,27
0851,1743,31,18
0852,1488,32,15
0855,17999,368,272
0856,3046,129,85
0858,2771,51,59
0861,4075,74,47
0865,2551,70,53
0866,1224,16,13
0867,3997,66,76
0873,1564,19,24
0879,1271,34,17
0880,1299,34,33
0882,2702,86,63
0888,1038,26,12
0889,1030,27,12
0893,1230,18,11
0899,1984,74,47
0907,1419,28,19
0917,5480,206,119
0928,3007,117,95
0935,7354,277,193
0938,1064,33,22
0944,498,11,11
0946,1908,43,20
0957,4532,88,49
0965,696,26,7
0971,1728,66,21
0981,535,20,14
0983,9796,191,144
0984,4612,60,43
0986,750,23,11
0988,4996,106,68
0994,935,31,21
0995,4665,126,58
1507,4393,57,60
1509,3017,39,43
1525,3074,33,22
1581,3376,77,69
1586,2216,30,38
1598,2276,24,21
1621,5248,85,61
1640,3169,68,47
1641,1956,41,34
1652,2089,96,38
1655,2254,50,26
1658,1333,22,13
1659,1955,57,36
1667,1304,23,8
1669,1548,43,31
1674,6160,96,69
1676,1457,39,22
1680,1126,5,20
1681,1260,23,14
1684,2038,35,24
1685,1480,48,26
1690,1485,29,22
1695,402,13,9
1696,1575,22,16
1699,1379,23,25
1700,3645,37,29
1701,783,13,21
1702,929,26,11
1705,2980,58,26
1706,2079,74,49
1708,2354,25,22
1709,2549,41,38
1711,2265,59,31
1714,1170,41,18
1719,1834,40,25
1721,2803,107,78
1723,623,23,5
1724,1860,28,10
1728,2297,36,25
1729,912,30,19
1730,1257,18,21
1731,1651,28,28
1734,2572,71,29
1735,2912,32,28
1740,2267,61,32
1742,3806,49,48
1771,3458,74,26
1773,1022,17,9
1774,2533,34,34
1783,10779,168,86
1842,1586,16,13
1859,2997,37,42
1876,2481,31,18
1883,5798,181,130
1884,2031,22,10
1891,1186,12,16
1892,3686,100,45
1894,3633,161,80
1895,2320,38,36
1896,2012,47,28
1900,6354,58,85
1901,3251,67,36
1903,1637,70,44
1904,4599,116,65
1911,3680,47,32
1916,5104,127,81
1924,3440,120,85
1926,4260,61,34
1930,6809,153,93
1931,5013,126,62
1940,2681,43,31
1942,4065,51,31
1945,2444,52,47
1948,6648,250,163
1949,2340,27,35
1950,1927,35,20
1952,3055,47,37
1954,2442,81,44
1955,2309,39,23
1959,5553,81,66
1960,4550,83,59
1961,4988,101,65
1963,6558,141,61
1966,2728,26,20
1969,2501,34,22
1970,2537,38,35
1978,4238,47,30
1979,2283,41,16