0014,21203,113,46
0034,24532,374,102
0037,2801,27,21
0047,2235,13,11
0050,2118,22,14
0059,2797,30,39
0060,280,3,1
0072,987,13,6
0074,3789,44,40
0080,9375,112,74
0085,1761,19,6
0086,2263,30,8
0088,49,1,2
0090,4390,52,34
0093,333,3,2
0096,82,0,0
0098,2109,21,29
0106,4560,72,15
0109,3304,60,32
0114,10319,184,80
0118,5476,81,42
0119,2704,34,27
0141,8932,119,60
0147,2896,31,39
0148,2632,28,20
0150,10285,118,89
0153,17865,267,175
0158,2976,35,32
0160,6561,62,37
0163,4800,47,51
0164,8808,90,71
0166,4451,82,45
0168,3113,50,38
0171,4078,39,29
0173,4013,57,45
0175,1710,16,16
0177,4083,45,42
0180,2601,18,21
0183,3537,27,19
0184,2703,55,19
0189,3538,22,28
0193,10278,115,118
0197,2744,33,22
0200,15598,216,159
0202,16045,216,128
0203,8815,72,64
0209,2796,41,23
0213,1842,34,22
0214,2827,40,20
0216,3240,49,22
0221,925,21,9
0222,5691,65,31
0225,2215,42,27
0226,2426,30,15
0228,14121,155,93
0230,2402,39,15
0232,3144,80,53
0233,2775,49,34
0243,5044,91,48
0244,1042,23,7
0246,1407,57,32
0252,1655,29,19
0262,2690,40,29
0263,3950,43,42
0267,5165,54,29
0268,19469,293,201
0269,2527,51,31
0273,2846,22,19
0274,2453,38,31
0275,4114,64,60
0277,128,1,0
0279,1222,5,12
0281,5171,91,73
0285,2214,32,30
0289,3849,45,42
0293,1426,24,9
0294,2486,19,17
0296,4722,84,61
0297,4271,45,45
0299,3860,86,48
0301,3806,56,29
0302,3049,85,36
0303,3604,70,25
0307,17503,282,143
0308,2585,35,28
0310,4457,78,78
0312,1355,22,12
0313,4510,62,39
0317,1111,20,6
0321,5048,78,51
0327,2828,42,25
0331,1863,40,12
0335,1658,31,8
0339,721,7,5
0340,2740,44,21
0342,4782,82,48
0344,42983,792,258
0345,9071,139,76
0351,1672,24,8
0352,2198,34,17
0353,3826,90,55
0355,6274,101,76
0356,6410,144,31
0358,3997,43,26
0361,11703,144,86
0362,9541,145,99
0363,117515,2175,857
0370,1084,9,3
0373,2971,39,38
0375,4968,47,42
0376,1279,14,6
0377,2189,19,17
0383,3765,29,24
0384,4060,57,39
0385,5757,98,24
0388,2160,31,11
0392,16790,238,155
0394,17549,201,112
0396,4611,64,32
0397,2630,28,62
0398,6735,65,38
0399,2229,24,16
0400,6074,74,41
0402,8738,104,89
0405,9681,97,55
0406,4889,64,56
0415,1419,14,6
0416,3145,37,17
0417,1253,18,29
0420,6029,60,26
0431,1109,17,8
0432,1478,11,6
0437,1652,18,5
0439,9775,203,86
0441,5229,58,60
0448,731,6,4
0450,1540,12,7
0451,3171,34,15
0453,8136,107,91
0457,2379,20,23
0473,1714,26,43
0479,18820,339,180
0482,3039,47,22
0484,13021,193,117
0489,6646,112,48
0498,2418,26,13
0501,1889,32,10
0502,9390,193,146
0503,12127,109,76
0505,16345,277,186
0512,4839,49,43
0513,9081,288,160
0518,66066,1838,572
0523,2997,19,25
0530,4234,74,44
0531,4191,42,32
0532,2841,30,15
0534,2154,23,18
0537,9732,117,61
0542,4179,50,73
0546,13964,149,75
0547,2729,37,23
0553,2527,29,17
0556,4129,73,35
0569,3734,46,22
0575,5168,69,24
0579,2355,23,31
0589,1186,38,12
0590,4039,48,46
0597,6744,121,91
0599,98512,2112,987
0603,5980,140,76
0606,10949,255,117
0610,3733,33,41
0613,3604,52,23
0614,1338,25,19
0622,10212,185,97
0626,2236,23,24
0627,3514,75,16
0629,2495,42,31
0632,6071,148,40
0637,13575,188,70
0638,966,10,1
0642,6087,94,102
0654,1824,44,9
0664,3257,102,31
0668,2292,25,19
0677,2031,41,13
0678,1210,16,6
0687,4153,80,27
0703,3378,60,17
0715,4712,128,30
0716,3398,73,30
0717,1636,32,7
0718,3886,136,33
0736,5009,123,36
0737,2430,23,29
0743,2002,34,18
0744,693,13,4
0748,8071,99,48
0753,3565,58,32
0755,1256,43,23
0756,3784,42,45
0757,4065,54,69
0758,21064,267,150
0762,4281,93,42
0765,1129,25,13
0766,3406,48,25
0770,2670,49,26
0772,27280,468,360
0777,4443,71,38
0779,2643,31,25
0784,3010,41,20
0785,2822,42,36
0786,1633,31,24
0794,12756,208,86
0796,20035,269,173
0797,5938,92,50
0798,1809,20,20
0809,3003,52,37
0815,1367,17,10
0820,2437,34,22
0823,2587,32,27
0824,3533,56,22
0826,6202,90,37
0828,12096,249,131
0840,2581,46,16
0845,3711,53,34
0847,2531,48,13
0848,1734,43,28
0851,2648,37,19
0852,2079,33,16
0855,28844,434,280
0856,4821,142,86
0858,3755,60,64
0861,5580,89,50
0865,3758,77,53
0866,1875,23,17
0867,6145,81,77
0873,2156,23,26
0879,1987,38,17
0880,1857,38,34
0882,3999,105,73
0888,1781,35,13
0889,1701,30,13
0893,1785,25,15
0899,3216,97,54
0907,2010,29,20
0917,8827,257,130
0928,4591,148,97
0935,12562,364,204
0938,1773,54,24
0944,706,11,11
0946,2562,48,20
0957,7390,118,65
0965,1039,28,9
0971,2754,78,24
0981,791,25,14
0983,15379,239,175
0984,6339,67,50
0986,1220,26,11
0988,7112,118,70
0994,1583,38,23
0995,7496,151,63
1507,6562,61,67
1509,4605,50,45
1525,4610,41,25
1581,4754,99,73
1586,3417,36,41
1598,3004,24,24
1621,7893,102,68
1640,4458,77,52
1641,2820,44,37
1652,3372,102,38
1655,3486,57,28
1658,1768,23,13
1659,2865,64,36
1667,1857,23,10
1669,2306,48,35
1674,8937,108,75
1676,2589,60,27
1680,1639,7,20
1681,1792,32,15
1684,3026,38,27
1685,2100,51,29
1690,2238,34,26
1695,614,20,9
1696,2330,27,18
1699,2096,33,25
1700,4912,44,31
1701,1107,17,22
1702,1374,28,11
1705,4394,65,35
1706,2839,79,52
1708,3707,33,27
1709,4024,50,44
1711,3549,65,36
1714,1643,46,18
1719,3007,50,30
1721,4386,115,78
1723,1055,24,5
1724,2496,28,11
1728,3046,40,28
1729,1348,34,20
1730,1973,25,24
1731,2350,38,30
1734,4511,75,30
1735,4236,34,29
1740,3342,65,35
1742,5542,57,55
1771,4952,81,28
1773,1590,21,10
1774,3749,38,36
1783,16307,199,87
1842,2410,19,14
1859,4417,45,43
1876,3509,39,21
1883,9761,230,147
1884,2989,26,10
1891,1854,20,17
1892,5664,124,47
1894,5669,168,86
1895,3090,45,38
1896,2682,53,30
1900,9226,87,91
1901,4752,81,37
1903,2507,91,47
1904,6929,152,69
1911,4921,54,34
1916,7933,169,90
1924,5404,133,91
1926,6521,80,39
1930,10413,188,99
1931,7140,153,64
1940,4567,59,34
1942,6416,64,38
1945,3694,57,51
1948,10018,267,169
1949,3486,44,37
1950,2718,37,21
1952,4443,56,40
1954,4000,103,54
1955,3540,46,25
1959,7591,89,68
1960,6776,88,61
1961,7171,130,77
1963,10012,159,67
1966,4487,39,20
1969,4288,39,26
1970,4113,56,39
1978,6385,56,35
1979,3177,52,23