0014,11326,80,43
0034,17334,309,93
0037,2197,19,16
0047,1585,10,10
0050,1445,21,13
0059,1919,19,37
0060,168,1,0
0072,647,9,3
0074,2235,30,37
0080,6241,86,69
0085,1195,14,6
0086,1331,25,7
0088,45,1,2
0090,2825,31,33
0093,220,3,2
0096,47,0,0
0098,1406,14,28
0106,3166,50,14
0109,2495,54,31
0114,7912,136,72
0118,3904,66,40
0119,2009,26,25
0141,6365,93,55
0147,2093,28,37
0148,1929,25,20
0150,6677,84,82
0153,11568,199,166
0158,2324,32,32
0160,4959,56,37
0163,3800,40,49
0164,6143,67,65
0166,2934,76,43
0168,2244,47,32
0171,2879,32,27
0173,2759,52,44
0175,1281,15,15
0177,2988,39,41
0180,1850,14,19
0183,2470,20,18
0184,2159,46,12
0189,2746,19,27
0193,6843,93,107
0197,2101,24,20
0200,10319,189,140
0202,10475,172,121
0203,6598,50,60
0209,1882,36,19
0213,1166,30,17
0214,2049,39,19
0216,2272,44,22
0221,670,17,9
0222,3982,56,27
0225,1620,40,27
0226,1694,27,13
0228,10114,132,80
0230,1694,37,14
0232,2318,73,49
0233,2124,39,33
0243,3702,79,46
0244,730,20,7
0246,1113,55,31
0252,1148,25,17
0262,1703,34,28
0263,2939,40,42
0267,3925,49,28
0268,12458,251,177
0269,1920,47,29
0273,2085,19,16
0274,1748,33,25
0275,3063,59,56
0277,88,1,0
0279,926,5,12
0281,3642,83,73
0285,1545,30,28
0289,2536,40,41
0293,941,19,8
0294,1587,15,15
0296,3173,74,51
0297,3290,37,41
0299,2643,75,46
0301,2474,48,29
0302,1895,77,31
0303,2593,61,24
0307,12137,228,132
0308,1818,33,27
0310,3211,74,77
0312,996,21,12
0313,3840,56,39
0317,813,18,5
0321,3381,65,51
0327,2043,39,23
0331,1382,38,12
0335,1209,24,8
0339,512,7,5
0340,2071,35,20
0342,3367,70,46
0344,27037,649,230
0345,7089,126,70
0351,1293,22,8
0352,1576,33,11
0353,2601,78,55
0355,4294,82,71
0356,4531,114,27
0358,2508,34,25
0361,8213,124,74
0362,6169,125,89
0363,75796,1778,747
0370,797,8,3
0373,2172,37,36
0375,3665,41,41
0376,851,12,6
0377,1409,13,16
0383,2694,25,22
0384,2626,45,31
0385,4296,87,18
0388,1775,30,11
0392,11022,192,146
0394,11808,168,105
0396,3486,58,32
0397,1661,24,59
0398,4802,56,34
0399,1437,22,15
0400,4604,55,34
0402,5617,78,78
0405,7816,91,55
0406,3553,55,53
0415,1002,12,6
0416,2200,31,13
0417,862,16,26
0420,4911,55,25
0431,860,16,8
0432,1174,9,5
0437,1090,14,5
0439,6970,180,82
0441,3894,49,54
0448,399,6,4
0450,1127,12,7
0451,2155,34,15
0453,6129,94,89
0457,1806,17,20
0473,1164,20,42
0479,13536,282,168
0482,2209,37,21
0484,9748,174,113
0489,4564,94,45
0498,1932,19,12
0501,1288,30,9
0502,6572,165,136
0503,7750,91,74
0505,12028,241,164
0512,3456,44,37
0513,6516,212,151
0518,44231,1399,541
0523,2344,16,23
0530,2826,55,41
0531,3052,37,30
0532,2360,29,15
0534,1536,19,17
0537,7609,104,56
0542,3194,46,68
0546,8612,119,69
0547,1908,34,22
0553,1800,27,17
0556,2905,63,34
0569,2815,39,21
0575,3583,65,20
0579,1690,22,30
0589,878,38,12
0590,2878,43,45
0597,4770,102,86
0599,63887,1726,904
0603,4164,119,73
0606,7922,211,106
0610,2874,29,41
0613,2506,41,21
0614,910,21,16
0622,7185,159,89
0626,1532,22,23
0627,2505,63,14
0629,1739,35,30
0632,4226,126,38
0637,9469,148,64
0638,672,9,1
0642,4547,81,90
0654,1146,35,6
0664,2113,68,26
0668,1590,24,19
0677,1479,36,13
0678,782,11,6
0687,2886,70,24
0703,2179,38,15
0715,3404,105,28
0716,2080,61,24
0717,1173,27,7
0718,2752,111,31
0736,3371,108,34
0737,1685,20,28
0743,1359,32,17
0744,427,12,4
0748,5667,87,41
0753,2567,51,30
0755,808,40,23
0756,2753,37,43
0757,2835,49,67
0758,13089,234,144
0762,2873,84,41
0765,846,21,10
0766,2539,43,25
0770,2026,45,25
0772,18395,402,339
0777,3044,65,38
0779,1845,28,25
0784,2124,32,19
0785,1990,39,36
0786,1203,29,24
0794,9001,194,83
0796,13356,227,159
0797,4059,75,48
0798,1413,19,20
0809,2222,46,35
0815,1048,17,10
0820,1751,31,21
0823,1954,28,26
0824,2639,54,22
0826,4235,80,35
0828,8570,233,127
0840,1911,42,16
0845,2646,49,34
0847,1867,46,13
0848,1264,40,27
0851,1895,31,19
0852,1571,33,15
0855,19506,377,272
0856,3361,135,85
0858,2903,53,59
0861,4282,78,49
0865,2731,70,53
0866,1304,17,15
0867,4257,67,76
0873,1645,19,25
0879,1325,35,17
0880,1361,35,33
0882,2873,86,64
0888,1136,27,12
0889,1141,27,12
0893,1300,19,12
0899,2185,77,48
0907,1512,28,19
0917,5903,212,120
0928,3172,122,95
0935,7876,290,193
0938,1153,39,22
0944,523,11,11
0946,2005,44,20
0957,4968,93,54
0965,718,26,7
0971,1882,66,21
0981,571,21,14
0983,10743,198,147
0984,4777,60,44
0986,827,24,11
0988,5234,106,68
0994,1035,32,21
0995,4962,127,59
1507,4817,60,61
1509,3297,39,43
1525,3263,35,24
1581,3544,83,71
1586,2359,30,38
1598,2357,24,21
1621,5509,85,62
1640,3374,71,47
1641,2099,41,34
1652,2280,97,38
1655,2411,52,26
1658,1399,23,13
1659,2050,57,36
1667,1392,23,8
1669,1673,44,33
1674,6553,99,71
1676,1615,40,23
1680,1228,6,20
1681,1318,24,15
1684,2167,36,25
1685,1622,50,26
1690,1591,29,23
1695,435,14,9
1696,1656,22,17
1699,1438,23,25
1700,3814,38,29
1701,830,15,22
1702,974,26,11
1705,3162,62,30
1706,2215,76,51
1708,2612,27,24
1709,2749,43,38
1711,2467,61,31
1714,1236,41,18
1719,2044,42,25
1721,3037,109,78
1723,686,24,5
1724,1961,28,10
1728,2407,36,26
1729,990,30,19
1730,1325,20,23
1731,1755,30,28
1734,2838,71,29
1735,3041,32,29
1740,2324,61,32
1742,3927,49,49
1771,3639,74,26
1773,1081,17,9
1774,2638,34,34
1783,11667,173,86
1842,1688,17,14
1859,3199,37,42
1876,2593,33,19
1883,6366,187,130
1884,2205,23,10
1891,1261,13,17
1892,3979,104,45
1894,4019,161,81
1895,2440,41,36
1896,2100,47,29
1900,6759,64,87
1901,3421,70,36
1903,1771,74,45
1904,4863,128,65
1911,3871,47,32
1916,5406,132,82
1924,3721,121,85
1926,4493,63,35
1930,7337,159,94
1931,5342,134,62
1940,2912,44,31
1942,4303,52,31
1945,2612,53,48
1948,7148,253,163
1949,2540,27,35
1950,2003,35,21
1952,3242,49,37
1954,2696,82,44
1955,2481,41,23
1959,5869,84,68
1960,4875,83,59
1961,5306,109,67
1963,7153,143,61
1966,2897,28,20
1969,2677,34,22
1970,2736,40,36
1978,4599,48,33
1979,2444,42,16