0014,7569,60,24
0034,12690,238,66
0037,1472,15,9
0047,1004,6,7
0050,1040,18,12
0059,1090,5,7
0060,133,0,0
0072,300,5,2
0074,1334,21,25
0080,3636,61,32
0085,645,10,4
0086,788,17,3
0088,10,1,0
0090,1544,20,17
0093,157,1,1
0096,28,0,0
0098,741,9,13
0106,1841,35,11
0109,1544,36,19
0114,4482,76,48
0118,2738,49,33
0119,1303,19,22
0141,4876,68,45
0147,1609,27,26
0148,1392,20,17
0150,5023,71,76
0153,8960,168,137
0158,1982,30,30
0160,3479,43,34
0163,2550,27,38
0164,4985,60,57
0166,2109,69,41
0168,1837,37,26
0171,2209,27,25
0173,2211,40,39
0175,829,13,14
0177,2261,30,29
0180,1447,14,16
0183,1925,18,15
0184,1851,43,12
0189,2158,14,22
0193,4418,67,80
0197,1271,18,18
0200,6851,158,135
0202,7973,147,103
0203,5171,38,45
0209,1251,28,16
0213,819,27,15
0214,1403,32,15
0216,1604,38,17
0221,484,16,8
0222,2569,51,25
0225,1051,34,22
0226,1302,24,10
0228,7707,113,64
0230,1187,33,12
0232,1495,62,35
0233,1653,35,30
0243,2580,64,37
0244,480,19,5
0246,721,55,30
0252,870,24,15
0262,1246,30,26
0263,1503,30,26
0267,3072,43,16
0268,8705,220,161
0269,1265,44,29
0273,1640,16,12
0274,1292,27,22
0275,2169,54,41
0277,70,1,0
0279,704,5,11
0281,2352,72,48
0285,1089,25,18
0289,1811,33,33
0293,710,18,8
0294,1195,13,12
0296,2345,69,46
0297,2127,33,34
0299,1855,67,33
0301,1704,44,22
0302,1327,74,29
0303,1851,51,21
0307,8802,175,94
0308,1286,28,23
0310,2273,45,64
0312,703,16,11
0313,2772,43,35
0317,544,11,2
0321,2458,52,50
0327,1447,21,19
0331,842,25,9
0335,806,18,7
0339,377,6,5
0340,1529,24,15
0342,2574,57,43
0344,19956,524,201
0345,5312,97,66
0351,1001,17,7
0352,1063,19,9
0353,1725,61,47
0355,3139,60,41
0356,2945,79,20
0358,1662,23,22
0361,4997,95,54
0362,4458,99,84
0363,57104,1447,594
0370,402,6,2
0373,1386,29,29
0375,2078,27,18
0376,569,9,5
0377,960,11,11
0383,1566,19,17
0384,2006,36,26
0385,2196,65,10
0388,1230,26,9
0392,7489,157,135
0394,8099,142,89
0396,2068,46,24
0397,1150,20,54
0398,2844,43,21
0399,973,18,11
0400,2307,29,14
0402,3994,57,70
0405,4220,59,35
0406,2606,45,51
0415,633,9,5
0416,1423,23,7
0417,608,15,25
0420,2888,31,15
0431,638,15,5
0432,660,3,3
0437,819,9,3
0439,3949,120,59
0441,2355,33,27
0448,302,6,2
0450,811,9,7
0451,1420,28,11
0453,3731,76,72
0457,1324,14,17
0473,776,16,38
0479,9333,237,138
0482,1491,23,17
0484,6861,138,87
0489,3076,76,38
0498,1256,10,11
0501,831,28,9
0502,4285,120,109
0503,5610,78,63
0505,7860,149,122
0512,2436,32,29
0513,4704,140,131
0518,31917,1012,461
0523,1496,6,14
0530,1878,43,35
0531,2022,21,25
0532,1420,25,10
0534,1048,13,10
0537,5009,85,41
0542,2239,34,54
0546,6227,101,48
0547,1380,32,19
0553,1240,23,16
0556,2102,54,27
0569,1622,29,18
0575,2347,55,17
0579,1234,18,29
0589,604,33,12
0590,1921,19,29
0597,2987,67,62
0599,45970,1360,737
0603,2987,95,70
0606,5551,162,61
0610,1931,20,29
0613,1875,34,19
0614,615,13,14
0622,5033,115,69
0626,1116,18,20
0627,1722,53,12
0629,1205,27,26
0632,2901,88,29
0637,6797,111,50
0638,446,6,1
0642,2916,52,69
0654,740,21,5
0664,1221,38,17
0668,1055,24,15
0677,1071,25,11
0678,411,7,5
0687,1428,39,16
0703,1215,14,7
0715,2271,60,21
0716,1295,53,22
0717,623,12,2
0718,1265,33,8
0736,2336,86,32
0737,906,13,6
0743,878,25,15
0744,294,12,4
0748,3926,75,34
0753,1750,49,26
0755,628,39,22
0756,2030,33,38
0757,1834,43,57
0758,9695,221,133
0762,1907,73,37
0765,415,13,3
0766,1760,42,23
0770,1311,40,21
0772,11719,319,233
0777,2321,63,34
0779,1284,25,21
0784,1459,30,18
0785,1374,37,27
0786,872,29,23
0794,5496,162,61
0796,8617,197,134
0797,2636,69,43
0798,987,18,20
0809,1597,40,32
0815,707,15,8
0820,1168,26,15
0823,1194,24,22
0824,1751,45,21
0826,3125,70,32
0828,5411,207,111
0840,1326,31,12
0845,1755,42,28
0847,1170,39,11
0848,781,38,26
0851,1187,25,15
0852,1042,28,14
0855,12759,353,264
0856,1998,123,75
0858,1998,34,45
0861,2734,55,36
0865,1996,63,49
0866,897,12,10
0867,3065,63,73
0873,1079,14,21
0879,1025,32,14
0880,811,28,14
0882,1951,74,45
0888,801,24,12
0889,681,24,10
0893,978,15,9
0899,1353,68,34
0907,1141,26,16
0917,3968,175,103
0928,2105,108,72
0935,5610,242,173
0938,814,28,22
0944,431,11,11
0946,1381,39,15
0957,2929,73,36
0965,544,26,6
0971,1175,57,18
0981,391,18,11
0983,6394,179,120
0984,3434,52,31
0986,547,21,10
0988,4113,99,63
0994,718,29,14
0995,3528,111,53
1507,3159,52,57
1509,2003,34,35
1525,2227,31,10
1581,2640,55,43
1586,1749,27,34
1598,1230,15,14
1621,4054,76,57
1640,2121,63,44
1641,1283,32,18
1652,1567,87,35
1655,1649,39,20
1658,916,20,13
1659,1400,49,31
1667,989,21,7
1669,922,32,20
1674,4420,74,60
1676,967,26,19
1680,766,4,10
1681,887,17,11
1684,1462,28,19
1685,1135,47,22
1690,1023,21,13
1695,181,3,1
1696,1158,18,11
1699,715,12,19
1700,2853,32,25
1701,456,11,7
1702,709,22,11
1705,2378,54,22
1706,1510,70,47
1708,1549,21,16
1709,1756,34,26
1711,1512,49,25
1714,961,30,17
1719,1386,36,24
1721,1911,104,68
1723,486,21,5
1724,1421,27,7
1728,1751,32,20
1729,679,29,18
1730,860,13,17
1731,1117,17,23
1734,2025,68,26
1735,2220,30,18
1740,1676,54,29
1742,3104,42,43
1771,2337,57,21
1773,665,14,9
1774,2138,32,31
1783,7969,139,75
1842,1191,16,12
1859,2368,31,39
1876,1780,26,12
1883,4266,166,100
1884,1384,18,9
1891,718,4,12
1892,2763,76,39
1894,2328,151,71
1895,1370,21,19
1896,1085,41,25
1900,3868,31,52
1901,2370,46,27
1903,1357,66,36
1904,3448,83,54
1911,2179,36,14
1916,4023,98,65
1924,2535,92,62
1926,3244,43,28
1930,4881,113,74
1931,3533,102,58
1940,1475,34,15
1942,2834,46,27
1945,1885,46,38
1948,4436,238,159
1949,1383,20,29
1950,1295,21,13
1952,1861,28,24
1954,1733,71,38
1955,1649,33,14
1959,4412,70,65
1960,3232,75,42
1961,3520,77,56
1963,4435,104,43
1966,1801,20,19
1969,1540,25,13
1970,1478,27,21
1978,2881,33,21
1979,1655,32,10