0014,21119,111,46
0034,24408,374,101
0037,2781,26,21
0047,2231,13,11
0050,2111,22,14
0059,2766,30,39
0060,279,3,1
0072,980,13,6
0074,3760,44,40
0080,9317,112,74
0085,1758,19,6
0086,2243,30,8
0088,49,1,2
0090,4367,52,34
0093,331,3,2
0096,82,0,0
0098,2103,21,29
0106,4543,72,15
0109,3273,58,32
0114,10271,183,79
0118,5448,81,42
0119,2701,34,27
0141,8890,118,60
0147,2889,31,39
0148,2628,28,20
0150,10254,118,89
0153,17758,266,175
0158,2970,35,32
0160,6525,62,37
0163,4783,47,51
0164,8766,90,70
0166,4431,81,45
0168,3107,50,38
0171,4071,40,29
0173,3981,57,45
0175,1697,15,16
0177,4061,45,42
0180,2588,18,21
0183,3533,27,19
0184,2700,55,19
0189,3527,22,28
0193,10204,115,118
0197,2730,33,22
0200,15514,216,159
0202,15946,216,128
0203,8733,72,64
0209,2789,41,23
0213,1837,34,22
0214,2809,40,20
0216,3218,49,22
0221,922,21,9
0222,5675,65,31
0225,2206,42,27
0226,2422,30,15
0228,13938,154,93
0230,2392,39,15
0232,3131,79,53
0233,2767,49,34
0243,5029,91,48
0244,1041,22,7
0246,1403,57,32
0252,1648,29,19
0262,2680,40,29
0263,3938,43,42
0267,5148,54,29
0268,19387,292,200
0269,2511,51,31
0273,2830,22,19
0274,2447,38,31
0275,4091,64,60
0277,128,1,0
0279,1207,5,12
0281,5140,91,73
0285,2206,32,30
0289,3840,45,42
0293,1421,24,9
0294,2477,19,17
0296,4702,84,61
0297,4257,45,45
0299,3846,86,48
0301,3793,56,29
0302,3015,85,32
0303,3581,70,25
0307,17372,282,143
0308,2571,35,28
0310,4428,78,78
0312,1345,22,12
0313,4504,62,39
0317,1098,20,6
0321,5022,78,51
0327,2803,42,25
0331,1848,40,12
0335,1641,31,8
0339,712,7,5
0340,2715,44,21
0342,4765,82,48
0344,42720,784,257
0345,8967,139,76
0351,1654,24,8
0352,2180,34,17
0353,3818,90,55
0355,6241,101,76
0356,6377,144,31
0358,3982,42,26
0361,11661,144,86
0362,9516,145,99
0363,117063,2174,855
0370,1081,9,3
0373,2965,39,38
0375,4959,47,42
0376,1270,14,6
0377,2185,19,17
0383,3755,29,24
0384,4045,57,39
0385,5747,98,24
0388,2147,31,11
0392,16706,238,155
0394,17496,201,112
0396,4602,64,32
0397,2623,28,62
0398,6723,65,38
0399,2219,24,16
0400,6057,74,41
0402,8697,104,89
0405,9649,97,55
0406,4852,64,56
0415,1411,14,6
0416,3139,37,17
0417,1248,18,29
0420,6009,60,26
0431,1106,17,8
0432,1470,11,6
0437,1644,18,5
0439,9744,201,86
0441,5211,58,60
0448,729,6,4
0450,1531,12,7
0451,3155,34,15
0453,8111,107,91
0457,2376,20,23
0473,1712,26,43
0479,18713,338,180
0482,3028,46,22
0484,12923,193,117
0489,6602,110,48
0498,2413,25,13
0501,1884,31,10
0502,9346,192,146
0503,12064,109,76
0505,16279,275,185
0512,4805,49,43
0513,9022,288,160
0518,65615,1823,571
0523,2985,19,25
0530,4222,74,44
0531,4166,42,32
0532,2834,30,15
0534,2136,23,18
0537,9677,116,61
0542,4168,50,73
0546,13889,147,75
0547,2711,37,23
0553,2523,29,17
0556,4108,73,35
0569,3730,46,22
0575,5145,69,24
0579,2347,23,31
0589,1172,38,12
0590,4026,48,46
0597,6725,121,91
0599,97927,2103,985
0603,5954,140,76
0606,10882,255,117
0610,3705,33,41
0613,3587,52,23
0614,1338,25,19
0622,10160,185,97
0626,2226,23,24
0627,3487,75,16
0629,2487,42,31
0632,6054,148,40
0637,13523,187,70
0638,963,10,1
0642,6051,93,102
0654,1811,44,9
0664,3229,102,31
0668,2272,25,19
0677,2022,41,13
0678,1205,16,6
0687,4125,80,27
0703,3368,60,17
0715,4660,128,30
0716,3390,73,30
0717,1626,32,7
0718,3867,136,33
0736,4978,122,36
0737,2383,23,29
0743,2000,34,18
0744,675,13,4
0748,8049,99,48
0753,3554,58,32
0755,1254,43,23
0756,3768,41,45
0757,4045,54,69
0758,20980,267,148
0762,4271,93,42
0765,1127,25,13
0766,3391,48,25
0770,2665,49,26
0772,27177,467,360
0777,4437,71,38
0779,2638,31,25
0784,3009,41,20
0785,2815,42,36
0786,1632,31,24
0794,12729,208,86
0796,19962,268,173
0797,5921,91,50
0798,1808,20,20
0809,2998,52,37
0815,1367,17,10
0820,2430,34,22
0823,2584,32,27
0824,3525,56,22
0826,6194,90,37
0828,12062,248,130
0840,2579,46,16
0845,3702,53,34
0847,2526,48,13
0848,1730,43,28
0851,2645,37,19
0852,2076,33,16
0855,28703,433,280
0856,4811,142,86
0858,3753,60,64
0861,5565,89,50
0865,3744,77,53
0866,1872,23,17
0867,6125,81,77
0873,2154,23,26
0879,1971,38,17
0880,1856,38,34
0882,3956,104,70
0888,1773,35,13
0889,1681,30,13
0893,1765,25,15
0899,3180,97,53
0907,1999,29,20
0917,8747,256,130
0928,4553,147,97
0935,12508,362,204
0938,1761,54,24
0944,706,11,11
0946,2541,48,20
0957,7356,118,65
0965,1035,28,9
0971,2744,78,24
0981,787,24,14
0983,15292,239,175
0984,6316,67,50
0986,1209,26,11
0988,7088,118,70
0994,1573,38,23
0995,7424,150,63
1507,6507,61,67
1509,4595,50,45
1525,4597,41,25
1581,4733,99,73
1586,3413,36,41
1598,2996,24,24
1621,7833,102,68
1640,4448,77,52
1641,2799,44,37
1652,3367,102,38
1655,3477,57,28
1658,1762,23,13
1659,2852,64,36
1667,1838,23,10
1669,2298,48,35
1674,8914,108,75
1676,2577,59,27
1680,1637,7,20
1681,1783,32,15
1684,3014,38,27
1685,2097,51,29
1690,2232,34,26
1695,613,20,9
1696,2319,27,18
1699,2092,33,25
1700,4902,43,31
1701,1107,17,22
1702,1361,28,11
1705,4387,65,35
1706,2829,79,52
1708,3696,33,27
1709,4014,50,44
1711,3543,65,36
1714,1635,46,18
1719,2999,50,30
1721,4379,115,78
1723,1048,24,5
1724,2492,28,11
1728,3046,40,28
1729,1340,34,20
1730,1969,25,24
1731,2335,38,30
1734,4499,75,30
1735,4224,34,29
1740,3273,65,35
1742,5513,57,55
1771,4934,81,28
1773,1582,21,10
1774,3742,38,36
1783,16226,199,87
1842,2400,19,14
1859,4404,45,43
1876,3495,37,21
1883,9701,229,146
1884,2987,26,10
1891,1803,20,17
1892,5636,124,47
1894,5615,167,86
1895,3085,45,38
1896,2668,53,30
1900,9179,87,91
1901,4699,81,37
1903,2495,91,47
1904,6907,152,69
1911,4904,54,34
1916,7915,169,90
1924,5378,133,90
1926,6498,79,39
1930,10351,188,99
1931,7101,153,64
1940,4548,59,34
1942,6387,64,38
1945,3682,57,51
1948,9996,267,169
1949,3479,44,37
1950,2695,37,21
1952,4404,56,40
1954,3974,103,54
1955,3513,46,25
1959,7564,89,68
1960,6751,88,61
1961,7140,128,77
1963,9960,159,67
1966,4462,39,20
1969,4271,39,26
1970,4007,55,39
1978,6351,56,35
1979,3172,52,23