0014,24146,121,51
0034,29296,397,114
0037,3336,34,21
0047,2599,13,11
0050,2553,22,15
0059,3626,34,40
0060,308,3,1
0072,1275,13,6
0074,5481,49,41
0080,11836,121,75
0085,2219,20,6
0086,3109,32,8
0088,51,1,2
0090,5894,57,35
0093,474,3,2
0096,109,1,0
0098,2804,21,29
0106,5633,75,15
0109,4050,63,33
0114,12726,204,85
0118,6452,88,42
0119,3318,35,33
0141,10337,129,63
0147,3367,33,40
0148,3370,32,22
0150,12293,127,91
0153,20799,284,180
0158,3536,36,33
0160,8324,71,39
0163,5563,55,52
0164,10555,95,71
0166,6350,88,48
0168,3625,53,38
0171,5540,41,29
0173,4709,59,45
0175,2162,16,16
0177,5095,48,47
0180,4032,24,28
0183,3924,27,21
0184,4019,66,21
0189,4214,26,30
0193,14043,131,129
0197,3270,33,28
0200,19938,231,169
0202,19610,230,131
0203,12273,85,70
0209,3381,44,26
0213,2266,37,22
0214,3581,45,22
0216,4009,52,23
0221,1137,22,9
0222,7630,71,34
0225,2694,49,30
0226,2893,31,16
0228,18805,177,106
0230,3340,44,19
0232,4046,82,54
0233,3655,51,39
0243,6244,94,50
0244,1395,24,7
0246,1926,57,32
0252,1991,31,20
0262,3316,41,31
0263,4531,45,42
0267,6365,57,30
0268,23442,315,209
0269,3737,60,36
0273,3675,23,21
0274,3003,42,34
0275,5011,71,67
0277,156,1,0
0279,1864,7,12
0281,6265,95,75
0285,2814,33,31
0289,4933,50,46
0293,1697,28,9
0294,3126,21,18
0296,5512,89,64
0297,5202,50,47
0299,4994,91,50
0301,4974,62,33
0302,4254,89,39
0303,4419,72,28
0307,21184,284,143
0308,3314,36,28
0310,5349,86,79
0312,1639,26,13
0313,5033,63,39
0317,1414,21,6
0321,6521,80,52
0327,3441,42,25
0331,2363,41,12
0335,2114,32,8
0339,1060,10,5
0340,3726,47,21
0342,6009,84,49
0344,50344,818,264
0345,12226,151,81
0351,2360,24,9
0352,2746,37,17
0353,4745,93,58
0355,7670,105,77
0356,7822,151,31
0358,5025,46,26
0361,14059,153,86
0362,11555,153,103
0363,134903,2266,887
0370,1318,9,3
0373,3429,41,40
0375,5754,50,42
0376,1491,15,6
0377,2706,20,17
0383,4544,36,25
0384,4713,61,39
0385,6459,101,25
0388,2575,32,14
0392,20598,253,160
0394,21151,216,121
0396,5584,69,34
0397,3368,33,65
0398,7953,72,38
0399,2693,24,17
0400,7032,80,42
0402,10664,112,94
0405,11284,102,55
0406,5847,70,57
0415,1726,14,7
0416,3648,38,17
0417,1481,19,30
0420,7124,62,28
0431,1429,17,8
0432,1830,13,6
0437,2075,19,5
0439,11443,213,87
0441,6152,62,62
0448,927,6,4
0450,1844,12,10
0451,4151,35,16
0453,9406,114,92
0457,2765,21,23
0473,2006,28,43
0479,22522,360,183
0482,4065,47,24
0484,16424,204,137
0489,7969,115,48
0498,2835,28,13
0501,2267,33,11
0502,10860,203,149
0503,13995,120,81
0505,19363,286,191
0512,5965,54,45
0513,11149,308,165
0518,77070,1968,586
0523,4081,22,28
0530,5160,81,45
0531,5336,45,35
0532,3183,31,15
0534,2611,23,20
0537,11902,125,66
0542,5056,53,74
0546,17057,157,79
0547,3356,39,28
0553,3207,33,18
0556,4985,74,35
0569,4859,48,25
0575,6152,73,25
0579,2989,23,32
0589,1430,39,12
0590,4966,48,47
0597,7968,124,96
0599,112235,2199,1005
0603,7239,150,77
0606,12595,261,123
0610,4973,34,44
0613,4278,53,23
0614,1658,26,19
0622,11779,196,99
0626,2870,27,24
0627,4705,81,17
0629,2950,43,32
0632,7493,153,44
0637,16527,201,70
0638,1221,11,1
0642,7157,94,105
0654,2616,46,9
0664,4631,109,31
0668,2786,25,19
0677,2941,47,13
0678,1613,18,6
0687,5582,88,31
0703,4447,64,17
0715,6054,146,31
0716,4269,76,30
0717,2337,36,7
0718,4861,143,35
0736,6215,128,40
0737,3331,31,31
0743,2359,34,18
0744,854,13,4
0748,9549,106,49
0753,4144,59,32
0755,1635,46,23
0756,5123,48,51
0757,4794,56,71
0758,25691,283,159
0762,5181,100,45
0765,1282,26,13
0766,3983,49,26
0770,3078,51,32
0772,31995,486,367
0777,5565,76,39
0779,3121,34,26
0784,3439,44,20
0785,3375,44,37
0786,1963,31,24
0794,14621,215,87
0796,23394,281,181
0797,7053,93,51
0798,2176,21,20
0809,3600,53,41
0815,1701,17,10
0820,2819,35,24
0823,2942,33,27
0824,4342,59,24
0826,7557,102,41
0828,14020,257,132
0840,2988,49,18
0845,4474,55,37
0847,3085,48,13
0848,2008,43,28
0851,3158,41,19
0852,2444,34,18
0855,33975,456,283
0856,5804,143,86
0858,4293,61,64
0861,6461,91,51
0865,4384,81,53
0866,2262,26,17
0867,7299,86,77
0873,2556,24,26
0879,2676,43,17
0880,2216,38,35
0882,5650,118,81
0888,2340,37,14
0889,2227,36,14
0893,2271,27,19
0899,4396,108,57
0907,3020,31,30
0917,12278,275,142
0928,6346,158,103
0935,16138,391,217
0938,2567,64,37
0944,886,13,12
0946,3140,52,23
0957,9388,129,68
0965,1340,31,9
0971,3672,83,24
0981,996,27,15
0983,19220,253,184
0984,7980,75,53
0986,1802,27,12
0988,8909,132,78
0994,2128,42,27
0995,9782,166,67
1507,8529,67,71
1509,5759,53,47
1525,5541,42,25
1581,6028,102,75
1586,4224,39,42
1598,3473,25,24
1621,9755,106,69
1640,5670,82,54
1641,3662,51,38
1652,4205,106,39
1655,4095,60,30
1658,2132,25,13
1659,3445,67,39
1667,2180,25,10
1669,2977,51,37
1674,10780,118,79
1676,3400,65,28
1680,1997,9,21
1681,2245,35,16
1684,4006,42,31
1685,2512,51,29
1690,2815,39,27
1695,757,23,9
1696,3049,30,21
1699,2526,36,25
1700,5623,45,33
1701,1502,18,23
1702,1846,29,11
1705,5660,72,39
1706,3487,80,55
1708,4731,34,27
1709,4877,52,48
1711,4640,71,40
1714,2110,51,22
1719,3565,52,30
1721,5082,116,78
1723,1296,25,5
1724,2834,29,12
1728,3562,40,28
1729,1865,38,20
1730,2395,29,26
1731,2821,41,32
1734,5633,81,31
1735,5214,39,32
1740,5354,74,44
1742,7389,59,60
1771,5758,83,29
1773,1935,21,10
1774,4365,39,37
1783,19293,211,90
1842,2928,19,14
1859,5406,46,47
1876,4581,45,25
1883,13246,249,151
1884,3638,27,10
1891,2625,28,18
1892,6934,130,47
1894,7098,171,87
1895,3493,48,39
1896,3968,63,31
1900,11067,93,93
1901,6174,87,39
1903,3367,100,52
1904,8694,159,71
1911,5719,55,34
1916,9493,180,93
1924,6724,139,92
1926,7851,83,40
1930,12269,200,100
1931,9163,162,65
1940,5909,64,36
1942,7880,67,40
1945,4705,62,54
1948,12081,273,173
1949,4395,46,38
1950,3273,38,22
1952,5299,61,40
1954,5421,109,61
1955,4403,52,27
1959,10120,99,72
1960,8457,98,63
1961,9539,143,78
1963,12804,166,69
1966,5350,42,21
1969,5486,40,29
1970,5971,77,47
1978,8530,61,39
1979,3841,54,25