0014,7134,59,20
0034,12064,229,59
0037,1393,15,9
0047,870,5,6
0050,973,18,10
0059,815,2,3
0060,129,0,0
0072,263,5,2
0074,1152,20,24
0080,3344,59,26
0085,564,10,1
0086,658,17,3
0088,7,1,0
0090,1318,18,15
0093,146,1,1
0096,27,0,0
0098,670,8,12
0106,1735,33,10
0109,1394,35,16
0114,4213,70,45
0118,2559,47,28
0119,1179,18,17
0141,4653,60,43
0147,1510,25,19
0148,1274,20,17
0150,4775,71,74
0153,8478,157,123
0158,1842,28,30
0160,3132,41,28
0163,2392,22,32
0164,4666,57,51
0166,2001,68,41
0168,1699,29,24
0171,2103,27,23
0173,2076,37,39
0175,747,13,13
0177,2087,29,28
0180,1287,13,11
0183,1772,17,13
0184,1798,41,11
0189,2050,12,21
0193,4205,67,75
0197,1200,18,17
0200,6547,156,126
0202,7606,143,93
0203,4774,34,36
0209,1171,28,16
0213,791,26,13
0214,1314,30,15
0216,1509,36,15
0221,452,15,8
0222,2457,51,24
0225,923,33,20
0226,1236,23,9
0228,7272,107,62
0230,1119,33,12
0232,1394,62,32
0233,1544,35,29
0243,2422,62,34
0244,462,19,5
0246,680,55,29
0252,825,24,15
0262,1207,28,25
0263,1377,29,24
0267,2815,41,12
0268,8322,215,153
0269,1147,44,29
0273,1536,16,9
0274,1237,27,21
0275,2025,48,33
0277,67,1,0
0279,668,5,9
0281,2204,70,41
0285,1002,25,14
0289,1701,33,31
0293,676,18,8
0294,1109,13,9
0296,2195,67,41
0297,1972,29,33
0299,1655,66,29
0301,1658,44,22
0302,1266,71,26
0303,1785,51,20
0307,8387,172,91
0308,1229,26,23
0310,2164,43,59
0312,676,16,11
0313,2667,41,33
0317,494,9,2
0321,2372,49,50
0327,1362,21,19
0331,780,25,9
0335,770,18,7
0339,363,6,5
0340,1444,24,15
0342,2463,55,42
0344,19225,507,194
0345,5123,94,60
0351,929,14,6
0352,1002,17,9
0353,1640,60,46
0355,3024,57,41
0356,2774,77,20
0358,1607,21,22
0361,4681,94,53
0362,4284,97,84
0363,54894,1404,564
0370,371,5,2
0373,1319,28,29
0375,1942,27,18
0376,543,9,4
0377,911,11,8
0383,1500,19,14
0384,1939,35,25
0385,2012,65,10
0388,1166,26,9
0392,7160,153,129
0394,7719,136,87
0396,1949,44,23
0397,1101,20,54
0398,2613,41,18
0399,929,17,11
0400,2077,29,13
0402,3817,56,69
0405,3739,57,30
0406,2479,43,50
0415,605,9,5
0416,1358,23,7
0417,581,14,24
0420,2526,28,13
0431,587,15,4
0432,584,3,2
0437,802,8,3
0439,3600,114,52
0441,2181,33,25
0448,295,6,2
0450,769,9,7
0451,1356,28,11
0453,3483,72,70
0457,1275,14,17
0473,744,16,35
0479,8909,232,135
0482,1440,22,16
0484,6608,135,81
0489,2975,75,37
0498,1114,9,9
0501,797,26,8
0502,4124,114,108
0503,5374,74,55
0505,7558,134,119
0512,2318,26,27
0513,4518,137,122
0518,30744,965,449
0523,1380,5,11
0530,1784,40,17
0531,1930,17,22
0532,1231,23,8
0534,990,13,7
0537,4734,82,39
0542,2119,31,49
0546,5999,98,48
0547,1325,31,18
0553,1191,22,12
0556,2055,51,26
0569,1563,27,17
0575,2256,53,15
0579,1204,18,28
0589,570,32,12
0590,1803,16,28
0597,2842,65,59
0599,44416,1309,713
0603,2897,92,69
0606,5311,158,56
0610,1844,16,26
0613,1816,33,17
0614,585,11,11
0622,4882,111,66
0626,1072,16,19
0627,1651,51,12
0629,1159,25,25
0632,2777,86,28
0637,6592,105,49
0638,415,6,1
0642,2805,49,66
0654,642,17,3
0664,1112,35,16
0668,892,24,15
0677,975,23,11
0678,367,7,4
0687,1276,36,16
0703,1076,12,5
0715,2118,59,20
0716,1220,51,22
0717,566,10,2
0718,1136,29,8
0736,2232,80,32
0737,780,11,4
0743,826,24,15
0744,280,12,4
0748,3770,73,33
0753,1618,44,24
0755,592,39,21
0756,1877,32,37
0757,1740,43,53
0758,9384,220,132
0762,1773,73,36
0765,322,12,3
0766,1683,40,23
0770,1245,40,21
0772,10838,306,205
0777,2262,61,34
0779,1208,24,19
0784,1407,30,18
0785,1314,37,26
0786,834,29,23
0794,5062,159,58
0796,8149,194,133
0797,2502,69,43
0798,963,18,20
0809,1519,40,30
0815,666,15,7
0820,1075,25,14
0823,1139,24,20
0824,1675,44,21
0826,3012,69,32
0828,4910,206,108
0840,1269,30,12
0845,1641,42,28
0847,1109,38,11
0848,729,38,25
0851,1143,24,15
0852,972,27,14
0855,12162,347,259
0856,1898,121,74
0858,1897,33,45
0861,2508,54,33
0865,1938,63,49
0866,841,9,10
0867,2935,63,71
0873,960,12,21
0879,993,32,14
0880,769,26,14
0882,1737,69,39
0888,739,23,12
0889,607,24,10
0893,884,13,7
0899,1282,64,33
0907,1069,26,16
0917,3602,167,93
0928,1818,102,57
0935,5295,237,168
0938,755,28,22
0944,414,11,10
0946,1279,39,15
0957,2638,72,30
0965,501,24,5
0971,1061,55,18
0981,328,17,10
0983,5932,177,114
0984,3161,50,28
0986,501,20,10
0988,3835,98,56
0994,668,28,13
0995,3359,111,51
1507,2911,52,54
1509,1790,32,29
1525,2137,28,10
1581,2511,53,40
1586,1608,27,32
1598,1074,15,14
1621,3833,76,55
1640,1959,63,43
1641,1151,31,17
1652,1457,87,35
1655,1564,38,17
1658,863,20,13
1659,1277,48,31
1667,928,20,6
1669,848,31,18
1674,4190,67,59
1676,913,25,19
1680,711,3,8
1681,823,17,11
1684,1382,27,19
1685,1064,47,22
1690,918,21,11
1695,152,3,1
1696,1096,17,11
1699,600,11,19
1700,2630,28,22
1701,418,11,6
1702,654,22,11
1705,2261,53,22
1706,1393,69,44
1708,1484,21,14
1709,1679,33,26
1711,1375,48,24
1714,917,28,16
1719,1334,35,23
1721,1815,102,68
1723,475,21,5
1724,1333,27,6
1728,1617,30,19
1729,653,29,18
1730,777,13,17
1731,1057,14,6
1734,1923,67,26
1735,2048,28,16
1740,1617,54,29
1742,2856,41,42
1771,2160,56,21
1773,605,14,8
1774,1993,28,25
1783,7575,138,71
1842,1129,16,12
1859,2210,30,36
1876,1655,25,12
1883,3844,162,98
1884,1325,18,5
1891,656,4,10
1892,2630,67,37
1894,2153,151,70
1895,1145,18,15
1896,1014,41,25
1900,3546,31,50
1901,2217,42,21
1903,1258,65,35
1904,3281,79,46
1911,2010,36,14
1916,3841,91,64
1924,2439,89,58
1926,3150,43,26
1930,4675,112,68
1931,3309,97,56
1940,1323,34,14
1942,2688,45,27
1945,1798,46,37
1948,4227,235,153
1949,1271,20,24
1950,1013,19,6
1952,1679,28,24
1954,1572,69,36
1955,1549,33,13
1959,4131,66,63
1960,2962,75,42
1961,3292,74,56
1963,4184,99,42
1966,1615,18,17
1969,1410,24,12
1970,1326,22,18
1978,2685,30,21
1979,1521,31,10