0014,10143,73,35
0034,15576,286,93
0037,1927,16,16
0047,1404,8,10
0050,1279,20,13
0059,1705,16,36
0060,146,0,0
0072,508,7,3
0074,1870,28,35
0080,5430,81,64
0085,934,13,6
0086,1151,23,6
0088,40,1,2
0090,2374,28,31
0093,192,3,2
0096,45,0,0
0098,1176,11,27
0106,2620,45,13
0109,2286,49,27
0114,6763,111,67
0118,3546,63,40
0119,1649,21,24
0141,5900,87,54
0147,1912,28,36
0148,1702,24,19
0150,5789,81,81
0153,10479,194,164
0158,2205,32,32
0160,4455,51,37
0163,3370,38,49
0164,5704,65,65
0166,2616,72,41
0168,2135,44,32
0171,2548,30,27
0173,2556,50,43
0175,1143,14,15
0177,2780,37,38
0180,1709,14,18
0183,2188,18,17
0184,1934,44,12
0189,2546,18,27
0193,5799,81,97
0197,1663,21,18
0200,8686,181,139
0202,9365,166,118
0203,5975,45,56
0209,1645,33,17
0213,1018,29,16
0214,1773,37,17
0216,2001,42,22
0221,589,16,9
0222,3410,54,27
0225,1472,39,26
0226,1523,27,13
0228,9013,128,75
0230,1449,35,13
0232,1984,67,45
0233,1910,38,32
0243,3271,77,46
0244,611,19,7
0246,905,55,30
0252,1038,25,17
0262,1501,32,27
0263,2364,37,33
0267,3554,45,27
0268,10478,238,171
0269,1632,46,29
0273,1902,18,14
0274,1501,30,25
0275,2726,58,56
0277,78,1,0
0279,833,5,12
0281,3224,78,72
0285,1304,29,28
0289,2191,40,41
0293,848,19,8
0294,1409,13,13
0296,2846,70,51
0297,2960,36,41
0299,2317,73,46
0301,2101,47,29
0302,1624,74,30
0303,2241,57,22
0307,10748,210,128
0308,1645,31,25
0310,2948,60,72
0312,892,20,11
0313,3536,53,39
0317,717,16,4
0321,2975,63,51
0327,1827,31,23
0331,1206,32,10
0335,1105,23,8
0339,440,6,5
0340,1832,27,18
0342,3055,67,46
0344,23648,596,224
0345,6304,117,70
0351,1202,22,8
0352,1369,26,10
0353,2251,73,53
0355,3888,74,69
0356,3861,94,25
0358,2094,30,23
0361,7176,115,67
0362,5479,118,88
0363,68439,1670,705
0370,706,6,2
0373,1900,34,33
0375,3212,38,40
0376,734,11,6
0377,1218,13,16
0383,2199,23,20
0384,2422,39,30
0385,3521,77,15
0388,1659,28,11
0392,9544,175,142
0394,10197,161,100
0396,3058,56,29
0397,1397,22,57
0398,4062,55,33
0399,1237,20,13
0400,3992,46,31
0402,5063,72,77
0405,6992,83,53
0406,3213,52,52
0415,925,11,5
0416,1962,29,12
0417,777,16,26
0420,4341,49,24
0431,791,16,8
0432,1057,7,4
0437,975,13,4
0439,6011,157,79
0441,3325,44,49
0448,357,6,4
0450,1006,12,7
0451,1853,32,12
0453,5294,90,85
0457,1583,17,20
0473,963,18,42
0479,11893,265,157
0482,1843,33,21
0484,8541,160,111
0489,3872,87,43
0498,1739,16,12
0501,1039,30,9
0502,5504,151,127
0503,6941,87,74
0505,10183,213,155
0512,3026,43,36
0513,5622,181,149
0518,38304,1231,532
0523,2036,13,23
0530,2330,50,40
0531,2579,34,29
0532,2065,27,15
0534,1317,15,17
0537,6456,96,54
0542,2829,45,67
0546,7555,114,65
0547,1608,34,21
0553,1541,25,17
0556,2541,59,33
0569,2359,36,21
0575,2986,62,20
0579,1464,22,30
0589,780,35,12
0590,2472,39,42
0597,4015,94,80
0599,55427,1600,868
0603,3579,112,71
0606,6871,197,103
0610,2539,27,40
0613,2201,38,20
0614,762,18,16
0622,6259,144,87
0626,1337,19,21
0627,2210,61,14
0629,1444,33,30
0632,3748,111,38
0637,8293,138,62
0638,575,7,1
0642,3907,71,87
0654,973,28,5
0664,1710,57,23
0668,1428,24,19
0677,1336,33,12
0678,587,9,6
0687,2358,56,21
0703,1655,30,14
0715,2933,92,26
0716,1682,56,23
0717,968,22,5
0718,2241,84,24
0736,2930,93,33
0737,1467,19,26
0743,1147,30,17
0744,357,12,4
0748,4919,84,38
0753,2256,51,30
0755,714,40,23
0756,2483,35,43
0757,2416,48,65
0758,11354,230,143
0762,2563,82,41
0765,686,17,9
0766,2240,42,25
0770,1752,42,24
0772,15717,374,320
0777,2748,63,38
0779,1638,27,25
0784,1785,32,19
0785,1697,39,36
0786,1102,29,24
0794,7748,187,80
0796,11255,214,156
0797,3495,74,47
0798,1245,19,20
0809,1958,42,35
0815,895,17,10
0820,1525,31,20
0823,1676,27,26
0824,2300,53,22
0826,3757,73,34
0828,7383,225,123
0840,1684,41,15
0845,2296,47,31
0847,1564,42,13
0848,1075,39,27
0851,1615,31,18
0852,1413,31,15
0855,16336,365,271
0856,2731,127,83
0858,2588,47,57
0861,3739,70,46
0865,2435,69,53
0866,1108,16,13
0867,3720,65,76
0873,1437,18,24
0879,1202,34,17
0880,1196,34,32
0882,2578,86,63
0888,935,25,12
0889,885,26,11
0893,1194,18,11
0899,1765,72,47
0907,1343,28,19
0917,5079,201,118
0928,2858,114,95
0935,6907,270,191
0938,997,31,22
0944,471,11,11
0946,1806,43,19
0957,4009,83,44
0965,658,26,7
0971,1564,66,21
0981,510,19,13
0983,8671,188,142
0984,4373,60,43
0986,714,23,11
0988,4789,104,68
0994,896,31,20
0995,4324,123,58
1507,4077,56,59
1509,2704,37,43
1525,2821,33,22
1581,3190,71,69
1586,2098,30,38
1598,2053,21,20
1621,4800,83,60
1640,2938,68,47
1641,1823,41,34
1652,1959,95,37
1655,2131,49,25
1658,1239,22,13
1659,1795,55,36
1667,1212,23,8
1669,1318,40,28
1674,5772,96,69
1676,1317,32,22
1680,1043,5,20
1681,1177,22,14
1684,1872,34,22
1685,1369,47,26
1690,1348,28,22
1695,359,12,8
1696,1472,22,15
1699,1194,22,25
1700,3444,36,29
1701,677,12,20
1702,876,22,11
1705,2783,56,26
1706,1974,74,49
1708,2065,23,18
1709,2363,40,37
1711,2083,58,31
1714,1111,41,18
1719,1668,39,25
1721,2621,106,78
1723,572,23,5
1724,1770,28,9
1728,2167,36,25
1729,872,30,19
1730,1179,17,20
1731,1514,27,27
1734,2410,70,29
1735,2723,32,28
1740,2142,59,32
1742,3664,49,47
1771,3145,69,25
1773,899,17,9
1774,2430,34,34
1783,9721,165,86
1842,1449,16,13
1859,2829,36,42
1876,2244,30,17
1883,5313,178,127
1884,1844,21,9
1891,1074,9,16
1892,3436,96,45
1894,3220,161,77
1895,2161,38,33
1896,1858,46,26
1900,5736,50,84
1901,3048,64,35
1903,1586,68,44
1904,4268,109,65
1911,3382,45,31
1916,4763,120,80
1924,3198,116,85
1926,3925,57,34
1930,6125,142,92
1931,4724,118,62
1940,2376,42,30
1942,3810,51,31
1945,2250,51,45
1948,6089,249,162
1949,2119,25,33
1950,1809,35,20
1952,2840,44,35
1954,2227,77,43
1955,2110,38,23
1959,5300,81,65
1960,4218,80,58
1961,4564,96,63
1963,5851,133,58
1966,2530,25,20
1969,2286,34,22
1970,2244,34,35
1978,3903,45,28
1979,2185,38,14