0014,25695,124,55
0034,31643,411,115
0037,3608,36,21
0047,2801,14,14
0050,2814,22,15
0059,4036,38,40
0060,317,3,1
0072,1406,13,6
0074,6173,49,41
0080,13552,129,77
0085,2539,21,6
0086,3515,33,9
0088,57,1,2
0090,6819,63,36
0093,504,3,2
0096,111,1,1
0098,3134,21,29
0106,6203,77,19
0109,4405,64,33
0114,13713,213,87
0118,7008,90,43
0119,3601,36,36
0141,11154,136,67
0147,3690,36,40
0148,3723,34,22
0150,13121,131,91
0153,22729,291,183
0158,3867,36,33
0160,9136,76,42
0163,6125,57,53
0164,11662,97,72
0166,7051,92,50
0168,3883,53,38
0171,6276,42,30
0173,5113,60,49
0175,2366,16,16
0177,5542,48,47
0180,4208,25,29
0183,4219,27,21
0184,4273,69,22
0189,4584,26,30
0193,15707,136,134
0197,3589,34,29
0200,21732,239,174
0202,21527,236,140
0203,13247,87,77
0209,3731,47,26
0213,2510,38,22
0214,3878,46,23
0216,4363,53,24
0221,1242,22,9
0222,8394,74,38
0225,2985,49,30
0226,3134,32,17
0228,20274,181,115
0230,3593,47,22
0232,4382,84,54
0233,4048,53,40
0243,6889,97,53
0244,1613,24,7
0246,2164,58,32
0252,2183,31,20
0262,3759,41,35
0263,4791,46,43
0267,6899,57,31
0268,25742,327,212
0269,3989,62,39
0273,4024,23,21
0274,3294,43,37
0275,5523,73,71
0277,179,1,0
0279,2038,7,12
0281,6787,99,76
0285,3082,33,31
0289,5243,51,53
0293,1846,30,9
0294,3421,21,22
0296,6032,90,65
0297,5590,52,48
0299,5411,92,50
0301,5617,63,36
0302,4642,92,41
0303,4837,75,28
0307,23231,284,145
0308,3808,36,28
0310,5797,86,79
0312,1824,27,14
0313,5402,63,39
0317,1518,21,6
0321,7372,81,53
0327,3802,42,26
0331,2528,41,12
0335,2307,33,9
0339,1125,10,5
0340,4024,47,21
0342,6714,85,50
0344,54255,819,269
0345,13185,153,84
0351,2600,24,9
0352,3045,38,17
0353,5157,93,58
0355,8502,105,78
0356,8445,152,32
0358,5472,47,29
0361,15410,156,87
0362,12565,154,105
0363,142877,2302,898
0370,1468,9,3
0373,3747,41,40
0375,6284,56,43
0376,1622,15,7
0377,3072,20,18
0383,4981,38,25
0384,5005,61,39
0385,6933,105,26
0388,2816,32,14
0392,22758,259,164
0394,22959,226,124
0396,6248,70,37
0397,3755,34,65
0398,8660,72,39
0399,2993,26,17
0400,7834,83,43
0402,11754,116,99
0405,12148,102,55
0406,6294,72,59
0415,1862,16,7
0416,4010,39,17
0417,1622,19,31
0420,7621,64,28
0431,1556,17,8
0432,1977,13,6
0437,2283,19,5
0439,12236,220,87
0441,6568,62,62
0448,1023,6,4
0450,2023,12,11
0451,4577,40,16
0453,10146,120,95
0457,2992,22,23
0473,2269,31,44
0479,24236,370,186
0482,4361,50,24
0484,17923,210,144
0489,8594,117,49
0498,3100,28,13
0501,2484,34,11
0502,11762,208,150
0503,14889,124,81
0505,21117,291,198
0512,6448,54,45
0513,12141,310,165
0518,82234,2014,595
0523,4393,22,30
0530,5587,84,47
0531,5840,46,36
0532,3394,32,15
0534,2843,24,21
0537,12905,129,68
0542,5458,53,74
0546,18240,159,81
0547,3658,39,28
0553,3483,34,22
0556,5337,75,37
0569,5276,49,25
0575,6681,74,25
0579,3245,23,32
0589,1500,40,12
0590,5407,49,49
0597,8430,127,99
0599,118588,2228,1014
0603,7968,153,77
0606,13380,266,123
0610,5451,36,46
0613,4681,53,23
0614,1794,27,19
0622,12571,204,102
0626,3126,28,24
0627,5239,82,18
0629,3200,45,34
0632,8206,154,44
0637,17906,204,72
0638,1320,11,1
0642,7729,94,114
0654,2974,49,9
0664,5296,114,31
0668,3013,25,19
0677,3492,52,13
0678,1806,20,6
0687,6451,91,31
0703,4829,65,17
0715,7036,154,32
0716,4873,79,31
0717,2654,37,8
0718,5466,150,35
0736,6858,128,43
0737,3746,36,32
0743,2705,35,18
0744,968,14,4
0748,10349,108,49
0753,4540,60,32
0755,1727,46,23
0756,5547,50,52
0757,5339,57,71
0758,28341,292,168
0762,5699,100,47
0765,1392,26,13
0766,4315,49,26
0770,3274,53,32
0772,34631,499,372
0777,6221,77,40
0779,3439,35,26
0784,3768,45,20
0785,3839,46,41
0786,2144,33,24
0794,15721,215,87
0796,25589,284,184
0797,7692,96,51
0798,2343,21,20
0809,3986,53,41
0815,1892,17,10
0820,3069,35,24
0823,3148,33,27
0824,4907,61,24
0826,8515,105,42
0828,15115,259,134
0840,3282,52,18
0845,4808,55,42
0847,3404,49,15
0848,2229,43,28
0851,3429,42,20
0852,2632,35,18
0855,37196,465,291
0856,6361,145,87
0858,4823,64,68
0861,6939,92,52
0865,4955,81,53
0866,2477,27,17
0867,8043,86,78
0873,2784,24,26
0879,2977,45,17
0880,2388,38,35
0882,6510,121,84
0888,2689,39,14
0889,2474,37,14
0893,2541,28,19
0899,4998,113,61
0907,3199,31,30
0917,14190,283,144
0928,7226,161,103
0935,18474,396,230
0938,2950,64,38
0944,956,13,13
0946,3494,52,25
0957,10329,131,73
0965,1520,32,9
0971,4203,83,24
0981,1130,27,16
0983,21402,258,185
0984,8768,76,53
0986,2053,27,12
0988,9710,135,84
0994,2460,42,28
0995,10789,168,69
1507,9335,68,74
1509,6227,55,54
1525,6055,44,26
1581,6652,104,76
1586,4431,40,43
1598,3739,26,24
1621,10684,107,70
1640,6211,85,57
1641,4172,52,40
1652,4612,108,41
1655,4391,62,31
1658,2268,25,13
1659,3696,67,41
1667,2397,26,10
1669,3304,52,38
1674,11863,120,80
1676,3929,67,28
1680,2167,9,21
1681,2420,35,18
1684,4502,43,32
1685,2686,51,29
1690,3037,41,27
1695,856,23,10
1696,3418,30,23
1699,2781,36,25
1700,6137,50,33
1701,1687,19,23
1702,2007,29,11
1705,6396,74,43
1706,3802,82,56
1708,5220,37,29
1709,5384,60,51
1711,5224,76,43
1714,2438,53,22
1719,4060,56,31
1721,5558,118,80
1723,1429,25,5
1724,3101,30,13
1728,3872,42,29
1729,2075,38,21
1730,2656,29,26
1731,3112,42,32
1734,6160,85,33
1735,5784,40,34
1740,5765,79,47
1742,8166,61,62
1771,6303,85,31
1773,2090,21,10
1774,4625,39,37
1783,20733,214,93
1842,3150,19,14
1859,5974,48,47
1876,5033,45,27
1883,14815,256,152
1884,3890,27,11
1891,2925,30,18
1892,7522,132,47
1894,7866,174,88
1895,3747,49,39
1896,4196,64,32
1900,12227,97,95
1901,6664,90,39
1903,3932,101,54
1904,9519,160,72
1911,6245,55,34
1916,10210,188,97
1924,7188,140,93
1926,8529,85,41
1930,13313,205,100
1931,9880,163,66
1940,6609,70,37
1942,8718,68,43
1945,5191,64,56
1948,13007,276,176
1949,4943,53,39
1950,3546,40,24
1952,5723,64,40
1954,6093,110,65
1955,4767,54,29
1959,10987,108,73
1960,9213,99,65
1961,10502,146,78
1963,13812,171,74
1966,5928,44,24
1969,6104,42,32
1970,6564,78,48
1978,9217,61,42
1979,4174,54,27