0014,13254,89,45
0034,19413,326,95
0037,2472,23,19
0047,1808,12,11
0050,1707,22,14
0059,2261,25,39
0060,192,3,1
0072,798,11,3
0074,2684,34,39
0080,7317,95,73
0085,1436,16,6
0086,1659,26,7
0088,45,1,2
0090,3274,39,33
0093,247,3,2
0096,68,0,0
0098,1722,18,28
0106,3643,66,15
0109,2807,57,31
0114,8946,159,78
0118,4434,73,41
0119,2294,32,27
0141,7384,101,57
0147,2456,30,38
0148,2272,26,20
0150,8024,101,87
0153,13575,225,170
0158,2604,33,32
0160,5676,59,37
0163,4201,43,51
0164,6987,74,66
0166,3543,79,44
0168,2570,49,32
0171,3413,33,28
0173,3251,53,45
0175,1434,15,15
0177,3353,40,41
0180,2239,16,20
0183,2907,25,18
0184,2554,53,18
0189,3041,19,27
0193,7985,100,112
0197,2382,29,21
0200,12210,197,144
0202,12453,189,124
0203,7589,61,62
0209,2296,39,22
0213,1428,33,18
0214,2434,40,20
0216,2621,47,22
0221,769,19,9
0222,4725,64,28
0225,1838,40,27
0226,1999,27,14
0228,11537,140,86
0230,1969,39,14
0232,2685,78,52
0233,2369,44,34
0243,4273,85,49
0244,889,20,7
0246,1256,56,32
0252,1376,27,18
0262,2093,36,29
0263,3476,42,42
0267,4354,50,29
0268,14943,269,189
0269,2195,49,30
0273,2435,21,18
0274,2046,35,26
0275,3467,60,57
0277,105,1,0
0279,1052,5,12
0281,4351,87,73
0285,1827,31,28
0289,2950,40,42
0293,1130,19,9
0294,2060,16,16
0296,3885,79,56
0297,3828,40,42
0299,3240,79,48
0301,3100,54,29
0302,2304,80,32
0303,2990,63,25
0307,13789,249,137
0308,2142,34,28
0310,3529,75,78
0312,1140,22,12
0313,4169,61,39
0317,905,19,5
0321,4056,71,51
0327,2320,41,24
0331,1599,39,12
0335,1389,28,8
0339,587,7,5
0340,2410,41,21
0342,3907,76,46
0344,31786,707,247
0345,7829,133,73
0351,1447,22,8
0352,1831,34,17
0353,3238,86,55
0355,4955,88,73
0356,5277,131,30
0358,3041,36,26
0361,9327,137,82
0362,7119,130,90
0363,86218,1917,790
0370,880,8,3
0373,2435,38,38
0375,4095,44,41
0376,978,13,6
0377,1588,16,17
0383,3093,26,23
0384,2983,49,32
0385,5010,93,22
0388,1894,30,11
0392,12612,214,149
0394,13695,177,107
0396,3897,61,32
0397,1892,26,60
0398,5620,57,36
0399,1687,23,15
0400,5145,64,39
0402,6624,87,84
0405,8440,94,55
0406,3934,61,53
0415,1127,12,6
0416,2519,35,15
0417,977,16,26
0420,5334,57,25
0431,938,16,8
0432,1269,11,6
0437,1230,15,5
0439,7900,187,84
0441,4448,55,57
0448,563,6,4
0450,1284,12,7
0451,2495,34,15
0453,6816,103,90
0457,2008,20,20
0473,1395,21,43
0479,15286,304,174
0482,2600,42,22
0484,11080,187,114
0489,5291,102,48
0498,2144,24,13
0501,1611,31,9
0502,7674,183,142
0503,9158,101,74
0505,14078,251,175
0512,4018,46,39
0513,7696,267,160
0518,52281,1633,549
0523,2690,17,25
0530,3423,64,43
0531,3564,39,32
0532,2614,29,15
0534,1742,21,17
0537,8628,112,58
0542,3631,49,70
0546,10283,131,70
0547,2199,36,22
0553,2015,28,17
0556,3435,68,35
0569,3233,44,22
0575,3984,66,22
0579,1886,23,31
0589,1021,38,12
0590,3501,45,46
0597,5658,112,89
0599,75914,1902,949
0603,4801,129,76
0606,9169,232,114
0610,3291,30,41
0613,2903,46,22
0614,1142,22,18
0622,8433,171,90
0626,1809,23,24
0627,2978,69,15
0629,1999,41,30
0632,5047,140,39
0637,11146,167,69
0638,817,10,1
0642,5257,86,101
0654,1461,38,6
0664,2609,84,29
0668,1890,25,19
0677,1793,40,13
0678,1002,14,6
0687,3468,77,25
0703,2941,56,16
0715,4056,115,28
0716,2795,69,29
0717,1341,31,7
0718,3294,127,32
0736,3923,116,35
0737,1976,22,28
0743,1647,33,18
0744,537,13,4
0748,6514,92,44
0753,2962,55,30
0755,1036,41,23
0756,3227,39,45
0757,3426,51,68
0758,15800,250,146
0762,3645,91,41
0765,1005,25,13
0766,2926,46,25
0770,2380,47,25
0772,22073,436,353
0777,3638,69,38
0779,2203,31,25
0784,2570,38,19
0785,2374,42,36
0786,1419,30,24
0794,10792,205,84
0796,16405,254,170
0797,5032,88,50
0798,1580,20,20
0809,2675,52,37
0815,1197,17,10
0820,2098,34,21
0823,2324,30,27
0824,3036,55,22
0826,4936,84,36
0828,10496,240,128
0840,2216,46,16
0845,3192,52,34
0847,2222,48,13
0848,1509,42,28
0851,2228,31,19
0852,1750,33,15
0855,23286,402,275
0856,4193,139,86
0858,3296,55,61
0861,4974,83,49
0865,3166,74,53
0866,1560,19,17
0867,5312,77,77
0873,1922,21,26
0879,1635,36,17
0880,1530,35,33
0882,3525,99,69
0888,1456,29,12
0889,1442,30,12
0893,1521,22,14
0899,2728,87,51
0907,1730,28,19
0917,7289,238,125
0928,3942,137,96
0935,9730,327,195
0938,1427,49,23
0944,592,11,11
0946,2244,47,20
0957,6118,101,57
0965,875,27,9
0971,2341,76,24
0981,706,23,14
0983,13103,222,165
0984,5601,64,48
0986,1017,25,11
0988,5976,110,68
0994,1258,36,23
0995,5809,136,61
1507,5652,61,64
1509,3907,48,47
1525,3732,38,24
1581,3969,91,73
1586,2762,35,41
1598,2568,24,21
1621,6375,90,63
1640,3910,75,51
1641,2496,42,36
1652,2865,100,38
1655,2950,57,27
1658,1565,23,13
1659,2527,62,36
1667,1609,23,9
1669,2033,47,35
1674,7564,102,73
1676,2038,50,25
1680,1367,7,20
1681,1533,30,15
1684,2562,36,26
1685,1870,51,28
1690,1931,31,24
1695,544,16,9
1696,1911,24,18
1699,1630,30,25
1700,4367,39,30
1701,943,16,22
1702,1176,27,11
1705,3690,62,32
1706,2516,79,51
1708,3132,31,26
1709,3347,45,40
1711,3038,64,34
1714,1409,43,18
1719,2430,48,30
1721,3726,110,78
1723,899,24,5
1724,2226,28,11
1728,2744,38,27
1729,1133,31,19
1730,1488,22,24
1731,1991,35,30
1734,3589,73,30
1735,3529,34,29
1740,2816,62,33
1742,4638,54,54
1771,4258,75,27
1773,1262,19,9
1774,3081,36,35
1783,13524,185,86
1842,1947,17,14
1859,3769,41,42
1876,3012,37,21
1883,8222,209,143
1884,2516,25,10
1891,1400,17,17
1892,4635,117,46
1894,4804,165,84
1895,2737,43,37
1896,2376,51,30
1900,7639,72,90
1901,3930,74,36
1903,2065,85,46
1904,5686,144,68
1911,4339,49,33
1916,6277,151,83
1924,4497,127,87
1926,5213,65,38
1930,8665,177,98
1931,6180,150,62
1940,3521,53,33
1942,4894,58,33
1945,3110,56,51
1948,8738,260,166
1949,2905,39,36
1950,2251,36,21
1952,3632,53,39
1954,3393,95,48
1955,3017,42,24
1959,6718,87,68
1960,5720,87,61
1961,6048,121,75
1963,8320,150,64
1966,3389,31,20
1969,3223,37,25
1970,3148,44,37
1978,5546,50,34
1979,2794,46,21