0014,21812,118,48
0034,25387,385,105
0037,2874,28,21
0047,2278,13,11
0050,2161,22,14
0059,3008,30,39
0060,285,3,1
0072,1010,13,6
0074,4050,45,40
0080,9717,115,74
0085,1821,19,6
0086,2381,31,8
0088,49,1,2
0090,4625,54,34
0093,359,3,2
0096,84,0,0
0098,2154,21,29
0106,4665,72,15
0109,3522,61,32
0114,10730,189,80
0118,5648,85,42
0119,2793,35,28
0141,9099,121,60
0147,2966,33,39
0148,2784,29,21
0150,10562,119,89
0153,18326,273,175
0158,3042,35,32
0160,6772,62,37
0163,4891,50,51
0164,9078,90,71
0166,4779,83,45
0168,3147,51,38
0171,4246,39,29
0173,4100,59,45
0175,1776,16,16
0177,4378,45,42
0180,3436,21,22
0183,3571,27,19
0184,2779,57,19
0189,3635,23,28
0193,10919,116,120
0197,2792,33,22
0200,16581,219,162
0202,16696,222,128
0203,9478,75,65
0209,2884,42,23
0213,1879,35,22
0214,2946,41,20
0216,3328,50,22
0221,952,22,9
0222,5877,66,31
0225,2293,45,28
0226,2514,31,15
0228,15012,163,94
0230,2612,40,15
0232,3272,80,53
0233,2920,49,34
0243,5233,92,48
0244,1094,23,7
0246,1432,57,32
0252,1690,29,19
0262,2739,40,29
0263,4004,43,42
0267,5383,55,29
0268,19966,298,204
0269,2634,51,31
0273,2957,23,19
0274,2515,38,31
0275,4254,68,64
0277,129,1,0
0279,1427,5,12
0281,5427,91,73
0285,2281,33,30
0289,4105,45,43
0293,1470,26,9
0294,2558,19,17
0296,4870,86,62
0297,4432,46,46
0299,4168,89,48
0301,3966,57,30
0302,3310,87,39
0303,3699,70,25
0307,18188,283,143
0308,2661,35,28
0310,4606,81,78
0312,1406,23,12
0313,4557,62,39
0317,1153,21,6
0321,5256,78,51
0327,2929,42,25
0331,1938,41,12
0335,1744,31,8
0339,807,9,5
0340,2989,44,21
0342,4941,84,48
0344,44144,803,259
0345,9601,143,76
0351,1913,24,8
0352,2290,34,17
0353,3951,90,56
0355,6412,102,76
0356,6728,145,31
0358,4135,43,26
0361,11870,146,86
0362,9780,146,99
0363,120327,2195,865
0370,1091,9,3
0373,3017,39,39
0375,5089,48,42
0376,1309,14,6
0377,2237,19,17
0383,3860,30,24
0384,4154,59,39
0385,5855,99,24
0388,2241,31,14
0392,17331,242,157
0394,18035,204,112
0396,4698,65,32
0397,2735,30,63
0398,6836,66,38
0399,2256,24,16
0400,6170,75,41
0402,9032,104,90
0405,9884,98,55
0406,5034,66,56
0415,1466,14,6
0416,3199,37,17
0417,1292,18,29
0420,6137,60,26
0431,1143,17,8
0432,1552,11,6
0437,1687,18,5
0439,10009,204,87
0441,5408,60,60
0448,739,6,4
0450,1558,12,7
0451,3382,34,15
0453,8336,109,91
0457,2402,21,23
0473,1743,27,43
0479,19378,345,181
0482,3260,47,22
0484,13597,195,117
0489,6828,113,48
0498,2445,26,13
0501,1940,32,10
0502,9678,195,146
0503,12506,115,76
0505,16684,278,186
0512,5053,50,44
0513,9468,290,160
0518,68138,1880,576
0523,3225,21,25
0530,4396,76,44
0531,4362,43,32
0532,2875,30,15
0534,2226,23,18
0537,10015,119,61
0542,4280,50,73
0546,14657,150,76
0547,2837,38,23
0553,2624,29,17
0556,4292,73,35
0569,4000,47,24
0575,5276,71,25
0579,2442,23,31
0589,1229,39,12
0590,4138,48,46
0597,6977,122,91
0599,101225,2145,993
0603,6186,143,77
0606,11284,257,119
0610,3990,33,41
0613,3680,52,23
0614,1397,25,19
0622,10477,190,98
0626,2298,23,24
0627,3705,75,17
0629,2537,43,31
0632,6273,149,41
0637,14119,192,70
0638,1013,10,1
0642,6278,94,102
0654,1937,44,9
0664,3435,104,31
0668,2359,25,19
0677,2135,44,13
0678,1266,16,6
0687,4413,84,27
0703,3481,61,17
0715,4891,130,31
0716,3471,74,30
0717,1757,33,7
0718,4025,138,34
0736,5193,125,36
0737,2611,26,29
0743,2028,34,18
0744,725,13,4
0748,8248,100,48
0753,3646,58,32
0755,1279,43,23
0756,4174,42,45
0757,4143,54,70
0758,21712,272,152
0762,4335,96,42
0765,1151,25,13
0766,3467,48,25
0770,2727,49,27
0772,27854,471,361
0777,4602,73,38
0779,2711,32,26
0784,3053,42,20
0785,2879,43,36
0786,1659,31,24
0794,12976,210,86
0796,20437,272,173
0797,6068,93,50
0798,1847,21,20
0809,3051,52,37
0815,1392,17,10
0820,2487,35,23
0823,2654,32,27
0824,3593,56,22
0826,6363,90,41
0828,12382,252,132
0840,2615,46,17
0845,3828,53,35
0847,2590,48,13
0848,1747,43,28
0851,2687,39,19
0852,2117,33,16
0855,29621,439,280
0856,4924,142,86
0858,3829,60,64
0861,5713,89,50
0865,3819,78,53
0866,1927,23,17
0867,6266,82,77
0873,2222,23,26
0879,2087,38,17
0880,1891,38,34
0882,4206,108,74
0888,1816,36,13
0889,1794,32,13
0893,1840,25,15
0899,3359,100,54
0907,2266,29,20
0917,9373,261,134
0928,4813,150,97
0935,13008,367,205
0938,1942,60,27
0944,725,11,11
0946,2646,50,21
0957,7741,123,65
0965,1081,29,9
0971,2865,78,24
0981,819,25,14
0983,15973,242,180
0984,6626,67,50
0986,1302,26,11
0988,7395,120,70
0994,1645,40,23
0995,7978,158,63
1507,6846,62,68
1509,4764,50,45
1525,4680,41,25
1581,4996,100,74
1586,3555,36,41
1598,3045,25,24
1621,8199,105,69
1640,4630,77,52
1641,2893,46,37
1652,3455,102,38
1655,3582,58,28
1658,1798,25,13
1659,2923,64,36
1667,1901,23,10
1669,2408,50,35
1674,9218,108,75
1676,2742,60,27
1680,1699,8,21
1681,1892,32,15
1684,3190,38,27
1685,2142,51,29
1690,2308,35,26
1695,634,21,9
1696,2404,28,20
1699,2141,33,25
1700,4988,44,31
1701,1163,18,22
1702,1482,29,11
1705,4545,66,36
1706,2903,79,52
1708,3874,33,27
1709,4123,50,44
1711,3696,66,38
1714,1681,49,18
1719,3077,50,30
1721,4477,115,78
1723,1079,24,5
1724,2530,28,12
1728,3147,40,28
1729,1406,35,20
1730,2035,25,25
1731,2385,39,30
1734,4639,78,30
1735,4416,35,29
1740,3862,67,35
1742,5935,57,55
1771,5044,82,29
1773,1645,21,10
1774,3809,39,36
1783,16817,200,87
1842,2482,19,14
1859,4555,45,43
1876,3646,40,22
1883,10224,235,148
1884,3070,26,10
1891,1989,22,17
1892,5884,125,47
1894,5934,168,86
1895,3140,45,38
1896,3029,53,30
1900,9466,88,93
1901,5040,83,37
1903,2612,93,47
1904,7174,153,69
1911,5014,54,34
1916,8155,170,90
1924,5631,133,91
1926,6722,81,39
1930,10756,190,99
1931,7480,155,64
1940,4714,61,34
1942,6619,65,38
1945,3751,57,51
1948,10197,269,169
1949,3688,44,37
1950,2846,38,22
1952,4667,57,40
1954,4225,103,54
1955,3626,46,25
1959,8052,91,68
1960,7080,91,61
1961,7639,134,77
1963,10351,161,67
1966,4597,39,20
1969,4450,39,26
1970,4544,62,40
1978,6826,56,36
1979,3300,52,23