0014,9303,67,29
0034,14640,267,86
0037,1796,16,14
0047,1290,8,10
0050,1211,20,13
0059,1604,15,32
0060,144,0,0
0072,437,7,3
0074,1733,26,35
0080,4926,80,62
0085,831,13,6
0086,1047,22,5
0088,37,1,1
0090,2091,27,27
0093,185,1,1
0096,41,0,0
0098,1059,10,27
0106,2349,41,13
0109,2090,44,27
0114,5927,103,62
0118,3370,60,40
0119,1486,20,24
0141,5704,86,52
0147,1797,28,36
0148,1568,22,18
0150,5467,78,80
0153,10099,193,163
0158,2144,32,32
0160,4151,48,37
0163,3165,35,49
0164,5493,64,65
0166,2413,70,41
0168,2069,43,32
0171,2435,28,26
0173,2455,49,42
0175,1034,13,15
0177,2608,36,36
0180,1606,14,18
0183,2093,18,16
0184,1904,44,12
0189,2420,18,27
0193,5234,76,90
0197,1503,19,18
0200,7844,169,139
0202,8839,159,114
0203,5735,44,56
0209,1515,32,17
0213,927,29,16
0214,1662,37,17
0216,1858,41,18
0221,558,16,9
0222,3037,53,27
0225,1369,39,26
0226,1460,26,12
0228,8661,126,73
0230,1349,35,13
0232,1803,66,45
0233,1808,36,32
0243,3026,74,45
0244,556,19,7
0246,818,55,30
0252,987,25,16
0262,1378,30,26
0263,2023,32,31
0267,3375,45,26
0268,9819,232,170
0269,1472,46,29
0273,1835,17,13
0274,1419,29,24
0275,2513,58,56
0277,73,1,0
0279,813,5,12
0281,2934,75,73
0285,1208,28,28
0289,2047,38,38
0293,804,19,8
0294,1333,13,13
0296,2737,70,51
0297,2717,36,40
0299,2179,72,45
0301,1930,47,29
0302,1527,74,30
0303,2142,57,22
0307,10086,202,124
0308,1501,28,25
0310,2752,57,71
0312,820,19,11
0313,3354,48,38
0317,675,16,3
0321,2806,60,51
0327,1736,30,23
0331,1089,28,10
0335,1014,21,8
0339,417,6,5
0340,1745,26,18
0342,2898,67,45
0344,22163,574,222
0345,5937,112,70
0351,1105,20,8
0352,1244,24,10
0353,2074,65,53
0355,3666,69,69
0356,3501,92,25
0358,1911,27,22
0361,6546,110,65
0362,5019,108,87
0363,64699,1603,686
0370,631,6,2
0373,1742,33,32
0375,2873,35,36
0376,673,11,6
0377,1122,13,16
0383,1916,23,20
0384,2311,37,30
0385,2945,74,14
0388,1545,28,11
0392,8764,171,140
0394,9373,156,99
0396,2775,52,28
0397,1300,22,57
0398,3673,54,33
0399,1167,20,12
0400,3416,41,29
0402,4769,66,75
0405,6247,77,50
0406,3069,52,52
0415,851,10,5
0416,1803,28,10
0417,746,16,26
0420,3907,44,23
0431,748,16,8
0432,948,6,4
0437,913,11,4
0439,5416,152,73
0441,3002,39,46
0448,339,6,4
0450,951,10,7
0451,1684,32,11
0453,4742,84,85
0457,1500,17,20
0473,898,17,41
0479,10997,262,151
0482,1674,31,18
0484,7958,157,109
0489,3518,85,42
0498,1612,15,11
0501,959,30,9
0502,4942,143,124
0503,6398,83,73
0505,9358,198,146
0512,2770,42,36
0513,5310,173,149
0518,36052,1163,525
0523,1895,11,22
0530,2128,45,39
0531,2318,32,29
0532,1859,27,15
0534,1230,15,17
0537,5982,93,54
0542,2578,45,66
0546,7062,108,63
0547,1517,34,21
0553,1394,25,17
0556,2341,57,31
0569,2078,33,20
0575,2688,58,19
0579,1377,20,29
0589,703,34,12
0590,2239,37,41
0597,3640,88,79
0599,51782,1545,813
0603,3327,103,70
0606,6340,188,102
0610,2352,26,40
0613,2061,38,19
0614,696,19,16
0622,5739,135,84
0626,1223,19,21
0627,2054,57,14
0629,1366,32,29
0632,3446,101,35
0637,7708,125,57
0638,548,7,1
0642,3565,63,84
0654,884,25,5
0664,1518,51,22
0668,1381,24,17
0677,1243,27,12
0678,521,10,6
0687,2061,52,20
0703,1442,25,9
0715,2657,80,25
0716,1533,55,22
0717,847,19,3
0718,1949,56,16
0736,2744,93,33
0737,1351,19,26
0743,1079,29,17
0744,339,12,4
0748,4499,81,38
0753,2119,51,29
0755,694,40,23
0756,2340,35,43
0757,2203,46,65
0758,10753,228,143
0762,2399,79,39
0765,622,16,9
0766,2105,42,24
0770,1579,42,24
0772,14543,362,303
0777,2610,63,37
0779,1556,26,24
0784,1649,30,19
0785,1576,39,35
0786,1019,29,24
0794,7151,181,77
0796,10344,207,152
0797,3198,71,46
0798,1191,19,20
0809,1830,42,35
0815,825,17,10
0820,1423,29,19
0823,1531,26,25
0824,2132,51,22
0826,3573,72,33
0828,6744,220,121
0840,1583,39,13
0845,2140,45,28
0847,1405,41,12
0848,985,39,26
0851,1457,29,18
0852,1285,28,15
0855,15013,360,271
0856,2410,125,80
0858,2407,44,52
0861,3394,66,45
0865,2309,68,53
0866,1026,14,11
0867,3504,65,76
0873,1309,18,24
0879,1146,33,17
0880,1060,33,32
0882,2485,83,59
0888,888,25,12
0889,805,25,11
0893,1160,17,11
0899,1635,72,46
0907,1305,27,18
0917,4781,194,117
0928,2630,114,94
0935,6509,262,188
0938,961,31,22
0944,460,11,11
0946,1672,42,17
0957,3744,79,40
0965,631,26,7
0971,1442,65,21
0981,480,18,13
0983,7790,182,138
0984,4097,58,42
0986,667,22,10
0988,4594,103,66
0994,849,30,18
0995,4055,120,58
1507,3786,55,59
1509,2446,36,41
1525,2666,33,22
1581,3004,66,65
1586,1962,29,38
1598,1794,18,20
1621,4516,82,60
1640,2654,67,47
1641,1681,38,32
1652,1833,90,37
1655,1999,47,25
1658,1130,21,13
1659,1651,54,35
1667,1159,22,8
1669,1223,37,28
1674,5355,93,68
1676,1190,30,21
1680,986,5,20
1681,1058,21,14
1684,1707,31,20
1685,1301,47,26
1690,1242,27,21
1695,313,9,5
1696,1386,22,15
1699,1043,19,24
1700,3261,36,28
1701,617,12,18
1702,824,22,11
1705,2545,56,26
1706,1831,74,49
1708,1849,21,18
1709,2205,39,36
1711,1952,57,30
1714,1060,38,18
1719,1561,38,25
1721,2418,105,74
1723,553,23,5
1724,1664,28,9
1728,2067,35,25
1729,841,30,19
1730,1059,15,20
1731,1423,27,25
1734,2303,70,29
1735,2582,30,27
1740,1995,58,32
1742,3537,49,46
1771,2891,68,25
1773,826,16,9
1774,2347,34,34
1783,9091,159,84
1842,1336,16,13
1859,2698,35,42
1876,2063,29,17
1883,5051,177,119
1884,1633,21,9
1891,996,8,15
1892,3195,96,44
1894,2941,158,74
1895,1948,35,30
1896,1470,44,25
1900,5105,48,78
1901,2852,59,34
1903,1527,68,43
1904,3986,99,61
1911,3007,41,29
1916,4456,118,79
1924,3006,112,72
1926,3676,53,33
1930,5534,132,90
1931,4298,112,61
1940,2071,40,29
1942,3511,50,30
1945,2125,49,45
1948,5513,246,162
1949,1785,23,33
1950,1690,33,20
1952,2595,42,34
1954,2060,76,42
1955,1938,34,22
1959,5041,80,65
1960,3961,79,56
1961,4216,90,63
1963,5183,122,55
1966,2370,23,20
1969,2125,33,22
1970,1963,33,33
1978,3549,41,27
1979,2079,37,12