0014,10366,75,36
0034,15877,293,93
0037,1960,17,16
0047,1452,8,10
0050,1300,20,13
0059,1734,16,36
0060,146,0,0
0072,531,7,3
0074,1932,28,35
0080,5566,81,65
0085,985,13,6
0086,1178,25,7
0088,42,1,2
0090,2461,29,32
0093,194,3,2
0096,45,0,0
0098,1212,11,27
0106,2724,45,14
0109,2337,49,27
0114,7036,116,67
0118,3632,63,40
0119,1697,22,24
0141,5958,87,54
0147,1936,28,36
0148,1754,24,19
0150,5917,81,82
0153,10610,195,164
0158,2221,32,32
0160,4533,52,37
0163,3419,38,49
0164,5752,65,65
0166,2665,73,42
0168,2156,44,32
0171,2585,30,27
0173,2589,50,43
0175,1159,14,15
0177,2809,37,39
0180,1720,14,18
0183,2237,19,18
0184,1951,44,12
0189,2576,18,27
0193,6011,83,101
0197,1751,21,19
0200,8894,183,139
0202,9539,165,120
0203,6067,45,56
0209,1673,33,17
0213,1038,29,16
0214,1817,37,17
0216,2049,43,22
0221,605,16,9
0222,3507,56,27
0225,1500,40,26
0226,1545,27,13
0228,9207,128,76
0230,1483,35,13
0232,2039,68,46
0233,1934,39,32
0243,3356,78,46
0244,629,19,7
0246,952,55,31
0252,1060,25,17
0262,1541,32,27
0263,2482,37,35
0267,3604,45,27
0268,10817,239,174
0269,1688,46,29
0273,1932,18,14
0274,1525,31,25
0275,2799,59,56
0277,78,1,0
0279,861,5,12
0281,3317,80,72
0285,1332,29,28
0289,2258,40,41
0293,875,19,8
0294,1435,15,15
0296,2879,71,51
0297,3020,37,41
0299,2369,73,46
0301,2145,47,29
0302,1662,77,30
0303,2282,58,22
0307,11038,213,129
0308,1688,31,25
0310,3007,61,72
0312,912,20,11
0313,3584,53,39
0317,734,18,4
0321,3031,63,51
0327,1870,32,23
0331,1249,32,10
0335,1124,23,8
0339,460,6,5
0340,1883,27,18
0342,3109,67,46
0344,24160,600,224
0345,6484,117,70
0351,1219,22,8
0352,1405,26,11
0353,2334,74,53
0355,3933,75,70
0356,3991,96,25
0358,2148,30,23
0361,7340,115,68
0362,5583,119,88
0363,69610,1683,710
0370,721,7,2
0373,1948,34,34
0375,3299,38,40
0376,762,11,6
0377,1251,13,16
0383,2293,24,21
0384,2451,39,30
0385,3664,78,16
0388,1671,28,11
0392,9807,177,142
0394,10495,163,101
0396,3127,57,30
0397,1438,22,57
0398,4201,56,33
0399,1270,20,13
0400,4116,50,32
0402,5141,72,77
0405,7149,85,53
0406,3288,53,52
0415,936,11,5
0416,2000,30,12
0417,793,16,26
0420,4449,50,25
0431,802,16,8
0432,1085,7,4
0437,993,13,4
0439,6169,162,79
0441,3417,45,50
0448,363,6,4
0450,1016,12,7
0451,1887,32,13
0453,5452,92,86
0457,1630,17,20
0473,998,18,42
0479,12146,266,161
0482,1895,34,21
0484,8718,162,111
0489,3991,87,44
0498,1780,18,12
0501,1064,30,9
0502,5692,152,130
0503,7093,88,74
0505,10438,221,157
0512,3087,44,36
0513,5736,185,149
0518,39159,1255,535
0523,2081,16,23
0530,2389,52,40
0531,2668,36,30
0532,2112,27,15
0534,1348,15,17
0537,6635,97,54
0542,2878,45,67
0546,7682,114,65
0547,1640,34,21
0553,1582,25,17
0556,2589,59,33
0569,2444,36,21
0575,3051,63,20
0579,1504,22,30
0589,799,35,12
0590,2557,41,43
0597,4116,94,82
0599,56589,1607,874
0603,3669,114,72
0606,7090,198,104
0610,2594,28,41
0613,2259,39,20
0614,784,18,16
0622,6407,147,88
0626,1373,19,21
0627,2263,62,14
0629,1479,34,30
0632,3846,113,38
0637,8459,141,62
0638,589,7,1
0642,3992,75,88
0654,1007,31,5
0664,1781,64,25
0668,1448,24,19
0677,1353,34,12
0678,618,9,6
0687,2458,61,23
0703,1765,32,15
0715,3023,99,27
0716,1738,58,23
0717,1006,25,6
0718,2338,95,28
0736,3018,94,33
0737,1514,20,27
0743,1181,30,17
0744,365,12,4
0748,5041,85,40
0753,2307,51,30
0755,725,40,23
0756,2508,35,43
0757,2465,48,67
0758,11578,230,143
0762,2613,82,41
0765,708,17,9
0766,2286,42,25
0770,1810,43,25
0772,16110,378,324
0777,2779,63,38
0779,1665,27,25
0784,1825,32,19
0785,1729,39,36
0786,1126,29,24
0794,7946,188,81
0796,11542,215,156
0797,3587,74,47
0798,1262,19,20
0809,2001,42,35
0815,921,17,10
0820,1563,31,20
0823,1731,27,26
0824,2338,53,22
0826,3820,75,34
0828,7534,227,125
0840,1718,41,15
0845,2343,47,31
0847,1621,42,13
0848,1107,39,27
0851,1642,31,18
0852,1441,31,15
0855,16767,366,272
0856,2820,128,84
0858,2655,48,58
0861,3868,72,47
0865,2467,69,53
0866,1141,16,13
0867,3813,65,76
0873,1475,19,24
0879,1221,34,17
0880,1230,34,33
0882,2611,86,63
0888,952,25,12
0889,927,26,11
0893,1203,18,11
0899,1837,73,47
0907,1359,28,19
0917,5181,203,118
0928,2910,115,95
0935,7044,274,191
0938,1014,31,22
0944,479,11,11
0946,1828,43,19
0957,4130,84,44
0965,670,26,7
0971,1598,66,21
0981,517,19,13
0983,8937,190,144
0984,4444,60,43
0986,725,23,11
0988,4829,104,68
0994,906,31,21
0995,4435,125,58
1507,4168,56,59
1509,2794,37,43
1525,2887,33,22
1581,3266,71,69
1586,2124,30,38
1598,2140,23,20
1621,4941,83,60
1640,2987,68,47
1641,1850,41,34
1652,2002,95,38
1655,2152,49,26
1658,1261,22,13
1659,1859,56,36
1667,1242,23,8
1669,1356,43,29
1674,5885,95,69
1676,1348,37,22
1680,1066,5,20
1681,1200,23,14
1684,1917,35,22
1685,1393,47,26
1690,1382,28,22
1695,372,13,9
1696,1496,22,16
1699,1253,22,25
1700,3496,36,29
1701,692,12,20
1702,893,24,11
1705,2868,56,26
1706,2003,74,49
1708,2164,23,22
1709,2418,40,37
1711,2122,59,31
1714,1127,41,18
1719,1713,40,25
1721,2671,107,78
1723,580,23,5
1724,1787,28,9
1728,2212,36,25
1729,877,30,19
1730,1197,17,20
1731,1547,27,28
1734,2457,71,29
1735,2785,32,28
1740,2184,60,32
1742,3716,49,47
1771,3245,69,26
1773,932,17,9
1774,2452,34,34
1783,10010,165,86
1842,1498,16,13
1859,2871,37,42
1876,2332,30,17
1883,5462,178,128
1884,1882,21,9
1891,1119,10,16
1892,3510,98,45
1894,3306,161,78
1895,2213,38,33
1896,1919,46,27
1900,5915,51,84
1901,3126,65,36
1903,1597,69,44
1904,4397,111,65
1911,3482,46,31
1916,4887,123,81
1924,3273,116,85
1926,4017,58,34
1930,6327,145,93
1931,4818,119,62
1940,2491,42,31
1942,3911,51,31
1945,2316,51,45
1948,6270,249,162
1949,2187,26,34
1950,1841,35,20
1952,2914,45,36
1954,2284,78,44
1955,2157,38,23
1959,5371,81,66
1960,4327,81,58
1961,4715,97,63
1963,6081,137,60
1966,2610,26,20
1969,2349,34,22
1970,2358,35,35
1978,4022,46,29
1979,2224,40,15