0014,26565,126,55
0034,32887,416,115
0037,3736,36,21
0047,2898,14,16
0050,2993,23,15
0059,4254,40,40
0060,326,3,1
0072,1503,13,7
0074,6457,51,42
0080,14384,135,82
0085,2723,22,6
0086,3687,33,9
0088,65,1,2
0090,7247,64,36
0093,542,3,2
0096,117,1,1
0098,3290,22,29
0106,6556,79,20
0109,4564,66,34
0114,14165,217,88
0118,7381,90,43
0119,3834,38,36
0141,11584,139,68
0147,3820,36,40
0148,3866,35,23
0150,13554,133,91
0153,23721,295,184
0158,4007,36,33
0160,9500,78,42
0163,6351,57,53
0164,12108,97,72
0166,7471,94,51
0168,3982,53,38
0171,6707,43,31
0173,5268,61,49
0175,2464,16,16
0177,5733,49,48
0180,4286,27,29
0183,4315,27,21
0184,4368,70,22
0189,4771,26,30
0193,16449,138,135
0197,3724,34,30
0200,22771,248,181
0202,22634,239,141
0203,13661,88,77
0209,3898,47,27
0213,2629,38,23
0214,4030,48,24
0216,4547,53,24
0221,1281,22,9
0222,8668,74,41
0225,3100,49,30
0226,3279,32,17
0228,20879,183,115
0230,3728,48,22
0232,4587,84,55
0233,4246,53,42
0243,7159,97,54
0244,1672,24,7
0246,2217,58,32
0252,2286,31,21
0262,3968,42,36
0263,4916,48,43
0267,7219,57,31
0268,27145,337,213
0269,4096,62,39
0273,4166,23,21
0274,3397,43,37
0275,5788,74,72
0277,189,1,0
0279,2126,7,12
0281,7043,100,78
0285,3250,33,31
0289,5388,53,55
0293,1956,30,10
0294,3589,25,22
0296,6301,92,66
0297,5801,54,48
0299,5595,96,50
0301,5953,65,39
0302,4828,92,41
0303,5074,75,28
0307,24539,285,146
0308,3987,36,29
0310,6080,87,79
0312,1931,27,14
0313,5623,63,39
0317,1568,21,6
0321,7744,81,53
0327,4098,43,26
0331,2611,41,12
0335,2399,34,9
0339,1161,10,5
0340,4142,48,21
0342,7060,85,50
0344,56478,823,274
0345,13579,154,84
0351,2705,24,9
0352,3151,39,18
0353,5367,93,58
0355,8943,105,78
0356,8821,153,32
0358,5677,47,29
0361,16255,161,87
0362,13021,158,107
0363,146965,2318,910
0370,1548,9,3
0373,3962,43,41
0375,6592,57,43
0376,1682,16,7
0377,3253,20,18
0383,5245,38,27
0384,5199,61,40
0385,7218,105,26
0388,2930,33,16
0392,23818,260,166
0394,23814,229,125
0396,6527,72,37
0397,3902,34,65
0398,9094,74,40
0399,3144,26,17
0400,8412,85,44
0402,12368,118,99
0405,12717,104,55
0406,6557,72,60
0415,1920,16,7
0416,4248,39,18
0417,1696,20,31
0420,7936,65,29
0431,1602,17,8
0432,2060,13,6
0437,2348,19,5
0439,12655,221,87
0441,6894,64,68
0448,1072,6,4
0450,2111,13,12
0451,4777,40,16
0453,10556,122,95
0457,3121,22,23
0473,2348,30,44
0479,25084,373,186
0482,4497,51,24
0484,18537,214,144
0489,8939,117,50
0498,3242,29,13
0501,2562,34,11
0502,12195,209,154
0503,15427,125,82
0505,22058,297,202
0512,6764,55,45
0513,12583,314,165
0518,85020,2034,602
0523,4573,23,30
0530,5802,84,47
0531,6096,47,37
0532,3545,34,16
0534,2974,24,21
0537,13315,130,69
0542,5680,53,77
0546,18751,159,81
0547,3775,39,28
0553,3584,35,22
0556,5550,76,37
0569,5467,50,25
0575,6881,74,25
0579,3355,23,32
0589,1528,40,12
0590,5660,49,49
0597,8732,130,100
0599,122343,2241,1016
0603,8313,153,77
0606,13920,269,123
0610,5723,37,47
0613,4841,54,23
0614,1857,27,19
0622,13060,204,104
0626,3255,28,24
0627,5467,82,18
0629,3337,45,34
0632,8552,154,44
0637,18637,205,72
0638,1400,11,1
0642,8122,94,114
0654,3225,49,9
0664,5609,124,33
0668,3125,25,19
0677,3720,54,13
0678,1878,20,6
0687,6935,96,32
0703,5026,69,18
0715,7456,158,32
0716,5031,79,32
0717,2799,39,9
0718,5874,155,35
0736,7146,128,43
0737,3922,36,32
0743,2865,37,18
0744,1014,15,4
0748,10817,112,49
0753,4774,60,33
0755,1773,46,23
0756,5780,50,53
0757,5622,57,71
0758,29494,294,173
0762,5931,100,50
0765,1442,26,13
0766,4488,50,26
0770,3377,54,32
0772,36019,506,378
0777,6474,78,40
0779,3580,36,26
0784,3951,46,20
0785,3995,47,41
0786,2234,34,24
0794,16269,215,89
0796,26881,290,186
0797,8000,96,52
0798,2409,21,20
0809,4182,55,41
0815,1946,17,11
0820,3231,35,24
0823,3262,33,27
0824,5153,61,24
0826,8918,107,42
0828,15697,259,134
0840,3432,53,18
0845,5026,55,43
0847,3574,50,15
0848,2352,43,29
0851,3575,42,21
0852,2706,35,18
0855,38829,466,292
0856,6642,146,90
0858,5050,65,68
0861,7163,92,52
0865,5206,82,53
0866,2603,27,17
0867,8374,87,78
0873,2931,26,26
0879,3114,46,17
0880,2464,40,35
0882,6944,124,84
0888,2833,39,15
0889,2575,37,14
0893,2618,28,19
0899,5321,116,61
0907,3285,32,31
0917,15034,290,148
0928,7645,164,103
0935,19705,403,235
0938,3136,65,40
0944,990,13,13
0946,3645,52,25
0957,10850,132,74
0965,1614,32,10
0971,4463,84,25
0981,1194,27,16
0983,22402,263,188
0984,9060,77,55
0986,2155,27,12
0988,10043,138,86
0994,2673,43,29
0995,11310,174,71
1507,9747,70,75
1509,6385,55,55
1525,6243,44,26
1581,6934,104,77
1586,4572,42,46
1598,3905,27,24
1621,11177,107,70
1640,6461,87,58
1641,4419,52,40
1652,4763,108,42
1655,4564,62,31
1658,2337,25,13
1659,3797,68,43
1667,2472,26,10
1669,3471,53,38
1674,12531,123,82
1676,4138,72,31
1680,2251,9,21
1681,2519,36,20
1684,4733,43,33
1685,2779,51,29
1690,3155,42,27
1695,903,23,10
1696,3595,30,23
1699,2971,36,26
1700,6326,50,33
1701,1775,19,23
1702,2060,29,11
1705,6736,77,43
1706,3913,83,57
1708,5410,37,30
1709,5579,62,52
1711,5572,77,43
1714,2597,55,22
1719,4231,57,31
1721,5723,118,81
1723,1505,26,5
1724,3238,30,14
1728,4040,44,30
1729,2205,38,21
1730,2800,29,26
1731,3317,43,32
1734,6414,87,36
1735,5979,40,35
1740,5951,81,49
1742,8435,64,64
1771,6490,85,31
1773,2158,21,10
1774,4708,39,37
1783,21581,216,93
1842,3300,19,14
1859,6292,51,50
1876,5203,46,27
1883,15572,261,155
1884,4016,27,11
1891,3076,33,18
1892,7815,135,48
1894,8255,175,89
1895,3912,52,39
1896,4277,64,32
1900,12753,102,95
1901,6851,90,39
1903,4228,104,55
1904,9912,160,72
1911,6567,56,36
1916,10632,188,99
1924,7429,141,93
1926,8936,85,41
1930,13818,210,102
1931,10144,163,66
1940,6938,70,37
1942,9106,68,43
1945,5423,64,57
1948,13472,276,177
1949,5212,53,39
1950,3674,42,24
1952,5952,66,41
1954,6406,111,65
1955,4949,54,29
1959,11404,110,73
1960,9578,103,66
1961,11011,147,79
1963,14322,171,74
1966,6219,46,30
1969,6378,42,32
1970,6880,80,48
1978,9565,62,42
1979,4364,55,27