0014,23714,120,51
0034,28619,394,114
0037,3246,33,21
0047,2531,13,11
0050,2485,22,14
0059,3522,34,39
0060,307,3,1
0072,1210,13,6
0074,5232,48,41
0080,11409,121,75
0085,2136,20,6
0086,2984,32,8
0088,51,1,2
0090,5628,57,35
0093,458,3,2
0096,104,1,0
0098,2679,21,29
0106,5467,74,15
0109,3981,63,33
0114,12410,201,85
0118,6357,88,42
0119,3237,35,33
0141,10139,129,63
0147,3304,33,40
0148,3260,31,22
0150,11977,127,91
0153,20389,284,179
0158,3449,35,33
0160,8053,70,39
0163,5440,54,52
0164,10258,95,71
0166,6140,86,48
0168,3556,52,38
0171,5269,40,29
0173,4597,59,45
0175,2087,16,16
0177,4962,48,47
0180,3971,24,28
0183,3853,27,21
0184,3877,66,20
0189,4118,26,30
0193,13548,129,129
0197,3195,33,28
0200,19507,230,167
0202,18993,228,131
0203,11836,84,69
0209,3316,44,24
0213,2198,37,22
0214,3491,44,21
0216,3936,52,23
0221,1101,22,9
0222,7423,69,34
0225,2620,48,29
0226,2805,31,16
0228,18226,177,104
0230,3238,44,19
0232,3940,82,54
0233,3574,51,39
0243,6079,94,50
0244,1329,23,7
0246,1862,57,32
0252,1926,31,19
0262,3215,41,31
0263,4442,45,42
0267,6177,57,30
0268,22737,313,208
0269,3627,59,36
0273,3572,23,21
0274,2901,42,33
0275,4827,71,67
0277,152,1,0
0279,1812,7,12
0281,6133,94,75
0285,2728,33,31
0289,4781,50,46
0293,1657,28,9
0294,3045,21,18
0296,5394,89,63
0297,5092,49,47
0299,4851,91,49
0301,4780,62,30
0302,4139,89,39
0303,4291,72,28
0307,20631,284,143
0308,3188,36,28
0310,5245,86,79
0312,1596,26,13
0313,4959,63,39
0317,1379,21,6
0321,6304,80,52
0327,3353,42,25
0331,2297,41,12
0335,2046,32,8
0339,1039,10,5
0340,3651,47,21
0342,5782,84,48
0344,49260,817,263
0345,11903,151,81
0351,2286,24,9
0352,2668,37,17
0353,4598,93,57
0355,7396,104,76
0356,7678,150,31
0358,4861,46,26
0361,13596,152,86
0362,11223,153,103
0363,132250,2255,881
0370,1284,9,3
0373,3347,41,40
0375,5645,50,42
0376,1444,14,6
0377,2616,19,17
0383,4434,35,24
0384,4618,61,39
0385,6294,101,25
0388,2492,32,14
0392,20024,251,158
0394,20673,215,120
0396,5422,67,34
0397,3246,33,65
0398,7745,71,38
0399,2602,24,17
0400,6801,80,42
0402,10363,111,94
0405,10991,101,55
0406,5714,70,57
0415,1680,14,7
0416,3563,38,17
0417,1439,19,30
0420,6915,62,28
0431,1384,17,8
0432,1783,13,6
0437,1996,20,5
0439,11199,210,87
0441,6007,62,62
0448,882,6,4
0450,1788,12,9
0451,4000,35,16
0453,9245,113,92
0457,2683,21,23
0473,1958,28,43
0479,21993,356,183
0482,3968,47,24
0484,15983,204,136
0489,7774,115,48
0498,2762,28,13
0501,2212,33,11
0502,10590,199,148
0503,13733,119,80
0505,18809,286,191
0512,5769,52,45
0513,10949,307,165
0518,75751,1955,586
0523,3968,22,27
0530,5051,81,45
0531,5210,45,35
0532,3128,31,15
0534,2544,23,20
0537,11599,124,65
0542,4923,52,74
0546,16723,155,79
0547,3291,39,28
0553,3135,33,18
0556,4898,74,35
0569,4742,48,25
0575,6007,73,25
0579,2933,23,32
0589,1406,39,12
0590,4826,48,47
0597,7812,124,96
0599,110466,2193,1006
0603,7025,149,77
0606,12342,260,123
0610,4846,34,44
0613,4160,53,23
0614,1598,26,19
0622,11548,196,99
0626,2809,27,24
0627,4546,80,17
0629,2873,43,32
0632,7311,153,44
0637,16207,200,70
0638,1190,11,1
0642,7001,94,103
0654,2483,46,9
0664,4396,109,31
0668,2730,25,19
0677,2793,47,13
0678,1535,18,6
0687,5380,88,31
0703,4357,64,17
0715,5829,146,31
0716,4126,76,30
0717,2241,36,7
0718,4674,142,35
0736,6042,128,40
0737,3213,30,31
0743,2274,34,18
0744,831,13,4
0748,9293,105,48
0753,4070,59,32
0755,1585,46,23
0756,4987,46,50
0757,4659,56,71
0758,24898,281,159
0762,5015,100,45
0765,1242,26,13
0766,3871,49,26
0770,3018,51,32
0772,31240,480,364
0777,5371,76,39
0779,3043,34,26
0784,3342,43,20
0785,3269,44,37
0786,1921,31,24
0794,14334,214,87
0796,22713,279,181
0797,6890,93,51
0798,2125,21,20
0809,3506,53,38
0815,1631,17,10
0820,2764,35,24
0823,2871,33,27
0824,4211,59,24
0826,7255,102,41
0828,13704,256,132
0840,2910,49,18
0845,4357,55,36
0847,3022,48,13
0848,1952,43,28
0851,3051,41,20
0852,2391,34,18
0855,33189,454,283
0856,5615,143,86
0858,4196,60,64
0861,6318,90,50
0865,4234,81,53
0866,2213,25,17
0867,7106,86,77
0873,2489,24,26
0879,2587,43,17
0880,2163,38,35
0882,5371,117,79
0888,2238,37,14
0889,2158,36,14
0893,2200,26,18
0899,4248,107,56
0907,2939,31,30
0917,11738,272,137
0928,6058,156,100
0935,15517,385,209
0938,2436,64,36
0944,854,13,12
0946,3046,51,22
0957,9095,128,67
0965,1285,30,9
0971,3524,81,24
0981,967,26,14
0983,18545,252,184
0984,7739,74,52
0986,1703,27,11
0988,8706,132,78
0994,2037,42,26
0995,9479,165,66
1507,8289,67,71
1509,5593,53,46
1525,5374,42,25
1581,5848,102,75
1586,4155,39,42
1598,3371,25,24
1621,9504,106,69
1640,5540,80,54
1641,3527,51,38
1652,4094,105,39
1655,4008,60,30
1658,2065,25,13
1659,3365,66,39
1667,2135,25,10
1669,2857,51,37
1674,10537,118,78
1676,3244,63,28
1680,1933,8,21
1681,2177,35,16
1684,3876,41,31
1685,2440,51,29
1690,2751,39,27
1695,738,23,9
1696,2929,30,21
1699,2439,34,25
1700,5504,45,33
1701,1460,18,23
1702,1772,29,11
1705,5432,71,39
1706,3403,80,54
1708,4527,34,27
1709,4739,50,47
1711,4465,70,40
1714,2015,51,22
1719,3451,52,30
1721,4948,115,78
1723,1260,25,5
1724,2761,29,12
1728,3483,40,28
1729,1806,38,20
1730,2313,28,25
1731,2757,41,32
1734,5471,80,30
1735,5074,39,32
1740,5229,73,44
1742,7164,59,60
1771,5630,82,29
1773,1890,21,10
1774,4287,39,36
1783,18848,211,89
1842,2854,19,14
1859,5264,46,47
1876,4434,44,24
1883,12843,246,150
1884,3560,26,10
1891,2542,25,18
1892,6784,129,47
1894,6923,171,87
1895,3431,48,39
1896,3893,63,31
1900,10766,92,93
1901,5990,87,38
1903,3229,99,51
1904,8450,159,71
1911,5583,55,34
1916,9287,179,92
1924,6573,137,92
1926,7637,82,40
1930,12037,199,100
1931,8982,161,65
1940,5664,64,36
1942,7641,67,40
1945,4531,62,53
1948,11789,272,171
1949,4228,46,37
1950,3200,38,22
1952,5207,60,40
1954,5263,108,57
1955,4292,51,27
1959,9886,99,72
1960,8245,97,62
1961,9247,143,78
1963,12459,166,69
1966,5241,41,21
1969,5338,40,29
1970,5746,73,46
1978,8301,60,39
1979,3786,54,24