"Category";"Meldingen";"Meldingen per 100000";"Zkh opname";"Zkh opname per 100000";"Overleden";"Overleden per 100000"
"'s-Hertogenbosch";512;332,00;126;81,70;77;49,90
"Aa en Hunze";14;55,10;1;3,90;0;0,00
"Aalsmeer";42;132,40;9;28,40;4;12,60
"Aalten";60;222,10;9;33,30;7;25,90
"Achtkarspelen";11;39,50;0;0,00;0;0,00
"Alblasserdam";42;209,30;10;49,80;4;19,90
"Albrandswaard";103;407,60;14;55,40;8;31,70
"Alkmaar";245;225,70;54;49,70;31;28,60
"Almelo";92;126,30;23;31,60;9;12,40
"Almere";449;216,00;125;60,10;31;14,90
"Alphen aan den Rijn";216;194,60;62;55,90;25;22,50
"Alphen-Chaam";47;463,10;18;177,40;5;49,30
"Altena";130;234,70;32;57,80;11;19,90
"Ameland";0;0,00;0;0,00;0;0,00
"Amersfoort";226;144,60;59;37,80;23;14,70
"Amstelveen";325;357,80;58;63,80;35;38,50
"Amsterdam";2635;305,30;619;71,70;284;32,90
"Apeldoorn";451;277,60;92;56,60;50;30,80
"Appingedam";5;42,70;3;25,60;0;0,00
"Arnhem";402;252,40;67;42,10;31;19,50
"Assen";46;67,70;12;17,70;2;2,90
"Asten";77;460,80;18;107,70;12;71,80
"Baarle-Nassau";25;365,10;9;131,40;2;29,20
"Baarn";62;250,30;11;44,40;9;36,30
"Barendrecht";142;291,70;40;82,20;12;24,70
"Barneveld";133;229,40;18;31,10;6;10,40
"Beek";44;276,20;16;100,40;6;37,70
"Beekdaelen";172;481,40;52;145,50;23;64,40
"Beemster";14;143,60;4;41,00;1;10,30
"Beesel";44;325,50;20;147,90;8;59,20
"Berg en Dal";179;514,40;29;83,30;16;46,00
"Bergeijk";58;313,70;19;102,80;5;27,00
"Bergen (L.)";25;190,30;7;53,30;2;15,20
"Bergen (NH.)";86;286,90;16;53,40;4;13,30
"Bergen op Zoom";172;257,40;24;35,90;12;18,00
"Berkelland";97;220,90;13;29,60;7;15,90
"Bernheze";279;905,70;96;311,60;65;211,00
"Best";79;264,90;31;104,00;10;33,50
"Beuningen";74;285,90;19;73,40;5;19,30
"Beverwijk";82;199,10;15;36,40;10;24,30
"Bladel";75;371,70;21;104,10;8;39,70
"Blaricum";29;258,90;8;71,40;2;17,90
"Bloemendaal";52;222,10;7;29,90;5;21,40
"Bodegraven-Reeuwijk";58;168,30;7;20,30;1;2,90
"Boekel";89;840,60;35;330,60;21;198,30
"Borger-Odoorn";9;35,50;4;15,80;3;11,80
"Borne";50;215,40;14;60,30;6;25,90
"Borsele";27;118,40;5;21,90;0;0,00
"Boxmeer";126;433,50;20;68,80;27;92,90
"Boxtel";128;416,30;24;78,10;26;84,60
"Breda";497;270,30;145;78,90;63;34,30
"Brielle";33;192,10;11;64,00;0;0,00
"Bronckhorst";74;204,40;17;46,90;7;19,30
"Brummen";36;173,90;17;82,10;5;24,20
"Brunssum";109;387,90;44;156,60;18;64,10
"Bunnik";45;296,20;9;59,20;1;6,60
"Bunschoten";65;301,30;9;41,70;7;32,40
"Buren";63;237,10;17;64,00;8;30,10
"Capelle aan den IJssel";303;453,50;53;79,30;53;79,30
"Castricum";80;223,60;15;41,90;9;25,20
"Coevorden";57;160,60;13;36,60;2;5,60
"Cranendonck";173;846,40;63;308,20;36;176,10
"Cuijk";78;312,90;12;48,10;10;40,10
"Culemborg";70;245,10;21;73,50;7;24,50
"Dalfsen";79;277,20;16;56,10;6;21,10
"Dantumadiel";6;31,70;2;10,60;0;0,00
"De Bilt";179;418,00;27;63,00;24;56,00
"De Fryske Marren";70;136,10;16;31,10;5;9,70
"De Ronde Venen";103;233,80;39;88,50;13;29,50
"De Wolden";48;199,10;11;45,60;5;20,70
"Delft";148;143,50;38;36,80;12;11,60
"Delfzijl";18;72,80;6;24,30;0;0,00
"Den Helder";39;70,10;12;21,60;2;3,60
"Deurne";190;587,10;55;170,00;24;74,20
"Deventer";311;311,10;47;47,00;33;33,00
"Diemen";105;359,60;17;58,20;14;48,00
"Dinkelland";73;277,00;20;75,90;10;38,00
"Doesburg";32;287,00;9;80,70;6;53,80
"Doetinchem";103;179,00;26;45,20;15;26,10
"Dongen";83;318,60;20;76,80;13;49,90
"Dordrecht";534;450,00;84;70,80;61;51,40
"Drechterland";46;234,70;4;20,40;8;40,80
"Drimmelen";67;246,80;18;66,30;8;29,50
"Dronten";122;298,90;30;73,50;12;29,40
"Druten";115;611,80;25;133,00;8;42,60
"Duiven";52;205,30;14;55,30;6;23,70
"Echt-Susteren";93;294,00;39;123,30;16;50,60
"Edam-Volendam";125;346,30;25;69,30;3;8,30
"Ede";221;191,00;54;46,70;20;17,30
"Eemnes";17;186,50;2;21,90;1;11,00
"Eersel";68;355,80;26;136,10;10;52,30
"Eijsden-Margraten";171;666,50;54;210,50;27;105,20
"Eindhoven";536;231,40;182;78,60;84;36,30
"Elburg";149;645,40;28;121,30;8;34,70
"Emmen";104;97,10;20;18,70;11;10,30
"Enkhuizen";30;162,10;18;97,30;4;21,60
"Enschede";238;149,70;53;33,30;25;15,70
"Epe";138;416,40;47;141,80;23;69,40
"Ermelo";148;551,00;33;122,90;22;81,90
"Etten-Leur";203;463,70;40;91,40;30;68,50
"Geertruidenberg";43;199,90;11;51,10;6;27,90
"Geldrop-Mierlo";110;277,80;33;83,30;16;40,40
"Gemert-Bakel";203;666,70;79;259,50;31;101,80
"Gennep";58;339,80;16;93,70;10;58,60
"Gilze en Rijen";79;298,90;20;75,70;15;56,80
"Goeree-Overflakkee";263;530,10;54;108,80;34;68,50
"Goes";71;188,60;11;29,20;11;29,20
"Goirle";78;327,80;32;134,50;17;71,40
"Gooise Meren";113;195,80;23;39,90;9;15,60
"Gorinchem";151;411,60;18;49,10;15;40,90
"Gouda";258;352,60;40;54,70;41;56,00
"Grave";72;576,80;21;168,20;11;88,10
"Groningen";172;74,40;18;7,80;3;1,30
"Gulpen-Wittem";78;547,50;21;147,40;14;98,30
"Haaksbergen";55;226,60;14;57,70;7;28,80
"Haaren";54;380,40;18;126,80;8;56,40
"Haarlem";291;180,40;61;37,80;57;35,30
"Haarlemmermeer";281;182,20;68;44,10;27;17,50
"Halderberge";58;192,10;14;46,40;7;23,20
"Hardenberg";170;280,60;23;38,00;8;13,20
"Harderwijk";180;378,30;43;90,40;21;44,10
"Hardinxveld-Giessendam";33;182,80;2;11,10;2;11,10
"Harlingen";17;107,90;4;25,40;1;6,30
"Hattem";42;345,00;16;131,40;5;41,10
"Heemskerk";91;232,40;28;71,50;10;25,50
"Heemstede";93;340,80;11;40,30;32;117,30
"Heerde";192;1035,30;54;291,20;28;151,00
"Heerenveen";93;185,00;13;25,90;20;39,80
"Heerhugowaard";147;259,10;27;47,60;9;15,90
"Heerlen";385;443,40;125;144,00;54;62,20
"Heeze-Leende";70;438,50;16;100,20;8;50,10
"Heiloo";48;204,60;9;38,40;8;34,10
"Hellendoorn";95;265,30;8;22,30;12;33,50
"Hellevoetsluis";72;179,80;16;40,00;3;7,50
"Helmond";415;453,40;115;125,70;42;45,90
"Hendrik-Ido-Ambacht";70;226,10;10;32,30;6;19,40
"Hengelo";128;158,60;21;26,00;19;23,50
"Het Hogeland";34;71,00;7;14,60;3;6,30
"Heumen";74;448,90;17;103,10;9;54,60
"Heusden";143;324,00;44;99,70;22;49,80
"Hillegom";34;154,80;8;36,40;2;9,10
"Hilvarenbeek";49;319,60;9;58,70;6;39,10
"Hilversum";200;221,60;32;35,50;25;27,70
"Hoeksche Waard";310;357,70;76;87,70;20;23,10
"Hof van Twente";63;180,30;15;42,90;4;11,40
"Hollands Kroon";62;129,70;26;54,40;6;12,50
"Hoogeveen";93;167,10;19;34,10;8;14,40
"Hoorn";96;131,50;35;47,90;12;16,40
"Horst aan de Maas";136;321,60;41;96,90;24;56,70
"Houten";139;278,50;24;48,10;14;28,00
"Huizen";138;334,40;23;55,70;10;24,20
"Hulst";31;112,60;9;32,70;5;18,20
"IJsselstein";152;445,00;36;105,40;34;99,50
"Kaag en Braassem";30;111,70;6;22,30;2;7,40
"Kampen";342;635,90;59;109,70;26;48,30
"Kapelle";24;187,70;3;23,50;1;7,80
"Katwijk";272;416,50;31;47,50;15;23,00
"Kerkrade";208;455,70;64;140,20;35;76,70
"Koggenland";36;158,30;6;26,40;6;26,40
"Krimpen aan den IJssel";82;279,10;10;34,00;8;27,20
"Krimpenerwaard";192;342,60;45;80,30;33;58,90
"Laarbeek";125;559,70;41;183,60;26;116,40
"Landerd";147;946,60;39;251,10;21;135,20
"Landgraaf";144;383,10;52;138,30;13;34,60
"Landsmeer";23;200,20;3;26,10;3;26,10
"Langedijk";45;160,80;16;57,20;4;14,30
"Lansingerland";189;306,80;42;68,20;25;40,60
"Laren";26;232,20;8;71,50;2;17,90
"Leeuwarden";65;52,80;33;26,80;6;4,90
"Leiden";174;139,30;39;31,20;18;14,40
"Leiderdorp";38;140,20;13;48,00;6;22,10
"Leidschendam-Voorburg";135;179,00;20;26,50;15;19,90
"Lelystad";192;246,50;64;82,20;29;37,20
"Leudal";188;526,90;52;145,70;32;89,70
"Leusden";53;176,50;9;30,00;5;16,70
"Lingewaard";131;281,90;31;66,70;10;21,50
"Lisse";27;118,40;8;35,10;2;8,80
"Lochem";96;285,80;14;41,70;15;44,70
"Loon op Zand";60;257,20;24;102,90;7;30,00
"Lopik";65;449,10;19;131,30;8;55,30
"Loppersum";2;20,80;0;0,00;0;0,00
"Losser";25;110,50;7;30,90;0;0,00
"Maasdriel";52;210,60;15;60,70;7;28,30
"Maasgouw";105;442,70;27;113,80;14;59,00
"Maassluis";68;207,50;20;61,00;4;12,20
"Maastricht";913;751,00;187;153,80;139;114,30
"Medemblik";74;165,10;19;42,40;6;13,40
"Meerssen";115;607,70;22;116,30;13;68,70
"Meierijstad";550;680,60;211;261,10;131;162,10
"Meppel";46;137,10;8;23,80;5;14,90
"Middelburg";59;121,50;18;37,10;10;20,60
"Midden-Delfland";21;108,30;4;20,60;0;0,00
"Midden-Drenthe";22;66,30;6;18,10;0;0,00
"Midden-Groningen";32;52,50;6;9,90;3;4,90
"Mill en Sint Hubert";40;367,30;9;82,60;5;45,90
"Moerdijk";83;224,60;14;37,90;8;21,60
"Molenlanden";122;278,20;18;41,00;8;18,20
"Montferland";105;291,50;21;58,30;9;25,00
"Montfoort";45;321,50;13;92,90;5;35,70
"Mook en Middelaar";39;499,60;6;76,90;5;64,10
"Neder-Betuwe";141;586,70;36;149,80;21;87,40
"Nederweert";53;311,70;31;182,30;7;41,20
"Nieuwegein";155;245,90;44;69,80;14;22,20
"Nieuwkoop";51;178,10;9;31,40;5;17,50
"Nijkerk";62;144,40;22;51,20;3;7,00
"Nijmegen";654;370,10;128;72,40;70;39,60
"Nissewaard";184;217,00;55;64,90;17;20,00
"Noardeast-Fryslân";27;59,80;6;13,30;4;8,90
"Noord-Beveland";10;136,80;1;13,70;0;0,00
"Noordenveld";21;67,10;4;12,80;1;3,20
"Noordoostpolder";81;172,90;14;29,90;10;21,30
"Noordwijk";52;121,30;19;44,30;3;7,00
"Nuenen, Gerwen en Nederwetten";55;237,20;18;77,60;9;38,80
"Nunspeet";224;815,10;56;203,80;21;76,40
"Oegstgeest";46;188,30;8;32,80;3;12,30
"Oirschot";64;343,70;13;69,80;9;48,30
"Oisterwijk";75;286,90;23;88,00;11;42,10
"Oldambt";13;34,10;7;18,40;2;5,20
"Oldebroek";171;724,60;40;169,50;19;80,50
"Oldenzaal";50;157,00;14;44,00;7;22,00
"Olst-Wijhe";51;282,20;12;66,40;8;44,30
"Ommen";53;297,50;9;50,50;2;11,20
"Oost Gelre";72;242,40;17;57,20;6;20,20
"Oosterhout";131;235,50;48;86,30;17;30,60
"Ooststellingwerf";7;27,50;3;11,80;0;0,00
"Oostzaan";26;266,50;11;112,70;2;20,50
"Opmeer";8;67,90;1;8,50;1;8,50
"Opsterland";23;77,40;7;23,60;0;0,00
"Oss";491;536,90;164;179,30;87;95,10
"Oude IJsselstreek";78;197,60;21;53,20;9;22,80
"Ouder-Amstel";38;273,10;5;35,90;0;0,00
"Oudewater";58;568,60;26;254,90;8;78,40
"Overbetuwe";136;286,10;57;119,90;16;33,70
"Papendrecht";78;241,60;9;27,90;7;21,70
"Peel en Maas";278;641,90;144;332,50;64;147,80
"Pekela";5;40,90;4;32,70;0;0,00
"Pijnacker-Nootdorp";123;226,40;24;44,20;16;29,40
"Purmerend";225;280,80;66;82,40;35;43,70
"Putten";35;144,60;10;41,30;0;0,00
"Raalte";155;413,20;24;64,00;17;45,30
"Reimerswaal";32;141,10;4;17,60;2;8,80
"Renkum";78;249,20;14;44,70;7;22,40
"Renswoude";19;361,30;5;95,10;5;95,10
"Reusel-De Mierden";23;176,10;11;84,20;2;15,30
"Rheden";144;330,00;34;77,90;14;32,10
"Rhenen";48;240,00;11;55,00;6;30,00
"Ridderkerk";152;328,70;37;80,00;16;34,60
"Rijssen-Holten";205;535,20;30;78,30;22;57,40
"Rijswijk";140;261,80;36;67,30;22;41,10
"Roerdalen";49;237,70;28;135,80;8;38,80
"Roermond";135;231,90;59;101,40;23;39,50
"Roosendaal";221;286,90;28;36,30;21;27,30
"Rotterdam";2639;409,40;516;80,00;346;53,70
"Rozendaal";3;181,40;1;60,50;0;0,00
"Rucphen";69;305,70;9;39,90;9;39,90
"s-Gravenhage";1746;324,60;338;62,80;237;44,10
"Schagen";74;159,00;19;40,80;10;21,50
"Scherpenzeel";33;334,20;4;40,50;2;20,30
"Schiedam";252;323,10;57;73,10;23;29,50
"Schiermonnikoog";0;0,00;0;0,00;0;0,00
"Schouwen-Duiveland";94;278,30;11;32,60;8;23,70
"Simpelveld";47;446,90;19;180,70;5;47,50
"Sint Anthonis";68;585,90;20;172,30;11;94,80
"Sint-Michielsgestel";118;407,00;36;124,20;19;65,50
"Sittard-Geleen";411;443,60;115;124,10;63;68,00
"Sliedrecht";67;267,70;9;36,00;5;20,00
"Sluis";17;72,70;8;34,20;4;17,10
"Smallingerland";56;100,10;9;16,10;5;8,90
"Soest";94;203,50;23;49,80;12;26,00
"Someren";106;548,60;33;170,80;8;41,40
"Son en Breugel";74;437,80;31;183,40;14;82,80
"Stadskanaal";9;28,30;2;6,30;2;6,30
"Staphorst";59;347,00;8;47,10;4;23,50
"Stede Broec";49;225,70;19;87,50;5;23,00
"Steenbergen";86;343,30;13;51,90;13;51,90
"Steenwijkerland";87;198,00;14;31,90;5;11,40
"Stein";117;468,70;43;172,30;15;60,10
"Stichtse Vecht";124;192,70;34;52,80;13;20,20
"Súdwest-Fryslân";106;118,20;18;20,10;4;4,50
"Terneuzen";119;218,00;25;45,80;4;7,30
"Terschelling";2;40,90;0;0,00;0;0,00
"Texel";11;81,20;5;36,90;2;14,80
"Teylingen";64;172,70;14;37,80;2;5,40
"Tholen";168;651,70;40;155,20;16;62,10
"Tiel";149;354,90;42;100,10;18;42,90
"Tilburg";820;377,40;249;114,60;162;74,60
"Tubbergen";81;380,70;12;56,40;5;23,50
"Twenterand";61;180,50;12;35,50;2;5,90
"Tynaarlo";40;118,70;9;26,70;0;0,00
"Tytsjerksteradiel";16;50,30;4;12,60;1;3,10
"Uden";263;629,50;115;275,20;63;150,80
"Uitgeest";23;170,00;5;37,00;1;7,40
"Uithoorn";58;197,10;16;54,40;2;6,80
"Urk";84;404,30;22;105,90;4;19,30
"Utrecht";1265;358,50;265;75,10;116;32,90
"Utrechtse Heuvelrug";121;244,40;28;56,50;14;28,30
"Vaals";30;297,30;10;99,10;1;9,90
"Valkenburg aan de Geul";87;528,20;19;115,40;7;42,50
"Valkenswaard";180;582,30;19;61,50;37;119,70
"Veendam";8;29,10;2;7,30;0;0,00
"Veenendaal";196;298,80;47;71,70;10;15,20
"Veere";27;123,70;6;27,50;2;9,20
"Veldhoven";129;284,50;31;68,40;16;35,30
"Velsen";283;414,10;32;46,80;39;57,10
"Venlo";309;304,10;129;127,00;63;62,00
"Venray";126;290,80;37;85,40;17;39,20
"Vijfheerenlanden";274;491,80;34;61,00;37;66,40
"Vlaardingen";290;400,50;43;59,40;29;40,10
"Vlieland";0;0,00;0;0,00;0;0,00
"Vlissingen";51;114,90;9;20,30;5;11,30
"Voerendaal";47;377,40;17;136,50;8;64,20
"Voorschoten";65;255,10;9;35,30;11;43,20
"Voorst";69;282,60;18;73,70;11;45,10
"Vught";106;401,60;42;159,10;18;68,20
"Waadhoeke";102;221,60;12;26,10;15;32,60
"Waalre";30;173,90;7;40,60;5;29,00
"Waalwijk";186;385,60;36;74,60;36;74,60
"Waddinxveen";77;271,90;16;56,50;7;24,70
"Wageningen";52;134,10;20;51,60;9;23,20
"Wassenaar";53;202,20;9;34,30;12;45,80
"Waterland";33;190,60;16;92,40;4;23,10
"Weert";140;280,90;67;134,40;14;28,10
"Weesp";81;419,00;9;46,60;11;56,90
"West Betuwe";211;416,20;43;84,80;27;53,30
"West Maas en Waal";83;435,10;19;99,60;9;47,20
"Westerkwartier";58;92,00;14;22,20;4;6,30
"Westerveld";33;170,60;9;46,50;4;20,70
"Westervoort";39;261,00;12;80,30;5;33,50
"Westerwolde";6;23,80;5;19,80;0;0,00
"Westland";278;256,00;57;52,50;30;27,60
"Weststellingwerf";29;112,20;3;11,60;4;15,50
"Westvoorne";25;170,90;6;41,00;0;0,00
"Wierden";49;201,20;5;20,50;6;24,60
"Wijchen";145;354,10;43;105,00;13;31,70
"Wijdemeren";32;133,30;8;33,30;0;0,00
"Wijk bij Duurstede";40;168,30;10;42,10;1;4,20
"Winterswijk";48;166,10;7;24,20;3;10,40
"Woensdrecht";67;306,40;5;22,90;7;32,00
"Woerden";175;335,30;49;93,90;20;38,30
"Wormerland";47;287,80;20;122,50;6;36,70
"Woudenberg";32;243,10;9;68,40;2;15,20
"Zaanstad";449;288,00;117;75,10;48;30,80
"Zaltbommel";99;348,00;20;70,30;9;31,60
"Zandvoort";32;188,10;10;58,80;8;47,00
"Zeewolde";48;215,20;12;53,80;5;22,40
"Zeist";212;331,60;37;57,90;23;36,00
"Zevenaar";118;271,30;44;101,20;15;34,50
"Zoetermeer";228;182,50;52;41,60;13;10,40
"Zoeterwoude";13;153,80;3;35,50;1;11,80
"Zuidplas";150;350,80;24;56,10;21;49,10
"Zundert";103;476,60;24;111,00;11;50,90
"Zutphen";103;216,30;31;65,10;13;27,30
"Zwartewaterland";146;648,80;35;155,50;19;84,40
"Zwijndrecht";161;360,70;23;51,50;27;60,50
"Zwolle";359;281,60;53;41,60;46;36,10