"Category";"Meldingen";"Meldingen per 100000";"Zkh opname";"Zkh opname per 100000";"Overleden";"Overleden per 100000"
"'s-Hertogenbosch";5086;3273,20;170;109,40;108;69,50
"Aa en Hunze";342;1347,30;1;3,90;1;3,90
"Aalsmeer";1099;3447,10;18;56,50;20;62,70
"Aalten";651;2402,80;14;51,70;12;44,30
"Achtkarspelen";318;1141,80;1;3,60;0;0,00
"Alblasserdam";948;4704,70;15;74,40;13;64,50
"Albrandswaard";1288;5020,50;31;120,80;16;62,40
"Alkmaar";2838;2589,70;80;73,00;42;38,30
"Almelo";2730;3733,00;42;57,40;25;34,20
"Almere";6799;3200,90;185;87,10;50;23,50
"Alphen aan den Rijn";4155;3463,90;109;90,90;56;46,70
"Alphen-Chaam";351;3429,70;20;195,40;5;48,90
"Altena";2231;3986,30;50;89,30;40;71,50
"Ameland";47;1258,70;0;0,00;0;0,00
"Amersfoort";5008;3183,50;129;82,00;61;38,80
"Amstelveen";3101;3379,20;88;95,90;66;71,90
"Amsterdam";41555;4753,10;1207;138,10;430;49,20
"Apeldoorn";3510;2142,20;134;81,80;67;40,90
"Appingedam";134;1151,70;8;68,80;1;8,60
"Arnhem";4487;2776,70;115;71,20;73;45,20
"Assen";1078;1568,20;22;32,00;8;11,60
"Asten";503;3009,50;21;125,60;14;83,80
"Baarle-Nassau";212;3081,80;12;174,40;4;58,10
"Baarn";712;2863,20;24;96,50;19;76,40
"Barendrecht";2171;4458,70;70;143,80;32;65,70
"Barneveld";1951;3289,60;31;52,30;18;30,40
"Beek";347;2186,80;18;113,40;10;63,00
"Beekdaelen";776;2158,40;55;153,00;28;77,90
"Beemster";228;2278,40;4;40,00;2;20,00
"Beesel";308;2285,40;23;170,70;9;66,80
"Berg en Dal";1311;3743,70;43;122,80;34;97,10
"Bergeijk";772;4139,40;22;118,00;6;32,20
"Bergen (L.)";335;2561,20;12;91,70;3;22,90
"Bergen (NH.)";859;2877,80;25;83,80;25;83,80
"Bergen op Zoom";2973;4398,60;63;93,20;28;41,40
"Berkelland";1273;2909,00;27;61,70;29;66,30
"Bernheze";1179;3766,70;101;322,70;67;214,10
"Best";822;2738,50;39;129,90;13;43,30
"Beuningen";714;2753,20;24;92,50;10;38,60
"Beverwijk";1251;3006,50;23;55,30;15;36,00
"Bladel";1073;5254,10;25;122,40;13;63,70
"Blaricum";341;2944,50;8;69,10;2;17,30
"Bloemendaal";555;2358,00;10;42,50;6;25,50
"Bodegraven-Reeuwijk";1266;3623,60;28;80,10;12;34,30
"Boekel";288;2673,10;36;334,10;20;185,60
"Borger-Odoorn";454;1776,70;9;35,20;9;35,20
"Borne";691;2957,00;18;77,00;6;25,70
"Borsele";289;1270,80;7;30,80;2;8,80
"Boxmeer";862;2931,70;25;85,00;34;115,60
"Boxtel";948;3075,90;32;103,80;30;97,30
"Breda";6320;3431,30;202;109,70;108;58,60
"Brielle";539;3121,60;23;133,20;4;23,20
"Bronckhorst";943;2619,00;20;55,50;8;22,20
"Brummen";396;1905,30;22;105,90;7;33,70
"Brunssum";553;1988,90;54;194,20;21;75,50
"Bunnik";447;2937,70;15;98,60;10;65,70
"Bunschoten";1330;6075,60;33;150,70;12;54,80
"Buren";694;2589,80;27;100,80;12;44,80
"Capelle aan den IJssel";2914;4335,20;96;142,80;86;127,90
"Castricum";865;2401,60;18;50,00;12;33,30
"Coevorden";625;1770,20;22;62,30;7;19,80
"Cranendonck";826;3892,70;65;306,30;37;174,40
"Cuijk";793;3152,50;20;79,50;15;59,60
"Culemborg";951;3276,90;34;117,20;11;37,90
"Dalfsen";712;2482,10;18;62,80;9;31,40
"Dantumadiel";237;1253,40;2;10,60;0;0,00
"De Bilt";1414;3279,80;38;88,10;32;74,20
"De Fryske Marren";754;1461,00;26;50,40;11;21,30
"De Ronde Venen";1427;3206,80;70;157,30;22;49,40
"De Wolden";416;1708,40;16;65,70;6;24,60
"Delft";3951;3816,10;67;64,70;37;35,70
"Delfzijl";298;1208,50;9;36,50;1;4,10
"Den Helder";867;1538,40;19;33,70;8;14,20
"Deurne";1163;3585,30;64;197,30;32;98,60
"Deventer";2578;2555,20;56;55,50;52;51,50
"Diemen";1421;4551,60;28;89,70;20;64,10
"Dinkelland";1141;4313,30;24;90,70;18;68,00
"Doesburg";265;2396,50;12;108,50;7;63,30
"Doetinchem";1336;2300,90;40;68,90;19;32,70
"Dongen";1035;3935,80;38;144,50;19;72,30
"Dordrecht";5258;4403,20;107;89,60;105;87,90
"Drechterland";506;2564,40;7;35,50;8;40,50
"Drimmelen";806;2960,10;30;110,20;13;47,70
"Dronten";777;1865,30;43;103,20;16;38,40
"Druten";508;2683,90;29;153,20;17;89,80
"Duiven";731;2915,60;18;71,80;8;31,90
"Echt-Susteren";521;1647,10;44;139,10;20;63,20
"Edam-Volendam";1378;3811,10;55;152,10;9;24,90
"Ede";3519;3006,60;89;76,00;46;39,30
"Eemnes";277;2989,10;6;64,70;1;10,80
"Eersel";826;4274,30;36;186,30;18;93,10
"Eijsden-Margraten";696;2701,20;62;240,60;31;120,30
"Eindhoven";6967;2966,60;247;105,20;139;59,20
"Elburg";586;2522,70;31;133,50;11;47,40
"Emmen";2364;2209,80;56;52,30;31;29,00
"Enkhuizen";469;2514,20;20;107,20;5;26,80
"Enschede";5172;3240,50;100;62,70;68;42,60
"Epe";693;2088,50;55;165,80;25;75,30
"Ermelo";685;2537,80;33;122,30;25;92,60
"Etten-Leur";1491;3398,10;58;132,20;31;70,70
"Geertruidenberg";647;2997,30;19;88,00;7;32,40
"Geldrop-Mierlo";1264;3176,00;44;110,60;19;47,70
"Gemert-Bakel";864;2810,60;80;260,20;34;110,60
"Gennep";490;2893,80;18;106,30;15;88,60
"Gilze en Rijen";932;3504,00;29;109,00;18;67,70
"Goeree-Overflakkee";1613;3216,50;74;147,60;47;93,70
"Goes";669;1750,60;24;62,80;14;36,60
"Goirle";852;3562,30;36;150,50;23;96,20
"Gooise Meren";1689;2907,90;36;62,00;20;34,40
"Gorinchem";1428;3847,10;20;53,90;22;59,30
"Gouda";3140;4273,00;103;140,20;86;117,00
"Grave";499;4001,30;28;224,50;23;184,40
"Groningen";4584;1967,50;37;15,90;8;3,40
"Gulpen-Wittem";362;2558,10;27;190,80;16;113,10
"Haaksbergen";913;3760,00;22;90,60;23;94,70
"Haaren";526;3664,50;22;153,30;10;69,70
"Haarlem";4486;2750,30;131;80,30;98;60,10
"Haarlemmermeer";5060;3236,20;114;72,90;46;29,40
"Halderberge";1064;3515,30;33;109,00;16;52,90
"Hardenberg";1239;2032,10;31;50,80;16;26,20
"Harderwijk";1214;2494,60;54;111,00;22;45,20
"Hardinxveld-Giessendam";733;3998,00;2;10,90;7;38,20
"Harlingen";159;1012,70;5;31,80;2;12,70
"Hattem";249;2037,00;18;147,30;5;40,90
"Heemskerk";1231;3140,40;40;102,00;22;56,10
"Heemstede";711;2605,60;18;66,00;37;135,60
"Heerde";412;2217,40;55;296,00;29;156,10
"Heerenveen";624;1236,40;17;33,70;24;47,60
"Heerhugowaard";1387;2401,60;33;57,10;11;19,00
"Heerlen";1786;2052,30;137;157,40;61;70,10
"Heeze-Leende";529;3278,40;19;117,70;11;68,20
"Heiloo";526;2197,00;14;58,50;10;41,80
"Hellendoorn";1102;3070,90;16;44,60;15;41,80
"Hellevoetsluis";1172;2916,70;32;79,60;11;27,40
"Helmond";3509;3801,20;139;150,60;53;57,40
"Hendrik-Ido-Ambacht";1314;4203,20;13;41,60;10;32,00
"Hengelo";2553;3144,20;46;56,70;32;39,40
"Het Hogeland";726;1516,50;11;23,00;6;12,50
"Heumen";524;3179,00;21;127,40;13;78,90
"Heusden";1673;3742,00;61;136,40;36;80,50
"Hillegom";594;2676,50;9;40,60;2;9,00
"Hilvarenbeek";542;3488,40;17;109,40;15;96,50
"Hilversum";2456;2697,80;49;53,80;44;48,30
"Hoeksche Waard";2834;3237,70;88;100,50;33;37,70
"Hof van Twente";1132;3238,20;24;68,70;13;37,20
"Hollands Kroon";842;1737,50;32;66,00;7;14,40
"Hoogeveen";989;1777,30;33;59,30;15;27,00
"Hoorn";1884;2570,50;48;65,50;18;24,60
"Horst aan de Maas";1404;3306,60;49;115,40;37;87,10
"Houten";1503;2992,00;43;85,60;45;89,60
"Huizen";1479;3591,40;37;89,80;18;43,70
"Hulst";662;2376,80;21;75,40;9;32,30
"IJsselstein";1136;3339,70;51;149,90;46;135,20
"Kaag en Braassem";768;2805,30;13;47,50;3;11,00
"Kampen";1133;2084,80;66;121,40;39;71,80
"Kapelle";144;1134,10;4;31,50;1;7,90
"Katwijk";2772;4211,70;57;86,60;29;44,10
"Kerkrade";843;1845,30;78;170,70;42;91,90
"Koggenland";604;2652,10;12;52,70;12;52,70
"Krimpen aan den IJssel";1264;4279,70;26;88,00;31;105,00
"Krimpenerwaard";2053;3646,80;70;124,30;50;88,80
"Laarbeek";765;3384,40;42;185,80;28;123,90
"Landerd";657;4172,50;44;279,40;22;139,70
"Landgraaf";657;1755,40;56;149,60;19;50,80
"Landsmeer";387;3352,10;6;52,00;4;34,60
"Langedijk";755;2679,70;22;78,10;7;24,80
"Lansingerland";2481;3967,70;59;94,40;48;76,80
"Laren";362;3194,20;11;97,10;8;70,60
"Leeuwarden";1969;1587,60;54;43,50;16;12,90
"Leiden";4363;3488,60;84;67,20;40;32,00
"Leiderdorp";880;3246,00;29;107,00;10;36,90
"Leidschendam-Voorburg";2465;3221,20;67;87,60;48;62,70
"Lelystad";1929;2444,20;95;120,40;43;54,50
"Leudal";920;2567,00;58;161,80;41;114,40
"Leusden";804;2642,70;16;52,60;12;39,40
"Lingewaard";1331;2853,50;46;98,60;19;40,70
"Lisse";639;2775,40;15;65,10;5;21,70
"Lochem";707;2095,40;22;65,20;20;59,30
"Loon op Zand";895;3822,70;36;153,80;29;123,90
"Lopik";545;3763,00;25;172,60;8;55,20
"Loppersum";97;1020,40;1;10,50;0;0,00
"Losser";830;3658,80;14;61,70;5;22,00
"Maasdriel";853;3386,50;26;103,20;17;67,50
"Maasgouw";496;2071,90;28;117,00;16;66,80
"Maassluis";1430;4303,60;44;132,40;17;51,20
"Maastricht";3234;2661,50;213;175,30;146;120,20
"Medemblik";1040;2305,30;23;51,00;7;15,50
"Meerssen";385;2046,20;25;132,90;15;79,70
"Meierijstad";2563;3152,50;224;275,50;139;171,00
"Meppel";535;1574,40;13;38,30;5;14,70
"Middelburg";632;1295,00;28;57,40;15;30,70
"Midden-Delfland";694;3595,50;13;67,40;6;31,10
"Midden-Drenthe";515;1550,90;9;27,10;3;9,00
"Midden-Groningen";761;1251,90;17;28,00;11;18,10
"Mill en Sint Hubert";377;3440,40;14;127,80;6;54,80
"Moerdijk";1193;3211,30;26;70,00;23;61,90
"Molenlanden";1614;3670,20;21;47,80;16;36,40
"Montferland";837;2325,10;28;77,80;12;33,30
"Montfoort";478;3438,60;16;115,10;7;50,40
"Mook en Middelaar";248;3165,30;9;114,90;9;114,90
"Neder-Betuwe";924;3780,50;47;192,30;24;98,20
"Nederweert";553;3240,90;37;216,80;9;52,70
"Nieuwegein";1840;2897,40;65;102,40;17;26,80
"Nieuwkoop";886;3068,10;17;58,90;11;38,10
"Nijkerk";1327;3071,60;33;76,40;7;16,20
"Nijmegen";5400;3040,00;199;112,00;120;67,60
"Nissewaard";3488;4093,60;90;105,60;50;58,70
"Noardeast-Fryslân";576;1272,60;13;28,70;7;15,50
"Noord-Beveland";103;1394,50;3;40,60;1;13,50
"Noordenveld";329;1053,80;7;22,40;14;44,80
"Noordoostpolder";1090;2297,50;23;48,50;20;42,20
"Noordwijk";1355;3108,80;41;94,10;8;18,40
"Nuenen, Gerwen en Nederwetten";671;2869,40;22;94,10;13;55,60
"Nunspeet";722;2596,30;64;230,10;23;82,70
"Oegstgeest";734;2948,90;17;68,30;6;24,10
"Oirschot";695;3706,90;20;106,70;18;96,00
"Oisterwijk";832;3165,20;30;114,10;14;53,30
"Oldambt";397;1039,60;11;28,80;6;15,70
"Oldebroek";486;2055,00;40;169,10;20;84,60
"Oldenzaal";1180;3705,80;26;81,70;30;94,20
"Olst-Wijhe";315;1726,20;12;65,80;8;43,80
"Ommen";326;1807,90;9;49,90;7;38,80
"Oost Gelre";876;2956,90;23;77,60;26;87,80
"Oosterhout";1965;3505,70;58;103,50;23;41,00
"Ooststellingwerf";360;1414,30;8;31,40;1;3,90
"Oostzaan";364;3744,90;13;133,70;3;30,90
"Opmeer";257;2175,80;3;25,40;2;16,90
"Opsterland";302;1018,00;11;37,10;0;0,00
"Oss";3461;3762,00;193;209,80;106;115,20
"Oude IJsselstreek";920;2336,50;27;68,60;19;48,30
"Ouder-Amstel";555;3931,20;8;56,70;0;0,00
"Oudewater";343;3359,50;32;313,40;12;117,50
"Overbetuwe";1119;2333,00;63;131,30;21;43,80
"Papendrecht";1134;3528,20;11;34,20;19;59,10
"Peel en Maas";1248;2860,60;148;339,20;65;149,00
"Pekela";119;978,40;7;57,60;2;16,40
"Pijnacker-Nootdorp";2056;3710,40;40;72,20;22;39,70
"Purmerend";2182;2678,50;99;121,50;48;58,90
"Putten";653;2707,30;13;53,90;6;24,90
"Raalte";1011;2682,80;27;71,60;25;66,30
"Reimerswaal";439;1932,20;9;39,60;5;22,00
"Renkum";789;2512,00;20;63,70;11;35,00
"Renswoude";142;2588,40;5;91,10;5;91,10
"Reusel-De Mierden";616;4705,90;18;137,50;5;38,20
"Rheden";1101;2521,10;39;89,30;20;45,80
"Rhenen";680;3381,60;15;74,60;8;39,80
"Ridderkerk";1998;4311,50;55;118,70;48;103,60
"Rijssen-Holten";1365;3571,70;32;83,70;33;86,30
"Rijswijk";2044;3742,30;79;144,60;61;111,70
"Roerdalen";373;1818,10;28;136,50;9;43,90
"Roermond";1368;2345,80;66;113,20;26;44,60
"Roosendaal";3117;4032,50;63;81,50;42;54,30
"Rotterdam";35333;5416,20;1132;173,50;615;94,30
"Rozendaal";32;1886,80;1;59,00;0;0,00
"Rucphen";872;3798,60;23;100,20;12;52,30
"s-Gravenhage";22872;4190,00;793;145,30;374;68,50
"Schagen";1214;2612,40;24;51,60;16;34,40
"Scherpenzeel";304;3076,00;5;50,60;2;20,20
"Schiedam";4256;5398,10;133;168,70;39;49,50
"Schiermonnikoog";5;528,50;1;105,70;0;0,00
"Schouwen-Duiveland";552;1628,70;16;47,20;16;47,20
"Simpelveld";216;2048,60;21;199,20;5;47,40
"Sint Anthonis";339;2905,90;21;180,00;11;94,30
"Sint-Michielsgestel";969;3311,20;39;133,30;23;78,60
"Sittard-Geleen";1860;2014,50;138;149,50;75;81,20
"Sliedrecht";999;3966,20;12;47,60;15;59,60
"Sluis";452;1948,40;18;77,60;7;30,20
"Smallingerland";647;1151,80;14;24,90;11;19,60
"Soest";1521;3260,00;43;92,20;33;70,70
"Someren";589;3041,10;36;185,90;9;46,50
"Son en Breugel";500;2883,50;32;184,50;18;103,80
"Stadskanaal";689;2177,90;10;31,60;7;22,10
"Staphorst";519;3026,20;11;64,10;5;29,20
"Stede Broec";467;2150,50;20;92,10;5;23,00
"Steenbergen";796;3253,80;20;81,80;14;57,20
"Steenwijkerland";694;1571,70;18;40,80;10;22,60
"Stein";505;2024,30;51;204,40;16;64,10
"Stichtse Vecht";2159;3320,10;67;103,00;31;47,70
"Súdwest-Fryslân";1898;2111,70;26;28,90;30;33,40
"Terneuzen";1160;2133,00;39;71,70;5;9,20
"Terschelling";73;1506,40;1;20,60;1;20,60
"Texel";126;928,20;6;44,20;2;14,70
"Teylingen";1250;3331,20;25;66,60;6;16,00
"Tholen";831;3222,90;50;193,90;20;77,60
"Tiel";1456;3459,10;61;144,90;33;78,40
"Tilburg";7937;3605,40;315;143,10;209;94,90
"Tubbergen";1143;5373,00;14;65,80;9;42,30
"Twenterand";1069;3167,60;16;47,40;5;14,80
"Tynaarlo";413;1221,20;13;38,40;12;35,50
"Tytsjerksteradiel";366;1139,80;9;28,00;3;9,30
"Uden";1132;2686,80;120;284,80;70;166,10
"Uitgeest";417;3053,20;7;51,30;3;22,00
"Uithoorn";944;3189,00;27;91,20;6;20,30
"Urk";1216;5770,40;34;161,30;10;47,50
"Utrecht";14465;4035,40;456;127,20;170;47,40
"Utrechtse Heuvelrug";1384;2781,80;39;78,40;21;42,20
"Vaals";162;1603,30;11;108,90;2;19,80
"Valkenburg aan de Geul";379;2319,20;23;140,70;11;67,30
"Valkenswaard";1086;3478,20;25;80,10;44;140,90
"Veendam";305;1113,90;4;14,60;1;3,70
"Veenendaal";2747;4123,50;72;108,10;25;37,50
"Veere";202;922,00;10;45,60;2;9,10
"Veldhoven";1545;3393,50;43;94,40;27;59,30
"Velsen";2096;3049,50;59;85,80;56;81,50
"Venlo";3123;3066,90;153;150,30;89;87,40
"Venray";1468;3365,10;46;105,40;23;52,70
"Vijfheerenlanden";2139;3758,40;59;103,70;52;91,40
"Vlaardingen";3837;5217,60;90;122,40;57;77,50
"Vlieland";19;1636,50;0;0,00;0;0,00
"Vlissingen";575;1296,80;17;38,30;7;15,80
"Voerendaal";220;1761,30;18;144,10;8;64,00
"Voorschoten";676;2641,30;12;46,90;14;54,70
"Voorst";490;1991,80;18;73,20;11;44,70
"Vught";961;3615,50;46;173,10;25;94,10
"Waadhoeke";638;1384,60;18;39,10;22;47,70
"Waalre";514;2943,70;9;51,50;10;57,30
"Waalwijk";1804;3709,90;57;117,20;53;109,00
"Waddinxveen";1068;3637,00;41;139,60;10;34,10
"Wageningen";1078;2703,00;30;75,20;26;65,20
"Wassenaar";741;2824,40;19;72,40;15;57,20
"Waterland";588;3376,60;24;137,80;14;80,40
"Weert";1637;3261,90;84;167,40;27;53,80
"Weesp";874;4390,60;11;55,30;15;75,40
"West Betuwe";1750;3415,80;67;130,80;40;78,10
"West Maas en Waal";483;2495,10;24;124,00;15;77,50
"Westerkwartier";684;1079,30;21;33,10;8;12,60
"Westerveld";225;1156,30;10;51,40;5;25,70
"Westervoort";411;2744,80;15;100,20;7;46,70
"Westerwolde";423;1619,40;14;53,60;3;11,50
"Westland";4567;4129,10;104;94,00;53;47,90
"Weststellingwerf";387;1492,90;5;19,30;12;46,30
"Westvoorne";412;2794,20;9;61,00;1;6,80
"Wierden";1124;4602,00;11;45,00;13;53,20
"Wijchen";1179;2869,00;59;143,60;25;60,80
"Wijdemeren";668;2743,60;14;57,50;5;20,50
"Wijk bij Duurstede";618;2588,00;14;58,60;7;29,30
"Winterswijk";655;2274,10;13;45,10;8;27,80
"Woensdrecht";702;3194,40;11;50,10;21;95,60
"Woerden";1737;3317,50;74;141,30;25;47,70
"Wormerland";509;3129,60;25;153,70;13;79,90
"Woudenberg";429;3203,90;11;82,20;4;29,90
"Zaanstad";5976;3809,90;199;126,90;95;60,60
"Zaltbommel";1021;3520,30;26;89,60;10;34,50
"Zandvoort";420;2451,00;15;87,50;9;52,50
"Zeewolde";436;1930,20;16;70,80;7;31,00
"Zeist";1900;2924,90;51;78,50;35;53,90
"Zevenaar";938;2141,40;61;139,30;22;50,20
"Zoetermeer";4433;3538,90;85;67,90;27;21,60
"Zoeterwoude";266;3078,70;4;46,30;1;11,60
"Zuidplas";1688;3832,60;47;106,70;27;61,30
"Zundert";666;3049,20;30;137,40;13;59,50
"Zutphen";1044;2174,50;39;81,20;16;33,30
"Zwartewaterland";631;2777,80;38;167,30;24;105,70
"Zwijndrecht";1979;4427,80;32;71,60;53;118,60
"Zwolle";2513;1947,10;62;48,00;66;51,10