"Category";"Meldingen";"Meldingen per 100000";"Zkh opname";"Zkh opname per 100000";"Overleden";"Overleden per 100000"
"'s-Hertogenbosch";2122;1365,70;141;90,70;83;53,40
"Aa en Hunze";180;709,10;1;3,90;1;3,90
"Aalsmeer";453;1420,90;10;31,40;6;18,80
"Aalten";296;1092,50;13;48,00;7;25,80
"Achtkarspelen";145;520,60;0;0,00;0;0,00
"Alblasserdam";392;1945,40;11;54,60;5;24,80
"Albrandswaard";555;2163,30;17;66,30;8;31,20
"Alkmaar";1080;985,50;61;55,70;31;28,30
"Almelo";730;998,20;31;42,40;13;17,80
"Almere";2784;1310,70;161;75,80;39;18,40
"Alphen aan den Rijn";1636;1363,90;78;65,00;31;25,80
"Alphen-Chaam";135;1319,10;18;175,90;5;48,90
"Altena";680;1215,00;38;67,90;12;21,40
"Ameland";31;830,20;0;0,00;0;0,00
"Amersfoort";1992;1266,30;89;56,60;28;17,80
"Amstelveen";1734;1889,60;72;78,50;44;47,90
"Amsterdam";24378;2788,40;925;105,80;313;35,80
"Apeldoorn";1446;882,50;109;66,50;53;32,30
"Appingedam";43;369,60;7;60,20;0;0,00
"Arnhem";1773;1097,20;82;50,70;34;21,00
"Assen";461;670,60;13;18,90;3;4,40
"Asten";195;1166,70;18;107,70;12;71,80
"Baarle-Nassau";70;1017,60;9;130,80;2;29,10
"Baarn";304;1222,50;14;56,30;9;36,20
"Barendrecht";1098;2255,00;45;92,40;14;28,80
"Barneveld";594;1001,60;24;40,50;10;16,90
"Beek";117;737,30;17;107,10;6;37,80
"Beekdaelen";325;904,00;52;144,60;25;69,50
"Beemster";96;959,30;4;40,00;1;10,00
"Beesel";132;979,40;20;148,40;8;59,40
"Berg en Dal";586;1673,40;35;99,90;21;60,00
"Bergeijk";322;1726,50;19;101,90;5;26,80
"Bergen (L.)";116;886,90;8;61,20;2;15,30
"Bergen (NH.)";428;1433,90;21;70,40;7;23,50
"Bergen op Zoom";1292;1911,60;42;62,10;15;22,20
"Berkelland";445;1016,90;18;41,10;9;20,60
"Bernheze";570;1821,00;96;306,70;65;207,70
"Best";330;1099,40;32;106,60;12;40,00
"Beuningen";309;1191,50;20;77,10;6;23,10
"Beverwijk";535;1285,70;19;45,70;13;31,20
"Bladel";563;2756,80;22;107,70;9;44,10
"Blaricum";143;1234,80;8;69,10;2;17,30
"Bloemendaal";301;1278,80;8;34,00;6;25,50
"Bodegraven-Reeuwijk";497;1422,50;11;31,50;9;25,80
"Boekel";153;1420,10;36;334,10;20;185,60
"Borger-Odoorn";208;814,00;6;23,50;4;15,70
"Borne";255;1091,20;15;64,20;6;25,70
"Borsele";115;505,70;5;22,00;1;4,40
"Boxmeer";380;1292,40;20;68,00;28;95,20
"Boxtel";346;1122,60;24;77,90;26;84,40
"Breda";2712;1472,40;167;90,70;73;39,60
"Brielle";255;1476,80;15;86,90;0;0,00
"Bronckhorst";389;1080,40;18;50,00;7;19,40
"Brummen";144;692,80;19;91,40;6;28,90
"Brunssum";258;927,90;49;176,20;19;68,30
"Bunnik";182;1196,10;12;78,90;1;6,60
"Bunschoten";367;1676,50;13;59,40;7;32,00
"Buren";266;992,60;23;85,80;8;29,90
"Capelle aan den IJssel";1461;2173,60;66;98,20;64;95,20
"Castricum";322;894,00;18;50,00;10;27,80
"Coevorden";247;699,60;14;39,70;2;5,70
"Cranendonck";387;1823,80;63;296,90;36;169,70
"Cuijk";293;1164,80;13;51,70;10;39,80
"Culemborg";441;1519,60;25;86,10;9;31,00
"Dalfsen";328;1143,50;17;59,30;7;24,40
"Dantumadiel";107;565,90;2;10,60;0;0,00
"De Bilt";722;1674,70;31;71,90;24;55,70
"De Fryske Marren";377;730,50;22;42,60;7;13,60
"De Ronde Venen";654;1469,70;45;101,10;14;31,50
"De Wolden";178;731,00;14;57,50;5;20,50
"Delft";1992;1924,00;44;42,50;15;14,50
"Delfzijl";100;405,50;7;28,40;0;0,00
"Den Helder";269;477,30;15;26,60;2;3,50
"Deurne";510;1572,20;58;178,80;26;80,20
"Deventer";1090;1080,40;50;49,60;38;37,70
"Diemen";825;2642,50;23;73,70;14;44,80
"Dinkelland";388;1466,80;21;79,40;10;37,80
"Doesburg";150;1356,50;10;90,40;6;54,30
"Doetinchem";596;1026,50;30;51,70;16;27,60
"Dongen";320;1216,90;23;87,50;13;49,40
"Dordrecht";2092;1751,90;97;81,20;75;62,80
"Drechterland";195;988,20;5;25,30;8;40,50
"Drimmelen";278;1021,00;21;77,10;9;33,10
"Dronten";287;689,00;37;88,80;14;33,60
"Druten";243;1283,80;26;137,40;9;47,50
"Duiven";274;1092,90;16;63,80;6;23,90
"Echt-Susteren";199;629,10;41;129,60;19;60,10
"Edam-Volendam";727;2010,60;35;96,80;4;11,10
"Ede";1422;1215,00;70;59,80;27;23,10
"Eemnes";93;1003,60;2;21,60;1;10,80
"Eersel";362;1873,20;28;144,90;10;51,70
"Eijsden-Margraten";334;1296,30;56;217,30;27;104,80
"Eindhoven";2983;1270,20;195;83,00;96;40,90
"Elburg";257;1106,40;28;120,50;8;34,40
"Emmen";1176;1099,30;44;41,10;19;17,80
"Enkhuizen";110;589,70;20;107,20;4;21,40
"Enschede";1622;1016,30;67;42,00;28;17,50
"Epe";308;928,20;52;156,70;23;69,30
"Ermelo";292;1081,80;33;122,30;23;85,20
"Etten-Leur";689;1570,30;46;104,80;30;68,40
"Geertruidenberg";229;1060,90;13;60,20;6;27,80
"Geldrop-Mierlo";438;1100,60;34;85,40;16;40,20
"Gemert-Bakel";431;1402,00;79;257,00;32;104,10
"Gennep";170;1004,00;17;100,40;10;59,10
"Gilze en Rijen";340;1278,30;21;79,00;15;56,40
"Goeree-Overflakkee";705;1405,90;57;113,70;35;69,80
"Goes";329;860,90;13;34,00;13;34,00
"Goirle";350;1463,40;32;133,80;20;83,60
"Gooise Meren";821;1413,50;27;46,50;15;25,80
"Gorinchem";565;1522,10;19;51,20;16;43,10
"Gouda";1472;2003,10;56;76,20;46;62,60
"Grave";200;1603,70;21;168,40;11;88,20
"Groningen";2961;1270,90;28;12,00;3;1,30
"Gulpen-Wittem";187;1321,50;23;162,50;15;106,00
"Haaksbergen";376;1548,50;16;65,90;10;41,20
"Haaren";174;1212,20;19;132,40;8;55,70
"Haarlem";2181;1337,10;97;59,50;69;42,30
"Haarlemmermeer";2424;1550,30;92;58,80;38;24,30
"Halderberge";427;1410,70;23;76,00;10;33,00
"Hardenberg";483;792,20;23;37,70;10;16,40
"Harderwijk";584;1200,00;46;94,50;21;43,20
"Hardinxveld-Giessendam";218;1189,00;2;10,90;2;10,90
"Harlingen";74;471,30;4;25,50;1;6,40
"Hattem";115;940,80;18;147,30;5;40,90
"Heemskerk";467;1191,40;34;86,70;14;35,70
"Heemstede";352;1290,00;15;55,00;35;128,30
"Heerde";286;1539,30;55;296,00;28;150,70
"Heerenveen";331;655,80;16;31,70;22;43,60
"Heerhugowaard";529;916,00;29;50,20;9;15,60
"Heerlen";744;854,90;127;145,90;54;62,10
"Heeze-Leende";231;1431,60;17;105,40;8;49,60
"Heiloo";192;801,90;12;50,10;9;37,60
"Hellendoorn";311;866,70;13;36,20;13;36,20
"Hellevoetsluis";508;1264,20;21;52,30;6;14,90
"Helmond";1659;1797,20;123;133,20;46;49,80
"Hendrik-Ido-Ambacht";539;1724,10;13;41,60;6;19,20
"Hengelo";1002;1234,00;38;46,80;24;29,60
"Het Hogeland";302;630,80;7;14,60;4;8,40
"Heumen";298;1807,90;19;115,30;13;78,90
"Heusden";600;1342,00;47;105,10;26;58,20
"Hillegom";297;1338,30;8;36,00;2;9,00
"Hilvarenbeek";214;1377,40;12;77,20;8;51,50
"Hilversum";1182;1298,40;38;41,70;26;28,60
"Hoeksche Waard";1422;1624,60;82;93,70;23;26,30
"Hof van Twente";382;1092,70;18;51,50;6;17,20
"Hollands Kroon";291;600,50;26;53,70;6;12,40
"Hoogeveen";426;765,60;26;46,70;12;21,60
"Hoorn";680;927,80;38;51,80;12;16,40
"Horst aan de Maas";475;1118,70;41;96,60;28;65,90
"Houten";623;1240,20;32;63,70;16;31,90
"Huizen";652;1583,20;27;65,60;10;24,30
"Hulst";183;657,00;10;35,90;5;18,00
"IJsselstein";550;1616,90;39;114,70;35;102,90
"Kaag en Braassem";323;1179,80;8;29,20;3;11,00
"Kampen";595;1094,80;60;110,40;37;68,10
"Kapelle";70;551,30;3;23,60;1;7,90
"Katwijk";1156;1756,40;41;62,30;17;25,80
"Kerkrade";415;908,40;66;144,50;36;78,80
"Koggenland";200;878,20;7;30,70;7;30,70
"Krimpen aan den IJssel";602;2038,30;17;57,60;9;30,50
"Krimpenerwaard";975;1731,90;52;92,40;36;63,90
"Laarbeek";308;1362,60;41;181,40;26;115,00
"Landerd";334;2121,20;42;266,70;21;133,40
"Landgraaf";262;700,00;53;141,60;14;37,40
"Landsmeer";174;1507,10;5;43,30;3;26,00
"Langedijk";293;1039,90;21;74,50;7;24,80
"Lansingerland";1201;1920,70;49;78,40;32;51,20
"Laren";153;1350,00;9;79,40;3;26,50
"Leeuwarden";1183;953,80;44;35,50;8;6,50
"Leiden";2141;1711,90;56;44,80;25;20,00
"Leiderdorp";396;1460,70;19;70,10;7;25,80
"Leidschendam-Voorburg";1200;1568,10;36;47,00;28;36,60
"Lelystad";772;978,20;79;100,10;32;40,50
"Leudal";352;982,10;54;150,70;33;92,10
"Leusden";360;1183,30;10;32,90;9;29,60
"Lingewaard";565;1211,30;37;79,30;11;23,60
"Lisse";242;1051,10;10;43,40;3;13,00
"Lochem";334;989,90;16;47,40;15;44,50
"Loon op Zand";299;1277,10;29;123,90;15;64,10
"Lopik";235;1622,60;22;151,90;8;55,20
"Loppersum";31;326,10;0;0,00;0;0,00
"Losser";251;1106,50;11;48,50;2;8,80
"Maasdriel";274;1087,80;17;67,50;8;31,80
"Maasgouw";206;860,50;28;117,00;15;62,70
"Maassluis";675;2031,40;24;72,20;9;27,10
"Maastricht";1612;1326,60;193;158,80;140;115,20
"Medemblik";317;702,70;19;42,10;6;13,30
"Meerssen";190;1009,80;23;122,20;13;69,10
"Meierijstad";1221;1501,80;212;260,80;134;164,80
"Meppel";208;612,10;11;32,40;5;14,70
"Middelburg";262;536,90;19;38,90;10;20,50
"Midden-Delfland";280;1450,60;5;25,90;0;0,00
"Midden-Drenthe";203;611,30;6;18,10;0;0,00
"Midden-Groningen";298;490,20;9;14,80;5;8,20
"Mill en Sint Hubert";182;1660,90;9;82,10;5;45,60
"Moerdijk";468;1259,80;18;48,50;9;24,20
"Molenlanden";514;1168,80;20;45,50;9;20,50
"Montferland";323;897,30;24;66,70;9;25,00
"Montfoort";185;1330,80;15;107,90;7;50,40
"Mook en Middelaar";129;1646,50;7;89,30;5;63,80
"Neder-Betuwe";354;1448,40;42;171,80;22;90,00
"Nederweert";174;1019,80;33;193,40;7;41,00
"Nieuwegein";831;1308,60;54;85,00;14;22,00
"Nieuwkoop";316;1094,30;12;41,60;6;20,80
"Nijkerk";598;1384,20;26;60,20;4;9,30
"Nijmegen";2993;1685,00;165;92,90;76;42,80
"Nissewaard";1353;1587,90;68;79,80;23;27,00
"Noardeast-Fryslân";214;472,80;7;15,50;4;8,80
"Noord-Beveland";46;622,80;1;13,50;0;0,00
"Noordenveld";215;688,60;6;19,20;14;44,80
"Noordoostpolder";340;716,60;18;37,90;11;23,20
"Noordwijk";573;1314,60;25;57,40;4;9,20
"Nuenen, Gerwen en Nederwetten";293;1252,90;19;81,20;10;42,80
"Nunspeet";376;1352,10;60;215,80;21;75,50
"Oegstgeest";330;1325,80;11;44,20;3;12,10
"Oirschot";311;1658,80;17;90,70;9;48,00
"Oisterwijk";292;1110,90;26;98,90;12;45,70
"Oldambt";180;471,30;10;26,20;4;10,50
"Oldebroek";255;1078,20;40;169,10;19;80,30
"Oldenzaal";449;1410,10;16;50,20;13;40,80
"Olst-Wijhe";164;898,70;12;65,80;8;43,80
"Ommen";149;826,30;9;49,90;4;22,20
"Oost Gelre";391;1319,80;20;67,50;11;37,10
"Oosterhout";703;1254,20;52;92,80;17;30,30
"Ooststellingwerf";105;412,50;5;19,60;1;3,90
"Oostzaan";198;2037,00;12;123,50;2;20,60
"Opmeer";64;541,80;1;8,50;1;8,50
"Opsterland";151;509,00;8;27,00;0;0,00
"Oss";1682;1828,30;173;188,00;91;98,90
"Oude IJsselstreek";330;838,10;23;58,40;9;22,90
"Ouder-Amstel";319;2259,50;7;49,60;0;0,00
"Oudewater";165;1616,10;27;264,40;10;97,90
"Overbetuwe";529;1102,90;59;123,00;16;33,40
"Papendrecht";393;1222,70;9;28,00;9;28,00
"Peel en Maas";615;1409,70;145;332,40;65;149,00
"Pekela";53;435,70;5;41,10;0;0,00
"Pijnacker-Nootdorp";946;1707,20;30;54,10;18;32,50
"Purmerend";1038;1274,20;80;98,20;38;46,60
"Putten";192;796,00;11;45,60;1;4,10
"Raalte";433;1149,00;25;66,30;23;61,00
"Reimerswaal";162;713,00;6;26,40;2;8,80
"Renkum";385;1225,80;14;44,60;10;31,80
"Renswoude";51;929,60;5;91,10;5;91,10
"Reusel-De Mierden";314;2398,80;14;107,00;2;15,30
"Rheden";402;920,50;35;80,10;14;32,10
"Rhenen";250;1243,20;12;59,70;6;29,80
"Ridderkerk";893;1927,00;42;90,60;19;41,00
"Rijssen-Holten";425;1112,10;29;75,90;26;68,00
"Rijswijk";1037;1898,60;52;95,20;31;56,80
"Roerdalen";112;545,90;27;131,60;8;39,00
"Roermond";475;814,50;64;109,70;24;41,20
"Roosendaal";1208;1562,80;44;56,90;26;33,60
"Rotterdam";18371;2816,10;761;116,70;403;61,80
"Rozendaal";11;648,60;1;59,00;0;0,00
"Rucphen";377;1642,30;13;56,60;10;43,60
"s-Gravenhage";13186;2415,60;530;97,10;311;57,00
"Schagen";365;785,40;20;43,00;10;21,50
"Scherpenzeel";110;1113,00;5;50,60;2;20,20
"Schiedam";1853;2350,30;70;88,80;24;30,40
"Schiermonnikoog";1;105,70;1;105,70;0;0,00
"Schouwen-Duiveland";265;781,90;12;35,40;13;38,40
"Simpelveld";74;701,80;19;180,20;5;47,40
"Sint Anthonis";170;1457,20;21;180,00;11;94,30
"Sint-Michielsgestel";425;1452,30;37;126,40;19;64,90
"Sittard-Geleen";807;874,00;123;133,20;65;70,40
"Sliedrecht";296;1175,20;9;35,70;5;19,90
"Sluis";60;258,60;9;38,80;4;17,20
"Smallingerland";299;532,30;12;21,40;6;10,70
"Soest";764;1637,50;32;68,60;14;30,00
"Someren";208;1073,90;34;175,50;8;41,30
"Son en Breugel";208;1199,50;31;178,80;14;80,70
"Stadskanaal";177;559,50;3;9,50;2;6,30
"Staphorst";243;1416,90;8;46,60;4;23,30
"Stede Broec";154;709,20;19;87,50;5;23,00
"Steenbergen";346;1414,30;18;73,60;13;53,10
"Steenwijkerland";322;729,20;15;34,00;8;18,10
"Stein";207;829,80;45;180,40;15;60,10
"Stichtse Vecht";912;1402,50;46;70,70;14;21,50
"Súdwest-Fryslân";665;739,90;21;23,40;6;6,70
"Terneuzen";359;660,10;25;46,00;4;7,40
"Terschelling";44;908,00;1;20,60;0;0,00
"Texel";67;493,60;6;44,20;2;14,70
"Teylingen";507;1351,10;17;45,30;4;10,70
"Tholen";312;1210,10;43;166,80;18;69,80
"Tiel";568;1349,40;46;109,30;22;52,30
"Tilburg";3204;1455,40;263;119,50;172;78,10
"Tubbergen";452;2124,80;12;56,40;6;28,20
"Twenterand";256;758,60;12;35,60;2;5,90
"Tynaarlo";226;668,30;11;32,50;0;0,00
"Tytsjerksteradiel";194;604,20;7;21,80;1;3,10
"Uden";531;1260,30;115;273,00;63;149,50
"Uitgeest";167;1222,70;5;36,60;1;7,30
"Uithoorn";442;1493,10;21;70,90;2;6,80
"Urk";124;588,40;23;109,10;4;19,00
"Utrecht";7868;2195,00;342;95,40;124;34,60
"Utrechtse Heuvelrug";707;1421,00;31;62,30;15;30,10
"Vaals";56;554,20;10;99,00;2;19,80
"Valkenburg aan de Geul";176;1077,00;19;116,30;7;42,80
"Valkenswaard";496;1588,60;20;64,10;37;118,50
"Veendam";136;496,70;2;7,30;1;3,70
"Veenendaal";1028;1543,10;53;79,60;14;21,00
"Veere";102;465,60;8;36,50;2;9,10
"Veldhoven";642;1410,10;34;74,70;18;39,50
"Velsen";923;1342,90;45;65,50;44;64,00
"Venlo";1328;1304,10;138;135,50;68;66,80
"Venray";559;1281,40;38;87,10;19;43,60
"Vijfheerenlanden";950;1669,20;44;77,30;43;75,60
"Vlaardingen";1672;2273,60;53;72,10;31;42,20
"Vlieland";12;1033,60;0;0,00;0;0,00
"Vlissingen";240;541,30;9;20,30;5;11,30
"Voerendaal";89;712,50;17;136,10;8;64,00
"Voorschoten";321;1254,20;11;43,00;11;43,00
"Voorst";217;882,10;17;69,10;11;44,70
"Vught";351;1320,50;43;161,80;17;64,00
"Waadhoeke";342;742,20;13;28,20;16;34,70
"Waalre";209;1197,00;8;45,80;5;28,60
"Waalwijk";664;1365,50;42;86,40;39;80,20
"Waddinxveen";470;1600,50;25;85,10;7;23,80
"Wageningen";507;1271,30;22;55,20;18;45,10
"Wassenaar";372;1417,90;10;38,10;13;49,60
"Waterland";276;1584,90;19;109,10;5;28,70
"Weert";514;1024,20;69;137,50;16;31,90
"Weesp";426;2140,10;10;50,20;14;70,30
"West Betuwe";608;1186,70;49;95,60;30;58,60
"West Maas en Waal";225;1162,30;23;118,80;9;46,50
"Westerkwartier";348;549,10;19;30,00;4;6,30
"Westerveld";89;457,40;9;46,30;4;20,60
"Westervoort";124;828,10;12;80,10;6;40,10
"Westerwolde";146;558,90;11;42,10;1;3,80
"Westland";1768;1598,50;69;62,40;30;27,10
"Weststellingwerf";151;582,50;3;11,60;4;15,40
"Westvoorne";233;1580,20;6;40,70;0;0,00
"Wierden";306;1252,90;7;28,70;6;24,60
"Wijchen";527;1282,40;50;121,70;15;36,50
"Wijdemeren";324;1330,70;10;41,10;1;4,10
"Wijk bij Duurstede";240;1005,10;11;46,10;2;8,40
"Winterswijk";193;670,10;8;27,80;4;13,90
"Woensdrecht";301;1369,70;8;36,40;9;41,00
"Woerden";716;1367,50;61;116,50;21;40,10
"Wormerland";228;1401,90;21;129,10;10;61,50
"Woudenberg";151;1127,70;9;67,20;2;14,90
"Zaanstad";2605;1660,80;148;94,40;57;36,30
"Zaltbommel";345;1189,50;23;79,30;10;34,50
"Zandvoort";200;1167,10;12;70,00;9;52,50
"Zeewolde";201;889,90;13;57,60;6;26,60
"Zeist";997;1534,80;42;64,70;27;41,60
"Zevenaar";407;929,10;53;121,00;17;38,80
"Zoetermeer";1999;1595,80;65;51,90;16;12,80
"Zoeterwoude";106;1226,90;4;46,30;1;11,60
"Zuidplas";863;1959,40;31;70,40;23;52,20
"Zundert";329;1506,30;24;109,90;11;50,40
"Zutphen";366;762,30;32;66,70;13;27,10
"Zwartewaterland";289;1272,20;35;154,10;22;96,80
"Zwijndrecht";837;1872,70;27;60,40;30;67,10
"Zwolle";1139;882,50;54;41,80;49;38,00