"Category";"Meldingen";"Meldingen per 100000";"Zkh opname";"Zkh opname per 100000";"Overleden";"Overleden per 100000"
"'s-Hertogenbosch";1584;1019,40;139;89,50;81;52,10
"Aa en Hunze";134;527,90;1;3,90;1;3,90
"Aalsmeer";328;1028,80;10;31,40;5;15,70
"Aalten";200;738,20;12;44,30;7;25,80
"Achtkarspelen";109;391,40;0;0,00;0;0,00
"Alblasserdam";297;1473,90;11;54,60;5;24,80
"Albrandswaard";420;1637,10;16;62,40;8;31,20
"Alkmaar";793;723,60;59;53,80;31;28,30
"Almelo";512;700,10;31;42,40;12;16,40
"Almere";2145;1009,80;149;70,10;37;17,40
"Alphen aan den Rijn";1180;983,70;76;63,40;29;24,20
"Alphen-Chaam";106;1035,80;18;175,90;5;48,90
"Altena";511;913,10;36;64,30;12;21,40
"Ameland";21;562,40;0;0,00;0;0,00
"Amersfoort";1472;935,70;88;55,90;27;17,20
"Amstelveen";1370;1492,90;69;75,20;42;45,80
"Amsterdam";19802;2265,00;862;98,60;311;35,60
"Apeldoorn";1164;710,40;106;64,70;53;32,30
"Appingedam";33;283,60;5;43,00;0;0,00
"Arnhem";1381;854,60;77;47,70;34;21,00
"Assen";292;424,80;12;17,50;2;2,90
"Asten";161;963,30;18;107,70;12;71,80
"Baarle-Nassau";55;799,50;9;130,80;2;29,10
"Baarn";210;844,50;12;48,30;9;36,20
"Barendrecht";855;1756,00;44;90,40;13;26,70
"Barneveld";414;698,10;21;35,40;9;15,20
"Beek";87;548,30;16;100,80;6;37,80
"Beekdaelen";280;778,80;52;144,60;24;66,80
"Beemster";68;679,50;4;40,00;1;10,00
"Beesel";78;578,80;20;148,40;8;59,40
"Berg en Dal";459;1310,70;34;97,10;20;57,10
"Bergeijk";269;1442,40;19;101,90;5;26,80
"Bergen (L.)";82;626,90;7;53,50;2;15,30
"Bergen (NH.)";307;1028,50;21;70,40;7;23,50
"Bergen op Zoom";972;1438,10;37;54,70;13;19,20
"Berkelland";324;740,40;14;32,00;9;20,60
"Bernheze";453;1447,20;95;303,50;65;207,70
"Best";244;812,90;31;103,30;11;36,60
"Beuningen";257;991,00;20;77,10;5;19,30
"Beverwijk";414;995,00;18;43,30;12;28,80
"Bladel";459;2247,60;21;102,80;9;44,10
"Blaricum";118;1018,90;8;69,10;2;17,30
"Bloemendaal";241;1023,90;8;34,00;5;21,20
"Bodegraven-Reeuwijk";377;1079,10;10;28,60;9;25,80
"Boekel";122;1132,40;35;324,90;20;185,60
"Borger-Odoorn";128;500,90;5;19,60;4;15,70
"Borne";176;753,20;15;64,20;6;25,70
"Borsele";94;413,40;5;22,00;1;4,40
"Boxmeer";281;955,70;20;68,00;28;95,20
"Boxtel";245;794,90;24;77,90;26;84,40
"Breda";2049;1112,50;157;85,20;71;38,50
"Brielle";185;1071,40;12;69,50;0;0,00
"Bronckhorst";247;686,00;18;50,00;7;19,40
"Brummen";116;558,10;18;86,60;6;28,90
"Brunssum";220;791,20;47;169,00;19;68,30
"Bunnik";154;1012,10;12;78,90;1;6,60
"Bunschoten";218;995,80;12;54,80;7;32,00
"Buren";187;697,80;20;74,60;8;29,90
"Capelle aan den IJssel";1184;1761,50;62;92,20;63;93,70
"Castricum";220;610,80;17;47,20;10;27,80
"Coevorden";188;532,50;14;39,70;2;5,70
"Cranendonck";324;1526,90;63;296,90;36;169,70
"Cuijk";208;826,90;12;47,70;10;39,80
"Culemborg";310;1068,20;24;82,70;8;27,60
"Dalfsen";243;847,10;17;59,30;7;24,40
"Dantumadiel";91;481,30;2;10,60;0;0,00
"De Bilt";549;1273,40;30;69,60;24;55,70
"De Fryske Marren";269;521,20;20;38,80;6;11,60
"De Ronde Venen";503;1130,40;43;96,60;13;29,20
"De Wolden";122;501,00;11;45,20;5;20,50
"Delft";1574;1520,20;43;41,50;12;11,60
"Delfzijl";89;360,90;7;28,40;0;0,00
"Den Helder";172;305,20;14;24,80;2;3,50
"Deurne";401;1236,20;57;175,70;26;80,20
"Deventer";859;851,40;50;49,60;37;36,70
"Diemen";660;2114,00;20;64,10;14;44,80
"Dinkelland";267;1009,30;20;75,60;10;37,80
"Doesburg";112;1012,80;10;90,40;6;54,30
"Doetinchem";431;742,30;29;49,90;15;25,80
"Dongen";225;855,60;21;79,90;13;49,40
"Dordrecht";1661;1391,00;97;81,20;72;60,30
"Drechterland";118;598,00;5;25,30;8;40,50
"Drimmelen";204;749,20;21;77,10;9;33,10
"Dronten";219;525,70;34;81,60;13;31,20
"Druten";185;977,40;25;132,10;8;42,30
"Duiven";213;849,60;16;63,80;6;23,90
"Echt-Susteren";161;509,00;40;126,50;18;56,90
"Edam-Volendam";534;1476,90;30;83,00;3;8,30
"Ede";1070;914,20;64;54,70;26;22,20
"Eemnes";70;755,40;2;21,60;1;10,80
"Eersel";284;1469,60;27;139,70;10;51,70
"Eijsden-Margraten";290;1125,50;55;213,50;27;104,80
"Eindhoven";2298;978,50;192;81,80;94;40,00
"Elburg";216;929,90;28;120,50;8;34,40
"Emmen";842;787,10;37;34,60;19;17,80
"Enkhuizen";78;418,10;19;101,90;4;21,40
"Enschede";1058;662,90;60;37,60;26;16,30
"Epe";244;735,30;51;153,70;23;69,30
"Ermelo";250;926,20;33;122,30;23;85,20
"Etten-Leur";495;1128,20;44;100,30;30;68,40
"Geertruidenberg";151;699,50;13;60,20;6;27,80
"Geldrop-Mierlo";337;846,80;34;85,40;16;40,20
"Gemert-Bakel";361;1174,30;79;257,00;32;104,10
"Gennep";142;838,60;17;100,40;10;59,10
"Gilze en Rijen";246;924,90;20;75,20;15;56,40
"Goeree-Overflakkee";564;1124,70;57;113,70;35;69,80
"Goes";281;735,30;13;34,00;13;34,00
"Goirle";279;1166,50;32;133,80;20;83,60
"Gooise Meren";646;1112,20;27;46,50;15;25,80
"Gorinchem";470;1266,20;19;51,20;16;43,10
"Gouda";1171;1593,50;53;72,10;45;61,20
"Grave";157;1258,90;21;168,40;11;88,20
"Groningen";2332;1000,90;24;10,30;3;1,30
"Gulpen-Wittem";153;1081,20;22;155,50;15;106,00
"Haaksbergen";312;1284,90;16;65,90;9;37,10
"Haaren";123;856,90;19;132,40;8;55,70
"Haarlem";1698;1041,00;87;53,30;68;41,70
"Haarlemmermeer";1884;1205,00;86;55,00;35;22,40
"Halderberge";303;1001,10;18;59,50;9;29,70
"Hardenberg";334;547,80;23;37,70;10;16,40
"Harderwijk";475;976,10;44;90,40;20;41,10
"Hardinxveld-Giessendam";158;861,80;2;10,90;2;10,90
"Harlingen";54;343,90;4;25,50;1;6,40
"Hattem";95;777,20;18;147,30;5;40,90
"Heemskerk";336;857,20;32;81,60;13;33,20
"Heemstede";290;1062,80;13;47,60;33;120,90
"Heerde";261;1404,70;55;296,00;28;150,70
"Heerenveen";266;527,10;15;29,70;22;43,60
"Heerhugowaard";404;699,50;27;46,80;9;15,60
"Heerlen";639;734,30;126;144,80;54;62,10
"Heeze-Leende";172;1065,90;16;99,20;8;49,60
"Heiloo";129;538,80;11;45,90;8;33,40
"Hellendoorn";196;546,20;11;30,70;13;36,20
"Hellevoetsluis";393;978,00;20;49,80;5;12,40
"Helmond";1263;1368,20;119;128,90;45;48,70
"Hendrik-Ido-Ambacht";433;1385,10;13;41,60;6;19,20
"Hengelo";714;879,30;34;41,90;24;29,60
"Het Hogeland";222;463,70;8;16,70;4;8,40
"Heumen";249;1510,60;19;115,30;11;66,70
"Heusden";438;979,70;46;102,90;26;58,20
"Hillegom";248;1117,50;8;36,00;2;9,00
"Hilvarenbeek";156;1004,10;10;64,40;7;45,10
"Hilversum";894;982,00;37;40,60;26;28,60
"Hoeksche Waard";1157;1321,80;82;93,70;22;25,10
"Hof van Twente";284;812,40;18;51,50;6;17,20
"Hollands Kroon";199;410,60;26;53,70;6;12,40
"Hoogeveen";275;494,20;26;46,70;9;16,20
"Hoorn";483;659,00;37;50,50;12;16,40
"Horst aan de Maas";336;791,30;41;96,60;28;65,90
"Houten";453;901,80;30;59,70;15;29,90
"Huizen";494;1199,60;26;63,10;10;24,30
"Hulst";127;456,00;10;35,90;5;18,00
"IJsselstein";400;1176,00;37;108,80;35;102,90
"Kaag en Braassem";209;763,40;8;29,20;3;11,00
"Kampen";523;962,30;60;110,40;37;68,10
"Kapelle";53;417,40;3;23,60;1;7,90
"Katwijk";790;1200,30;38;57,70;15;22,80
"Kerkrade";340;744,20;64;140,10;36;78,80
"Koggenland";169;742,10;7;30,70;7;30,70
"Krimpen aan den IJssel";444;1503,30;17;57,60;8;27,10
"Krimpenerwaard";751;1334,00;48;85,30;35;62,20
"Laarbeek";246;1088,30;41;181,40;26;115,00
"Landerd";269;1708,40;42;266,70;21;133,40
"Landgraaf";230;614,50;53;141,60;14;37,40
"Landsmeer";132;1143,40;4;34,60;3;26,00
"Langedijk";239;848,30;19;67,40;6;21,30
"Lansingerland";925;1479,30;49;78,40;29;46,40
"Laren";123;1085,30;9;79,40;3;26,50
"Leeuwarden";971;782,90;42;33,90;6;4,80
"Leiden";1588;1269,70;51;40,80;22;17,60
"Leiderdorp";267;984,90;17;62,70;7;25,80
"Leidschendam-Voorburg";963;1258,40;35;45,70;26;34,00
"Lelystad";618;783,10;75;95,00;31;39,30
"Leudal";284;792,40;54;150,70;33;92,10
"Leusden";279;917,10;9;29,60;9;29,60
"Lingewaard";416;891,80;35;75,00;11;23,60
"Lisse";153;664,50;9;39,10;2;8,70
"Lochem";257;761,70;16;47,40;15;44,50
"Loon op Zand";228;973,80;27;115,30;9;38,40
"Lopik";185;1277,40;21;145,00;8;55,20
"Loppersum";24;252,50;0;0,00;0;0,00
"Losser";176;775,80;11;48,50;1;4,40
"Maasdriel";196;778,10;16;63,50;7;27,80
"Maasgouw";163;680,90;28;117,00;15;62,70
"Maassluis";505;1519,80;23;69,20;9;27,10
"Maastricht";1420;1168,60;193;158,80;140;115,20
"Medemblik";214;474,40;19;42,10;6;13,30
"Meerssen";169;898,20;23;122,20;13;69,10
"Meierijstad";975;1199,20;211;259,50;131;161,10
"Meppel";154;453,20;11;32,40;5;14,70
"Middelburg";227;465,10;19;38,90;10;20,50
"Midden-Delfland";203;1051,70;5;25,90;0;0,00
"Midden-Drenthe";103;310,20;6;18,10;0;0,00
"Midden-Groningen";193;317,50;7;11,50;4;6,60
"Mill en Sint Hubert";136;1241,10;9;82,10;5;45,60
"Moerdijk";328;882,90;17;45,80;9;24,20
"Molenlanden";392;891,40;20;45,50;9;20,50
"Montferland";218;605,60;22;61,10;9;25,00
"Montfoort";155;1115,00;15;107,90;6;43,20
"Mook en Middelaar";100;1276,30;7;89,30;5;63,80
"Neder-Betuwe";254;1039,20;41;167,80;21;85,90
"Nederweert";131;767,70;31;181,70;7;41,00
"Nieuwegein";620;976,30;49;77,20;14;22,00
"Nieuwkoop";234;810,30;10;34,60;6;20,80
"Nijkerk";448;1037,00;22;50,90;3;6,90
"Nijmegen";2518;1417,60;155;87,30;75;42,20
"Nissewaard";1001;1174,80;65;76,30;23;27,00
"Noardeast-Fryslân";167;369,00;7;15,50;4;8,80
"Noord-Beveland";40;541,60;1;13,50;0;0,00
"Noordenveld";171;547,70;5;16,00;14;44,80
"Noordoostpolder";257;541,70;17;35,80;10;21,10
"Noordwijk";397;910,80;22;50,50;3;6,90
"Nuenen, Gerwen en Nederwetten";230;983,50;18;77,00;9;38,50
"Nunspeet";334;1201,10;58;208,60;21;75,50
"Oegstgeest";238;956,20;10;40,20;3;12,10
"Oirschot";243;1296,10;13;69,30;9;48,00
"Oisterwijk";195;741,80;24;91,30;12;45,70
"Oldambt";134;350,90;10;26,20;3;7,90
"Oldebroek";233;985,20;40;169,10;19;80,30
"Oldenzaal";289;907,60;15;47,10;7;22,00
"Olst-Wijhe";124;679,50;12;65,80;8;43,80
"Ommen";123;682,10;9;49,90;4;22,20
"Oost Gelre";278;938,40;18;60,80;8;27,00
"Oosterhout";510;909,90;52;92,80;17;30,30
"Ooststellingwerf";68;267,10;3;11,80;1;3,90
"Oostzaan";139;1430,00;12;123,50;2;20,60
"Opmeer";42;355,60;1;8,50;1;8,50
"Opsterland";99;333,70;8;27,00;0;0,00
"Oss";1286;1397,90;173;188,00;89;96,70
"Oude IJsselstreek";266;675,60;23;58,40;9;22,90
"Ouder-Amstel";259;1834,50;6;42,50;0;0,00
"Oudewater";138;1351,60;26;254,70;9;88,10
"Overbetuwe";423;881,90;56;116,80;16;33,40
"Papendrecht";292;908,50;9;28,00;8;24,90
"Peel en Maas";464;1063,60;144;330,10;65;149,00
"Pekela";38;312,40;5;41,10;0;0,00
"Pijnacker-Nootdorp";730;1317,40;30;54,10;18;32,50
"Purmerend";766;940,30;76;93,30;36;44,20
"Putten";152;630,20;11;45,60;1;4,10
"Raalte";330;875,70;25;66,30;22;58,40
"Reimerswaal";122;537,00;5;22,00;2;8,80
"Renkum";317;1009,30;14;44,60;9;28,70
"Renswoude";44;802,00;5;91,10;5;91,10
"Reusel-De Mierden";246;1879,30;12;91,70;2;15,30
"Rheden";315;721,30;34;77,90;14;32,10
"Rhenen";143;711,10;12;59,70;6;29,80
"Ridderkerk";651;1404,80;42;90,60;19;41,00
"Rijssen-Holten";352;921,10;29;75,90;25;65,40
"Rijswijk";791;1448,20;49;89,70;28;51,30
"Roerdalen";94;458,20;27;131,60;8;39,00
"Roermond";375;643,00;63;108,00;23;39,40
"Roosendaal";899;1163,00;41;53,00;24;31,00
"Rotterdam";15031;2304,10;718;110,10;382;58,60
"Rozendaal";11;648,60;1;59,00;0;0,00
"Rucphen";286;1245,90;11;47,90;10;43,60
"s-Gravenhage";10972;2010,00;496;90,90;298;54,60
"Schagen";249;535,80;19;40,90;10;21,50
"Scherpenzeel";82;829,70;5;50,60;2;20,20
"Schiedam";1439;1825,20;66;83,70;24;30,40
"Schiermonnikoog";0;0,00;0;0,00;0;0,00
"Schouwen-Duiveland";211;622,60;12;35,40;13;38,40
"Simpelveld";65;616,50;19;180,20;5;47,40
"Sint Anthonis";123;1054,30;20;171,40;11;94,30
"Sint-Michielsgestel";319;1090,10;37;126,40;19;64,90
"Sittard-Geleen";693;750,60;122;132,10;65;70,40
"Sliedrecht";224;889,30;9;35,70;5;19,90
"Sluis";40;172,40;9;38,80;4;17,20
"Smallingerland";215;382,70;9;16,00;6;10,70
"Soest";566;1213,10;28;60,00;14;30,00
"Someren";159;820,90;33;170,40;8;41,30
"Son en Breugel";167;963,10;31;178,80;14;80,70
"Stadskanaal";115;363,50;2;6,30;2;6,30
"Staphorst";161;938,80;8;46,60;4;23,30
"Stede Broec";119;548,00;19;87,50;5;23,00
"Steenbergen";247;1009,60;15;61,30;13;53,10
"Steenwijkerland";276;625,00;15;34,00;8;18,10
"Stein";183;733,60;45;180,40;15;60,10
"Stichtse Vecht";705;1084,10;43;66,10;14;21,50
"Súdwest-Fryslân";437;486,20;19;21,10;6;6,70
"Terneuzen";255;468,90;25;46,00;4;7,40
"Terschelling";26;536,50;0;0,00;0;0,00
"Texel";51;375,70;5;36,80;2;14,70
"Teylingen";368;980,70;17;45,30;3;8,00
"Tholen";271;1051,00;42;162,90;16;62,10
"Tiel";427;1014,40;45;106,90;21;49,90
"Tilburg";2486;1129,30;261;118,60;169;76,80
"Tubbergen";291;1367,90;12;56,40;5;23,50
"Twenterand";163;483,00;12;35,60;3;8,90
"Tynaarlo";169;499,70;9;26,60;0;0,00
"Tytsjerksteradiel";152;473,40;7;21,80;1;3,10
"Uden";423;1004,00;115;273,00;63;149,50
"Uitgeest";120;878,60;5;36,60;1;7,30
"Uithoorn";339;1145,20;18;60,80;2;6,80
"Urk";105;498,30;23;109,10;4;19,00
"Utrecht";6085;1697,60;323;90,10;122;34,00
"Utrechtse Heuvelrug";498;1001,00;29;58,30;15;30,10
"Vaals";44;435,50;10;99,00;2;19,80
"Valkenburg aan de Geul";139;850,60;19;116,30;7;42,80
"Valkenswaard";374;1197,80;20;64,10;37;118,50
"Veendam";102;372,50;2;7,30;1;3,70
"Veenendaal";647;971,20;51;76,60;14;21,00
"Veere";81;369,70;7;32,00;2;9,10
"Veldhoven";482;1058,70;31;68,10;18;39,50
"Velsen";738;1073,70;40;58,20;44;64,00
"Venlo";995;977,10;137;134,50;67;65,80
"Venray";392;898,60;38;87,10;18;41,30
"Vijfheerenlanden";806;1416,20;41;72,00;43;75,60
"Vlaardingen";1275;1733,80;51;69,40;31;42,20
"Vlieland";11;947,50;0;0,00;0;0,00
"Vlissingen";193;435,30;9;20,30;5;11,30
"Voerendaal";73;584,40;17;136,10;8;64,00
"Voorschoten";246;961,20;11;43,00;11;43,00
"Voorst";176;715,40;17;69,10;11;44,70
"Vught";263;989,50;43;161,80;17;64,00
"Waadhoeke";253;549,10;13;28,20;15;32,60
"Waalre";157;899,10;7;40,10;5;28,60
"Waalwijk";485;997,40;40;82,30;37;76,10
"Waddinxveen";360;1225,90;22;74,90;7;23,80
"Wageningen";417;1045,60;22;55,20;9;22,60
"Wassenaar";280;1067,20;10;38,10;13;49,60
"Waterland";185;1062,40;17;97,60;4;23,00
"Weert";368;733,30;68;135,50;16;31,90
"Weesp";343;1723,10;9;45,20;14;70,30
"West Betuwe";438;854,90;47;91,70;29;56,60
"West Maas en Waal";174;898,90;21;108,50;9;46,50
"Westerkwartier";250;394,50;17;26,80;4;6,30
"Westerveld";77;395,70;9;46,30;4;20,60
"Westervoort";109;727,90;12;80,10;6;40,10
"Westerwolde";87;333,10;8;30,60;1;3,80
"Westland";1329;1201,60;65;58,80;30;27,10
"Weststellingwerf";103;397,30;3;11,60;4;15,40
"Westvoorne";163;1105,50;6;40,70;0;0,00
"Wierden";176;720,60;7;28,70;6;24,60
"Wijchen";426;1036,60;48;116,80;13;31,60
"Wijdemeren";221;907,70;9;37,00;0;0,00
"Wijk bij Duurstede";161;674,20;10;41,90;2;8,40
"Winterswijk";125;434,00;7;24,30;3;10,40
"Woensdrecht";224;1019,30;7;31,90;7;31,90
"Woerden";539;1029,40;59;112,70;21;40,10
"Wormerland";163;1002,20;21;129,10;6;36,90
"Woudenberg";119;888,70;9;67,20;2;14,90
"Zaanstad";1850;1179,40;140;89,30;56;35,70
"Zaltbommel";259;893,00;22;75,90;9;31,00
"Zandvoort";166;968,70;12;70,00;9;52,50
"Zeewolde";156;690,60;12;53,10;6;26,60
"Zeist";766;1179,20;40;61,60;27;41,60
"Zevenaar";325;741,90;51;116,40;16;36,50
"Zoetermeer";1611;1286,10;65;51,90;14;11,20
"Zoeterwoude";75;868,10;3;34,70;1;11,60
"Zuidplas";696;1580,30;28;63,60;21;47,70
"Zundert";240;1098,80;24;109,90;11;50,40
"Zutphen";273;568,60;31;64,60;13;27,10
"Zwartewaterland";230;1012,50;35;154,10;21;92,40
"Zwijndrecht";661;1478,90;27;60,40;29;64,90
"Zwolle";874;677,20;53;41,10;49;38,00