"Category";"Meldingen";"Meldingen per 100000";"Zkh opname";"Zkh opname per 100000";"Overleden";"Overleden per 100000"
"'s-Hertogenbosch";4157;2675,40;157;101,00;100;64,40
"Aa en Hunze";263;1036,10;1;3,90;1;3,90
"Aalsmeer";938;2942,10;16;50,20;20;62,70
"Aalten";548;2022,70;14;51,70;11;40,60
"Achtkarspelen";255;915,60;0;0,00;0;0,00
"Alblasserdam";860;4268,00;11;54,60;13;64,50
"Albrandswaard";1111;4330,50;27;105,20;15;58,50
"Alkmaar";2332;2128,00;75;68,40;40;36,50
"Almelo";2249;3075,30;39;53,30;22;30,10
"Almere";5546;2611,00;176;82,90;46;21,70
"Alphen aan den Rijn";3454;2879,50;101;84,20;46;38,30
"Alphen-Chaam";294;2872,80;19;185,70;5;48,90
"Altena";1579;2821,40;44;78,60;31;55,40
"Ameland";46;1231,90;0;0,00;0;0,00
"Amersfoort";4054;2577,00;112;71,20;48;30,50
"Amstelveen";2724;2968,40;83;90,40;56;61,00
"Amsterdam";36640;4190,90;1146;131,10;396;45,30
"Apeldoorn";2852;1740,60;124;75,70;62;37,80
"Appingedam";74;636,00;8;68,80;1;8,60
"Arnhem";3541;2191,30;109;67,50;63;39,00
"Assen";865;1258,30;17;24,70;5;7,30
"Asten";406;2429,10;20;119,70;14;83,80
"Baarle-Nassau";174;2529,40;10;145,40;2;29,10
"Baarn";576;2316,30;22;88,50;12;48,30
"Barendrecht";1919;3941,20;62;127,30;26;53,40
"Barneveld";1477;2490,40;30;50,60;16;27,00
"Beek";258;1625,90;18;113,40;8;50,40
"Beekdaelen";613;1705,10;53;147,40;27;75,10
"Beemster";202;2018,60;4;40,00;2;20,00
"Beesel";261;1936,60;23;170,70;8;59,40
"Berg en Dal";1111;3172,60;42;119,90;33;94,20
"Bergeijk";576;3088,50;21;112,60;6;32,20
"Bergen (L.)";279;2133,00;12;91,70;3;22,90
"Bergen (NH.)";701;2348,50;23;77,10;24;80,40
"Bergen op Zoom";2591;3833,50;53;78,40;27;39,90
"Berkelland";1065;2433,70;24;54,80;25;57,10
"Bernheze";1042;3329,00;101;322,70;67;214,10
"Best";678;2258,80;36;119,90;13;43,30
"Beuningen";586;2259,70;23;88,70;10;38,60
"Beverwijk";1078;2590,70;23;55,30;15;36,00
"Bladel";940;4602,90;24;117,50;12;58,80
"Blaricum";285;2460,90;8;69,10;2;17,30
"Bloemendaal";482;2047,80;10;42,50;6;25,50
"Bodegraven-Reeuwijk";990;2833,60;23;65,80;11;31,50
"Boekel";259;2403,90;36;334,10;20;185,60
"Borger-Odoorn";355;1389,30;9;35,20;8;31,30
"Borne";556;2379,30;16;68,50;6;25,70
"Borsele";239;1051,00;6;26,40;1;4,40
"Boxmeer";729;2479,30;25;85,00;32;108,80
"Boxtel";762;2472,40;27;87,60;28;90,90
"Breda";5405;2934,50;197;107,00;106;57,60
"Brielle";462;2675,60;19;110,00;2;11,60
"Bronckhorst";771;2141,30;20;55,50;7;19,40
"Brummen";342;1645,50;22;105,90;7;33,70
"Brunssum";439;1578,90;51;183,40;21;75,50
"Bunnik";368;2418,50;13;85,40;6;39,40
"Bunschoten";937;4280,30;22;100,50;11;50,20
"Buren";590;2201,70;24;89,60;11;41,00
"Capelle aan den IJssel";2530;3763,90;90;133,90;77;114,60
"Castricum";636;1765,80;18;50,00;11;30,50
"Coevorden";492;1393,50;20;56,60;7;19,80
"Cranendonck";669;3152,80;65;306,30;37;174,40
"Cuijk";645;2564,10;19;75,50;15;59,60
"Culemborg";778;2680,80;30;103,40;11;37,90
"Dalfsen";636;2217,20;18;62,80;9;31,40
"Dantumadiel";181;957,30;2;10,60;0;0,00
"De Bilt";1243;2883,10;37;85,80;28;64,90
"De Fryske Marren";632;1224,60;26;50,40;10;19,40
"De Ronde Venen";1207;2712,40;63;141,60;20;44,90
"De Wolden";342;1404,50;16;65,70;6;24,60
"Delft";3460;3341,80;58;56,00;26;25,10
"Delfzijl";182;738,10;9;36,50;0;0,00
"Den Helder";671;1190,60;19;33,70;6;10,60
"Deurne";990;3052,00;61;188,10;30;92,50
"Deventer";1964;1946,60;54;53,50;50;49,60
"Diemen";1223;3917,40;26;83,30;19;60,90
"Dinkelland";907;3428,70;23;86,90;17;64,30
"Doesburg";228;2061,90;11;99,50;7;63,30
"Doetinchem";1092;1880,70;38;65,40;18;31,00
"Dongen";793;3015,60;34;129,30;18;68,40
"Dordrecht";4427;3707,30;99;82,90;94;78,70
"Drechterland";425;2153,90;7;35,50;8;40,50
"Drimmelen";669;2456,90;24;88,10;11;40,40
"Dronten";530;1272,40;42;100,80;16;38,40
"Druten";438;2314,00;29;153,20;14;74,00
"Duiven";532;2121,90;18;71,80;8;31,90
"Echt-Susteren";414;1308,80;44;139,10;20;63,20
"Edam-Volendam";1284;3551,10;50;138,30;9;24,90
"Ede";2762;2359,90;83;70,90;39;33,30
"Eemnes";241;2600,60;4;43,20;1;10,80
"Eersel";676;3498,10;35;181,10;17;88,00
"Eijsden-Margraten";559;2169,50;61;236,70;29;112,60
"Eindhoven";5754;2450,10;228;97,10;125;53,20
"Elburg";428;1842,50;30;129,10;10;43,00
"Emmen";1972;1843,40;53;49,50;26;24,30
"Enkhuizen";355;1903,10;20;107,20;5;26,80
"Enschede";4307;2698,60;93;58,30;60;37,60
"Epe";581;1750,90;54;162,70;24;72,30
"Ermelo";536;1985,80;33;122,30;24;88,90
"Etten-Leur";1276;2908,10;56;127,60;32;72,90
"Geertruidenberg";470;2177,30;18;83,40;6;27,80
"Geldrop-Mierlo";1039;2610,70;42;105,50;18;45,20
"Gemert-Bakel";753;2449,50;80;260,20;34;110,60
"Gennep";369;2179,20;18;106,30;12;70,90
"Gilze en Rijen";708;2661,90;27;101,50;18;67,70
"Goeree-Overflakkee";1342;2676,10;70;139,60;41;81,80
"Goes";586;1533,40;21;55,00;14;36,60
"Goirle";703;2939,30;37;154,70;23;96,20
"Gooise Meren";1445;2487,80;33;56,80;17;29,30
"Gorinchem";1160;3125,10;20;53,90;22;59,30
"Gouda";2569;3496,00;87;118,40;77;104,80
"Grave";430;3448,00;28;224,50;20;160,40
"Groningen";4082;1752,10;33;14,20;5;2,10
"Gulpen-Wittem";296;2091,70;26;183,70;16;113,10
"Haaksbergen";737;3035,20;21;86,50;18;74,10
"Haaren";422;2939,90;20;139,30;9;62,70
"Haarlem";3786;2321,10;117;71,70;83;50,90
"Haarlemmermeer";4245;2715,00;110;70,40;44;28,10
"Halderberge";924;3052,70;30;99,10;16;52,90
"Hardenberg";1039;1704,10;26;42,60;12;19,70
"Harderwijk";977;2007,60;52;106,90;22;45,20
"Hardinxveld-Giessendam";592;3229,00;2;10,90;7;38,20
"Harlingen";126;802,50;5;31,80;2;12,70
"Hattem";210;1717,90;18;147,30;5;40,90
"Heemskerk";976;2489,90;36;91,80;21;53,60
"Heemstede";559;2048,60;17;62,30;35;128,30
"Heerde";385;2072,10;55;296,00;28;150,70
"Heerenveen";536;1062,00;17;33,70;22;43,60
"Heerhugowaard";1149;1989,50;33;57,10;10;17,30
"Heerlen";1432;1645,50;136;156,30;57;65,50
"Heeze-Leende";444;2751,60;19;117,70;11;68,20
"Heiloo";404;1687,40;13;54,30;10;41,80
"Hellendoorn";855;2382,60;15;41,80;15;41,80
"Hellevoetsluis";1007;2506,10;25;62,20;8;19,90
"Helmond";3019;3270,40;135;146,20;53;57,40
"Hendrik-Ido-Ambacht";1143;3656,20;13;41,60;10;32,00
"Hengelo";2144;2640,50;42;51,70;29;35,70
"Het Hogeland";517;1080,00;10;20,90;6;12,50
"Heumen";457;2772,60;19;115,30;13;78,90
"Heusden";1354;3028,50;56;125,30;30;67,10
"Hillegom";498;2244,00;9;40,60;2;9,00
"Hilvarenbeek";482;3102,30;17;109,40;15;96,50
"Hilversum";2120;2328,70;48;52,70;34;37,30
"Hoeksche Waard";2458;2808,10;84;96,00;31;35,40
"Hof van Twente";925;2646,00;21;60,10;9;25,70
"Hollands Kroon";661;1364,00;31;64,00;6;12,40
"Hoogeveen";848;1523,90;32;57,50;15;27,00
"Hoorn";1503;2050,60;47;64,10;17;23,20
"Horst aan de Maas";1081;2545,90;47;110,70;30;70,70
"Houten";1244;2476,40;40;79,60;42;83,60
"Huizen";1262;3064,40;36;87,40;16;38,90
"Hulst";539;1935,20;19;68,20;7;25,10
"IJsselstein";963;2831,10;49;144,10;42;123,50
"Kaag en Braassem";639;2334,10;10;36,50;3;11,00
"Kampen";893;1643,10;63;115,90;37;68,10
"Kapelle";119;937,20;4;31,50;1;7,90
"Katwijk";2379;3614,60;55;83,60;26;39,50
"Kerkrade";709;1552,00;75;164,20;40;87,60
"Koggenland";483;2120,80;12;52,70;10;43,90
"Krimpen aan den IJssel";1087;3680,40;25;84,60;29;98,20
"Krimpenerwaard";1786;3172,50;67;119,00;45;79,90
"Laarbeek";597;2641,10;42;185,80;26;115,00
"Landerd";560;3556,50;42;266,70;21;133,40
"Landgraaf";498;1330,60;55;146,90;15;40,10
"Landsmeer";334;2893,00;6;52,00;3;26,00
"Langedijk";636;2257,30;21;74,50;7;24,80
"Lansingerland";2105;3366,40;57;91,20;39;62,40
"Laren";315;2779,50;10;88,20;6;52,90
"Leeuwarden";1704;1373,90;49;39,50;16;12,90
"Leiden";3846;3075,20;75;60,00;35;28,00
"Leiderdorp";742;2737,00;28;103,30;10;36,90
"Leidschendam-Voorburg";2109;2756,00;52;68,00;39;51,00
"Lelystad";1558;1974,20;95;120,40;39;49,40
"Leudal";714;1992,20;57;159,00;39;108,80
"Leusden";683;2245,00;16;52,60;12;39,40
"Lingewaard";1096;2349,70;43;92,20;17;36,40
"Lisse";516;2241,10;13;56,50;5;21,70
"Lochem";556;1647,90;22;65,20;16;47,40
"Loon op Zand";730;3117,90;33;140,90;25;106,80
"Lopik";455;3141,60;25;172,60;8;55,20
"Loppersum";73;767,90;1;10,50;0;0,00
"Losser";640;2821,20;13;57,30;4;17,60
"Maasdriel";703;2791,00;26;103,20;14;55,60
"Maasgouw";384;1604,10;28;117,00;16;66,80
"Maassluis";1228;3695,70;39;117,40;16;48,20
"Maastricht";2612;2149,60;207;170,40;143;117,70
"Medemblik";788;1746,70;22;48,80;6;13,30
"Meerssen";292;1552,00;23;122,20;13;69,10
"Meierijstad";2143;2635,90;223;274,30;138;169,70
"Meppel";419;1233,00;13;38,30;5;14,70
"Middelburg";530;1086,00;27;55,30;14;28,70
"Midden-Delfland";555;2875,30;11;57,00;5;25,90
"Midden-Drenthe";442;1331,00;8;24,10;1;3,00
"Midden-Groningen";523;860,40;15;24,70;6;9,90
"Mill en Sint Hubert";329;3002,40;14;127,80;6;54,80
"Moerdijk";1033;2780,60;24;64,60;21;56,50
"Molenlanden";1321;3003,90;20;45,50;16;36,40
"Montferland";701;1947,30;26;72,20;12;33,30
"Montfoort";394;2834,30;16;115,10;7;50,40
"Mook en Middelaar";219;2795,10;8;102,10;8;102,10
"Neder-Betuwe";682;2790,40;45;184,10;22;90,00
"Nederweert";414;2426,30;37;216,80;8;46,90
"Nieuwegein";1564;2462,80;62;97,60;17;26,80
"Nieuwkoop";710;2458,60;16;55,40;9;31,20
"Nijkerk";1051;2432,80;32;74,10;6;13,90
"Nijmegen";4737;2666,80;193;108,70;114;64,20
"Nissewaard";2964;3478,60;86;100,90;36;42,30
"Noardeast-Fryslân";419;925,70;9;19,90;4;8,80
"Noord-Beveland";99;1340,40;1;13,50;1;13,50
"Noordenveld";276;884,00;7;22,40;14;44,80
"Noordoostpolder";667;1405,90;21;44,30;13;27,40
"Noordwijk";1153;2645,30;38;87,20;8;18,40
"Nuenen, Gerwen en Nederwetten";560;2394,70;21;89,80;12;51,30
"Nunspeet";586;2107,20;63;226,50;23;82,70
"Oegstgeest";593;2382,40;15;60,30;3;12,10
"Oirschot";581;3098,80;18;96,00;17;90,70
"Oisterwijk";649;2469,00;29;110,30;14;53,30
"Oldambt";293;767,20;11;28,80;5;13,10
"Oldebroek";396;1674,40;40;169,10;20;84,60
"Oldenzaal";975;3062,00;22;69,10;24;75,40
"Olst-Wijhe";273;1496,10;12;65,80;8;43,80
"Ommen";282;1563,90;9;49,90;4;22,20
"Oost Gelre";777;2622,70;22;74,30;23;77,60
"Oosterhout";1647;2938,30;54;96,30;21;37,50
"Ooststellingwerf";259;1017,50;6;23,60;1;3,90
"Oostzaan";317;3261,30;13;133,70;3;30,90
"Opmeer";201;1701,70;3;25,40;2;16,90
"Opsterland";235;792,20;11;37,10;0;0,00
"Oss";3076;3343,60;190;206,50;101;109,80
"Oude IJsselstreek";714;1813,30;25;63,50;13;33,00
"Ouder-Amstel";472;3343,20;8;56,70;0;0,00
"Oudewater";279;2732,60;31;303,60;12;117,50
"Overbetuwe";920;1918,10;62;129,30;20;41,70
"Papendrecht";969;3014,80;10;31,10;16;49,80
"Peel en Maas";1071;2454,90;147;336,90;65;149,00
"Pekela";103;846,80;7;57,60;2;16,40
"Pijnacker-Nootdorp";1740;3140,10;37;66,80;20;36,10
"Purmerend";1881;2309,10;93;114,20;46;56,50
"Putten";457;1894,70;12;49,80;2;8,30
"Raalte";793;2104,30;26;69,00;25;66,30
"Reimerswaal";305;1342,40;8;35,20;5;22,00
"Renkum";643;2047,20;20;63,70;11;35,00
"Renswoude";115;2096,20;5;91,10;5;91,10
"Reusel-De Mierden";553;4224,60;15;114,60;4;30,60
"Rheden";865;1980,70;39;89,30;19;43,50
"Rhenen";481;2392,00;14;69,60;6;29,80
"Ridderkerk";1716;3703,00;50;107,90;26;56,10
"Rijssen-Holten";1105;2891,40;31;81,10;33;86,30
"Rijswijk";1802;3299,20;70;128,20;54;98,90
"Roerdalen";271;1320,90;28;136,50;9;43,90
"Roermond";1026;1759,40;66;113,20;24;41,20
"Roosendaal";2603;3367,50;54;69,90;40;51,70
"Rotterdam";31474;4824,60;1042;159,70;533;81,70
"Rozendaal";17;1002,40;1;59,00;0;0,00
"Rucphen";761;3315,00;19;82,80;11;47,90
"s-Gravenhage";20748;3800,90;730;133,70;359;65,80
"Schagen";920;1979,70;23;49,50;15;32,30
"Scherpenzeel";211;2135,00;5;50,60;2;20,20
"Schiedam";3591;4554,70;110;139,50;35;44,40
"Schiermonnikoog";4;422,80;1;105,70;0;0,00
"Schouwen-Duiveland";502;1481,20;16;47,20;16;47,20
"Simpelveld";157;1489,00;20;189,70;5;47,40
"Sint Anthonis";276;2365,80;21;180,00;11;94,30
"Sint-Michielsgestel";831;2839,70;39;133,30;21;71,80
"Sittard-Geleen";1429;1547,70;132;143,00;69;74,70
"Sliedrecht";790;3136,40;11;43,70;12;47,60
"Sluis";334;1439,80;15;64,70;5;21,60
"Smallingerland";532;947,10;13;23,10;8;14,20
"Soest";1333;2857,10;40;85,70;32;68,60
"Someren";449;2318,30;35;180,70;9;46,50
"Son en Breugel";407;2347,20;32;184,50;17;98,00
"Stadskanaal";514;1624,70;9;28,40;7;22,10
"Staphorst";413;2408,20;11;64,10;5;29,20
"Stede Broec";379;1745,30;20;92,10;5;23,00
"Steenbergen";700;2861,30;19;77,70;14;57,20
"Steenwijkerland";555;1256,90;18;40,80;10;22,60
"Stein";378;1515,20;49;196,40;16;64,10
"Stichtse Vecht";1745;2683,40;62;95,30;21;32,30
"Súdwest-Fryslân";1419;1578,80;24;26,70;21;23,40
"Terneuzen";865;1590,50;33;60,70;4;7,40
"Terschelling";68;1403,20;1;20,60;1;20,60
"Texel";115;847,10;6;44,20;2;14,70
"Teylingen";1039;2768,90;21;56,00;6;16,00
"Tholen";699;2711,00;49;190,00;19;73,70
"Tiel";1263;3000,60;56;133,00;30;71,30
"Tilburg";6365;2891,30;301;136,70;192;87,20
"Tubbergen";957;4498,70;13;61,10;8;37,60
"Twenterand";872;2583,90;15;44,40;5;14,80
"Tynaarlo";363;1073,40;12;35,50;9;26,60
"Tytsjerksteradiel";306;953,00;8;24,90;3;9,30
"Uden";906;2150,40;117;277,70;67;159,00
"Uitgeest";329;2408,80;7;51,30;3;22,00
"Uithoorn";799;2699,10;23;77,70;4;13,50
"Urk";614;2913,70;28;132,90;6;28,50
"Utrecht";12908;3601,00;420;117,20;152;42,40
"Utrechtse Heuvelrug";1167;2345,60;33;66,30;21;42,20
"Vaals";92;910,50;10;99,00;2;19,80
"Valkenburg aan de Geul";290;1774,60;23;140,70;10;61,20
"Valkenswaard";904;2895,30;23;73,70;42;134,50
"Veendam";233;850,90;4;14,60;1;3,70
"Veenendaal";2083;3126,80;65;97,60;17;25,50
"Veere";177;807,90;9;41,10;2;9,10
"Veldhoven";1320;2899,30;40;87,90;22;48,30
"Velsen";1701;2474,80;53;77,10;49;71,30
"Venlo";2629;2581,80;149;146,30;79;77,60
"Venray";1215;2785,20;43;98,60;23;52,70
"Vijfheerenlanden";1787;3139,90;55;96,60;47;82,60
"Vlaardingen";3343;4545,90;83;112,90;52;70,70
"Vlieland";18;1550,40;0;0,00;0;0,00
"Vlissingen";491;1107,40;16;36,10;7;15,80
"Voerendaal";184;1473,10;18;144,10;8;64,00
"Voorschoten";580;2266,20;12;46,90;12;46,90
"Voorst";403;1638,10;18;73,20;11;44,70
"Vught";687;2584,70;44;165,50;22;82,80
"Waadhoeke";537;1165,40;16;34,70;19;41,20
"Waalre";444;2542,80;9;51,50;9;51,50
"Waalwijk";1492;3068,30;50;102,80;47;96,70
"Waddinxveen";882;3003,60;34;115,80;7;23,80
"Wageningen";840;2106,30;29;72,70;22;55,20
"Wassenaar";607;2313,60;16;61,00;13;49,60
"Waterland";514;2951,60;24;137,80;13;74,70
"Weert";1275;2540,60;82;163,40;22;43,80
"Weesp";771;3873,20;11;55,30;15;75,40
"West Betuwe";1289;2516,00;62;121,00;33;64,40
"West Maas en Waal";426;2200,60;24;124,00;15;77,50
"Westerkwartier";531;837,90;20;31,60;8;12,60
"Westerveld";192;986,70;10;51,40;5;25,70
"Westervoort";287;1916,70;13;86,80;7;46,70
"Westerwolde";277;1060,40;12;45,90;3;11,50
"Westland";3574;3231,30;89;80,50;38;34,40
"Weststellingwerf";326;1257,60;5;19,30;9;34,70
"Westvoorne";372;2522,90;9;61,00;1;6,80
"Wierden";863;3533,40;8;32,80;9;36,80
"Wijchen";982;2389,60;57;138,70;23;56,00
"Wijdemeren";588;2415,00;14;57,50;5;20,50
"Wijk bij Duurstede";510;2135,80;14;58,60;7;29,30
"Winterswijk";505;1753,40;10;34,70;7;24,30
"Woensdrecht";604;2748,50;10;45,50;20;91,00
"Woerden";1375;2626,10;70;133,70;23;43,90
"Wormerland";423;2600,80;24;147,60;13;79,90
"Woudenberg";301;2247,90;11;82,20;4;29,90
"Zaanstad";4989;3180,60;182;116,00;84;53,60
"Zaltbommel";809;2789,40;25;86,20;10;34,50
"Zandvoort";344;2007,50;15;87,50;9;52,50
"Zeewolde";355;1571,60;14;62,00;6;26,60
"Zeist";1612;2481,60;47;72,40;33;50,80
"Zevenaar";774;1767,00;60;137,00;20;45,70
"Zoetermeer";3645;2909,80;76;60,70;21;16,80
"Zoeterwoude";214;2476,90;4;46,30;1;11,60
"Zuidplas";1447;3285,40;41;93,10;23;52,20
"Zundert";599;2742,40;28;128,20;12;54,90
"Zutphen";843;1755,90;38;79,20;16;33,30
"Zwartewaterland";500;2201,10;36;158,50;23;101,30
"Zwijndrecht";1759;3935,60;30;67,10;49;109,60
"Zwolle";2123;1644,90;57;44,20;59;45,70