"Category";"Meldingen";"Meldingen per 100000";"Zkh opname";"Zkh opname per 100000";"Overleden";"Overleden per 100000"
"'s-Hertogenbosch";4450;2863,90;159;102,30;100;64,40
"Aa en Hunze";290;1142,50;1;3,90;1;3,90
"Aalsmeer";988;3098,90;17;53,30;20;62,70
"Aalten";585;2159,20;14;51,70;12;44,30
"Achtkarspelen";267;958,70;0;0,00;0;0,00
"Alblasserdam";888;4406,90;13;64,50;13;64,50
"Albrandswaard";1180;4599,50;28;109,10;15;58,50
"Alkmaar";2492;2274,00;77;70,30;42;38,30
"Almelo";2421;3310,50;40;54,70;23;31,40
"Almere";5921;2787,60;179;84,30;47;22,10
"Alphen aan den Rijn";3669;3058,70;104;86,70;48;40,00
"Alphen-Chaam";322;3146,40;20;195,40;5;48,90
"Altena";1767;3157,30;45;80,40;32;57,20
"Ameland";46;1231,90;0;0,00;0;0,00
"Amersfoort";4311;2740,40;118;75,00;50;31,80
"Amstelveen";2833;3087,20;84;91,50;61;66,50
"Amsterdam";38153;4364,00;1159;132,60;410;46,90
"Apeldoorn";3004;1833,40;129;78,70;64;39,10
"Appingedam";89;764,90;8;68,80;1;8,60
"Arnhem";3817;2362,10;110;68,10;66;40,80
"Assen";960;1396,50;20;29,10;6;8,70
"Asten";436;2608,60;20;119,70;14;83,80
"Baarle-Nassau";192;2791,10;10;145,40;2;29,10
"Baarn";607;2441,00;23;92,50;15;60,30
"Barendrecht";2001;4109,60;67;137,60;27;55,50
"Barneveld";1599;2696,10;30;50,60;17;28,70
"Beek";288;1815,00;18;113,40;8;50,40
"Beekdaelen";662;1841,30;54;150,20;27;75,10
"Beemster";207;2068,60;4;40,00;2;20,00
"Beesel";276;2047,90;23;170,70;9;66,80
"Berg en Dal";1156;3301,10;43;122,80;33;94,20
"Bergeijk";621;3329,80;21;112,60;6;32,20
"Bergen (L.)";292;2232,40;12;91,70;3;22,90
"Bergen (NH.)";743;2489,20;24;80,40;24;80,40
"Bergen op Zoom";2742;4056,90;55;81,40;27;39,90
"Berkelland";1140;2605,10;25;57,10;25;57,10
"Bernheze";1100;3514,30;101;322,70;67;214,10
"Best";708;2358,70;36;119,90;13;43,30
"Beuningen";612;2359,90;23;88,70;10;38,60
"Beverwijk";1128;2710,90;23;55,30;15;36,00
"Bladel";977;4784,10;25;122,40;12;58,80
"Blaricum";304;2625,00;8;69,10;2;17,30
"Bloemendaal";503;2137,10;10;42,50;6;25,50
"Bodegraven-Reeuwijk";1074;3074,00;24;68,70;12;34,30
"Boekel";266;2468,90;36;334,10;20;185,60
"Borger-Odoorn";390;1526,20;9;35,20;8;31,30
"Borne";593;2537,70;16;68,50;6;25,70
"Borsele";252;1108,10;6;26,40;2;8,80
"Boxmeer";767;2608,60;25;85,00;32;108,80
"Boxtel";813;2637,90;29;94,10;28;90,90
"Breda";5674;3080,60;199;108,00;106;57,60
"Brielle";476;2756,70;19;110,00;2;11,60
"Bronckhorst";821;2280,20;20;55,50;7;19,40
"Brummen";356;1712,90;22;105,90;7;33,70
"Brunssum";461;1658,00;51;183,40;21;75,50
"Bunnik";397;2609,10;15;98,60;7;46,00
"Bunschoten";1038;4741,70;25;114,20;11;50,20
"Buren";621;2317,40;26;97,00;11;41,00
"Capelle aan den IJssel";2640;3927,60;92;136,90;79;117,50
"Castricum";702;1949,00;18;50,00;12;33,30
"Coevorden";555;1572,00;21;59,50;7;19,80
"Cranendonck";714;3364,90;65;306,30;37;174,40
"Cuijk";674;2679,40;19;75,50;15;59,60
"Culemborg";832;2866,90;31;106,80;11;37,90
"Dalfsen";653;2276,50;18;62,80;9;31,40
"Dantumadiel";193;1020,70;2;10,60;0;0,00
"De Bilt";1294;3001,40;38;88,10;29;67,30
"De Fryske Marren";663;1284,70;26;50,40;11;21,30
"De Ronde Venen";1261;2833,80;67;150,60;20;44,90
"De Wolden";363;1490,80;16;65,70;6;24,60
"Delft";3608;3484,80;60;58,00;29;28,00
"Delfzijl";211;855,70;9;36,50;0;0,00
"Den Helder";750;1330,80;19;33,70;6;10,60
"Deurne";1046;3224,60;61;188,10;30;92,50
"Deventer";2091;2072,50;54;53,50;50;49,60
"Diemen";1279;4096,70;27;86,50;20;64,10
"Dinkelland";958;3621,50;23;86,90;17;64,30
"Doesburg";237;2143,20;11;99,50;7;63,30
"Doetinchem";1161;1999,50;39;67,20;18;31,00
"Dongen";859;3266,50;36;136,90;18;68,40
"Dordrecht";4681;3920,00;99;82,90;99;82,90
"Drechterland";445;2255,20;7;35,50;8;40,50
"Drimmelen";707;2596,50;26;95,50;12;44,10
"Dronten";603;1447,60;43;103,20;16;38,40
"Druten";457;2414,40;29;153,20;14;74,00
"Duiven";611;2437,00;18;71,80;8;31,90
"Echt-Susteren";439;1387,90;44;139,10;20;63,20
"Edam-Volendam";1310;3623,00;54;149,30;9;24,90
"Ede";2951;2521,30;85;72,60;40;34,20
"Eemnes";253;2730,10;4;43,20;1;10,80
"Eersel";731;3782,70;36;186,30;18;93,10
"Eijsden-Margraten";578;2243,30;61;236,70;29;112,60
"Eindhoven";6116;2604,20;236;100,50;128;54,50
"Elburg";476;2049,20;30;129,10;10;43,00
"Emmen";2090;1953,70;54;50,50;27;25,20
"Enkhuizen";382;2047,80;20;107,20;5;26,80
"Enschede";4582;2870,90;93;58,30;60;37,60
"Epe";612;1844,40;54;162,70;25;75,30
"Ermelo";585;2167,30;33;122,30;25;92,60
"Etten-Leur";1351;3079,10;56;127,60;32;72,90
"Geertruidenberg";518;2399,70;18;83,40;6;27,80
"Geldrop-Mierlo";1116;2804,20;42;105,50;18;45,20
"Gemert-Bakel";785;2553,60;80;260,20;34;110,60
"Gennep";409;2415,40;18;106,30;15;88,60
"Gilze en Rijen";768;2887,40;27;101,50;18;67,70
"Goeree-Overflakkee";1412;2815,70;70;139,60;45;89,70
"Goes";602;1575,30;22;57,60;14;36,60
"Goirle";752;3144,20;37;154,70;23;96,20
"Gooise Meren";1528;2630,70;34;58,50;17;29,30
"Gorinchem";1240;3340,60;20;53,90;22;59,30
"Gouda";2732;3717,80;94;127,90;78;106,10
"Grave";448;3592,30;28;224,50;21;168,40
"Groningen";4244;1821,60;34;14,60;5;2,10
"Gulpen-Wittem";312;2204,80;26;183,70;16;113,10
"Haaksbergen";803;3307,00;21;86,50;19;78,20
"Haaren";455;3169,80;20;139,30;9;62,70
"Haarlem";4006;2456,00;120;73,60;86;52,70
"Haarlemmermeer";4498;2876,80;113;72,30;46;29,40
"Halderberge";997;3293,90;32;105,70;16;52,90
"Hardenberg";1107;1815,60;28;45,90;13;21,30
"Harderwijk";1031;2118,60;54;111,00;22;45,20
"Hardinxveld-Giessendam";629;3430,80;2;10,90;7;38,20
"Harlingen";131;834,40;5;31,80;2;12,70
"Hattem";224;1832,50;18;147,30;5;40,90
"Heemskerk";1052;2683,70;39;99,50;21;53,60
"Heemstede";597;2187,90;18;66,00;35;128,30
"Heerde";391;2104,40;55;296,00;29;156,10
"Heerenveen";567;1123,50;17;33,70;22;43,60
"Heerhugowaard";1234;2136,70;33;57,10;10;17,30
"Heerlen";1528;1755,80;137;157,40;59;67,80
"Heeze-Leende";476;2949,90;19;117,70;11;68,20
"Heiloo";446;1862,80;14;58,50;10;41,80
"Hellendoorn";928;2586,00;15;41,80;15;41,80
"Hellevoetsluis";1064;2648,00;27;67,20;8;19,90
"Helmond";3169;3432,90;138;149,50;53;57,40
"Hendrik-Ido-Ambacht";1195;3822,50;13;41,60;10;32,00
"Hengelo";2279;2806,70;43;53,00;29;35,70
"Het Hogeland";561;1171,90;10;20,90;6;12,50
"Heumen";490;2972,80;20;121,30;13;78,90
"Heusden";1451;3245,40;57;127,50;31;69,30
"Hillegom";523;2356,60;9;40,60;2;9,00
"Hilvarenbeek";502;3231,00;17;109,40;15;96,50
"Hilversum";2220;2438,50;48;52,70;34;37,30
"Hoeksche Waard";2591;2960,10;85;97,10;33;37,70
"Hof van Twente";1006;2877,70;23;65,80;10;28,60
"Hollands Kroon";725;1496,10;32;66,00;6;12,40
"Hoogeveen";893;1604,80;32;57,50;15;27,00
"Hoorn";1629;2222,60;47;64,10;18;24,60
"Horst aan de Maas";1189;2800,20;47;110,70;31;73,00
"Houten";1285;2558,00;41;81,60;45;89,60
"Huizen";1326;3219,90;36;87,40;16;38,90
"Hulst";580;2082,40;19;68,20;8;28,70
"IJsselstein";1023;3007,50;50;147,00;42;123,50
"Kaag en Braassem";681;2487,50;10;36,50;3;11,00
"Kampen";962;1770,10;64;117,80;37;68,10
"Kapelle";125;984,50;4;31,50;1;7,90
"Katwijk";2480;3768,10;57;86,60;27;41,00
"Kerkrade";738;1615,40;77;168,50;41;89,70
"Koggenland";535;2349,20;12;52,70;10;43,90
"Krimpen aan den IJssel";1146;3880,10;26;88,00;30;101,60
"Krimpenerwaard";1896;3367,90;69;122,60;48;85,30
"Laarbeek";653;2888,90;42;185,80;26;115,00
"Landerd";589;3740,60;43;273,10;21;133,40
"Landgraaf";552;1474,80;56;149,60;17;45,40
"Landsmeer";356;3083,60;6;52,00;3;26,00
"Langedijk";675;2395,70;21;74,50;7;24,80
"Lansingerland";2198;3515,10;57;91,20;42;67,20
"Laren";331;2920,70;10;88,20;6;52,90
"Leeuwarden";1799;1450,50;49;39,50;16;12,90
"Leiden";4033;3224,70;78;62,40;38;30,40
"Leiderdorp";785;2895,60;28;103,30;10;36,90
"Leidschendam-Voorburg";2209;2886,70;53;69,30;41;53,60
"Lelystad";1668;2113,50;95;120,40;39;49,40
"Leudal";773;2156,80;57;159,00;39;108,80
"Leusden";727;2389,60;16;52,60;12;39,40
"Lingewaard";1156;2478,30;45;96,50;17;36,40
"Lisse";546;2371,40;13;56,50;5;21,70
"Lochem";601;1781,30;22;65,20;17;50,40
"Loon op Zand";783;3344,30;35;149,50;28;119,60
"Lopik";473;3265,90;25;172,60;8;55,20
"Loppersum";78;820,50;1;10,50;0;0,00
"Losser";701;3090,10;13;57,30;4;17,60
"Maasdriel";769;3053,00;26;103,20;15;59,60
"Maasgouw";409;1708,50;28;117,00;16;66,80
"Maassluis";1307;3933,40;44;132,40;16;48,20
"Maastricht";2768;2278,00;207;170,40;143;117,70
"Medemblik";848;1879,70;22;48,80;6;13,30
"Meerssen";311;1652,90;24;127,60;13;69,10
"Meierijstad";2248;2765,00;223;274,30;138;169,70
"Meppel";452;1330,10;13;38,30;5;14,70
"Middelburg";560;1147,50;27;55,30;15;30,70
"Midden-Delfland";596;3087,80;12;62,20;5;25,90
"Midden-Drenthe";471;1418,40;8;24,10;1;3,00
"Midden-Groningen";616;1013,40;16;26,30;9;14,80
"Mill en Sint Hubert";343;3130,10;14;127,80;6;54,80
"Moerdijk";1082;2912,50;24;64,60;21;56,50
"Molenlanden";1440;3274,50;19;43,20;16;36,40
"Montferland";737;2047,30;27;75,00;12;33,30
"Montfoort";420;3021,40;16;115,10;7;50,40
"Mook en Middelaar";225;2871,70;8;102,10;8;102,10
"Neder-Betuwe";762;3117,70;46;188,20;22;90,00
"Nederweert";456;2672,40;37;216,80;8;46,90
"Nieuwegein";1648;2595,10;64;100,80;17;26,80
"Nieuwkoop";756;2617,90;16;55,40;9;31,20
"Nijkerk";1113;2576,30;32;74,10;6;13,90
"Nijmegen";4918;2768,70;194;109,20;116;65,30
"Nissewaard";3178;3729,70;88;103,30;37;43,40
"Noardeast-Fryslân";444;980,90;10;22,10;6;13,30
"Noord-Beveland";101;1367,50;2;27,10;1;13,50
"Noordenveld";292;935,30;7;22,40;14;44,80
"Noordoostpolder";783;1650,40;21;44,30;13;27,40
"Noordwijk";1200;2753,20;38;87,20;8;18,40
"Nuenen, Gerwen en Nederwetten";602;2574,30;22;94,10;12;51,30
"Nunspeet";624;2243,90;64;230,10;23;82,70
"Oegstgeest";647;2599,30;16;64,30;4;16,10
"Oirschot";609;3248,20;18;96,00;17;90,70
"Oisterwijk";700;2663,00;29;110,30;14;53,30
"Oldambt";313;819,60;11;28,80;6;15,70
"Oldebroek";427;1805,50;40;169,10;20;84,60
"Oldenzaal";1034;3247,30;23;72,20;25;78,50
"Olst-Wijhe";279;1528,90;12;65,80;8;43,80
"Ommen";297;1647,10;9;49,90;5;27,70
"Oost Gelre";809;2730,70;22;74,30;23;77,60
"Oosterhout";1764;3147,10;55;98,10;22;39,20
"Ooststellingwerf";309;1213,90;7;27,50;1;3,90
"Oostzaan";325;3343,60;13;133,70;3;30,90
"Opmeer";222;1879,40;3;25,40;2;16,90
"Opsterland";251;846,10;11;37,10;0;0,00
"Oss";3164;3439,20;192;208,70;106;115,20
"Oude IJsselstreek";778;1975,90;25;63,50;13;33,00
"Ouder-Amstel";488;3456,60;8;56,70;0;0,00
"Oudewater";295;2889,30;32;313,40;12;117,50
"Overbetuwe";982;2047,30;62;129,30;20;41,70
"Papendrecht";1032;3210,90;10;31,10;17;52,90
"Peel en Maas";1116;2558,00;148;339,20;65;149,00
"Pekela";105;863,30;7;57,60;2;16,40
"Pijnacker-Nootdorp";1819;3282,70;37;66,80;21;37,90
"Purmerend";1959;2404,80;94;115,40;47;57,70
"Putten";520;2155,90;13;53,90;2;8,30
"Raalte";837;2221,10;27;71,60;25;66,30
"Reimerswaal";329;1448,10;8;35,20;5;22,00
"Renkum";667;2123,60;20;63,70;11;35,00
"Renswoude";119;2169,20;5;91,10;5;91,10
"Reusel-De Mierden";570;4354,50;15;114,60;4;30,60
"Rheden";915;2095,20;39;89,30;19;43,50
"Rhenen";521;2590,90;14;69,60;6;29,80
"Ridderkerk";1819;3925,20;52;112,20;33;71,20
"Rijssen-Holten";1176;3077,20;32;83,70;33;86,30
"Rijswijk";1881;3443,90;73;133,70;57;104,40
"Roerdalen";296;1442,80;28;136,50;9;43,90
"Roermond";1105;1894,80;66;113,20;25;42,90
"Roosendaal";2774;3588,80;57;73,70;40;51,70
"Rotterdam";32695;5011,80;1076;164,90;570;87,40
"Rozendaal";20;1179,20;1;59,00;0;0,00
"Rucphen";791;3445,70;20;87,10;11;47,90
"s-Gravenhage";21393;3919,10;754;138,10;366;67,00
"Schagen";1013;2179,90;23;49,50;15;32,30
"Scherpenzeel";229;2317,10;5;50,60;2;20,20
"Schiedam";3781;4795,70;117;148,40;36;45,70
"Schiermonnikoog";4;422,80;1;105,70;0;0,00
"Schouwen-Duiveland";509;1501,80;16;47,20;16;47,20
"Simpelveld";170;1612,30;20;189,70;5;47,40
"Sint Anthonis";290;2485,90;21;180,00;11;94,30
"Sint-Michielsgestel";858;2931,90;39;133,30;23;78,60
"Sittard-Geleen";1538;1665,80;134;145,10;70;75,80
"Sliedrecht";840;3334,90;11;43,70;12;47,60
"Sluis";364;1569,10;15;64,70;5;21,60
"Smallingerland";554;986,20;13;23,10;9;16,00
"Soest";1376;2949,20;43;92,20;33;70,70
"Someren";503;2597,10;36;185,90;9;46,50
"Son en Breugel";441;2543,30;32;184,50;17;98,00
"Stadskanaal";572;1808,10;9;28,40;7;22,10
"Staphorst";431;2513,10;11;64,10;5;29,20
"Stede Broec";398;1832,80;20;92,10;5;23,00
"Steenbergen";744;3041,20;20;81,80;14;57,20
"Steenwijkerland";588;1331,60;18;40,80;10;22,60
"Stein";396;1587,40;49;196,40;16;64,10
"Stichtse Vecht";1858;2857,20;62;95,30;22;33,80
"Súdwest-Fryslân";1542;1715,60;25;27,80;25;27,80
"Terneuzen";946;1739,50;33;60,70;4;7,40
"Terschelling";71;1465,10;1;20,60;1;20,60
"Texel";116;854,50;6;44,20;2;14,70
"Teylingen";1093;2912,80;24;64,00;6;16,00
"Tholen";752;2916,50;49;190,00;19;73,70
"Tiel";1307;3105,10;58;137,80;31;73,60
"Tilburg";6819;3097,50;303;137,60;201;91,30
"Tubbergen";1021;4799,50;13;61,10;8;37,60
"Twenterand";952;2820,90;16;47,40;5;14,80
"Tynaarlo";381;1126,60;12;35,50;11;32,50
"Tytsjerksteradiel";322;1002,80;8;24,90;3;9,30
"Uden";951;2257,20;117;277,70;67;159,00
"Uitgeest";357;2613,90;7;51,30;3;22,00
"Uithoorn";859;2901,80;23;77,70;4;13,50
"Urk";816;3872,30;29;137,60;6;28,50
"Utrecht";13372;3730,50;426;118,80;154;43,00
"Utrechtse Heuvelrug";1216;2444,10;33;66,30;21;42,20
"Vaals";99;979,80;10;99,00;2;19,80
"Valkenburg aan de Geul";317;1939,80;23;140,70;11;67,30
"Valkenswaard";951;3045,80;24;76,90;42;134,50
"Veendam";250;913,00;4;14,60;1;3,70
"Veenendaal";2225;3339,90;68;102,10;17;25,50
"Veere";185;844,40;10;45,60;2;9,10
"Veldhoven";1389;3050,90;41;90,10;23;50,50
"Velsen";1827;2658,20;54;78,60;49;71,30
"Venlo";2771;2721,20;151;148,30;82;80,50
"Venray";1281;2936,50;43;98,60;23;52,70
"Vijfheerenlanden";1885;3312,10;56;98,40;50;87,90
"Vlaardingen";3493;4749,90;84;114,20;55;74,80
"Vlieland";19;1636,50;0;0,00;0;0,00
"Vlissingen";510;1150,20;16;36,10;7;15,80
"Voerendaal";198;1585,10;18;144,10;8;64,00
"Voorschoten";616;2406,90;12;46,90;12;46,90
"Voorst";428;1739,80;18;73,20;11;44,70
"Vught";727;2735,10;45;169,30;22;82,80
"Waadhoeke";574;1245,70;17;36,90;20;43,40
"Waalre";462;2645,90;9;51,50;9;51,50
"Waalwijk";1591;3271,90;54;111,10;48;98,70
"Waddinxveen";919;3129,60;34;115,80;7;23,80
"Wageningen";924;2316,90;30;75,20;24;60,20
"Wassenaar";628;2393,70;16;61,00;14;53,40
"Waterland";525;3014,80;24;137,80;13;74,70
"Weert";1372;2733,90;84;167,40;23;45,80
"Weesp";797;4003,80;11;55,30;15;75,40
"West Betuwe";1380;2693,60;65;126,90;35;68,30
"West Maas en Waal";444;2293,60;24;124,00;15;77,50
"Westerkwartier";567;894,70;20;31,60;8;12,60
"Westerveld";207;1063,80;10;51,40;5;25,70
"Westervoort";316;2110,30;13;86,80;7;46,70
"Westerwolde";331;1267,20;12;45,90;3;11,50
"Westland";3851;3481,70;97;87,70;45;40,70
"Weststellingwerf";347;1338,60;5;19,30;9;34,70
"Westvoorne";386;2617,80;9;61,00;1;6,80
"Wierden";928;3799,50;8;32,80;10;40,90
"Wijchen";1033;2513,70;57;138,70;23;56,00
"Wijdemeren";608;2497,10;14;57,50;5;20,50
"Wijk bij Duurstede";552;2311,70;14;58,60;7;29,30
"Winterswijk";542;1881,80;11;38,20;7;24,30
"Woensdrecht";644;2930,50;11;50,10;20;91,00
"Woerden";1494;2853,40;72;137,50;23;43,90
"Wormerland";442;2717,70;24;147,60;13;79,90
"Woudenberg";320;2389,80;11;82,20;4;29,90
"Zaanstad";5274;3362,30;188;119,90;87;55,50
"Zaltbommel";884;3048,00;25;86,20;10;34,50
"Zandvoort";363;2118,30;15;87,50;9;52,50
"Zeewolde";373;1651,30;14;62,00;6;26,60
"Zeist";1689;2600,10;48;73,90;33;50,80
"Zevenaar";821;1874,30;60;137,00;20;45,70
"Zoetermeer";3854;3076,70;78;62,30;25;20,00
"Zoeterwoude";239;2766,20;4;46,30;1;11,60
"Zuidplas";1540;3496,60;42;95,40;23;52,20
"Zundert";618;2829,40;29;132,80;13;59,50
"Zutphen";902;1878,80;38;79,20;16;33,30
"Zwartewaterland";530;2333,20;36;158,50;24;105,70
"Zwijndrecht";1823;4078,80;30;67,10;53;118,60
"Zwolle";2226;1724,80;61;47,30;63;48,80