"Category";"Meldingen";"Meldingen per 100000";"Zkh opname";"Zkh opname per 100000";"Overleden";"Overleden per 100000"
"'s-Hertogenbosch";528;342,40;126;81,70;78;50,60
"Aa en Hunze";14;55,10;1;3,90;0;0,00
"Aalsmeer";42;132,40;9;28,40;4;12,60
"Aalten";60;222,10;9;33,30;7;25,90
"Achtkarspelen";12;43,10;0;0,00;0;0,00
"Alblasserdam";42;209,30;10;49,80;4;19,90
"Albrandswaard";108;427,40;14;55,40;8;31,70
"Alkmaar";247;227,50;54;49,70;31;28,60
"Almelo";93;127,70;23;31,60;9;12,40
"Almere";453;217,90;123;59,20;31;14,90
"Alphen aan den Rijn";220;198,20;62;55,90;25;22,50
"Alphen-Chaam";47;463,10;18;177,40;5;49,30
"Altena";135;243,70;32;57,80;11;19,90
"Ameland";0;0,00;0;0,00;0;0,00
"Amersfoort";240;153,60;60;38,40;23;14,70
"Amstelveen";331;364,40;58;63,80;35;38,50
"Amsterdam";2733;316,70;621;72,00;284;32,90
"Apeldoorn";456;280,70;96;59,10;50;30,80
"Appingedam";5;42,70;3;25,60;0;0,00
"Arnhem";408;256,20;67;42,10;32;20,10
"Assen";47;69,20;12;17,70;2;2,90
"Asten";77;460,80;18;107,70;12;71,80
"Baarle-Nassau";25;365,10;9;131,40;2;29,20
"Baarn";63;254,40;11;44,40;9;36,30
"Barendrecht";142;291,70;40;82,20;12;24,70
"Barneveld";139;239,80;18;31,10;6;10,40
"Beek";44;276,20;16;100,40;6;37,70
"Beekdaelen";172;481,40;52;145,50;23;64,40
"Beemster";14;143,60;4;41,00;1;10,30
"Beesel";44;325,50;20;147,90;8;59,20
"Berg en Dal";181;520,10;29;83,30;16;46,00
"Bergeijk";58;313,70;19;102,80;5;27,00
"Bergen (L.)";25;190,30;7;53,30;2;15,20
"Bergen (NH.)";86;286,90;16;53,40;4;13,30
"Bergen op Zoom";176;263,40;24;35,90;13;19,50
"Berkelland";97;220,90;13;29,60;7;15,90
"Bernheze";282;915,40;95;308,40;65;211,00
"Best";82;275,00;31;104,00;10;33,50
"Beuningen";75;289,80;19;73,40;5;19,30
"Beverwijk";83;201,60;15;36,40;10;24,30
"Bladel";78;386,60;21;104,10;8;39,70
"Blaricum";33;294,60;8;71,40;2;17,90
"Bloemendaal";52;222,10;7;29,90;5;21,40
"Bodegraven-Reeuwijk";65;188,60;7;20,30;1;2,90
"Boekel";91;859,50;35;330,60;21;198,30
"Borger-Odoorn";10;39,40;4;15,80;3;11,80
"Borne";50;215,40;14;60,30;6;25,90
"Borsele";27;118,40;5;21,90;0;0,00
"Boxmeer";127;437,00;20;68,80;27;92,90
"Boxtel";134;435,80;24;78,10;26;84,60
"Breda";518;281,70;146;79,40;63;34,30
"Brielle";33;192,10;11;64,00;0;0,00
"Bronckhorst";74;204,40;17;46,90;7;19,30
"Brummen";36;173,90;18;87,00;6;29,00
"Brunssum";111;395,00;44;156,60;19;67,60
"Bunnik";46;302,80;9;59,20;1;6,60
"Bunschoten";68;315,20;9;41,70;7;32,40
"Buren";63;237,10;17;64,00;8;30,10
"Capelle aan den IJssel";316;472,90;53;79,30;53;79,30
"Castricum";80;223,60;15;41,90;9;25,20
"Coevorden";57;160,60;13;36,60;2;5,60
"Cranendonck";173;846,40;63;308,20;36;176,10
"Cuijk";79;316,90;12;48,10;10;40,10
"Culemborg";75;262,70;21;73,50;7;24,50
"Dalfsen";80;280,70;16;56,10;6;21,10
"Dantumadiel";5;26,40;2;10,60;0;0,00
"De Bilt";184;429,70;27;63,00;24;56,00
"De Fryske Marren";71;138,10;16;31,10;6;11,70
"De Ronde Venen";104;236,00;39;88,50;13;29,50
"De Wolden";48;199,10;11;45,60;5;20,70
"Delft";158;153,20;38;36,80;12;11,60
"Delfzijl";18;72,80;6;24,30;0;0,00
"Den Helder";41;73,70;12;21,60;2;3,60
"Deurne";192;593,30;55;170,00;24;74,20
"Deventer";338;338,10;47;47,00;33;33,00
"Diemen";106;363,10;17;58,20;14;48,00
"Dinkelland";73;277,00;20;75,90;10;38,00
"Doesburg";32;287,00;9;80,70;6;53,80
"Doetinchem";104;180,70;26;45,20;15;26,10
"Dongen";84;322,40;20;76,80;13;49,90
"Dordrecht";546;460,20;84;70,80;62;52,30
"Drechterland";46;234,70;5;25,50;8;40,80
"Drimmelen";67;246,80;18;66,30;8;29,50
"Dronten";124;303,80;30;73,50;12;29,40
"Druten";115;611,80;25;133,00;8;42,60
"Duiven";52;205,30;14;55,30;6;23,70
"Echt-Susteren";93;294,00;39;123,30;16;50,60
"Edam-Volendam";126;349,00;25;69,30;3;8,30
"Ede";222;191,90;54;46,70;20;17,30
"Eemnes";18;197,50;2;21,90;1;11,00
"Eersel";69;361,10;27;141,30;10;52,30
"Eijsden-Margraten";172;670,40;54;210,50;27;105,20
"Eindhoven";548;236,60;182;78,60;85;36,70
"Elburg";150;649,70;28;121,30;8;34,70
"Emmen";103;96,20;20;18,70;11;10,30
"Enkhuizen";30;162,10;18;97,30;4;21,60
"Enschede";247;155,40;53;33,30;25;15,70
"Epe";138;416,40;47;141,80;23;69,40
"Ermelo";150;558,50;33;122,90;24;89,40
"Etten-Leur";206;470,60;40;91,40;30;68,50
"Geertruidenberg";43;199,90;11;51,10;6;27,90
"Geldrop-Mierlo";110;277,80;33;83,30;16;40,40
"Gemert-Bakel";214;702,90;79;259,50;32;105,10
"Gennep";58;339,80;16;93,70;10;58,60
"Gilze en Rijen";84;317,80;20;75,70;15;56,80
"Goeree-Overflakkee";263;530,10;54;108,80;34;68,50
"Goes";78;207,20;11;29,20;11;29,20
"Goirle";82;344,60;32;134,50;17;71,40
"Gooise Meren";121;209,70;23;39,90;9;15,60
"Gorinchem";152;414,40;18;49,10;15;40,90
"Gouda";269;367,60;42;57,40;41;56,00
"Grave";72;576,80;21;168,20;11;88,10
"Groningen";176;76,10;18;7,80;3;1,30
"Gulpen-Wittem";79;554,50;21;147,40;14;98,30
"Haaksbergen";56;230,70;14;57,70;7;28,80
"Haaren";57;401,50;18;126,80;8;56,40
"Haarlem";298;184,80;61;37,80;57;35,30
"Haarlemmermeer";291;188,70;68;44,10;27;17,50
"Halderberge";60;198,70;14;46,40;7;23,20
"Hardenberg";170;280,60;23;38,00;8;13,20
"Harderwijk";180;378,30;43;90,40;21;44,10
"Hardinxveld-Giessendam";34;188,40;2;11,10;2;11,10
"Harlingen";17;107,90;4;25,40;1;6,30
"Hattem";42;345,00;16;131,40;5;41,10
"Heemskerk";94;240,00;28;71,50;10;25,50
"Heemstede";99;362,80;11;40,30;32;117,30
"Heerde";193;1040,70;54;291,20;28;151,00
"Heerenveen";94;187,00;13;25,90;21;41,80
"Heerhugowaard";147;259,10;27;47,60;9;15,90
"Heerlen";388;446,80;125;144,00;54;62,20
"Heeze-Leende";70;438,50;16;100,20;8;50,10
"Heiloo";49;208,80;9;38,40;8;34,10
"Hellendoorn";96;268,10;8;22,30;12;33,50
"Hellevoetsluis";75;187,30;16;40,00;3;7,50
"Helmond";423;462,20;115;125,70;43;47,00
"Hendrik-Ido-Ambacht";72;232,50;10;32,30;6;19,40
"Hengelo";129;159,90;21;26,00;19;23,50
"Het Hogeland";35;73,10;7;14,60;3;6,30
"Heumen";74;448,90;17;103,10;9;54,60
"Heusden";142;321,70;44;99,70;22;49,80
"Hillegom";36;163,90;8;36,40;2;9,10
"Hilvarenbeek";50;326,10;9;58,70;6;39,10
"Hilversum";220;243,80;33;36,60;25;27,70
"Hoeksche Waard";311;358,90;76;87,70;20;23,10
"Hof van Twente";63;180,30;15;42,90;5;14,30
"Hollands Kroon";63;131,80;26;54,40;6;12,50
"Hoogeveen";92;165,30;19;34,10;8;14,40
"Hoorn";97;132,90;35;47,90;12;16,40
"Horst aan de Maas";136;321,60;41;96,90;24;56,70
"Houten";142;284,50;24;48,10;14;28,00
"Huizen";160;387,70;23;55,70;10;24,20
"Hulst";31;112,60;9;32,70;5;18,20
"IJsselstein";152;445,00;36;105,40;33;96,60
"Kaag en Braassem";31;115,40;6;22,30;2;7,40
"Kampen";343;637,80;59;109,70;27;50,20
"Kapelle";25;195,50;3;23,50;1;7,80
"Katwijk";280;428,80;31;47,50;15;23,00
"Kerkrade";208;455,70;64;140,20;35;76,70
"Koggenland";36;158,30;6;26,40;6;26,40
"Krimpen aan den IJssel";82;279,10;10;34,00;8;27,20
"Krimpenerwaard";196;349,70;45;80,30;34;60,70
"Laarbeek";125;559,70;41;183,60;26;116,40
"Landerd";147;946,60;39;251,10;21;135,20
"Landgraaf";144;383,10;52;138,30;13;34,60
"Landsmeer";23;200,20;3;26,10;3;26,10
"Langedijk";45;160,80;16;57,20;4;14,30
"Lansingerland";191;310,10;43;69,80;25;40,60
"Laren";26;232,20;8;71,50;2;17,90
"Leeuwarden";68;55,20;33;26,80;6;4,90
"Leiden";178;142,50;40;32,00;18;14,40
"Leiderdorp";39;143,90;13;48,00;6;22,10
"Leidschendam-Voorburg";151;200,20;20;26,50;15;19,90
"Lelystad";191;245,20;63;80,90;29;37,20
"Leudal";190;532,50;52;145,70;32;89,70
"Leusden";53;176,50;9;30,00;5;16,70
"Lingewaard";130;279,70;31;66,70;10;21,50
"Lisse";29;127,20;8;35,10;2;8,80
"Lochem";98;291,80;15;44,70;15;44,70
"Loon op Zand";61;261,50;24;102,90;7;30,00
"Lopik";63;435,30;19;131,30;8;55,30
"Loppersum";2;20,80;0;0,00;0;0,00
"Losser";26;114,90;7;30,90;0;0,00
"Maasdriel";61;247,00;15;60,70;7;28,30
"Maasgouw";107;451,20;27;113,80;14;59,00
"Maassluis";91;277,70;20;61,00;8;24,40
"Maastricht";920;756,80;187;153,80;139;114,30
"Medemblik";74;165,10;19;42,40;6;13,40
"Meerssen";116;613,00;22;116,30;13;68,70
"Meierijstad";558;690,50;211;261,10;131;162,10
"Meppel";45;134,10;9;26,80;5;14,90
"Middelburg";62;127,70;18;37,10;10;20,60
"Midden-Delfland";29;149,60;4;20,60;0;0,00
"Midden-Drenthe";22;66,30;6;18,10;0;0,00
"Midden-Groningen";32;52,50;6;9,90;3;4,90
"Mill en Sint Hubert";41;376,50;9;82,60;5;45,90
"Moerdijk";83;224,60;14;37,90;8;21,60
"Molenlanden";122;278,20;18;41,00;8;18,20
"Montferland";103;285,90;21;58,30;9;25,00
"Montfoort";45;321,50;13;92,90;5;35,70
"Mook en Middelaar";40;512,40;6;76,90;5;64,10
"Neder-Betuwe";145;603,30;37;153,90;21;87,40
"Nederweert";53;311,70;31;182,30;7;41,20
"Nieuwegein";157;249,10;44;69,80;14;22,20
"Nieuwkoop";52;181,60;9;31,40;5;17,50
"Nijkerk";66;153,70;22;51,20;3;7,00
"Nijmegen";664;375,70;128;72,40;70;39,60
"Nissewaard";200;235,90;55;64,90;17;20,00
"Noardeast-Fryslân";29;64,20;6;13,30;4;8,90
"Noord-Beveland";10;136,80;1;13,70;0;0,00
"Noordenveld";21;67,10;4;12,80;1;3,20
"Noordoostpolder";81;172,90;14;29,90;10;21,30
"Noordwijk";54;126,00;19;44,30;3;7,00
"Nuenen, Gerwen en Nederwetten";55;237,20;18;77,60;9;38,80
"Nunspeet";224;815,10;56;203,80;21;76,40
"Oegstgeest";46;188,30;8;32,80;3;12,30
"Oirschot";67;359,80;13;69,80;9;48,30
"Oisterwijk";76;290,70;23;88,00;11;42,10
"Oldambt";13;34,10;7;18,40;2;5,20
"Oldebroek";171;724,60;40;169,50;19;80,50
"Oldenzaal";49;153,90;13;40,80;7;22,00
"Olst-Wijhe";51;282,20;12;66,40;8;44,30
"Ommen";53;297,50;9;50,50;2;11,20
"Oost Gelre";78;262,60;18;60,60;6;20,20
"Oosterhout";136;244,50;48;86,30;17;30,60
"Ooststellingwerf";7;27,50;3;11,80;0;0,00
"Oostzaan";26;266,50;11;112,70;2;20,50
"Opmeer";8;67,90;1;8,50;1;8,50
"Opsterland";23;77,40;7;23,60;0;0,00
"Oss";495;541,30;164;179,30;87;95,10
"Oude IJsselstreek";78;197,60;21;53,20;9;22,80
"Ouder-Amstel";39;280,30;5;35,90;0;0,00
"Oudewater";58;568,60;26;254,90;8;78,40
"Overbetuwe";137;288,20;57;119,90;16;33,70
"Papendrecht";80;247,80;9;27,90;7;21,70
"Peel en Maas";277;639,60;144;332,50;64;147,80
"Pekela";5;40,90;4;32,70;0;0,00
"Pijnacker-Nootdorp";136;250,30;24;44,20;16;29,40
"Purmerend";227;283,30;66;82,40;35;43,70
"Putten";35;144,60;10;41,30;0;0,00
"Raalte";155;413,20;24;64,00;17;45,30
"Reimerswaal";32;141,10;4;17,60;2;8,80
"Renkum";80;255,60;14;44,70;7;22,40
"Renswoude";19;361,30;5;95,10;5;95,10
"Reusel-De Mierden";24;183,80;11;84,20;2;15,30
"Rheden";146;334,60;34;77,90;14;32,10
"Rhenen";48;240,00;11;55,00;6;30,00
"Ridderkerk";153;330,90;37;80,00;16;34,60
"Rijssen-Holten";202;527,40;29;75,70;23;60,10
"Rijswijk";148;276,80;36;67,30;22;41,10
"Roerdalen";49;237,70;27;131,00;8;38,80
"Roermond";137;235,40;59;101,40;23;39,50
"Roosendaal";226;293,40;28;36,30;21;27,30
"Rotterdam";2797;433,90;525;81,40;346;53,70
"Rozendaal";3;181,40;1;60,50;0;0,00
"Rucphen";70;310,10;10;44,30;10;44,30
"s-Gravenhage";1841;342,30;343;63,80;244;45,40
"Schagen";74;159,00;19;40,80;10;21,50
"Scherpenzeel";33;334,20;4;40,50;2;20,30
"Schiedam";278;356,40;58;74,40;23;29,50
"Schiermonnikoog";0;0,00;0;0,00;0;0,00
"Schouwen-Duiveland";94;278,30;11;32,60;9;26,60
"Simpelveld";47;446,90;19;180,70;5;47,50
"Sint Anthonis";71;611,80;20;172,30;11;94,80
"Sint-Michielsgestel";121;417,40;36;124,20;19;65,50
"Sittard-Geleen";414;446,80;115;124,10;63;68,00
"Sliedrecht";67;267,70;9;36,00;5;20,00
"Sluis";17;72,70;8;34,20;4;17,10
"Smallingerland";58;103,70;9;16,10;5;8,90
"Soest";93;201,30;23;49,80;12;26,00
"Someren";106;548,60;33;170,80;8;41,40
"Son en Breugel";74;437,80;31;183,40;14;82,80
"Stadskanaal";9;28,30;2;6,30;2;6,30
"Staphorst";60;352,90;8;47,10;4;23,50
"Stede Broec";50;230,40;19;87,50;5;23,00
"Steenbergen";86;343,30;13;51,90;13;51,90
"Steenwijkerland";91;207,10;14;31,90;5;11,40
"Stein";121;484,80;43;172,30;15;60,10
"Stichtse Vecht";129;200,50;34;52,80;13;20,20
"Súdwest-Fryslân";106;118,20;18;20,10;6;6,70
"Terneuzen";119;218,00;25;45,80;4;7,30
"Terschelling";2;40,90;0;0,00;0;0,00
"Texel";11;81,20;5;36,90;2;14,80
"Teylingen";65;175,40;14;37,80;2;5,40
"Tholen";169;655,50;40;155,20;16;62,10
"Tiel";149;354,90;42;100,10;18;42,90
"Tilburg";840;386,60;251;115,50;162;74,60
"Tubbergen";81;380,70;12;56,40;5;23,50
"Twenterand";61;180,50;12;35,50;2;5,90
"Tynaarlo";40;118,70;9;26,70;0;0,00
"Tytsjerksteradiel";16;50,30;4;12,60;1;3,10
"Uden";263;629,50;115;275,20;63;150,80
"Uitgeest";25;184,80;5;37,00;1;7,40
"Uithoorn";57;193,70;16;54,40;2;6,80
"Urk";83;399,50;22;105,90;4;19,30
"Utrecht";1340;379,70;266;75,40;118;33,40
"Utrechtse Heuvelrug";124;250,40;28;56,50;14;28,30
"Vaals";30;297,30;10;99,10;1;9,90
"Valkenburg aan de Geul";87;528,20;19;115,40;7;42,50
"Valkenswaard";180;582,30;19;61,50;37;119,70
"Veendam";8;29,10;2;7,30;0;0,00
"Veenendaal";196;298,80;47;71,70;11;16,80
"Veere";27;123,70;6;27,50;2;9,20
"Veldhoven";130;286,70;31;68,40;16;35,30
"Velsen";283;414,10;32;46,80;39;57,10
"Venlo";309;304,10;129;127,00;63;62,00
"Venray";126;290,80;37;85,40;17;39,20
"Vijfheerenlanden";273;490,00;34;61,00;37;66,40
"Vlaardingen";303;418,50;43;59,40;30;41,40
"Vlieland";0;0,00;0;0,00;0;0,00
"Vlissingen";51;114,90;9;20,30;5;11,30
"Voerendaal";47;377,40;17;136,50;8;64,20
"Voorschoten";66;259,00;9;35,30;11;43,20
"Voorst";82;335,80;18;73,70;11;45,10
"Vught";107;405,40;42;159,10;18;68,20
"Waadhoeke";101;219,40;12;26,10;15;32,60
"Waalre";30;173,90;7;40,60;5;29,00
"Waalwijk";187;387,60;36;74,60;36;74,60
"Waddinxveen";78;275,50;16;56,50;7;24,70
"Wageningen";52;134,10;20;51,60;9;23,20
"Wassenaar";56;213,70;9;34,30;12;45,80
"Waterland";33;190,60;16;92,40;4;23,10
"Weert";142;284,90;67;134,40;14;28,10
"Weesp";81;419,00;9;46,60;13;67,20
"West Betuwe";213;420,10;43;84,80;27;53,30
"West Maas en Waal";84;440,30;20;104,80;9;47,20
"Westerkwartier";58;92,00;14;22,20;4;6,30
"Westerveld";33;170,60;9;46,50;4;20,70
"Westervoort";43;287,70;12;80,30;6;40,10
"Westerwolde";6;23,80;5;19,80;0;0,00
"Westland";285;262,40;57;52,50;30;27,60
"Weststellingwerf";29;112,20;3;11,60;4;15,50
"Westvoorne";25;170,90;6;41,00;0;0,00
"Wierden";50;205,30;5;20,50;6;24,60
"Wijchen";149;363,80;44;107,40;13;31,70
"Wijdemeren";33;137,40;8;33,30;0;0,00
"Wijk bij Duurstede";40;168,30;10;42,10;1;4,20
"Winterswijk";48;166,10;7;24,20;3;10,40
"Woensdrecht";71;324,70;5;22,90;7;32,00
"Woerden";178;341,00;49;93,90;20;38,30
"Wormerland";48;294,00;20;122,50;6;36,70
"Woudenberg";33;250,60;9;68,40;2;15,20
"Zaanstad";455;291,90;117;75,10;48;30,80
"Zaltbommel";101;355,00;20;70,30;9;31,60
"Zandvoort";35;205,70;10;58,80;8;47,00
"Zeewolde";50;224,10;12;53,80;6;26,90
"Zeist";217;339,40;37;57,90;24;37,50
"Zevenaar";119;273,60;44;101,20;15;34,50
"Zoetermeer";244;195,30;52;41,60;14;11,20
"Zoeterwoude";14;165,70;3;35,50;1;11,80
"Zuidplas";152;355,50;24;56,10;21;49,10
"Zundert";104;481,20;24;111,00;11;50,90
"Zutphen";105;220,50;31;65,10;13;27,30
"Zwartewaterland";146;648,80;35;155,50;19;84,40
"Zwijndrecht";164;367,40;23;51,50;26;58,20
"Zwolle";361;283,10;53;41,60;46;36,10