"Category";"Meldingen";"Meldingen per 100000";"Zkh opname";"Zkh opname per 100000";"Overleden";"Overleden per 100000"
"'s-Hertogenbosch";1008;648,70;134;86,20;79;50,80
"Aa en Hunze";46;181,20;1;3,90;0;0,00
"Aalsmeer";164;514,40;9;28,20;4;12,50
"Aalten";105;387,60;9;33,20;7;25,80
"Achtkarspelen";38;136,40;0;0,00;0;0,00
"Alblasserdam";142;704,70;11;54,60;5;24,80
"Albrandswaard";241;939,40;15;58,50;8;31,20
"Alkmaar";489;446,20;57;52,00;31;28,30
"Almelo";216;295,40;25;34,20;10;13,70
"Almere";1371;645,50;137;64,50;37;17,40
"Alphen aan den Rijn";669;557,70;68;56,70;26;21,70
"Alphen-Chaam";78;762,20;18;175,90;5;48,90
"Altena";230;411,00;33;59,00;11;19,70
"Ameland";1;26,80;0;0,00;0;0,00
"Amersfoort";797;506,60;78;49,60;25;15,90
"Amstelveen";914;996,00;69;75,20;40;43,60
"Amsterdam";13021;1489,40;760;86,90;300;34,30
"Apeldoorn";754;460,20;101;61,60;51;31,10
"Appingedam";18;154,70;3;25,80;0;0,00
"Arnhem";877;542,70;73;45,20;34;21,00
"Assen";136;197,80;12;17,50;2;2,90
"Asten";98;586,30;18;107,70;12;71,80
"Baarle-Nassau";40;581,50;9;130,80;2;29,10
"Baarn";116;466,50;12;48,30;9;36,20
"Barendrecht";476;977,60;40;82,20;12;24,60
"Barneveld";232;391,20;18;30,40;8;13,50
"Beek";57;359,20;17;107,10;6;37,80
"Beekdaelen";215;598,00;52;144,60;23;64,00
"Beemster";46;459,70;4;40,00;1;10,00
"Beesel";54;400,70;20;148,40;8;59,40
"Berg en Dal";277;791,00;31;88,50;19;54,30
"Bergeijk";173;927,60;19;101,90;5;26,80
"Bergen (L.)";47;359,30;7;53,50;2;15,30
"Bergen (NH.)";196;656,60;20;67,00;4;13,40
"Bergen op Zoom";594;878,80;30;44,40;13;19,20
"Berkelland";158;361,10;14;32,00;7;16,00
"Bernheze";348;1111,80;95;303,50;65;207,70
"Best";151;503,10;31;103,30;10;33,30
"Beuningen";168;647,80;19;73,30;5;19,30
"Beverwijk";226;543,10;15;36,00;12;28,80
"Bladel";192;940,20;21;102,80;9;44,10
"Blaricum";73;630,30;8;69,10;2;17,30
"Bloemendaal";160;679,80;7;29,70;5;21,20
"Bodegraven-Reeuwijk";234;669,80;8;22,90;7;20,00
"Boekel";99;918,90;34;315,60;20;185,60
"Borger-Odoorn";34;133,10;4;15,70;3;11,70
"Borne";70;299,60;14;59,90;6;25,70
"Borsele";55;241,90;5;22,00;1;4,40
"Boxmeer";181;615,60;20;68,00;27;91,80
"Boxtel";178;577,50;24;77,90;26;84,40
"Breda";1262;685,20;151;82,00;67;36,40
"Brielle";80;463,30;12;69,50;0;0,00
"Bronckhorst";121;336,10;17;47,20;7;19,40
"Brummen";79;380,10;18;86,60;6;28,90
"Brunssum";163;586,20;46;165,40;19;68,30
"Bunnik";94;617,80;10;65,70;1;6,60
"Bunschoten";130;593,90;12;54,80;7;32,00
"Buren";86;320,90;17;63,40;8;29,90
"Capelle aan den IJssel";745;1108,40;58;86,30;60;89,30
"Castricum";135;374,80;15;41,60;9;25,00
"Coevorden";89;252,10;13;36,80;2;5,70
"Cranendonck";219;1032,10;63;296,90;36;169,70
"Cuijk";129;512,80;12;47,70;10;39,80
"Culemborg";198;682,30;24;82,70;8;27,60
"Dalfsen";132;460,20;16;55,80;7;24,40
"Dantumadiel";46;243,30;2;10,60;0;0,00
"De Bilt";305;707,40;29;67,30;24;55,70
"De Fryske Marren";150;290,70;17;32,90;6;11,60
"De Ronde Venen";291;653,90;40;89,90;13;29,20
"De Wolden";66;271,00;11;45,20;5;20,50
"Delft";983;949,40;41;39,60;12;11,60
"Delfzijl";69;279,80;6;24,30;0;0,00
"Den Helder";94;166,80;13;23,10;2;3,50
"Deurne";277;853,90;56;172,60;25;77,10
"Deventer";545;540,20;48;47,60;36;35,70
"Diemen";403;1290,80;20;64,10;14;44,80
"Dinkelland";111;419,60;20;75,60;10;37,80
"Doesburg";54;488,30;9;81,40;6;54,30
"Doetinchem";228;392,70;27;46,50;15;25,80
"Dongen";132;502,00;20;76,10;13;49,40
"Dordrecht";1043;873,40;95;79,60;68;56,90
"Drechterland";80;405,40;5;25,30;8;40,50
"Drimmelen";132;484,80;19;69,80;8;29,40
"Dronten";159;381,70;31;74,40;12;28,80
"Druten";143;755,50;25;132,10;8;42,30
"Duiven";101;402,80;14;55,80;6;23,90
"Echt-Susteren";114;360,40;39;123,30;18;56,90
"Edam-Volendam";282;779,90;26;71,90;3;8,30
"Ede";564;481,90;58;49,60;23;19,70
"Eemnes";42;453,20;2;21,60;1;10,80
"Eersel";172;890,00;27;139,70;10;51,70
"Eijsden-Margraten";202;784,00;54;209,60;27;104,80
"Eindhoven";1363;580,40;185;78,80;89;37,90
"Elburg";177;762,00;28;120,50;8;34,40
"Emmen";348;325,30;21;19,60;12;11,20
"Enkhuizen";47;252,00;18;96,50;4;21,40
"Enschede";528;330,80;59;37,00;26;16,30
"Epe";182;548,50;49;147,70;23;69,30
"Ermelo";210;778,00;33;122,30;23;85,20
"Etten-Leur";323;736,10;43;98,00;30;68,40
"Geertruidenberg";87;403,00;12;55,60;6;27,80
"Geldrop-Mierlo";183;459,80;33;82,90;16;40,20
"Gemert-Bakel";270;878,30;79;257,00;32;104,10
"Gennep";106;626,00;17;100,40;10;59,10
"Gilze en Rijen";153;575,20;20;75,20;15;56,40
"Goeree-Overflakkee";411;819,60;56;111,70;35;69,80
"Goes";218;570,40;12;31,40;13;34,00
"Goirle";182;761,00;32;133,80;18;75,30
"Gooise Meren";351;604,30;25;43,00;14;24,10
"Gorinchem";319;859,40;19;51,20;16;43,10
"Gouda";744;1012,50;48;65,30;43;58,50
"Grave";99;793,80;21;168,40;11;88,20
"Groningen";1186;509,10;19;8,20;3;1,30
"Gulpen-Wittem";100;706,70;22;155,50;14;98,90
"Haaksbergen";189;778,40;15;61,80;7;28,80
"Haaren";80;557,30;18;125,40;8;55,70
"Haarlem";1017;623,50;73;44,80;62;38,00
"Haarlemmermeer";1067;682,40;76;48,60;28;17,90
"Halderberge";158;522,00;16;52,90;8;26,40
"Hardenberg";208;341,10;23;37,70;10;16,40
"Harderwijk";319;655,50;44;90,40;20;41,10
"Hardinxveld-Giessendam";78;425,40;2;10,90;2;10,90
"Harlingen";28;178,30;4;25,50;1;6,40
"Hattem";66;539,90;18;147,30;5;40,90
"Heemskerk";173;441,30;31;79,10;10;25,50
"Heemstede";218;798,90;13;47,60;33;120,90
"Heerde";242;1302,50;55;296,00;28;150,70
"Heerenveen";146;289,30;13;25,80;21;41,60
"Heerhugowaard";301;521,20;27;46,80;9;15,60
"Heerlen";540;620,50;126;144,80;54;62,10
"Heeze-Leende";92;570,20;16;99,20;8;49,60
"Heiloo";79;330,00;11;45,90;8;33,40
"Hellendoorn";105;292,60;8;22,30;12;33,40
"Hellevoetsluis";236;587,30;16;39,80;5;12,40
"Helmond";779;843,90;118;127,80;44;47,70
"Hendrik-Ido-Ambacht";239;764,50;12;38,40;6;19,20
"Hengelo";304;374,40;24;29,60;19;23,40
"Het Hogeland";106;221,40;7;14,60;3;6,30
"Heumen";135;819,00;18;109,20;9;54,60
"Heusden";261;583,80;45;100,70;25;55,90
"Hillegom";148;666,90;8;36,00;2;9,00
"Hilvarenbeek";109;701,60;10;64,40;7;45,10
"Hilversum";580;637,10;37;40,60;25;27,50
"Hoeksche Waard";659;752,90;80;91,40;21;24,00
"Hof van Twente";100;286,10;15;42,90;5;14,30
"Hollands Kroon";113;233,20;26;53,70;6;12,40
"Hoogeveen";138;248,00;20;35,90;8;14,40
"Hoorn";298;406,60;36;49,10;12;16,40
"Horst aan de Maas";199;468,70;41;96,60;25;58,90
"Houten";287;571,30;27;53,70;15;29,90
"Huizen";317;769,80;23;55,80;10;24,30
"Hulst";70;251,30;9;32,30;5;18,00
"IJsselstein";249;732,00;36;105,80;35;102,90
"Kaag en Braassem";99;361,60;8;29,20;3;11,00
"Kampen";429;789,40;59;108,60;37;68,10
"Kapelle";35;275,70;3;23,60;1;7,90
"Katwijk";414;629,00;32;48,60;15;22,80
"Kerkrade";286;626,00;64;140,10;35;76,60
"Koggenland";107;469,80;7;30,70;6;26,30
"Krimpen aan den IJssel";202;683,90;12;40,60;8;27,10
"Krimpenerwaard";435;772,70;47;83,50;35;62,20
"Laarbeek";168;743,20;41;181,40;26;115,00
"Landerd";176;1117,70;41;260,40;21;133,40
"Landgraaf";181;483,60;52;138,90;14;37,40
"Landsmeer";85;736,20;3;26,00;3;26,00
"Langedijk";130;461,40;17;60,30;4;14,20
"Lansingerland";532;850,80;43;68,80;25;40,00
"Laren";74;653,00;8;70,60;2;17,60
"Leeuwarden";447;360,40;37;29,80;6;4,80
"Leiden";982;785,20;46;36,80;20;16,00
"Leiderdorp";104;383,60;14;51,60;6;22,10
"Leidschendam-Voorburg";585;764,50;30;39,20;22;28,70
"Lelystad";394;499,20;68;86,20;31;39,30
"Leudal";222;619,40;54;150,70;33;92,10
"Leusden";156;512,80;9;29,60;8;26,30
"Lingewaard";244;523,10;34;72,90;10;21,40
"Lisse";82;356,20;8;34,70;2;8,70
"Lochem";146;432,70;16;47,40;15;44,50
"Loon op Zand";118;504,00;27;115,30;7;29,90
"Lopik";124;856,20;20;138,10;8;55,20
"Loppersum";13;136,80;0;0,00;0;0,00
"Losser";72;317,40;10;44,10;0;0,00
"Maasdriel";102;405,00;15;59,60;7;27,80
"Maasgouw";135;563,90;28;117,00;15;62,70
"Maassluis";279;839,70;23;69,20;9;27,10
"Maastricht";1176;967,80;192;158,00;140;115,20
"Medemblik";122;270,40;19;42,10;6;13,30
"Meerssen";143;760,00;22;116,90;13;69,10
"Meierijstad";737;906,50;211;259,50;131;161,10
"Meppel";92;270,70;11;32,40;5;14,70
"Middelburg";173;354,50;19;38,90;10;20,50
"Midden-Delfland";105;544,00;5;25,90;0;0,00
"Midden-Drenthe";48;144,50;6;18,10;0;0,00
"Midden-Groningen";95;156,30;7;11,50;4;6,60
"Mill en Sint Hubert";64;584,00;9;82,10;5;45,60
"Moerdijk";159;428,00;15;40,40;8;21,50
"Molenlanden";214;486,60;20;45,50;9;20,50
"Montferland";142;394,50;22;61,10;9;25,00
"Montfoort";105;755,30;15;107,90;6;43,20
"Mook en Middelaar";70;893,40;6;76,60;5;63,80
"Neder-Betuwe";160;654,60;37;151,40;21;85,90
"Nederweert";69;404,40;31;181,70;7;41,00
"Nieuwegein";382;601,50;46;72,40;14;22,00
"Nieuwkoop";107;370,50;9;31,20;5;17,30
"Nijkerk";223;516,20;22;50,90;3;6,90
"Nijmegen";1775;999,30;142;79,90;72;40,50
"Nissewaard";490;575,10;59;69,20;21;24,60
"Noardeast-Fryslân";110;243,00;6;13,30;4;8,80
"Noord-Beveland";21;284,30;1;13,50;0;0,00
"Noordenveld";82;262,60;4;12,80;5;16,00
"Noordoostpolder";126;265,60;17;35,80;10;21,10
"Noordwijk";207;474,90;20;45,90;3;6,90
"Nuenen, Gerwen en Nederwetten";132;564,50;18;77,00;9;38,50
"Nunspeet";267;960,10;55;197,80;21;75,50
"Oegstgeest";132;530,30;8;32,10;3;12,10
"Oirschot";125;666,70;13;69,30;9;48,00
"Oisterwijk";129;490,80;24;91,30;11;41,80
"Oldambt";54;141,40;7;18,30;3;7,90
"Oldebroek";198;837,20;40;169,10;19;80,30
"Oldenzaal";133;417,70;15;47,10;7;22,00
"Olst-Wijhe";71;389,10;12;65,80;8;43,80
"Ommen";100;554,60;9;49,90;4;22,20
"Oost Gelre";145;489,40;18;60,80;6;20,30
"Oosterhout";310;553,10;50;89,20;17;30,30
"Ooststellingwerf";19;74,60;3;11,80;0;0,00
"Oostzaan";65;668,70;12;123,50;2;20,60
"Opmeer";31;262,40;1;8,50;1;8,50
"Opsterland";44;148,30;7;23,60;0;0,00
"Oss";859;933,70;168;182,60;88;95,70
"Oude IJsselstreek";150;381,00;21;53,30;9;22,90
"Ouder-Amstel";160;1133,30;6;42,50;0;0,00
"Oudewater";92;901,10;26;254,70;9;88,10
"Overbetuwe";255;531,60;56;116,80;16;33,40
"Papendrecht";165;513,40;9;28,00;8;24,90
"Peel en Maas";319;731,20;144;330,10;65;149,00
"Pekela";11;90,40;4;32,90;0;0,00
"Pijnacker-Nootdorp";441;795,90;30;54,10;17;30,70
"Purmerend";445;546,30;72;88,40;35;43,00
"Putten";90;373,10;10;41,50;0;0,00
"Raalte";213;565,20;24;63,70;21;55,70
"Reimerswaal";60;264,10;5;22,00;2;8,80
"Renkum";157;499,90;14;44,60;7;22,30
"Renswoude";27;492,20;5;91,10;5;91,10
"Reusel-De Mierden";113;863,30;11;84,00;2;15,30
"Rheden";211;483,10;34;77,90;14;32,10
"Rhenen";73;363,00;11;54,70;6;29,80
"Ridderkerk";356;768,20;40;86,30;18;38,80
"Rijssen-Holten";244;638,50;29;75,90;24;62,80
"Rijswijk";507;928,20;43;78,70;26;47,60
"Roerdalen";67;326,60;27;131,60;8;39,00
"Roermond";261;447,60;61;104,60;23;39,40
"Roosendaal";496;641,70;34;44,00;23;29,80
"Rotterdam";9828;1506,50;643;98,60;365;56,00
"Rozendaal";5;294,80;1;59,00;0;0,00
"Rucphen";116;505,30;10;43,60;10;43,60
"s-Gravenhage";7207;1320,30;436;79,90;275;50,40
"Schagen";152;327,10;19;40,90;10;21,50
"Scherpenzeel";46;465,40;4;40,50;2;20,20
"Schiedam";926;1174,50;63;79,90;24;30,40
"Schiermonnikoog";0;0,00;0;0,00;0;0,00
"Schouwen-Duiveland";143;421,90;11;32,50;9;26,60
"Simpelveld";55;521,60;19;180,20;5;47,40
"Sint Anthonis";85;728,60;20;171,40;11;94,30
"Sint-Michielsgestel";225;768,90;36;123,00;19;64,90
"Sittard-Geleen";530;574,00;119;128,90;64;69,30
"Sliedrecht";127;504,20;9;35,70;5;19,90
"Sluis";32;137,90;9;38,80;4;17,20
"Smallingerland";93;165,60;9;16,00;5;8,90
"Soest";260;557,30;24;51,40;13;27,90
"Someren";123;635,10;33;170,40;8;41,30
"Son en Breugel";102;588,20;31;178,80;14;80,70
"Stadskanaal";54;170,70;2;6,30;2;6,30
"Staphorst";79;460,60;8;46,60;4;23,30
"Stede Broec";79;363,80;18;82,90;5;23,00
"Steenbergen";138;564,10;13;53,10;13;53,10
"Steenwijkerland";145;328,40;14;31,70;7;15,90
"Stein";143;573,20;44;176,40;15;60,10
"Stichtse Vecht";406;624,30;39;60,00;14;21,50
"Súdwest-Fryslân";205;228,10;19;21,10;6;6,70
"Terneuzen";177;325,50;25;46,00;4;7,40
"Terschelling";6;123,80;0;0,00;0;0,00
"Texel";35;257,80;5;36,80;2;14,70
"Teylingen";216;575,60;15;40,00;2;5,30
"Tholen";203;787,30;40;155,10;16;62,10
"Tiel";240;570,20;43;102,20;21;49,90
"Tilburg";1663;755,40;257;116,70;168;76,30
"Tubbergen";124;582,90;12;56,40;5;23,50
"Twenterand";72;213,30;12;35,60;2;5,90
"Tynaarlo";75;221,80;9;26,60;0;0,00
"Tytsjerksteradiel";59;183,70;5;15,60;1;3,10
"Uden";337;799,90;115;273,00;63;149,50
"Uitgeest";54;395,40;5;36,60;1;7,30
"Uithoorn";197;665,50;17;57,40;2;6,80
"Urk";91;431,80;23;109,10;4;19,00
"Utrecht";3632;1013,20;301;84,00;120;33,50
"Utrechtse Heuvelrug";254;510,50;29;58,30;14;28,10
"Vaals";36;356,30;10;99,00;2;19,80
"Valkenburg aan de Geul";101;618,00;19;116,30;7;42,80
"Valkenswaard";252;807,10;19;60,90;37;118,50
"Veendam";50;182,60;2;7,30;1;3,70
"Veenendaal";337;505,90;50;75,10;11;16,50
"Veere";60;273,90;6;27,40;2;9,10
"Veldhoven";256;562,30;31;68,10;16;35,10
"Velsen";509;740,60;34;49,50;42;61,10
"Venlo";609;598,10;134;131,60;66;64,80
"Venray";231;529,50;37;84,80;17;39,00
"Vijfheerenlanden";531;933,00;38;66,80;36;63,30
"Vlaardingen";760;1033,50;47;63,90;30;40,80
"Vlieland";3;258,40;0;0,00;0;0,00
"Vlissingen";130;293,20;9;20,30;5;11,30
"Voerendaal";60;480,30;17;136,10;8;64,00
"Voorschoten";152;593,90;9;35,20;11;43,00
"Voorst";125;508,10;17;69,10;11;44,70
"Vught";169;635,80;43;161,80;17;64,00
"Waadhoeke";141;306,00;13;28,20;15;32,60
"Waalre";78;446,70;7;40,10;5;28,60
"Waalwijk";315;647,80;38;78,10;37;76,10
"Waddinxveen";230;783,20;19;64,70;7;23,80
"Wageningen";219;549,10;21;52,70;9;22,60
"Wassenaar";167;636,50;10;38,10;12;45,70
"Waterland";103;591,50;16;91,90;4;23,00
"Weert";208;414,50;67;133,50;15;29,90
"Weesp";219;1100,20;9;45,20;13;65,30
"West Betuwe";292;569,90;44;85,90;27;52,70
"West Maas en Waal";115;594,10;21;108,50;9;46,50
"Westerkwartier";110;173,60;14;22,10;4;6,30
"Westerveld";47;241,50;9;46,30;4;20,60
"Westervoort";61;407,40;12;80,10;6;40,10
"Westerwolde";36;137,80;5;19,10;0;0,00
"Westland";777;702,50;60;54,20;30;27,10
"Weststellingwerf";57;219,90;3;11,60;4;15,40
"Westvoorne";71;481,50;6;40,70;0;0,00
"Wierden";92;376,70;7;28,70;6;24,60
"Wijchen";279;678,90;44;107,10;13;31,60
"Wijdemeren";116;476,40;8;32,90;0;0,00
"Wijk bij Duurstede";83;347,60;10;41,90;1;4,20
"Winterswijk";83;288,20;7;24,30;3;10,40
"Woensdrecht";117;532,40;6;27,30;7;31,90
"Woerden";325;620,70;53;101,20;20;38,20
"Wormerland";76;467,30;20;123,00;6;36,90
"Woudenberg";57;425,70;10;74,70;2;14,90
"Zaanstad";1097;699,40;131;83,50;52;33,20
"Zaltbommel";160;551,70;21;72,40;9;31,00
"Zandvoort";111;647,80;11;64,20;9;52,50
"Zeewolde";106;469,30;12;53,10;6;26,60
"Zeist";460;708,10;38;58,50;25;38,50
"Zevenaar";212;484,00;48;109,60;16;36,50
"Zoetermeer";921;735,20;58;46,30;14;11,20
"Zoeterwoude";39;451,40;3;34,70;1;11,60
"Zuidplas";447;1014,90;26;59,00;21;47,70
"Zundert";148;677,60;24;109,90;11;50,40
"Zutphen";163;339,50;31;64,60;13;27,10
"Zwartewaterland";183;805,60;35;154,10;21;92,40
"Zwijndrecht";374;836,80;27;60,40;27;60,40
"Zwolle";600;464,90;53;41,10;49;38,00