"Category";"Meldingen";"Meldingen per 100000";"Zkh opname";"Zkh opname per 100000";"Overleden";"Overleden per 100000"
"'s-Hertogenbosch";552;355,30;128;82,40;78;50,20
"Aa en Hunze";14;55,20;1;3,90;0;0,00
"Aalsmeer";49;153,70;9;28,20;4;12,50
"Aalten";60;221,50;9;33,20;7;25,80
"Achtkarspelen";15;53,90;0;0,00;0;0,00
"Alblasserdam";49;243,20;10;49,60;4;19,90
"Albrandswaard";124;483,30;14;54,60;8;31,20
"Alkmaar";266;242,70;54;49,30;31;28,30
"Almelo";96;131,30;23;31,40;9;12,30
"Almere";508;239,20;127;59,80;32;15,10
"Alphen aan den Rijn";242;201,70;62;51,70;25;20,80
"Alphen-Chaam";61;596,10;18;175,90;5;48,90
"Altena";149;266,20;32;57,20;11;19,70
"Ameland";0;0,00;0;0,00;0;0,00
"Amersfoort";277;176,10;62;39,40;23;14,60
"Amstelveen";373;406,50;58;63,20;35;38,10
"Amsterdam";3659;418,50;635;72,60;282;32,30
"Apeldoorn";476;290,50;97;59,20;50;30,50
"Appingedam";5;43,00;3;25,80;0;0,00
"Arnhem";437;270,40;67;41,50;32;19,80
"Assen";52;75,60;12;17,50;2;2,90
"Asten";79;472,70;18;107,70;12;71,80
"Baarle-Nassau";27;392,50;9;130,80;2;29,10
"Baarn";66;265,40;11;44,20;9;36,20
"Barendrecht";165;338,90;40;82,20;12;24,60
"Barneveld";141;237,70;18;30,40;6;10,10
"Beek";44;277,30;16;100,80;6;37,80
"Beekdaelen";172;478,40;52;144,60;23;64,00
"Beemster";19;189,90;4;40,00;1;10,00
"Beesel";45;333,90;20;148,40;8;59,40
"Berg en Dal";184;525,40;29;82,80;16;45,70
"Bergeijk";58;311,00;19;101,90;5;26,80
"Bergen (L.)";25;191,10;7;53,50;2;15,30
"Bergen (NH.)";101;338,40;16;53,60;4;13,40
"Bergen op Zoom";249;368,40;25;37,00;13;19,20
"Berkelland";96;219,40;12;27,40;7;16,00
"Bernheze";282;900,90;95;303,50;65;207,70
"Best";88;293,20;31;103,30;10;33,30
"Beuningen";80;308,50;19;73,30;5;19,30
"Beverwijk";86;206,70;15;36,00;10;24,00
"Bladel";79;386,80;21;102,80;8;39,20
"Blaricum";39;336,80;8;69,10;2;17,30
"Bloemendaal";57;242,20;7;29,70;5;21,20
"Bodegraven-Reeuwijk";73;208,90;7;20,00;1;2,90
"Boekel";89;826,10;34;315,60;20;185,60
"Borger-Odoorn";10;39,10;4;15,70;3;11,70
"Borne";50;214,00;14;59,90;6;25,70
"Borsele";29;127,50;5;22,00;0;0,00
"Boxmeer";128;435,30;20;68,00;27;91,80
"Boxtel";134;434,80;24;77,90;26;84,40
"Breda";685;371,90;146;79,30;64;34,70
"Brielle";36;208,50;11;63,70;0;0,00
"Bronckhorst";77;213,90;17;47,20;7;19,40
"Brummen";41;197,30;18;86,60;6;28,90
"Brunssum";112;402,80;44;158,20;19;68,30
"Bunnik";47;308,90;9;59,10;1;6,60
"Bunschoten";73;333,50;9;41,10;7;32,00
"Buren";63;235,10;17;63,40;8;29,90
"Capelle aan den IJssel";378;562,40;55;81,80;54;80,30
"Castricum";84;233,20;15;41,60;9;25,00
"Coevorden";57;161,40;13;36,80;2;5,70
"Cranendonck";173;815,30;63;296,90;36;169,70
"Cuijk";79;314,10;12;47,70;10;39,80
"Culemborg";84;289,40;21;72,40;7;24,10
"Dalfsen";84;292,80;16;55,80;6;20,90
"Dantumadiel";5;26,40;2;10,60;0;0,00
"De Bilt";192;445,30;28;64,90;24;55,70
"De Fryske Marren";76;147,30;16;31,00;6;11,60
"De Ronde Venen";113;253,90;39;87,60;13;29,20
"De Wolden";48;197,10;11;45,20;5;20,50
"Delft";194;187,40;38;36,70;12;11,60
"Delfzijl";18;73,00;6;24,30;0;0,00
"Den Helder";48;85,20;12;21,30;2;3,50
"Deurne";194;598,10;55;169,60;24;74,00
"Deventer";350;346,90;47;46,60;33;32,70
"Diemen";122;390,80;17;54,50;13;41,60
"Dinkelland";77;291,10;20;75,60;10;37,80
"Doesburg";32;289,40;9;81,40;6;54,30
"Doetinchem";104;179,10;26;44,80;15;25,80
"Dongen";88;334,60;20;76,10;13;49,40
"Dordrecht";593;496,60;86;72,00;62;51,90
"Drechterland";46;233,10;5;25,30;8;40,50
"Drimmelen";73;268,10;18;66,10;8;29,40
"Dronten";124;297,70;30;72,00;12;28,80
"Druten";115;607,60;25;132,10;8;42,30
"Duiven";54;215,40;14;55,80;6;23,90
"Echt-Susteren";94;297,20;39;123,30;16;50,60
"Edam-Volendam";126;348,50;25;69,10;3;8,30
"Ede";240;205,10;53;45,30;20;17,10
"Eemnes";23;248,20;2;21,60;1;10,80
"Eersel";69;357,10;27;139,70;10;51,70
"Eijsden-Margraten";179;694,70;54;209,60;27;104,80
"Eindhoven";604;257,20;183;77,90;85;36,20
"Elburg";151;650,00;28;120,50;8;34,40
"Emmen";106;99,10;20;18,70;11;10,30
"Enkhuizen";32;171,50;18;96,50;4;21,40
"Enschede";268;167,90;54;33,80;25;15,70
"Epe";138;415,90;48;144,70;23;69,30
"Ermelo";150;555,70;33;122,30;23;85,20
"Etten-Leur";221;503,70;41;93,40;30;68,40
"Geertruidenberg";49;227,00;11;51,00;6;27,80
"Geldrop-Mierlo";113;283,90;33;82,90;16;40,20
"Gemert-Bakel";223;725,40;79;257,00;32;104,10
"Gennep";58;342,50;16;94,50;10;59,10
"Gilze en Rijen";93;349,70;20;75,20;15;56,40
"Goeree-Overflakkee";270;538,40;54;107,70;34;67,80
"Goes";145;379,40;12;31,40;11;28,80
"Goirle";92;384,70;32;133,80;17;71,10
"Gooise Meren";132;227,30;23;39,60;9;15,50
"Gorinchem";182;490,30;18;48,50;15;40,40
"Gouda";352;479,00;45;61,20;41;55,80
"Grave";71;569,30;21;168,40;11;88,20
"Groningen";210;90,10;18;7,70;3;1,30
"Gulpen-Wittem";80;565,30;21;148,40;14;98,90
"Haaksbergen";56;230,60;14;57,70;7;28,80
"Haaren";58;404,10;18;125,40;8;55,70
"Haarlem";344;210,90;61;37,40;58;35,60
"Haarlemmermeer";377;241,10;69;44,10;27;17,30
"Halderberge";69;228,00;14;46,30;7;23,10
"Hardenberg";174;285,40;23;37,70;8;13,10
"Harderwijk";181;371,90;42;86,30;20;41,10
"Hardinxveld-Giessendam";39;212,70;2;10,90;2;10,90
"Harlingen";17;108,30;4;25,50;1;6,40
"Hattem";42;343,60;16;130,90;5;40,90
"Heemskerk";94;239,80;28;71,40;10;25,50
"Heemstede";101;370,10;11;40,30;32;117,30
"Heerde";192;1033,40;55;296,00;28;150,70
"Heerenveen";95;188,20;13;25,80;21;41,60
"Heerhugowaard";160;277,00;27;46,80;9;15,60
"Heerlen";393;451,60;125;143,60;54;62,10
"Heeze-Leende";72;446,20;16;99,20;8;49,60
"Heiloo";51;213,00;9;37,60;8;33,40
"Hellendoorn";97;270,30;8;22,30;12;33,40
"Hellevoetsluis";94;233,90;16;39,80;3;7,50
"Helmond";450;487,50;115;124,60;43;46,60
"Hendrik-Ido-Ambacht";84;268,70;10;32,00;6;19,20
"Hengelo";136;167,50;21;25,90;19;23,40
"Het Hogeland";38;79,40;7;14,60;3;6,30
"Heumen";75;455,00;17;103,10;9;54,60
"Heusden";162;362,30;45;100,70;22;49,20
"Hillegom";80;360,50;8;36,00;2;9,00
"Hilvarenbeek";52;334,70;9;57,90;6;38,60
"Hilversum";250;274,60;33;36,20;24;26,40
"Hoeksche Waard";328;374,70;76;86,80;20;22,80
"Hof van Twente";63;180,20;15;42,90;5;14,30
"Hollands Kroon";65;134,10;26;53,70;6;12,40
"Hoogeveen";101;181,50;19;34,10;8;14,40
"Hoorn";121;165,10;35;47,80;12;16,40
"Horst aan de Maas";137;322,60;41;96,60;24;56,50
"Houten";159;316,50;24;47,80;14;27,90
"Huizen";171;415,20;22;53,40;10;24,30
"Hulst";35;125,70;9;32,30;5;18,00
"IJsselstein";161;473,30;36;105,80;35;102,90
"Kaag en Braassem";35;127,80;7;25,60;2;7,30
"Kampen";346;636,60;59;108,60;27;49,70
"Kapelle";27;212,60;3;23,60;1;7,90
"Katwijk";289;439,10;31;47,10;15;22,80
"Kerkrade";205;448,70;64;140,10;35;76,60
"Koggenland";37;162,50;6;26,30;6;26,30
"Krimpen aan den IJssel";93;314,90;11;37,20;8;27,10
"Krimpenerwaard";218;387,20;45;79,90;34;60,40
"Laarbeek";125;553,00;41;181,40;26;115,00
"Landerd";146;927,20;39;247,70;21;133,40
"Landgraaf";145;387,40;52;138,90;13;34,70
"Landsmeer";24;207,90;3;26,00;3;26,00
"Langedijk";54;191,70;16;56,80;4;14,20
"Lansingerland";223;356,60;43;68,80;25;40,00
"Laren";28;247,10;8;70,60;2;17,60
"Leeuwarden";72;58,10;33;26,60;6;4,80
"Leiden";211;168,70;40;32,00;18;14,40
"Leiderdorp";46;169,70;14;51,60;6;22,10
"Leidschendam-Voorburg";183;239,10;21;27,40;15;19,60
"Lelystad";192;243,30;63;79,80;29;36,70
"Leudal";192;535,70;53;147,90;33;92,10
"Leusden";61;200,50;9;29,60;5;16,40
"Lingewaard";131;280,80;31;66,50;10;21,40
"Lisse";39;169,40;8;34,70;2;8,70
"Lochem";98;290,50;15;44,50;15;44,50
"Loon op Zand";65;277,60;25;106,80;7;29,90
"Lopik";70;483,30;19;131,20;8;55,20
"Loppersum";2;21,00;0;0,00;0;0,00
"Losser";26;114,60;7;30,90;0;0,00
"Maasdriel";62;246,10;15;59,60;7;27,80
"Maasgouw";107;447,00;27;112,80;14;58,50
"Maassluis";113;340,10;20;60,20;9;27,10
"Maastricht";923;759,60;186;153,10;140;115,20
"Medemblik";74;164,00;19;42,10;6;13,30
"Meerssen";120;637,80;22;116,90;13;69,10
"Meierijstad";560;688,80;211;259,50;131;161,10
"Meppel";51;150,10;11;32,40;5;14,70
"Middelburg";85;174,20;18;36,90;10;20,50
"Midden-Delfland";35;181,30;4;20,70;0;0,00
"Midden-Drenthe";23;69,30;6;18,10;0;0,00
"Midden-Groningen";37;60,90;6;9,90;3;4,90
"Mill en Sint Hubert";41;374,20;9;82,10;5;45,60
"Moerdijk";88;236,90;14;37,70;8;21,50
"Molenlanden";127;288,80;18;40,90;8;18,20
"Montferland";105;291,70;21;58,30;9;25,00
"Montfoort";49;352,50;13;93,50;5;36,00
"Mook en Middelaar";40;510,50;6;76,60;5;63,80
"Neder-Betuwe";146;597,40;37;151,40;21;85,90
"Nederweert";54;316,50;31;181,70;7;41,00
"Nieuwegein";185;291,30;45;70,90;14;22,00
"Nieuwkoop";57;197,40;9;31,20;5;17,30
"Nijkerk";70;162,00;22;50,90;3;6,90
"Nijmegen";699;393,50;128;72,10;70;39,40
"Nissewaard";248;291,10;56;65,70;17;20,00
"Noardeast-Fryslân";32;70,70;6;13,30;4;8,80
"Noord-Beveland";13;176,00;1;13,50;0;0,00
"Noordenveld";21;67,30;4;12,80;1;3,20
"Noordoostpolder";82;172,80;14;29,50;10;21,10
"Noordwijk";63;144,50;19;43,60;3;6,90
"Nuenen, Gerwen en Nederwetten";55;235,20;18;77,00;9;38,50
"Nunspeet";223;801,90;55;197,80;21;75,50
"Oegstgeest";48;192,80;8;32,10;3;12,10
"Oirschot";70;373,40;13;69,30;9;48,00
"Oisterwijk";81;308,10;23;87,50;11;41,80
"Oldambt";13;34,00;7;18,30;2;5,20
"Oldebroek";175;740,00;40;169,10;19;80,30
"Oldenzaal";50;157,00;13;40,80;7;22,00
"Olst-Wijhe";53;290,40;12;65,80;8;43,80
"Ommen";54;299,50;9;49,90;2;11,10
"Oost Gelre";77;259,90;18;60,80;6;20,30
"Oosterhout";156;278,30;48;85,60;17;30,30
"Ooststellingwerf";8;31,40;3;11,80;0;0,00
"Oostzaan";31;318,90;10;102,90;2;20,60
"Opmeer";9;76,20;1;8,50;1;8,50
"Opsterland";24;80,90;7;23,60;0;0,00
"Oss";500;543,50;165;179,40;88;95,70
"Oude IJsselstreek";80;203,20;21;53,30;9;22,90
"Ouder-Amstel";48;340,00;5;35,40;0;0,00
"Oudewater";63;617,00;26;254,70;9;88,10
"Overbetuwe";141;294,00;55;114,70;16;33,40
"Papendrecht";86;267,60;9;28,00;8;24,90
"Peel en Maas";285;653,30;144;330,10;65;149,00
"Pekela";5;41,10;4;32,90;0;0,00
"Pijnacker-Nootdorp";158;285,10;24;43,30;16;28,90
"Purmerend";243;298,30;66;81,00;35;43,00
"Putten";35;145,10;10;41,50;0;0,00
"Raalte";156;414,00;24;63,70;17;45,10
"Reimerswaal";37;162,90;4;17,60;2;8,80
"Renkum";81;257,90;14;44,60;7;22,30
"Renswoude";19;346,30;5;91,10;5;91,10
"Reusel-De Mierden";25;191,00;11;84,00;2;15,30
"Rheden";147;336,60;34;77,90;14;32,10
"Rhenen";48;238,70;11;54,70;6;29,80
"Ridderkerk";183;394,90;37;79,80;16;34,50
"Rijssen-Holten";202;528,60;29;75,90;23;60,20
"Rijswijk";185;338,70;37;67,70;22;40,30
"Roerdalen";49;238,80;27;131,60;8;39,00
"Roermond";148;253,80;59;101,20;23;39,40
"Roosendaal";275;355,80;29;37,50;22;28,50
"Rotterdam";3963;607,50;535;82,00;348;53,30
"Rozendaal";3;176,90;1;59,00;0;0,00
"Rucphen";72;313,60;10;43,60;10;43,60
"s-Gravenhage";2299;421,20;348;63,80;249;45,60
"Schagen";78;167,80;18;38,70;10;21,50
"Scherpenzeel";33;333,90;4;40,50;2;20,20
"Schiedam";355;450,30;58;73,60;23;29,20
"Schiermonnikoog";0;0,00;0;0,00;0;0,00
"Schouwen-Duiveland";97;286,20;11;32,50;9;26,60
"Simpelveld";48;455,20;19;180,20;5;47,40
"Sint Anthonis";72;617,20;20;171,40;11;94,30
"Sint-Michielsgestel";122;416,90;36;123,00;19;64,90
"Sittard-Geleen";417;451,60;115;124,60;64;69,30
"Sliedrecht";73;289,80;9;35,70;5;19,90
"Sluis";21;90,50;9;38,80;4;17,20
"Smallingerland";59;105,00;9;16,00;5;8,90
"Soest";97;207,90;24;51,40;13;27,90
"Someren";108;557,60;33;170,40;8;41,30
"Son en Breugel";74;426,80;31;178,80;14;80,70
"Stadskanaal";9;28,40;2;6,30;2;6,30
"Staphorst";61;355,70;8;46,60;4;23,30
"Stede Broec";51;234,80;18;82,90;5;23,00
"Steenbergen";98;400,60;13;53,10;13;53,10
"Steenwijkerland";107;242,30;14;31,70;5;11,30
"Stein";122;489,00;43;172,40;15;60,10
"Stichtse Vecht";148;227,60;34;52,30;14;21,50
"Súdwest-Fryslân";106;117,90;18;20,00;6;6,70
"Terneuzen";121;222,50;25;46,00;4;7,40
"Terschelling";2;41,30;0;0,00;0;0,00
"Texel";11;81,00;5;36,80;2;14,70
"Teylingen";71;189,20;14;37,30;2;5,30
"Tholen";173;671,00;40;155,10;16;62,10
"Tiel";151;358,70;42;99,80;18;42,80
"Tilburg";895;406,60;250;113,60;162;73,60
"Tubbergen";81;380,80;12;56,40;5;23,50
"Twenterand";61;180,80;12;35,60;2;5,90
"Tynaarlo";41;121,20;9;26,60;0;0,00
"Tytsjerksteradiel";16;49,80;4;12,50;1;3,10
"Uden";266;631,30;115;273,00;63;149,50
"Uitgeest";26;190,40;5;36,60;1;7,30
"Uithoorn";63;212,80;16;54,10;2;6,80
"Urk";84;398,60;23;109,10;4;19,00
"Utrecht";1571;438,30;271;75,60;118;32,90
"Utrechtse Heuvelrug";136;273,40;28;56,30;14;28,10
"Vaals";31;306,80;10;99,00;2;19,80
"Valkenburg aan de Geul";88;538,50;19;116,30;7;42,80
"Valkenswaard";186;595,70;19;60,90;37;118,50
"Veendam";8;29,20;2;7,30;0;0,00
"Veenendaal";198;297,20;47;70,60;11;16,50
"Veere";38;173,50;6;27,40;2;9,10
"Veldhoven";139;305,30;31;68,10;16;35,10
"Velsen";289;420,50;32;46,60;39;56,70
"Venlo";316;310,30;129;126,70;63;61,90
"Venray";129;295,70;37;84,80;17;39,00
"Vijfheerenlanden";280;492,00;34;59,70;36;63,30
"Vlaardingen";364;495,00;43;58,50;30;40,80
"Vlieland";0;0,00;0;0,00;0;0,00
"Vlissingen";80;180,40;9;20,30;5;11,30
"Voerendaal";48;384,30;17;136,10;8;64,00
"Voorschoten";71;277,40;9;35,20;11;43,00
"Voorst";83;337,40;17;69,10;11;44,70
"Vught";108;406,30;43;161,80;17;64,00
"Waadhoeke";101;219,20;12;26,00;15;32,60
"Waalre";33;189,00;7;40,10;5;28,60
"Waalwijk";197;405,10;36;74,00;36;74,00
"Waddinxveen";125;425,70;18;61,30;7;23,80
"Wageningen";56;140,40;20;50,10;9;22,60
"Wassenaar";62;236,30;9;34,30;12;45,70
"Waterland";34;195,20;16;91,90;4;23,00
"Weert";145;288,90;67;133,50;14;27,90
"Weesp";88;442,10;9;45,20;13;65,30
"West Betuwe";216;421,60;43;83,90;27;52,70
"West Maas en Waal";85;439,10;20;103,30;9;46,50
"Westerkwartier";59;93,10;14;22,10;4;6,30
"Westerveld";38;195,30;9;46,30;4;20,60
"Westervoort";43;287,20;12;80,10;6;40,10
"Westerwolde";7;26,80;5;19,10;0;0,00
"Westland";326;294,70;57;51,50;30;27,10
"Weststellingwerf";29;111,90;3;11,60;4;15,40
"Westvoorne";29;196,70;6;40,70;0;0,00
"Wierden";51;208,80;5;20,50;6;24,60
"Wijchen";150;365,00;44;107,10;13;31,60
"Wijdemeren";40;164,30;8;32,90;0;0,00
"Wijk bij Duurstede";43;180,10;10;41,90;1;4,20
"Winterswijk";48;166,70;7;24,30;3;10,40
"Woensdrecht";80;364,00;5;22,80;7;31,90
"Woerden";191;364,80;49;93,60;20;38,20
"Wormerland";51;313,60;20;123,00;6;36,90
"Woudenberg";33;246,50;9;67,20;2;14,90
"Zaanstad";497;316,90;121;77,10;48;30,60
"Zaltbommel";105;362,00;21;72,40;9;31,00
"Zandvoort";42;245,10;10;58,40;8;46,70
"Zeewolde";51;225,80;12;53,10;6;26,60
"Zeist";228;351,00;37;57,00;24;36,90
"Zevenaar";123;280,80;45;102,70;15;34,20
"Zoetermeer";275;219,50;53;42,30;14;11,20
"Zoeterwoude";17;196,80;3;34,70;1;11,60
"Zuidplas";164;372,40;24;54,50;21;47,70
"Zundert";114;521,90;24;109,90;11;50,40
"Zutphen";112;233,30;30;62,50;13;27,10
"Zwartewaterland";146;642,70;35;154,10;19;83,60
"Zwijndrecht";171;382,60;23;51,50;26;58,20
"Zwolle";368;285,10;53;41,10;46;35,60