"Category";"Meldingen";"Meldingen per 100000";"Zkh opname";"Zkh opname per 100000";"Overleden";"Overleden per 100000"
"'s-Hertogenbosch";4819;3101,40;168;108,10;106;68,20
"Aa en Hunze";321;1264,60;1;3,90;1;3,90
"Aalsmeer";1060;3324,80;17;53,30;20;62,70
"Aalten";622;2295,80;14;51,70;12;44,30
"Achtkarspelen";300;1077,20;0;0,00;0;0,00
"Alblasserdam";921;4570,70;15;74,40;13;64,50
"Albrandswaard";1255;4891,80;30;116,90;16;62,40
"Alkmaar";2707;2470,10;80;73,00;42;38,30
"Almelo";2630;3596,20;42;57,40;24;32,80
"Almere";6435;3029,50;183;86,20;48;22,60
"Alphen aan den Rijn";3953;3295,50;107;89,20;54;45,00
"Alphen-Chaam";340;3322,30;20;195,40;5;48,90
"Altena";2072;3702,20;48;85,80;37;66,10
"Ameland";47;1258,70;0;0,00;0;0,00
"Amersfoort";4705;2990,90;123;78,20;58;36,90
"Amstelveen";2991;3259,30;86;93,70;64;69,70
"Amsterdam";40303;4609,90;1191;136,20;422;48,30
"Apeldoorn";3297;2012,20;133;81,20;67;40,90
"Appingedam";107;919,60;8;68,80;1;8,60
"Arnhem";4210;2605,30;114;70,50;72;44,60
"Assen";1031;1499,80;22;32,00;7;10,20
"Asten";472;2824,00;21;125,60;14;83,80
"Baarle-Nassau";207;3009,20;11;159,90;4;58,10
"Baarn";658;2646,10;23;92,50;17;68,40
"Barendrecht";2119;4351,90;69;141,70;31;63,70
"Barneveld";1764;2974,30;31;52,30;18;30,40
"Beek";315;1985,10;18;113,40;9;56,70
"Beekdaelen";725;2016,60;55;153,00;28;77,90
"Beemster";216;2158,50;4;40,00;2;20,00
"Beesel";297;2203,80;23;170,70;9;66,80
"Berg en Dal";1245;3555,20;43;122,80;34;97,10
"Bergeijk";713;3823,10;22;118,00;6;32,20
"Bergen (L.)";313;2393,00;12;91,70;3;22,90
"Bergen (NH.)";816;2733,80;25;83,80;24;80,40
"Bergen op Zoom";2891;4277,30;59;87,30;28;41,40
"Berkelland";1226;2801,60;27;61,70;28;64,00
"Bernheze";1141;3645,30;101;322,70;67;214,10
"Best";790;2631,90;37;123,30;13;43,30
"Beuningen";671;2587,40;24;92,50;10;38,60
"Beverwijk";1200;2883,90;23;55,30;15;36,00
"Bladel";1033;5058,30;25;122,40;13;63,70
"Blaricum";321;2771,80;8;69,10;2;17,30
"Bloemendaal";531;2256,00;10;42,50;6;25,50
"Bodegraven-Reeuwijk";1197;3426,10;27;77,30;12;34,30
"Boekel";274;2543,20;36;334,10;20;185,60
"Borger-Odoorn";426;1667,10;9;35,20;9;35,20
"Borne";659;2820,10;17;72,70;6;25,70
"Borsele";272;1196,10;7;30,80;2;8,80
"Boxmeer";826;2809,20;25;85,00;33;112,20
"Boxtel";900;2920,20;30;97,30;29;94,10
"Breda";6076;3298,80;202;109,70;108;58,60
"Brielle";521;3017,30;23;133,20;3;17,40
"Bronckhorst";885;2457,90;20;55,50;7;19,40
"Brummen";376;1809,10;22;105,90;7;33,70
"Brunssum";509;1830,60;52;187,00;21;75,50
"Bunnik";436;2865,40;15;98,60;10;65,70
"Bunschoten";1218;5563,90;29;132,50;12;54,80
"Buren";674;2515,20;27;100,80;11;41,00
"Capelle aan den IJssel";2823;4199,80;96;142,80;84;125,00
"Castricum";790;2193,30;18;50,00;12;33,30
"Coevorden";593;1679,60;22;62,30;7;19,80
"Cranendonck";788;3713,70;65;306,30;37;174,40
"Cuijk";743;2953,70;20;79,50;15;59,60
"Culemborg";900;3101,20;33;113,70;11;37,90
"Dalfsen";696;2426,40;18;62,80;9;31,40
"Dantumadiel";212;1121,20;2;10,60;0;0,00
"De Bilt";1364;3163,80;38;88,10;31;71,90
"De Fryske Marren";712;1379,60;26;50,40;11;21,30
"De Ronde Venen";1375;3090,00;69;155,10;22;49,40
"De Wolden";407;1671,50;16;65,70;6;24,60
"Delft";3803;3673,10;62;59,90;36;34,80
"Delfzijl";240;973,30;9;36,50;0;0,00
"Den Helder";828;1469,20;19;33,70;7;12,40
"Deurne";1113;3431,20;63;194,20;31;95,60
"Deventer";2347;2326,20;55;54,50;51;50,50
"Diemen";1371;4391,40;28;89,70;20;64,10
"Dinkelland";1089;4116,70;24;90,70;18;68,00
"Doesburg";249;2251,80;11;99,50;7;63,30
"Doetinchem";1253;2158,00;40;68,90;18;31,00
"Dongen";952;3620,20;36;136,90;19;72,30
"Dordrecht";5047;4226,50;106;88,80;104;87,10
"Drechterland";469;2376,80;7;35,50;8;40,50
"Drimmelen";762;2798,50;28;102,80;13;47,70
"Dronten";713;1711,70;43;103,20;16;38,40
"Druten";486;2567,60;29;153,20;15;79,20
"Duiven";678;2704,20;18;71,80;8;31,90
"Echt-Susteren";486;1536,50;44;139,10;20;63,20
"Edam-Volendam";1355;3747,40;54;149,30;9;24,90
"Ede";3250;2776,80;86;73,50;44;37,60
"Eemnes";266;2870,40;5;54,00;1;10,80
"Eersel";800;4139,70;36;186,30;18;93,10
"Eijsden-Margraten";646;2507,20;61;236,70;30;116,40
"Eindhoven";6654;2833,30;246;104,70;135;57,50
"Elburg";541;2329,00;31;133,50;11;47,40
"Emmen";2281;2132,20;56;52,30;31;29,00
"Enkhuizen";427;2289,10;20;107,20;5;26,80
"Enschede";5007;3137,20;99;62,00;67;42,00
"Epe";659;1986,00;54;162,70;25;75,30
"Ermelo";646;2393,30;33;122,30;25;92,60
"Etten-Leur";1436;3272,80;57;129,90;31;70,70
"Geertruidenberg";584;2705,50;18;83,40;6;27,80
"Geldrop-Mierlo";1219;3063,00;43;108,00;18;45,20
"Gemert-Bakel";829;2696,70;80;260,20;34;110,60
"Gennep";462;2728,40;18;106,30;15;88,60
"Gilze en Rijen";866;3255,90;28;105,30;18;67,70
"Goeree-Overflakkee";1531;3053,00;72;143,60;45;89,70
"Goes";639;1672,10;24;62,80;14;36,60
"Goirle";801;3349,10;37;154,70;23;96,20
"Gooise Meren";1627;2801,10;36;62,00;20;34,40
"Gorinchem";1358;3658,50;20;53,90;22;59,30
"Gouda";3003;4086,50;97;132,00;84;114,30
"Grave";477;3824,90;28;224,50;21;168,40
"Groningen";4466;1916,90;37;15,90;7;3,00
"Gulpen-Wittem";342;2416,80;26;183,70;16;113,10
"Haaksbergen";868;3574,70;22;90,60;22;90,60
"Haaren";499;3476,40;22;153,30;10;69,70
"Haarlem";4335;2657,70;128;78,50;96;58,90
"Haarlemmermeer";4848;3100,60;114;72,90;46;29,40
"Halderberge";1043;3445,90;32;105,70;16;52,90
"Hardenberg";1181;1937,00;31;50,80;15;24,60
"Harderwijk";1132;2326,10;54;111,00;22;45,20
"Hardinxveld-Giessendam";697;3801,70;2;10,90;7;38,20
"Harlingen";150;955,40;5;31,80;2;12,70
"Hattem";242;1979,70;18;147,30;5;40,90
"Heemskerk";1165;2972,00;40;102,00;22;56,10
"Heemstede";660;2418,70;18;66,00;36;131,90
"Heerde";399;2147,50;55;296,00;29;156,10
"Heerenveen";603;1194,80;17;33,70;23;45,60
"Heerhugowaard";1313;2273,50;33;57,10;11;19,00
"Heerlen";1674;1923,60;137;157,40;60;68,90
"Heeze-Leende";500;3098,70;19;117,70;11;68,20
"Heiloo";490;2046,60;14;58,50;10;41,80
"Hellendoorn";1045;2912,10;15;41,80;15;41,80
"Hellevoetsluis";1127;2804,70;32;79,60;11;27,40
"Helmond";3361;3640,90;139;150,60;53;57,40
"Hendrik-Ido-Ambacht";1262;4036,80;13;41,60;10;32,00
"Hengelo";2476;3049,30;45;55,40;31;38,20
"Het Hogeland";668;1395,40;10;20,90;6;12,50
"Heumen";506;3069,80;20;121,30;13;78,90
"Heusden";1589;3554,10;60;134,20;35;78,30
"Hillegom";562;2532,30;9;40,60;2;9,00
"Hilvarenbeek";523;3366,20;17;109,40;15;96,50
"Hilversum";2357;2589,00;49;53,80;44;48,30
"Hoeksche Waard";2754;3146,30;88;100,50;33;37,70
"Hof van Twente";1103;3155,20;24;68,70;13;37,20
"Hollands Kroon";778;1605,40;32;66,00;7;14,40
"Hoogeveen";943;1694,70;33;59,30;15;27,00
"Hoorn";1778;2425,80;48;65,50;18;24,60
"Horst aan de Maas";1331;3134,60;49;115,40;37;87,10
"Houten";1401;2788,90;43;85,60;45;89,60
"Huizen";1407;3416,50;37;89,80;18;43,70
"Hulst";637;2287,00;21;75,40;9;32,30
"IJsselstein";1092;3210,30;51;149,90;46;135,20
"Kaag en Braassem";730;2666,50;12;43,80;3;11,00
"Kampen";1077;1981,70;66;121,40;38;69,90
"Kapelle";134;1055,40;4;31,50;1;7,90
"Katwijk";2653;4030,90;56;85,10;29;44,10
"Kerkrade";794;1738,00;77;168,50;41;89,70
"Koggenland";582;2555,50;12;52,70;12;52,70
"Krimpen aan den IJssel";1225;4147,60;26;88,00;31;105,00
"Krimpenerwaard";1988;3531,30;70;124,30;50;88,80
"Laarbeek";711;3145,50;42;185,80;27;119,40
"Landerd";637;4045,50;44;279,40;22;139,70
"Landgraaf";616;1645,80;56;149,60;18;48,10
"Landsmeer";367;3178,90;6;52,00;3;26,00
"Langedijk";722;2562,60;22;78,10;7;24,80
"Lansingerland";2374;3796,60;59;94,40;48;76,80
"Laren";345;3044,20;10;88,20;8;70,60
"Leeuwarden";1909;1539,20;52;41,90;16;12,90
"Leiden";4231;3383,00;81;64,80;39;31,20
"Leiderdorp";835;3080,00;29;107,00;10;36,90
"Leidschendam-Voorburg";2366;3091,80;64;83,60;48;62,70
"Lelystad";1826;2313,70;95;120,40;43;54,50
"Leudal";866;2416,30;57;159,00;41;114,40
"Leusden";773;2540,80;16;52,60;12;39,40
"Lingewaard";1268;2718,40;46;98,60;18;38,60
"Lisse";589;2558,20;14;60,80;5;21,70
"Lochem";659;1953,20;22;65,20;19;56,30
"Loon op Zand";854;3647,50;36;153,80;28;119,60
"Lopik";504;3479,90;25;172,60;8;55,20
"Loppersum";90;946,80;1;10,50;0;0,00
"Losser";801;3531,00;14;61,70;5;22,00
"Maasdriel";824;3271,40;26;103,20;17;67,50
"Maasgouw";455;1900,70;28;117,00;16;66,80
"Maassluis";1392;4189,20;44;132,40;16;48,20
"Maastricht";3044;2505,10;213;175,30;143;117,70
"Medemblik";937;2077,00;22;48,80;7;15,50
"Meerssen";356;1892,10;24;127,60;13;69,10
"Meierijstad";2429;2987,70;223;274,30;138;169,70
"Meppel";511;1503,70;13;38,30;5;14,70
"Middelburg";602;1233,60;28;57,40;15;30,70
"Midden-Delfland";653;3383,10;13;67,40;6;31,10
"Midden-Drenthe";496;1493,70;8;24,10;2;6,00
"Midden-Groningen";709;1166,30;17;28,00;10;16,50
"Mill en Sint Hubert";353;3221,40;14;127,80;6;54,80
"Moerdijk";1148;3090,20;25;67,30;23;61,90
"Molenlanden";1562;3551,90;20;45,50;16;36,40
"Montferland";787;2186,20;27;75,00;12;33,30
"Montfoort";451;3244,40;16;115,10;7;50,40
"Mook en Middelaar";241;3075,90;9;114,90;9;114,90
"Neder-Betuwe";865;3539,10;46;188,20;24;98,20
"Nederweert";521;3053,40;37;216,80;9;52,70
"Nieuwegein";1754;2762,00;65;102,40;17;26,80
"Nieuwkoop";839;2905,30;16;55,40;11;38,10
"Nijkerk";1233;2854,00;33;76,40;7;16,20
"Nijmegen";5205;2930,20;197;110,90;120;67,60
"Nissewaard";3386;3973,90;90;105,60;46;54,00
"Noardeast-Fryslân";514;1135,60;10;22,10;7;15,50
"Noord-Beveland";102;1381,00;3;40,60;1;13,50
"Noordenveld";313;1002,50;7;22,40;14;44,80
"Noordoostpolder";969;2042,50;23;48,50;17;35,80
"Noordwijk";1291;2962,00;40;91,80;8;18,40
"Nuenen, Gerwen en Nederwetten";650;2779,60;22;94,10;13;55,60
"Nunspeet";693;2492,00;65;233,70;23;82,70
"Oegstgeest";694;2788,20;17;68,30;6;24,10
"Oirschot";664;3541,50;20;106,70;18;96,00
"Oisterwijk";782;2975,00;29;110,30;14;53,30
"Oldambt";371;971,50;11;28,80;6;15,70
"Oldebroek";458;1936,60;40;169,10;20;84,60
"Oldenzaal";1131;3551,90;25;78,50;30;94,20
"Olst-Wijhe";301;1649,50;12;65,80;8;43,80
"Ommen";316;1752,40;9;49,90;6;33,30
"Oost Gelre";846;2855,60;23;77,60;26;87,80
"Oosterhout";1887;3366,50;55;98,10;23;41,00
"Ooststellingwerf";343;1347,50;7;27,50;1;3,90
"Oostzaan";348;3580,20;13;133,70;3;30,90
"Opmeer";249;2108,00;3;25,40;2;16,90
"Opsterland";289;974,20;11;37,10;0;0,00
"Oss";3338;3628,30;192;208,70;106;115,20
"Oude IJsselstreek";866;2199,40;27;68,60;18;45,70
"Ouder-Amstel";533;3775,30;8;56,70;0;0,00
"Oudewater";323;3163,60;32;313,40;12;117,50
"Overbetuwe";1058;2205,80;62;129,30;20;41,70
"Papendrecht";1099;3419,30;11;34,20;17;52,90
"Peel en Maas";1205;2762,10;148;339,20;65;149,00
"Pekela";114;937,30;7;57,60;2;16,40
"Pijnacker-Nootdorp";1973;3560,60;39;70,40;22;39,70
"Purmerend";2076;2548,40;96;117,80;48;58,90
"Putten";602;2495,90;13;53,90;4;16,60
"Raalte";930;2467,90;27;71,60;25;66,30
"Reimerswaal";388;1707,70;9;39,60;5;22,00
"Renkum";731;2327,40;20;63,70;11;35,00
"Renswoude";128;2333,20;5;91,10;5;91,10
"Reusel-De Mierden";598;4568,40;17;129,90;5;38,20
"Rheden";1003;2296,70;39;89,30;19;43,50
"Rhenen";590;2934,00;14;69,60;6;29,80
"Ridderkerk";1949;4205,80;52;112,20;42;90,60
"Rijssen-Holten";1300;3401,60;32;83,70;33;86,30
"Rijswijk";1973;3612,30;78;142,80;58;106,20
"Roerdalen";336;1637,70;28;136,50;9;43,90
"Roermond";1266;2170,90;66;113,20;26;44,60
"Roosendaal";3009;3892,80;60;77,60;42;54,30
"Rotterdam";34613;5305,80;1121;171,80;607;93,00
"Rozendaal";26;1533,00;1;59,00;0;0,00
"Rucphen";851;3707,10;22;95,80;12;52,30
"s-Gravenhage";22326;4090,00;787;144,20;371;68,00
"Schagen";1146;2466,10;24;51,60;15;32,30
"Scherpenzeel";258;2610,50;5;50,60;2;20,20
"Schiedam";4109;5211,70;127;161,10;38;48,20
"Schiermonnikoog";4;422,80;1;105,70;0;0,00
"Schouwen-Duiveland";538;1587,40;16;47,20;16;47,20
"Simpelveld";193;1830,40;20;189,70;5;47,40
"Sint Anthonis";316;2708,70;21;180,00;11;94,30
"Sint-Michielsgestel";900;3075,50;39;133,30;23;78,60
"Sittard-Geleen";1721;1864,00;137;148,40;75;81,20
"Sliedrecht";942;3739,90;11;43,70;12;47,60
"Sluis";411;1771,70;16;69,00;7;30,20
"Smallingerland";613;1091,30;14;24,90;9;16,00
"Soest";1459;3127,10;43;92,20;33;70,70
"Someren";566;2922,30;36;185,90;9;46,50
"Son en Breugel";479;2762,40;32;184,50;18;103,80
"Stadskanaal";629;1988,20;9;28,40;7;22,10
"Staphorst";492;2868,80;11;64,10;5;29,20
"Stede Broec";429;1975,50;20;92,10;5;23,00
"Steenbergen";773;3159,70;20;81,80;14;57,20
"Steenwijkerland";657;1487,90;18;40,80;10;22,60
"Stein";448;1795,80;51;204,40;16;64,10
"Stichtse Vecht";2058;3164,70;66;101,50;27;41,50
"Súdwest-Fryslân";1745;1941,50;26;28,90;30;33,40
"Terneuzen";1102;2026,30;39;71,70;5;9,20
"Terschelling";71;1465,10;1;20,60;1;20,60
"Texel";118;869,20;6;44,20;2;14,70
"Teylingen";1188;3166,00;24;64,00;6;16,00
"Tholen";801;3106,60;50;193,90;20;77,60
"Tiel";1388;3297,50;59;140,20;32;76,00
"Tilburg";7468;3392,30;312;141,70;207;94,00
"Tubbergen";1107;5203,80;14;65,80;9;42,30
"Twenterand";1033;3060,90;16;47,40;5;14,80
"Tynaarlo";399;1179,80;12;35,50;12;35,50
"Tytsjerksteradiel";351;1093,10;8;24,90;3;9,30
"Uden";1052;2496,90;120;284,80;70;166,10
"Uitgeest";397;2906,70;7;51,30;3;22,00
"Uithoorn";922;3114,70;26;87,80;6;20,30
"Urk";1115;5291,10;33;156,60;10;47,50
"Utrecht";14044;3917,90;446;124,40;163;45,50
"Utrechtse Heuvelrug";1304;2621,00;36;72,40;21;42,20
"Vaals";134;1326,20;11;108,90;2;19,80
"Valkenburg aan de Geul";356;2178,40;23;140,70;11;67,30
"Valkenswaard";1031;3302,10;25;80,10;44;140,90
"Veendam";281;1026,20;4;14,60;1;3,70
"Veenendaal";2529;3796,30;71;106,60;20;30,00
"Veere";196;894,70;10;45,60;2;9,10
"Veldhoven";1477;3244,20;42;92,30;26;57,10
"Velsen";1998;2906,90;56;81,50;52;75,70
"Venlo";2995;2941,20;153;150,30;88;86,40
"Venray";1387;3179,40;45;103,20;23;52,70
"Vijfheerenlanden";2035;3575,70;57;100,20;52;91,40
"Vlaardingen";3698;5028,60;90;122,40;57;77,50
"Vlieland";19;1636,50;0;0,00;0;0,00
"Vlissingen";545;1229,20;16;36,10;7;15,80
"Voerendaal";211;1689,20;18;144,10;8;64,00
"Voorschoten";646;2524,10;12;46,90;13;50,80
"Voorst";459;1865,80;18;73,20;11;44,70
"Vught";859;3231,80;45;169,30;24;90,30
"Waadhoeke";613;1330,30;18;39,10;22;47,70
"Waalre";496;2840,60;9;51,50;10;57,30
"Waalwijk";1719;3535,10;57;117,20;53;109,00
"Waddinxveen";1004;3419,00;40;136,20;9;30,60
"Wageningen";997;2499,90;30;75,20;25;62,70
"Wassenaar";689;2626,20;18;68,60;15;57,20
"Waterland";554;3181,30;24;137,80;14;80,40
"Weert";1529;3046,70;84;167,40;25;49,80
"Weesp";834;4189,70;11;55,30;15;75,40
"West Betuwe";1611;3144,50;66;128,80;38;74,20
"West Maas en Waal";464;2396,90;24;124,00;15;77,50
"Westerkwartier";635;1002,00;21;33,10;8;12,60
"Westerveld";219;1125,50;10;51,40;5;25,70
"Westervoort";381;2544,40;13;86,80;7;46,70
"Westerwolde";385;1473,90;14;53,60;3;11,50
"Westland";4294;3882,20;102;92,20;51;46,10
"Weststellingwerf";373;1438,90;5;19,30;12;46,30
"Westvoorne";399;2706,00;9;61,00;1;6,80
"Wierden";1054;4315,40;9;36,80;12;49,10
"Wijchen";1106;2691,40;59;143,60;24;58,40
"Wijdemeren";631;2591,60;14;57,50;5;20,50
"Wijk bij Duurstede";598;2504,30;14;58,60;7;29,30
"Winterswijk";605;2100,50;13;45,10;8;27,80
"Woensdrecht";687;3126,10;11;50,10;21;95,60
"Woerden";1618;3090,20;74;141,30;25;47,70
"Wormerland";481;2957,50;24;147,60;13;79,90
"Woudenberg";366;2733,40;11;82,20;4;29,90
"Zaanstad";5675;3618,00;195;124,30;92;58,70
"Zaltbommel";956;3296,20;26;89,60;10;34,50
"Zandvoort";394;2299,30;15;87,50;9;52,50
"Zeewolde";406;1797,40;16;70,80;7;31,00
"Zeist";1811;2787,90;50;77,00;35;53,90
"Zevenaar";880;2008,90;60;137,00;21;47,90
"Zoetermeer";4218;3367,20;82;65,50;27;21,60
"Zoeterwoude";262;3032,40;4;46,30;1;11,60
"Zuidplas";1628;3696,40;47;106,70;25;56,80
"Zundert";642;2939,30;30;137,40;13;59,50
"Zutphen";1004;2091,20;38;79,20;16;33,30
"Zwartewaterland";588;2588,50;38;167,30;24;105,70
"Zwijndrecht";1931;4320,40;31;69,40;53;118,60
"Zwolle";2401;1860,30;62;48,00;63;48,80