"Category";"Meldingen";"Meldingen per 100000";"Zkh opname";"Zkh opname per 100000";"Overleden";"Overleden per 100000"
"'s-Hertogenbosch";2712;1745,40;150;96,50;89;57,30
"Aa en Hunze";211;831,20;1;3,90;1;3,90
"Aalsmeer";640;2007,40;11;34,50;6;18,80
"Aalten";348;1284,50;13;48,00;7;25,80
"Achtkarspelen";179;642,70;0;0,00;0;0,00
"Alblasserdam";568;2818,90;11;54,60;9;44,70
"Albrandswaard";818;3188,50;18;70,20;9;35,10
"Alkmaar";1484;1354,20;65;59,30;32;29,20
"Almelo";1208;1651,80;32;43,80;14;19,10
"Almere";3691;1737,70;169;79,60;39;18,40
"Alphen aan den Rijn";2283;1903,30;87;72,50;32;26,70
"Alphen-Chaam";175;1710,00;18;175,90;5;48,90
"Altena";910;1626,00;39;69,70;18;32,20
"Ameland";37;990,90;0;0,00;0;0,00
"Amersfoort";2782;1768,50;99;62,90;28;17,80
"Amstelveen";2125;2315,60;76;82,80;49;53,40
"Amsterdam";29331;3354,90;1009;115,40;339;38,80
"Apeldoorn";1849;1128,50;115;70,20;56;34,20
"Appingedam";52;446,90;7;60,20;0;0,00
"Arnhem";2348;1453,00;94;58,20;35;21,70
"Assen";617;897,50;14;20,40;3;4,40
"Asten";267;1597,50;18;107,70;12;71,80
"Baarle-Nassau";103;1497,30;9;130,80;2;29,10
"Baarn";422;1697,00;16;64,30;9;36,20
"Barendrecht";1440;2957,40;50;102,70;18;37,00
"Barneveld";873;1472,00;24;40,50;11;18,50
"Beek";165;1039,80;18;113,40;8;50,40
"Beekdaelen";414;1151,50;52;144,60;26;72,30
"Beemster";129;1289,10;4;40,00;1;10,00
"Beesel";180;1335,60;20;148,40;8;59,40
"Berg en Dal";766;2187,40;40;114,20;24;68,50
"Bergeijk";429;2300,30;20;107,20;5;26,80
"Bergen (L.)";172;1315,00;9;68,80;2;15,30
"Bergen (NH.)";557;1866,10;22;73,70;13;43,60
"Bergen op Zoom";1721;2546,30;46;68,10;19;28,10
"Berkelland";618;1412,20;18;41,10;10;22,90
"Bernheze";734;2345,00;97;309,90;66;210,90
"Best";467;1555,80;35;116,60;12;40,00
"Beuningen";386;1488,50;20;77,10;6;23,10
"Beverwijk";715;1718,30;20;48,10;13;31,20
"Bladel";689;3373,80;23;112,60;9;44,10
"Blaricum";188;1623,30;8;69,10;2;17,30
"Bloemendaal";376;1597,50;10;42,50;6;25,50
"Bodegraven-Reeuwijk";664;1900,50;15;42,90;11;31,50
"Boekel";198;1837,80;36;334,10;20;185,60
"Borger-Odoorn";255;997,90;8;31,30;6;23,50
"Borne";365;1562,00;16;68,50;6;25,70
"Borsele";151;664,00;5;22,00;1;4,40
"Boxmeer";530;1802,50;20;68,00;28;95,20
"Boxtel";503;1632,10;24;77,90;26;84,40
"Breda";3733;2026,70;182;98,80;85;46,10
"Brielle";323;1870,60;16;92,70;0;0,00
"Bronckhorst";524;1455,30;18;50,00;7;19,40
"Brummen";199;957,50;19;91,40;6;28,90
"Brunssum";312;1122,10;50;179,80;21;75,50
"Bunnik";260;1708,70;12;78,90;2;13,10
"Bunschoten";585;2672,30;16;73,10;8;36,50
"Buren";389;1451,70;23;85,80;8;29,90
"Capelle aan den IJssel";1831;2724,00;72;107,10;66;98,20
"Castricum";438;1216,10;18;50,00;10;27,80
"Coevorden";320;906,40;18;51,00;2;5,70
"Cranendonck";488;2299,80;63;296,90;36;169,70
"Cuijk";453;1800,80;15;59,60;10;39,80
"Culemborg";558;1922,70;28;96,50;10;34,50
"Dalfsen";447;1558,30;17;59,30;7;24,40
"Dantumadiel";124;655,80;2;10,60;0;0,00
"De Bilt";919;2131,60;33;76,50;24;55,70
"De Fryske Marren";476;922,30;23;44,60;8;15,50
"De Ronde Venen";856;1923,60;50;112,40;15;33,70
"De Wolden";236;969,20;16;65,70;5;20,50
"Delft";2584;2495,80;48;46,40;16;15,50
"Delfzijl";134;543,40;7;28,40;0;0,00
"Den Helder";402;713,30;15;26,60;2;3,50
"Deurne";705;2173,40;58;178,80;26;80,20
"Deventer";1398;1385,60;50;49,60;40;39,60
"Diemen";975;3123,00;24;76,90;18;57,70
"Dinkelland";618;2336,20;21;79,40;11;41,60
"Doesburg";179;1618,70;11;99,50;7;63,30
"Doetinchem";712;1226,20;33;56,80;17;29,30
"Dongen";451;1715,00;26;98,90;13;49,40
"Dordrecht";2897;2426,00;97;81,20;79;66,20
"Drechterland";270;1368,30;6;30,40;8;40,50
"Drimmelen";411;1509,40;21;77,10;9;33,10
"Dronten";365;876,20;40;96,00;14;33,60
"Druten";302;1595,50;28;147,90;9;47,50
"Duiven";355;1415,90;17;67,80;6;23,90
"Echt-Susteren";258;815,70;43;135,90;19;60,10
"Edam-Volendam";938;2594,20;39;107,90;5;13,80
"Ede";1867;1595,20;74;63,20;30;25,60
"Eemnes";145;1564,70;3;32,40;1;10,80
"Eersel";477;2468,30;30;155,20;10;51,70
"Eijsden-Margraten";420;1630,10;58;225,10;28;108,70
"Eindhoven";3943;1679,00;209;89,00;104;44,30
"Elburg";304;1308,70;29;124,80;8;34,40
"Emmen";1408;1316,20;47;43,90;23;21,50
"Enkhuizen";194;1040,00;20;107,20;4;21,40
"Enschede";2675;1676,00;68;42,60;38;23,80
"Epe";418;1259,70;53;159,70;23;69,30
"Ermelo";366;1356,00;33;122,30;23;85,20
"Etten-Leur";921;2099,00;48;109,40;31;70,70
"Geertruidenberg";308;1426,90;15;69,50;6;27,80
"Geldrop-Mierlo";667;1676,00;37;93,00;16;40,20
"Gemert-Bakel";545;1772,90;79;257,00;32;104,10
"Gennep";228;1346,50;17;100,40;10;59,10
"Gilze en Rijen";461;1733,20;21;79,00;16;60,20
"Goeree-Overflakkee";909;1812,70;58;115,70;35;69,80
"Goes";407;1065,00;15;39,30;13;34,00
"Goirle";463;1935,90;33;138,00;22;92,00
"Gooise Meren";1043;1795,70;28;48,20;15;25,80
"Gorinchem";785;2114,80;19;51,20;17;45,80
"Gouda";1842;2506,60;67;91,20;54;73,50
"Grave";267;2141,00;24;192,40;11;88,20
"Groningen";3425;1470,10;32;13,70;4;1,70
"Gulpen-Wittem";234;1653,60;24;169,60;15;106,00
"Haaksbergen";510;2100,30;17;70,00;11;45,30
"Haaren";277;1929,80;20;139,30;8;55,70
"Haarlem";2849;1746,70;104;63,80;75;46,00
"Haarlemmermeer";3096;1980,10;97;62,00;40;25,60
"Halderberge";598;1975,70;25;82,60;12;39,60
"Hardenberg";671;1100,50;24;39,40;10;16,40
"Harderwijk";673;1382,90;47;96,60;22;45,20
"Hardinxveld-Giessendam";335;1827,20;2;10,90;4;21,80
"Harlingen";94;598,70;4;25,50;1;6,40
"Hattem";141;1153,50;18;147,30;5;40,90
"Heemskerk";644;1642,90;34;86,70;15;38,30
"Heemstede";434;1590,50;17;62,30;35;128,30
"Heerde";310;1668,50;55;296,00;28;150,70
"Heerenveen";382;756,90;16;31,70;22;43,60
"Heerhugowaard";750;1298,70;29;50,20;10;17,30
"Heerlen";946;1087,10;131;150,50;55;63,20
"Heeze-Leende";339;2100,90;18;111,60;8;49,60
"Heiloo";277;1157,00;12;50,10;9;37,60
"Hellendoorn";498;1387,80;13;36,20;14;39,00
"Hellevoetsluis";680;1692,30;21;52,30;7;17,40
"Helmond";2145;2323,60;124;134,30;46;49,80
"Hendrik-Ido-Ambacht";746;2386,30;13;41,60;7;22,40
"Hengelo";1437;1769,70;39;48,00;24;29,60
"Het Hogeland";379;791,70;7;14,60;5;10,40
"Heumen";351;2129,50;19;115,30;13;78,90
"Heusden";817;1827,40;49;109,60;26;58,20
"Hillegom";403;1815,90;8;36,00;2;9,00
"Hilvarenbeek";319;2053,20;14;90,10;9;57,90
"Hilversum";1533;1683,90;39;42,80;26;28,60
"Hoeksche Waard";1835;2096,40;85;97,10;30;34,30
"Hof van Twente";537;1536,10;20;57,20;6;17,20
"Hollands Kroon";423;872,90;26;53,70;6;12,40
"Hoogeveen";590;1060,30;27;48,50;12;21,60
"Hoorn";977;1333,00;40;54,60;14;19,10
"Horst aan de Maas";684;1610,90;41;96,60;28;65,90
"Houten";877;1745,80;34;67,70;21;41,80
"Huizen";853;2071,30;30;72,80;10;24,30
"Hulst";269;965,80;13;46,70;5;18,00
"IJsselstein";706;2075,60;43;126,40;35;102,90
"Kaag en Braassem";476;1738,70;9;32,90;3;11,00
"Kampen";685;1260,40;61;112,20;37;68,10
"Kapelle";90;708,80;3;23,60;1;7,90
"Katwijk";1629;2475,10;45;68,40;21;31,90
"Kerkrade";516;1129,50;68;148,80;37;81,00
"Koggenland";291;1277,80;9;39,50;8;35,10
"Krimpen aan den IJssel";799;2705,30;18;60,90;13;44,00
"Krimpenerwaard";1226;2177,80;55;97,70;37;65,70
"Laarbeek";402;1778,40;42;185,80;26;115,00
"Landerd";424;2692,70;42;266,70;21;133,40
"Landgraaf";346;924,40;55;146,90;14;37,40
"Landsmeer";229;1983,50;5;43,30;3;26,00
"Langedijk";404;1433,90;21;74,50;7;24,80
"Lansingerland";1583;2531,60;50;80,00;34;54,40
"Laren";207;1826,50;10;88,20;3;26,50
"Leeuwarden";1365;1100,60;45;36,30;10;8,10
"Leiden";2887;2308,40;60;48,00;25;20,00
"Leiderdorp";533;1966,10;24;88,50;7;25,80
"Leidschendam-Voorburg";1560;2038,60;38;49,70;29;37,90
"Lelystad";1047;1326,70;82;103,90;33;41,80
"Leudal";437;1219,30;54;150,70;33;92,10
"Leusden";502;1650,10;11;36,20;9;29,60
"Lingewaard";776;1663,60;38;81,50;12;25,70
"Lisse";370;1607,00;11;47,80;4;17,40
"Lochem";409;1212,20;17;50,40;15;44,50
"Loon op Zand";430;1836,60;29;123,90;19;81,20
"Lopik";302;2085,20;24;165,70;8;55,20
"Loppersum";51;536,50;0;0,00;0;0,00
"Losser";396;1745,60;11;48,50;2;8,80
"Maasdriel";376;1492,80;17;67,50;9;35,70
"Maasgouw";247;1031,80;28;117,00;15;62,70
"Maassluis";896;2696,50;30;90,30;12;36,10
"Maastricht";1966;1618,00;198;162,90;140;115,20
"Medemblik";511;1132,70;20;44,30;6;13,30
"Meerssen";212;1126,80;23;122,20;13;69,10
"Meierijstad";1575;1937,20;214;263,20;134;164,80
"Meppel";282;829,90;11;32,40;5;14,70
"Middelburg";330;676,20;21;43,00;10;20,50
"Midden-Delfland";398;2062,00;8;41,40;1;5,20
"Midden-Drenthe";292;879,30;6;18,10;0;0,00
"Midden-Groningen";381;626,80;10;16,50;5;8,20
"Mill en Sint Hubert";236;2153,70;9;82,10;5;45,60
"Moerdijk";675;1817,00;19;51,10;10;26,90
"Molenlanden";787;1789,60;20;45,50;12;27,30
"Montferland";433;1202,80;25;69,40;9;25,00
"Montfoort";252;1812,80;15;107,90;7;50,40
"Mook en Middelaar";159;2029,40;7;89,30;5;63,80
"Neder-Betuwe";455;1861,60;43;175,90;22;90,00
"Nederweert";254;1488,60;33;193,40;7;41,00
"Nieuwegein";1116;1757,30;55;86,60;15;23,60
"Nieuwkoop";475;1644,90;13;45,00;7;24,20
"Nijkerk";757;1752,20;27;62,50;4;9,30
"Nijmegen";3643;2050,90;176;99,10;80;45,00
"Nissewaard";1913;2245,10;73;85,70;26;30,50
"Noardeast-Fryslân";278;614,20;7;15,50;4;8,80
"Noord-Beveland";68;920,70;1;13,50;1;13,50
"Noordenveld";247;791,10;6;19,20;14;44,80
"Noordoostpolder";413;870,50;19;40,00;11;23,20
"Noordwijk";817;1874,50;31;71,10;4;9,20
"Nuenen, Gerwen en Nederwetten";383;1637,80;20;85,50;10;42,80
"Nunspeet";432;1553,50;62;222,90;22;79,10
"Oegstgeest";439;1763,70;11;44,20;3;12,10
"Oirschot";391;2085,40;17;90,70;9;48,00
"Oisterwijk";408;1552,20;27;102,70;12;45,70
"Oldambt";220;576,10;10;26,20;4;10,50
"Oldebroek";295;1247,40;40;169,10;19;80,30
"Oldenzaal";654;2053,90;16;50,20;17;53,40
"Olst-Wijhe";208;1139,90;12;65,80;8;43,80
"Ommen";186;1031,50;9;49,90;4;22,20
"Oost Gelre";488;1647,20;21;70,90;11;37,10
"Oosterhout";979;1746,60;52;92,80;17;30,30
"Ooststellingwerf";165;648,20;5;19,60;1;3,90
"Oostzaan";250;2572,00;12;123,50;2;20,60
"Opmeer";121;1024,40;1;8,50;2;16,90
"Opsterland";178;600,00;8;27,00;0;0,00
"Oss";2190;2380,50;175;190,20;94;102,20
"Oude IJsselstreek";408;1036,20;24;61,00;9;22,90
"Ouder-Amstel";379;2684,50;8;56,70;0;0,00
"Oudewater";210;2056,80;30;293,80;11;107,70
"Overbetuwe";656;1367,70;60;125,10;18;37,50
"Papendrecht";627;1950,80;9;28,00;10;31,10
"Peel en Maas";786;1801,60;146;334,70;65;149,00
"Pekela";77;633,10;6;49,30;0;0,00
"Pijnacker-Nootdorp";1273;2297,30;32;57,70;18;32,50
"Purmerend";1392;1708,80;85;104,30;38;46,60
"Putten";257;1065,50;11;45,60;1;4,10
"Raalte";531;1409,10;25;66,30;24;63,70
"Reimerswaal";210;924,30;6;26,40;2;8,80
"Renkum";475;1512,30;17;54,10;10;31,80
"Renswoude";85;1549,40;5;91,10;5;91,10
"Reusel-De Mierden";417;3185,60;15;114,60;2;15,30
"Rheden";563;1289,20;35;80,10;15;34,30
"Rhenen";332;1651,00;13;64,60;6;29,80
"Ridderkerk";1189;2565,80;47;101,40;20;43,20
"Rijssen-Holten";657;1719,10;30;78,50;26;68,00
"Rijswijk";1380;2526,60;61;111,70;39;71,40
"Roerdalen";143;697,00;27;131,60;8;39,00
"Roermond";620;1063,20;65;111,50;24;41,20
"Roosendaal";1636;2116,50;45;58,20;27;34,90
"Rotterdam";23096;3540,40;820;125,70;432;66,20
"Rozendaal";11;648,60;1;59,00;0;0,00
"Rucphen";472;2056,10;14;61,00;10;43,60
"s-Gravenhage";16308;2987,60;587;107,50;326;59,70
"Schagen";559;1202,90;20;43,00;11;23,70
"Scherpenzeel";159;1608,80;5;50,60;2;20,20
"Schiedam";2439;3093,50;79;100,20;27;34,20
"Schiermonnikoog";3;317,10;1;105,70;0;0,00
"Schouwen-Duiveland";350;1032,70;13;38,40;13;38,40
"Simpelveld";100;948,40;19;180,20;5;47,40
"Sint Anthonis";213;1825,80;21;180,00;11;94,30
"Sint-Michielsgestel";579;1978,50;37;126,40;19;64,90
"Sittard-Geleen";980;1061,40;126;136,50;66;71,50
"Sliedrecht";471;1869,90;10;39,70;5;19,90
"Sluis";93;400,90;10;43,10;4;17,20
"Smallingerland";392;697,80;12;21,40;7;12,50
"Soest";1019;2184,10;36;77,20;15;32,20
"Someren";299;1543,80;34;175,50;8;41,30
"Son en Breugel";284;1637,80;31;178,80;15;86,50
"Stadskanaal";278;878,70;8;25,30;3;9,50
"Staphorst";324;1889,20;8;46,60;4;23,30
"Stede Broec";244;1123,60;19;87,50;5;23,00
"Steenbergen";471;1925,30;18;73,60;14;57,20
"Steenwijkerland";405;917,20;15;34,00;9;20,40
"Stein";271;1086,30;48;192,40;15;60,10
"Stichtse Vecht";1219;1874,50;47;72,30;17;26,10
"Súdwest-Fryslân";863;960,20;21;23,40;6;6,70
"Terneuzen";439;807,20;25;46,00;4;7,40
"Terschelling";60;1238,10;1;20,60;1;20,60
"Texel";85;626,20;6;44,20;2;14,70
"Teylingen";698;1860,10;19;50,60;4;10,70
"Tholen";421;1632,80;44;170,60;19;73,70
"Tiel";822;1952,90;48;114,00;22;52,30
"Tilburg";4289;1948,30;271;123,10;175;79,50
"Tubbergen";671;3154,20;12;56,40;6;28,20
"Twenterand";457;1354,20;12;35,60;2;5,90
"Tynaarlo";279;825,00;11;32,50;1;3,00
"Tytsjerksteradiel";229;713,20;7;21,80;3;9,30
"Uden";673;1597,40;115;273,00;64;151,90
"Uitgeest";225;1647,40;7;51,30;1;7,30
"Uithoorn";584;1972,80;21;70,90;3;10,10
"Urk";167;792,50;24;113,90;4;19,00
"Utrecht";10025;2796,70;360;100,40;127;35,40
"Utrechtse Heuvelrug";906;1821,00;33;66,30;18;36,20
"Vaals";66;653,20;10;99,00;2;19,80
"Valkenburg aan de Geul";223;1364,60;20;122,40;9;55,10
"Valkenswaard";699;2238,70;23;73,70;37;118,50
"Veendam";182;664,70;4;14,60;1;3,70
"Veenendaal";1451;2178,10;57;85,60;16;24,00
"Veere";122;556,90;8;36,50;2;9,10
"Veldhoven";917;2014,10;37;81,30;19;41,70
"Velsen";1252;1821,60;48;69,80;44;64,00
"Venlo";1772;1740,20;142;139,40;71;69,70
"Venray";826;1893,50;41;94,00;20;45,80
"Vijfheerenlanden";1216;2136,60;48;84,30;44;77,30
"Vlaardingen";2300;3127,60;59;80,20;34;46,20
"Vlieland";16;1378,10;0;0,00;0;0,00
"Vlissingen";304;685,60;11;24,80;5;11,30
"Voerendaal";118;944,70;17;136,10;8;64,00
"Voorschoten";426;1664,50;11;43,00;11;43,00
"Voorst";269;1093,50;18;73,20;11;44,70
"Vught";456;1715,60;43;161,80;17;64,00
"Waadhoeke";421;913,60;15;32,60;17;36,90
"Waalre";302;1729,60;8;45,80;8;45,80
"Waalwijk";922;1896,10;44;90,50;40;82,30
"Waddinxveen";622;2118,20;27;91,90;7;23,80
"Wageningen";621;1557,10;23;57,70;19;47,60
"Wassenaar";475;1810,50;10;38,10;13;49,60
"Waterland";366;2101,80;20;114,90;7;40,20
"Weert";706;1406,80;72;143,50;16;31,90
"Weesp";549;2758,00;10;50,20;14;70,30
"West Betuwe";814;1588,80;52;101,50;30;58,60
"West Maas en Waal";304;1570,40;23;118,80;10;51,70
"Westerkwartier";423;667,40;19;30,00;4;6,30
"Westerveld";113;580,70;9;46,30;4;20,60
"Westervoort";171;1142,00;12;80,10;6;40,10
"Westerwolde";208;796,30;12;45,90;2;7,70
"Westland";2396;2166,20;74;66,90;30;27,10
"Weststellingwerf";221;852,60;3;11,60;5;19,30
"Westvoorne";288;1953,20;6;40,70;0;0,00
"Wierden";502;2055,40;7;28,70;6;24,60
"Wijchen";666;1620,70;51;124,10;15;36,50
"Wijdemeren";424;1741,40;11;45,20;1;4,10
"Wijk bij Duurstede";343;1436,40;12;50,30;4;16,80
"Winterswijk";269;934,00;9;31,20;4;13,90
"Woensdrecht";391;1779,20;10;45,50;13;59,20
"Woerden";925;1766,60;64;122,20;22;42,00
"Wormerland";301;1850,70;21;129,10;12;73,80
"Woudenberg";218;1628,10;9;67,20;2;14,90
"Zaanstad";3475;2215,40;159;101,40;64;40,80
"Zaltbommel";444;1530,90;23;79,30;10;34,50
"Zandvoort";258;1505,60;14;81,70;9;52,50
"Zeewolde";260;1151,10;13;57,60;6;26,60
"Zeist";1254;1930,40;45;69,30;30;46,20
"Zevenaar";527;1203,10;56;127,80;17;38,80
"Zoetermeer";2620;2091,50;69;55,10;19;15,20
"Zoeterwoude";147;1701,40;4;46,30;1;11,60
"Zuidplas";1069;2427,20;32;72,70;23;52,20
"Zundert";424;1941,20;25;114,50;11;50,40
"Zutphen";487;1014,40;34;70,80;13;27,10
"Zwartewaterland";375;1650,80;35;154,10;22;96,80
"Zwijndrecht";1177;2633,40;29;64,90;31;69,40
"Zwolle";1471;1139,80;54;41,80;50;38,70