"Category";"Meldingen";"Meldingen per 100000";"Zkh opname";"Zkh opname per 100000";"Overleden";"Overleden per 100000"
"'s-Hertogenbosch";650;418,30;129;83,00;78;50,20
"Aa en Hunze";15;59,10;1;3,90;0;0,00
"Aalsmeer";59;185,10;9;28,20;4;12,50
"Aalten";71;262,10;9;33,20;7;25,80
"Achtkarspelen";20;71,80;0;0,00;0;0,00
"Alblasserdam";52;258,10;11;54,60;4;19,90
"Albrandswaard";142;553,50;14;54,60;8;31,20
"Alkmaar";300;273,80;54;49,30;31;28,30
"Almelo";104;142,20;22;30,10;10;13,70
"Almere";692;325,80;130;61,20;32;15,10
"Alphen aan den Rijn";286;238,40;64;53,40;25;20,80
"Alphen-Chaam";65;635,10;18;175,90;5;48,90
"Altena";171;305,50;32;57,20;11;19,70
"Ameland";0;0,00;0;0,00;0;0,00
"Amersfoort";339;215,50;67;42,60;23;14,60
"Amstelveen";460;501,30;59;64,30;35;38,10
"Amsterdam";5642;645,30;662;75,70;290;33,20
"Apeldoorn";502;306,40;97;59,20;50;30,50
"Appingedam";6;51,60;3;25,80;0;0,00
"Arnhem";512;316,80;67;41,50;32;19,80
"Assen";60;87,30;12;17,50;2;2,90
"Asten";81;484,60;18;107,70;12;71,80
"Baarle-Nassau";30;436,10;9;130,80;2;29,10
"Baarn";67;269,40;12;48,30;9;36,20
"Barendrecht";212;435,40;40;82,20;12;24,60
"Barneveld";166;279,90;18;30,40;6;10,10
"Beek";46;289,90;16;100,80;6;37,80
"Beekdaelen";176;489,50;52;144,60;23;64,00
"Beemster";28;279,80;4;40,00;1;10,00
"Beesel";50;371,00;20;148,40;8;59,40
"Berg en Dal";190;542,60;29;82,80;16;45,70
"Bergeijk";67;359,20;19;101,90;5;26,80
"Bergen (L.)";26;198,80;7;53,50;2;15,30
"Bergen (NH.)";107;358,50;16;53,60;4;13,40
"Bergen op Zoom";411;608,10;26;38,50;13;19,20
"Berkelland";98;223,90;12;27,40;7;16,00
"Bernheze";295;942,50;95;303,50;65;207,70
"Best";98;326,50;31;103,30;10;33,30
"Beuningen";90;347,00;19;73,30;5;19,30
"Beverwijk";100;240,30;15;36,00;10;24,00
"Bladel";96;470,10;21;102,80;8;39,20
"Blaricum";44;379,90;8;69,10;2;17,30
"Bloemendaal";74;314,40;7;29,70;5;21,20
"Bodegraven-Reeuwijk";113;323,40;7;20,00;1;2,90
"Boekel";89;826,10;34;315,60;20;185,60
"Borger-Odoorn";10;39,10;4;15,70;3;11,70
"Borne";54;231,10;14;59,90;6;25,70
"Borsele";30;131,90;5;22,00;1;4,40
"Boxmeer";136;462,50;20;68,00;27;91,80
"Boxtel";143;464,00;24;77,90;26;84,40
"Breda";877;476,10;146;79,30;67;36,40
"Brielle";49;283,80;12;69,50;0;0,00
"Bronckhorst";84;233,30;17;47,20;7;19,40
"Brummen";44;211,70;18;86,60;6;28,90
"Brunssum";119;428,00;44;158,20;19;68,30
"Bunnik";51;335,20;9;59,10;1;6,60
"Bunschoten";80;365,40;10;45,70;7;32,00
"Buren";63;235,10;17;63,40;8;29,90
"Capelle aan den IJssel";461;685,80;57;84,80;55;81,80
"Castricum";89;247,10;15;41,60;9;25,00
"Coevorden";63;178,40;13;36,80;2;5,70
"Cranendonck";177;834,20;63;296,90;36;169,70
"Cuijk";87;345,90;12;47,70;10;39,80
"Culemborg";99;341,10;21;72,40;8;27,60
"Dalfsen";90;313,80;16;55,80;6;20,90
"Dantumadiel";15;79,30;2;10,60;0;0,00
"De Bilt";206;477,80;28;64,90;24;55,70
"De Fryske Marren";82;158,90;16;31,00;6;11,60
"De Ronde Venen";149;334,80;39;87,60;13;29,20
"De Wolden";48;197,10;11;45,20;5;20,50
"Delft";265;255,90;38;36,70;12;11,60
"Delfzijl";51;206,80;6;24,30;0;0,00
"Den Helder";53;94,00;12;21,30;2;3,50
"Deurne";211;650,50;56;172,60;25;77,10
"Deventer";386;382,60;48;47,60;33;32,70
"Diemen";176;563,70;17;54,50;14;44,80
"Dinkelland";84;317,50;20;75,60;10;37,80
"Doesburg";34;307,50;9;81,40;6;54,30
"Doetinchem";119;204,90;26;44,80;15;25,80
"Dongen";99;376,50;20;76,10;13;49,40
"Dordrecht";698;584,50;91;76,20;63;52,80
"Drechterland";46;233,10;5;25,30;8;40,50
"Drimmelen";86;315,80;19;69,80;8;29,40
"Dronten";128;307,30;30;72,00;12;28,80
"Druten";115;607,60;25;132,10;8;42,30
"Duiven";57;227,30;14;55,80;6;23,90
"Echt-Susteren";103;325,60;39;123,30;16;50,60
"Edam-Volendam";138;381,70;25;69,10;3;8,30
"Ede";271;231,50;55;47,00;22;18,80
"Eemnes";25;269,80;2;21,60;1;10,80
"Eersel";76;393,30;27;139,70;10;51,70
"Eijsden-Margraten";180;698,60;54;209,60;27;104,80
"Eindhoven";700;298,10;183;77,90;87;37,00
"Elburg";155;667,30;28;120,50;8;34,40
"Emmen";115;107,50;20;18,70;11;10,30
"Enkhuizen";32;171,50;18;96,50;4;21,40
"Enschede";332;208,00;57;35,70;26;16,30
"Epe";139;418,90;48;144,70;23;69,30
"Ermelo";160;592,80;33;122,30;23;85,20
"Etten-Leur";237;540,10;42;95,70;30;68,40
"Geertruidenberg";56;259,40;12;55,60;6;27,80
"Geldrop-Mierlo";130;326,60;33;82,90;16;40,20
"Gemert-Bakel";233;757,90;79;257,00;32;104,10
"Gennep";78;460,60;16;94,50;10;59,10
"Gilze en Rijen";115;432,40;20;75,20;15;56,40
"Goeree-Overflakkee";280;558,40;54;107,70;34;67,80
"Goes";172;450,10;12;31,40;13;34,00
"Goirle";98;409,80;32;133,80;17;71,10
"Gooise Meren";164;282,30;24;41,30;9;15,50
"Gorinchem";212;571,10;19;51,20;15;40,40
"Gouda";487;662,70;45;61,20;41;55,80
"Grave";76;609,40;21;168,40;11;88,20
"Groningen";292;125,30;18;7,70;3;1,30
"Gulpen-Wittem";82;579,50;21;148,40;14;98,90
"Haaksbergen";60;247,10;14;57,70;7;28,80
"Haaren";66;459,80;18;125,40;8;55,70
"Haarlem";461;282,60;61;37,40;58;35,60
"Haarlemmermeer";467;298,70;70;44,80;28;17,90
"Halderberge";95;313,90;14;46,30;7;23,10
"Hardenberg";186;305,10;23;37,70;8;13,10
"Harderwijk";210;431,50;43;88,40;20;41,10
"Hardinxveld-Giessendam";50;272,70;2;10,90;2;10,90
"Harlingen";20;127,40;4;25,50;1;6,40
"Hattem";44;359,90;16;130,90;5;40,90
"Heemskerk";100;255,10;29;74,00;10;25,50
"Heemstede";121;443,40;11;40,30;32;117,30
"Heerde";195;1049,50;55;296,00;28;150,70
"Heerenveen";101;200,10;13;25,80;21;41,60
"Heerhugowaard";186;322,10;27;46,80;9;15,60
"Heerlen";418;480,30;125;143,60;54;62,10
"Heeze-Leende";79;489,60;16;99,20;8;49,60
"Heiloo";54;225,50;10;41,80;8;33,40
"Hellendoorn";99;275,90;8;22,30;12;33,40
"Hellevoetsluis";114;283,70;16;39,80;3;7,50
"Helmond";509;551,40;118;127,80;43;46,60
"Hendrik-Ido-Ambacht";104;332,70;11;35,20;6;19,20
"Hengelo";151;186,00;23;28,30;19;23,40
"Het Hogeland";41;85,60;7;14,60;3;6,30
"Heumen";80;485,30;17;103,10;9;54,60
"Heusden";182;407,10;45;100,70;23;51,40
"Hillegom";92;414,50;8;36,00;2;9,00
"Hilvarenbeek";58;373,30;9;57,90;6;38,60
"Hilversum";314;344,90;35;38,40;24;26,40
"Hoeksche Waard";365;417,00;78;89,10;20;22,80
"Hof van Twente";68;194,50;15;42,90;5;14,30
"Hollands Kroon";75;154,80;26;53,70;6;12,40
"Hoogeveen";105;188,70;19;34,10;8;14,40
"Hoorn";146;199,20;35;47,80;12;16,40
"Horst aan de Maas";147;346,20;41;96,60;24;56,50
"Houten";172;342,40;25;49,80;15;29,90
"Huizen";204;495,40;23;55,80;10;24,30
"Hulst";42;150,80;9;32,30;5;18,00
"IJsselstein";187;549,80;36;105,80;35;102,90
"Kaag en Braassem";37;135,10;7;25,60;2;7,30
"Kampen";352;647,70;59;108,60;27;49,70
"Kapelle";31;244,20;3;23,60;1;7,90
"Katwijk";303;460,40;31;47,10;15;22,80
"Kerkrade";216;472,80;64;140,10;35;76,60
"Koggenland";42;184,40;6;26,30;6;26,30
"Krimpen aan den IJssel";107;362,30;11;37,20;8;27,10
"Krimpenerwaard";244;433,40;45;79,90;34;60,40
"Laarbeek";136;601,70;41;181,40;26;115,00
"Landerd";148;939,90;39;247,70;21;133,40
"Landgraaf";150;400,80;52;138,90;13;34,70
"Landsmeer";35;303,20;3;26,00;3;26,00
"Langedijk";58;205,90;16;56,80;4;14,20
"Lansingerland";267;427,00;43;68,80;25;40,00
"Laren";41;361,80;8;70,60;2;17,60
"Leeuwarden";112;90,30;33;26,60;6;4,80
"Leiden";280;223,90;41;32,80;22;17,60
"Leiderdorp";56;206,60;14;51,60;6;22,10
"Leidschendam-Voorburg";229;299,30;23;30,10;20;26,10
"Lelystad";227;287,60;66;83,60;29;36,70
"Leudal";199;555,20;54;150,70;33;92,10
"Leusden";71;233,40;9;29,60;5;16,40
"Lingewaard";138;295,90;31;66,50;10;21,40
"Lisse";48;208,50;8;34,70;2;8,70
"Lochem";102;302,30;15;44,50;15;44,50
"Loon op Zand";74;316,10;25;106,80;7;29,90
"Lopik";78;538,60;19;131,20;8;55,20
"Loppersum";2;21,00;0;0,00;0;0,00
"Losser";30;132,20;7;30,90;0;0,00
"Maasdriel";66;262,00;15;59,60;7;27,80
"Maasgouw";110;459,50;27;112,80;15;62,70
"Maassluis";155;466,50;21;63,20;9;27,10
"Maastricht";969;797,50;188;154,70;140;115,20
"Medemblik";80;177,30;19;42,10;6;13,30
"Meerssen";125;664,40;22;116,90;13;69,10
"Meierijstad";584;718,30;211;259,50;131;161,10
"Meppel";56;164,80;11;32,40;5;14,70
"Middelburg";109;223,40;18;36,90;10;20,50
"Midden-Delfland";41;212,40;4;20,70;0;0,00
"Midden-Drenthe";27;81,30;6;18,10;0;0,00
"Midden-Groningen";45;74,00;6;9,90;4;6,60
"Mill en Sint Hubert";44;401,50;9;82,10;5;45,60
"Moerdijk";97;261,10;14;37,70;8;21,50
"Molenlanden";131;297,90;18;40,90;8;18,20
"Montferland";112;311,10;21;58,30;9;25,00
"Montfoort";53;381,30;14;100,70;5;36,00
"Mook en Middelaar";42;536,10;6;76,60;5;63,80
"Neder-Betuwe";147;601,40;37;151,40;21;85,90
"Nederweert";55;322,30;31;181,70;7;41,00
"Nieuwegein";216;340,10;45;70,90;14;22,00
"Nieuwkoop";61;211,20;9;31,20;5;17,30
"Nijkerk";78;180,50;22;50,90;3;6,90
"Nijmegen";780;439,10;130;73,20;70;39,40
"Nissewaard";278;326,30;56;65,70;17;20,00
"Noardeast-Fryslân";82;181,20;6;13,30;4;8,80
"Noord-Beveland";13;176,00;1;13,50;0;0,00
"Noordenveld";22;70,50;4;12,80;1;3,20
"Noordoostpolder";86;181,30;14;29,50;10;21,10
"Noordwijk";76;174,40;19;43,60;3;6,90
"Nuenen, Gerwen en Nederwetten";68;290,80;18;77,00;9;38,50
"Nunspeet";225;809,10;55;197,80;21;75,50
"Oegstgeest";58;233,00;8;32,10;3;12,10
"Oirschot";82;437,40;13;69,30;9;48,00
"Oisterwijk";88;334,80;23;87,50;11;41,80
"Oldambt";16;41,90;7;18,30;2;5,20
"Oldebroek";177;748,40;40;169,10;19;80,30
"Oldenzaal";66;207,30;13;40,80;7;22,00
"Olst-Wijhe";56;306,90;12;65,80;8;43,80
"Ommen";57;316,10;9;49,90;2;11,10
"Oost Gelre";79;266,70;18;60,80;6;20,30
"Oosterhout";200;356,80;48;85,60;17;30,30
"Ooststellingwerf";8;31,40;3;11,80;0;0,00
"Oostzaan";37;380,70;10;102,90;2;20,60
"Opmeer";12;101,60;1;8,50;1;8,50
"Opsterland";24;80,90;7;23,60;0;0,00
"Oss";550;597,80;166;180,40;88;95,70
"Oude IJsselstreek";86;218,40;21;53,30;9;22,90
"Ouder-Amstel";63;446,20;5;35,40;0;0,00
"Oudewater";67;656,20;26;254,70;9;88,10
"Overbetuwe";148;308,60;55;114,70;16;33,40
"Papendrecht";96;298,70;9;28,00;8;24,90
"Peel en Maas";290;664,70;144;330,10;65;149,00
"Pekela";7;57,60;4;32,90;0;0,00
"Pijnacker-Nootdorp";188;339,30;24;43,30;16;28,90
"Purmerend";280;343,70;69;84,70;35;43,00
"Putten";47;194,90;10;41,50;0;0,00
"Raalte";159;421,90;24;63,70;17;45,10
"Reimerswaal";44;193,70;4;17,60;2;8,80
"Renkum";91;289,70;14;44,60;7;22,30
"Renswoude";21;382,80;5;91,10;5;91,10
"Reusel-De Mierden";30;229,20;11;84,00;2;15,30
"Rheden";159;364,10;34;77,90;14;32,10
"Rhenen";51;253,60;11;54,70;6;29,80
"Ridderkerk";212;457,50;38;82,00;17;36,70
"Rijssen-Holten";206;539,00;29;75,90;24;62,80
"Rijswijk";236;432,10;38;69,60;23;42,10
"Roerdalen";60;292,50;27;131,60;8;39,00
"Roermond";179;306,90;59;101,20;23;39,40
"Roosendaal";327;423,00;29;37,50;22;28,50
"Rotterdam";5423;831,30;570;87,40;356;54,60
"Rozendaal";3;176,90;1;59,00;0;0,00
"Rucphen";74;322,40;10;43,60;10;43,60
"s-Gravenhage";3132;573,80;366;67,00;257;47,10
"Schagen";84;180,80;18;38,70;10;21,50
"Scherpenzeel";38;384,50;4;40,50;2;20,20
"Schiedam";476;603,70;59;74,80;23;29,20
"Schiermonnikoog";0;0,00;0;0,00;0;0,00
"Schouwen-Duiveland";101;298,00;11;32,50;9;26,60
"Simpelveld";49;464,70;19;180,20;5;47,40
"Sint Anthonis";73;625,80;20;171,40;11;94,30
"Sint-Michielsgestel";126;430,60;36;123,00;19;64,90
"Sittard-Geleen";459;497,10;119;128,90;64;69,30
"Sliedrecht";80;317,60;9;35,70;5;19,90
"Sluis";25;107,80;9;38,80;4;17,20
"Smallingerland";62;110,40;9;16,00;5;8,90
"Soest";117;250,80;24;51,40;13;27,90
"Someren";116;598,90;33;170,40;8;41,30
"Son en Breugel";76;438,30;31;178,80;14;80,70
"Stadskanaal";13;41,10;2;6,30;2;6,30
"Staphorst";62;361,50;8;46,60;4;23,30
"Stede Broec";54;248,70;18;82,90;5;23,00
"Steenbergen";105;429,20;13;53,10;13;53,10
"Steenwijkerland";109;246,80;14;31,70;5;11,30
"Stein";132;529,10;43;172,40;15;60,10
"Stichtse Vecht";183;281,40;36;55,40;14;21,50
"Súdwest-Fryslân";120;133,50;18;20,00;6;6,70
"Terneuzen";136;250,10;25;46,00;4;7,40
"Terschelling";2;41,30;0;0,00;0;0,00
"Texel";11;81,00;5;36,80;2;14,70
"Teylingen";86;229,20;15;40,00;2;5,30
"Tholen";179;694,20;40;155,10;16;62,10
"Tiel";161;382,50;42;99,80;19;45,10
"Tilburg";1046;475,10;253;114,90;163;74,00
"Tubbergen";82;385,50;12;56,40;5;23,50
"Twenterand";62;183,70;12;35,60;2;5,90
"Tynaarlo";44;130,10;9;26,60;0;0,00
"Tytsjerksteradiel";22;68,50;4;12,50;1;3,10
"Uden";273;648,00;115;273,00;63;149,50
"Uitgeest";27;197,70;5;36,60;1;7,30
"Uithoorn";79;266,90;16;54,10;2;6,80
"Urk";86;408,10;23;109,10;4;19,00
"Utrecht";1909;532,60;277;77,30;118;32,90
"Utrechtse Heuvelrug";142;285,40;28;56,30;14;28,10
"Vaals";31;306,80;10;99,00;2;19,80
"Valkenburg aan de Geul";90;550,70;19;116,30;7;42,80
"Valkenswaard";194;621,30;19;60,90;37;118,50
"Veendam";20;73,00;2;7,30;1;3,70
"Veenendaal";219;328,70;49;73,60;11;16,50
"Veere";46;210,00;6;27,40;2;9,10
"Veldhoven";154;338,30;31;68,10;16;35,10
"Velsen";319;464,10;32;46,60;39;56,70
"Venlo";377;370,20;129;126,70;63;61,90
"Venray";148;339,30;37;84,80;17;39,00
"Vijfheerenlanden";302;530,60;35;61,50;36;63,30
"Vlaardingen";464;631,00;45;61,20;30;40,80
"Vlieland";0;0,00;0;0,00;0;0,00
"Vlissingen";97;218,80;9;20,30;5;11,30
"Voerendaal";51;408,30;17;136,10;8;64,00
"Voorschoten";81;316,50;9;35,20;11;43,00
"Voorst";101;410,60;17;69,10;11;44,70
"Vught";121;455,20;43;161,80;17;64,00
"Waadhoeke";102;221,40;12;26,00;15;32,60
"Waalre";40;229,10;7;40,10;5;28,60
"Waalwijk";225;462,70;36;74,00;37;76,10
"Waddinxveen";145;493,80;18;61,30;7;23,80
"Wageningen";80;200,60;20;50,10;9;22,60
"Wassenaar";73;278,20;9;34,30;12;45,70
"Waterland";51;292,90;16;91,90;4;23,00
"Weert";160;318,80;67;133,50;14;27,90
"Weesp";97;487,30;9;45,20;13;65,30
"West Betuwe";231;450,90;44;85,90;27;52,70
"West Maas en Waal";86;444,30;20;103,30;9;46,50
"Westerkwartier";62;97,80;14;22,10;4;6,30
"Westerveld";38;195,30;9;46,30;4;20,60
"Westervoort";48;320,60;12;80,10;6;40,10
"Westerwolde";13;49,80;5;19,10;0;0,00
"Westland";440;397,80;58;52,40;30;27,10
"Weststellingwerf";29;111,90;3;11,60;4;15,40
"Westvoorne";38;257,70;6;40,70;0;0,00
"Wierden";54;221,10;5;20,50;6;24,60
"Wijchen";173;421,00;44;107,10;13;31,60
"Wijdemeren";47;193,00;8;32,90;0;0,00
"Wijk bij Duurstede";47;196,80;10;41,90;1;4,20
"Winterswijk";60;208,30;7;24,30;3;10,40
"Woensdrecht";87;395,90;5;22,80;7;31,90
"Woerden";213;406,80;50;95,50;20;38,20
"Wormerland";55;338,20;20;123,00;6;36,90
"Woudenberg";34;253,90;9;67,20;2;14,90
"Zaanstad";587;374,20;121;77,10;48;30,60
"Zaltbommel";114;393,10;21;72,40;9;31,00
"Zandvoort";72;420,20;10;58,40;8;46,70
"Zeewolde";51;225,80;12;53,10;6;26,60
"Zeist";268;412,60;37;57,00;24;36,90
"Zevenaar";124;283,10;45;102,70;15;34,20
"Zoetermeer";373;297,80;54;43,10;14;11,20
"Zoeterwoude";18;208,30;3;34,70;1;11,60
"Zuidplas";196;445,00;24;54,50;21;47,70
"Zundert";117;535,70;24;109,90;11;50,40
"Zutphen";127;264,50;30;62,50;13;27,10
"Zwartewaterland";148;651,50;35;154,10;19;83,60
"Zwijndrecht";212;474,30;23;51,50;26;58,20
"Zwolle";397;307,60;53;41,10;46;35,60