0014,10076,72,35
0034,15392,286,93
0037,1916,16,16
0047,1391,8,10
0050,1266,20,13
0059,1693,16,36
0060,146,0,0
0072,498,7,3
0074,1850,28,35
0080,5390,81,64
0085,918,13,6
0086,1138,23,6
0088,40,1,2
0090,2334,27,30
0093,189,2,2
0096,45,0,0
0098,1156,10,27
0106,2560,44,13
0109,2254,49,27
0114,6645,109,67
0118,3511,63,40
0119,1612,21,24
0141,5875,87,54
0147,1906,28,36
0148,1685,24,19
0150,5741,80,81
0153,10433,194,164
0158,2196,32,32
0160,4408,49,37
0163,3343,38,49
0164,5670,65,65
0166,2589,72,41
0168,2119,44,32
0171,2524,29,27
0173,2543,50,43
0175,1131,14,15
0177,2765,36,37
0180,1696,14,18
0183,2165,18,17
0184,1925,44,12
0189,2535,18,27
0193,5705,81,97
0197,1633,21,18
0200,8558,180,139
0202,9293,165,118
0203,5946,45,56
0209,1622,32,17
0213,1004,29,16
0214,1762,37,17
0216,1989,42,21
0221,588,16,9
0222,3357,53,27
0225,1456,39,26
0226,1513,27,13
0228,8971,128,75
0230,1432,35,13
0232,1957,67,45
0233,1899,38,32
0243,3248,76,46
0244,604,19,7
0246,892,55,30
0252,1029,25,17
0262,1484,32,27
0263,2309,37,33
0267,3537,45,27
0268,10378,235,170
0269,1601,46,29
0273,1890,18,14
0274,1482,29,25
0275,2712,58,56
0277,77,1,0
0279,832,5,12
0281,3183,76,72
0285,1288,29,28
0289,2151,40,41
0293,837,19,8
0294,1396,13,13
0296,2828,70,51
0297,2935,36,41
0299,2296,73,46
0301,2083,47,29
0302,1611,74,30
0303,2228,57,22
0307,10658,210,128
0308,1628,30,25
0310,2906,60,72
0312,885,20,11
0313,3523,53,38
0317,711,16,4
0321,2938,63,51
0327,1802,31,23
0331,1195,32,10
0335,1089,23,8
0339,436,6,5
0340,1819,27,18
0342,3031,67,46
0344,23388,593,223
0345,6244,115,70
0351,1192,22,8
0352,1354,26,10
0353,2227,73,53
0355,3854,72,69
0356,3806,94,25
0358,2070,30,23
0361,7102,115,67
0362,5380,117,88
0363,67902,1659,705
0370,696,6,2
0373,1878,34,33
0375,3169,38,39
0376,722,11,6
0377,1199,13,16
0383,2163,23,20
0384,2415,39,30
0385,3421,76,15
0388,1647,28,11
0392,9411,174,142
0394,10085,161,100
0396,3021,55,29
0397,1382,22,57
0398,4008,55,33
0399,1225,20,12
0400,3907,46,31
0402,5026,70,77
0405,6916,83,53
0406,3185,52,52
0415,920,11,5
0416,1937,29,12
0417,772,16,26
0420,4287,49,24
0431,786,16,8
0432,1049,7,4
0437,965,12,4
0439,5928,157,78
0441,3290,44,48
0448,354,6,4
0450,998,11,7
0451,1826,32,12
0453,5226,90,85
0457,1566,17,20
0473,952,17,42
0479,11773,265,157
0482,1818,32,20
0484,8475,159,111
0489,3817,85,43
0498,1717,16,12
0501,1026,30,9
0502,5419,150,127
0503,6866,87,74
0505,10030,211,155
0512,2974,43,36
0513,5578,177,149
0518,37915,1219,532
0523,2019,13,23
0530,2293,49,40
0531,2544,34,29
0532,2032,27,15
0534,1303,15,17
0537,6383,95,54
0542,2803,45,67
0546,7486,114,65
0547,1594,34,21
0553,1529,25,17
0556,2515,59,33
0569,2320,35,21
0575,2938,62,20
0579,1452,22,30
0589,768,34,12
0590,2433,39,42
0597,3966,94,79
0599,54838,1594,866
0603,3532,112,71
0606,6749,197,103
0610,2503,27,40
0613,2186,38,20
0614,751,19,16
0622,6179,144,87
0626,1310,19,21
0627,2182,61,14
0629,1424,33,30
0632,3713,111,38
0637,8195,138,62
0638,571,7,1
0642,3863,70,87
0654,967,28,5
0664,1679,58,23
0668,1425,24,19
0677,1328,32,12
0678,580,9,6
0687,2307,56,21
0703,1605,29,13
0715,2902,87,26
0716,1662,56,23
0717,951,21,5
0718,2211,83,24
0736,2887,93,33
0737,1447,19,26
0743,1138,30,17
0744,355,12,4
0748,4839,83,38
0753,2239,51,30
0755,708,40,23
0756,2469,35,43
0757,2384,48,65
0758,11245,230,143
0762,2534,81,41
0765,680,17,9
0766,2220,42,25
0770,1729,42,24
0772,15515,372,318
0777,2716,63,37
0779,1624,27,25
0784,1760,31,19
0785,1691,39,35
0786,1100,29,24
0794,7651,187,79
0796,11109,214,156
0797,3444,74,47
0798,1238,19,20
0809,1939,42,35
0815,879,17,10
0820,1509,31,20
0823,1663,27,26
0824,2285,53,22
0826,3734,73,34
0828,7298,225,123
0840,1662,41,15
0845,2269,47,31
0847,1538,42,13
0848,1055,39,27
0851,1588,31,18
0852,1386,31,15
0855,16159,365,270
0856,2683,126,83
0858,2565,46,57
0861,3685,70,46
0865,2416,69,53
0866,1091,16,13
0867,3686,65,76
0873,1422,18,24
0879,1192,34,17
0880,1177,34,32
0882,2566,86,63
0888,926,25,12
0889,879,26,11
0893,1187,18,11
0899,1737,72,47
0907,1336,28,19
0917,5019,199,118
0928,2823,114,95
0935,6832,267,190
0938,985,31,22
0944,469,11,11
0946,1794,43,18
0957,3956,82,44
0965,653,26,7
0971,1545,66,21
0981,507,19,13
0983,8515,187,142
0984,4329,60,43
0986,705,23,10
0988,4757,104,68
0994,888,31,20
0995,4275,123,58
1507,4024,56,59
1509,2676,37,43
1525,2799,33,22
1581,3165,71,69
1586,2088,30,38
1598,2010,21,20
1621,4744,83,60
1640,2899,68,47
1641,1796,41,33
1652,1949,94,37
1655,2121,49,25
1658,1230,22,13
1659,1774,55,36
1667,1203,23,8
1669,1302,40,28
1674,5699,96,69
1676,1301,32,22
1680,1033,5,20
1681,1159,21,14
1684,1856,34,22
1685,1349,47,26
1690,1326,28,22
1695,351,12,8
1696,1464,22,15
1699,1160,20,24
1700,3419,36,29
1701,673,12,20
1702,867,22,11
1705,2737,56,26
1706,1953,74,49
1708,2008,22,18
1709,2331,40,37
1711,2062,58,31
1714,1103,41,18
1719,1643,38,25
1721,2595,106,78
1723,567,23,5
1724,1753,28,9
1728,2152,36,25
1729,869,30,19
1730,1158,17,20
1731,1502,27,27
1734,2389,70,29
1735,2705,32,28
1740,2130,59,32
1742,3641,49,47
1771,3106,69,25
1773,888,17,9
1774,2418,34,34
1783,9590,165,86
1842,1435,16,13
1859,2814,36,42
1876,2201,30,17
1883,5262,178,126
1884,1819,21,9
1891,1060,9,16
1892,3394,96,45
1894,3175,161,77
1895,2144,38,33
1896,1815,46,26
1900,5660,50,84
1901,3019,62,35
1903,1577,68,44
1904,4227,109,65
1911,3313,44,31
1916,4706,119,80
1924,3179,116,85
1926,3889,57,34
1930,6010,139,92
1931,4675,117,61
1940,2321,42,30
1942,3781,51,31
1945,2220,51,45
1948,6016,249,162
1949,2085,25,33
1950,1802,34,20
1952,2818,44,35
1954,2194,76,42
1955,2083,38,23
1959,5257,81,65
1960,4190,79,57
1961,4524,96,63
1963,5739,132,58
1966,2508,25,20
1969,2261,34,22
1970,2205,33,35
1978,3830,44,28
1979,2173,38,14