0014,48316,9999,63
0034,58056,9999,125
0037,6631,9999,24
0047,5101,9999,19
0050,4938,9999,18
0059,6544,9999,41
0060,393,9999,1
0072,2537,9999,8
0074,9771,9999,44
0080,24352,9999,97
0085,4178,9999,7
0086,5849,9999,11
0088,104,9999,2
0090,11045,9999,42
0093,822,9999,2
0096,213,9999,1
0098,4724,9999,31
0106,11346,9999,26
0109,7055,9999,35
0114,21702,9999,96
0118,11829,9999,48
0119,6689,9999,37
0141,19493,9999,72
0147,6503,9999,41
0148,6649,9999,24
0150,22801,9999,101
0153,41316,9999,199
0158,6486,9999,34
0160,14370,9999,51
0163,9731,9999,54
0164,20622,9999,74
0166,13393,9999,58
0168,6137,9999,38
0171,10847,9999,34
0173,8718,9999,53
0175,4064,9999,19
0177,9159,9999,52
0180,6028,9999,29
0183,6964,9999,21
0184,6195,9999,24
0189,7623,9999,31
0193,29953,9999,148
0197,5619,9999,33
0200,38804,9999,197
0202,35038,9999,160
0203,17435,9999,83
0209,6494,9999,28
0213,4238,9999,25
0214,6517,9999,26
0216,7525,9999,24
0221,1849,9999,9
0222,13619,9999,54
0225,5212,9999,31
0226,4794,9999,18
0228,28232,9999,118
0230,6244,9999,26
0232,7335,9999,55
0233,6807,9999,45
0243,12158,9999,62
0244,2920,9999,7
0246,3691,9999,33
0252,3862,9999,21
0262,7041,9999,43
0263,8012,9999,45
0267,10895,9999,34
0268,45262,9999,235
0269,6167,9999,43
0273,7090,9999,21
0274,4960,9999,38
0275,8482,9999,87
0277,338,9999,0
0279,2922,9999,12
0281,11485,9999,80
0285,5637,9999,34
0289,7911,9999,72
0293,2888,9999,11
0294,6204,9999,25
0296,9897,9999,71
0297,9123,9999,50
0299,7939,9999,51
0301,10052,9999,48
0302,7078,9999,44
0303,8974,9999,32
0307,45457,9999,153
0308,6762,9999,30
0310,10558,9999,84
0312,3347,9999,15
0313,8991,9999,43
0317,2640,9999,7
0321,12893,9999,53
0327,7409,9999,32
0331,4280,9999,12
0335,4273,9999,10
0339,1750,9999,5
0340,6076,9999,26
0342,12956,9999,55
0344,103665,9999,306
0345,20313,9999,91
0351,4164,9999,9
0352,5494,9999,19
0353,9648,9999,59
0355,16096,9999,82
0356,16261,9999,37
0358,9640,9999,30
0361,29413,9999,93
0362,24514,9999,119
0363,263199,9999,984
0373,7109,9999,41
0375,11035,9999,46
0376,3265,9999,8
0377,6190,9999,22
0383,9197,9999,33
0384,9442,9999,43
0385,13149,9999,27
0388,4476,9999,17
0392,43159,9999,192
0394,42733,9999,139
0396,10528,9999,46
0397,6929,9999,67
0399,5568,9999,18
0400,14083,9999,51
0402,23612,9999,107
0405,21179,9999,59
0406,11487,9999,64
0415,3530,9999,13
0417,2887,9999,31
0420,12390,9999,29
0431,2871,9999,8
0432,3307,9999,7
0437,4150,9999,6
0439,24866,9999,107
0441,12043,9999,78
0448,1986,9999,4
0450,3689,9999,16
0451,8406,9999,21
0453,17846,9999,98
0457,5612,9999,23
0473,4189,9999,47
0479,45394,9999,194
0482,6530,9999,30
0484,30374,9999,148
0489,14434,9999,50
0498,5256,9999,13
0501,4211,9999,12
0502,19464,9999,159
0503,26618,9999,89
0505,35101,9999,219
0512,10959,9999,48
0513,20315,9999,166
0518,148402,9999,652
0523,6540,9999,31
0530,9375,9999,50
0531,9927,9999,41
0532,5800,9999,17
0534,5373,9999,23
0537,21742,9999,71
0542,8981,9999,79
0546,32188,9999,84
0547,6475,9999,28
0553,6019,9999,24
0556,8876,9999,46
0569,8449,9999,26
0575,11576,9999,32
0579,6101,9999,32
0589,2843,9999,12
0590,8800,9999,52
0597,13677,9999,109
0599,204939,9999,1079
0603,14709,9999,78
0606,22904,9999,127
0610,8445,9999,52
0613,7922,9999,23
0614,3274,9999,20
0622,21435,9999,112
0626,6050,9999,24
0627,8816,9999,19
0629,6388,9999,37
0632,14819,9999,46
0637,33097,9999,78
0638,2439,9999,1
0642,12587,9999,119
0654,6106,9999,12
0664,9541,9999,44
0668,5193,9999,20
0677,7233,9999,18
0678,3237,9999,8
0687,11779,9999,41
0703,7754,9999,25
0715,13162,9999,41
0716,8044,9999,36
0717,5053,9999,18
0718,10391,9999,42
0736,12604,9999,55
0737,6822,9999,36
0743,4497,9999,20
0744,1746,9999,4
0748,18813,9999,51
0753,7841,9999,38
0755,2664,9999,23
0757,8782,9999,73
0758,50473,9999,184
0762,9278,9999,51
0765,2563,9999,14
0766,6902,9999,32
0770,5588,9999,35
0772,60726,9999,413
0777,11104,9999,40
0779,5957,9999,30
0784,6436,9999,21
0785,6591,9999,43
0794,25709,9999,93
0796,43202,9999,194
0797,12484,9999,56
0798,4085,9999,20
0809,6450,9999,47
0820,5525,9999,27
0823,5259,9999,27
0824,8194,9999,27
0826,15148,9999,44
0828,23324,9999,143
0840,6084,9999,18
0845,8055,9999,45
0847,5425,9999,21
0848,4210,9999,30
0851,5907,9999,22
0852,4627,9999,18
0855,62510,9999,301
0858,8366,9999,72
0861,11469,9999,54
0865,8642,9999,56
0866,4520,9999,18
0867,12712,9999,83
0873,5156,9999,26
0879,5096,9999,18
0880,4374,9999,37
0882,10322,9999,94
0888,4294,9999,16
0889,3693,9999,15
0893,3677,9999,20
0899,7788,9999,71
0907,4685,9999,31
0917,22818,9999,161
0928,11468,9999,108
0935,31020,9999,254
0938,5077,9999,43
0944,1648,9999,13
0946,4918,9999,28
0957,15904,9999,79
0965,2473,9999,12
0971,6856,9999,28
0981,1960,9999,23
0983,32202,9999,201
0984,13086,9999,58
0986,3223,9999,14
0988,13992,9999,98
0994,3958,9999,36
0995,18955,9999,83
1507,13511,9999,78
1509,8931,9999,58
1525,10088,9999,28
1581,11272,9999,87
1586,7396,9999,49
1598,6405,9999,24
1621,18901,9999,72
1640,9484,9999,59
1641,6322,9999,44
1652,7627,9999,44
1655,7787,9999,31
1658,3740,9999,13
1659,5649,9999,45
1667,3676,9999,14
1669,4958,9999,40
1674,20881,9999,88
1676,7302,9999,40
1680,4029,9999,23
1681,4229,9999,27
1690,5145,9999,32
1695,1458,9999,12
1696,6253,9999,24
1699,4934,9999,27
1700,10196,9999,36
1701,2954,9999,24
1705,10124,9999,54
1706,5875,9999,60
1708,8446,9999,30
1709,9199,9999,54
1711,8257,9999,45
1714,4668,9999,26
1719,7048,9999,32
1721,8753,9999,82
1723,2463,9999,5
1724,5453,9999,15
1728,6133,9999,33
1729,3301,9999,22
1730,5054,9999,26
1731,5457,9999,32
1734,9651,9999,40
1735,9409,9999,39
1740,8451,9999,51
1742,12206,9999,68
1771,10509,9999,33
1773,3577,9999,10
1774,8066,9999,38
1783,34858,9999,101
1842,5521,9999,15
1859,10117,9999,58
1876,7982,9999,28
1883,24149,9999,171
1884,7047,9999,11
1891,4957,9999,27
1892,13050,9999,51
1894,12051,9999,93
1895,7143,9999,40
1896,6721,9999,35
1900,20420,9999,98
1901,10715,9999,39
1903,6551,9999,60
1904,17793,9999,77
1911,11058,9999,38
1916,18803,9999,107
1924,12507,9999,95
1926,16019,9999,43
1930,22564,9999,108
1931,15757,9999,69
1940,11497,9999,39
1942,16968,9999,45
1945,8425,9999,69
1948,20612,9999,180
1949,8976,9999,45
1950,6024,9999,25
1952,11231,9999,47
1954,9530,9999,72
1955,8018,9999,31
1959,16387,9999,76
1960,15277,9999,69
1961,17225,9999,82
1963,23912,9999,76
1966,11101,9999,38
1969,11233,9999,36
1970,10550,9999,57
1978,14157,9999,45
1979,7434,9999,29
1980,23313,9999,71
1982,23072,9999,137
1991,14456,9999,123