0014,22787,119,49
0034,27045,392,113
0037,3036,31,21
0047,2376,13,11
0050,2309,22,14
0059,3301,31,39
0060,295,3,1
0072,1100,13,6
0074,4642,46,41
0080,10550,118,75
0085,1949,20,6
0086,2639,31,8
0088,49,1,2
0090,5096,57,34
0093,423,3,2
0096,94,0,0
0098,2421,21,29
0106,5019,74,15
0109,3755,63,32
0114,11578,196,84
0118,6017,86,42
0119,3011,35,32
0141,9592,127,61
0147,3123,33,39
0148,3020,31,22
0150,11343,125,91
0153,19370,282,179
0158,3197,35,32
0160,7327,66,38
0163,5132,52,51
0164,9563,92,71
0166,5545,85,46
0168,3324,51,38
0171,4706,40,29
0173,4316,59,45
0175,1894,16,16
0177,4702,47,45
0180,3828,24,26
0183,3696,27,20
0184,3352,62,19
0189,3898,26,28
0193,12267,123,126
0197,2976,33,24
0200,18201,227,164
0202,17874,225,128
0203,10666,80,65
0209,3063,43,24
0213,2011,36,22
0214,3258,43,21
0216,3651,52,23
0221,1029,22,9
0222,6612,68,32
0225,2451,48,29
0226,2645,31,16
0228,16818,174,100
0230,2899,41,17
0232,3663,82,54
0233,3338,51,37
0243,5596,93,50
0244,1192,23,7
0246,1630,57,32
0252,1813,31,19
0262,2979,40,30
0263,4177,44,42
0267,5834,56,30
0268,21241,307,206
0269,3141,54,33
0273,3260,23,21
0274,2728,41,31
0275,4530,70,64
0277,146,1,0
0279,1680,7,12
0281,5773,91,74
0285,2483,33,31
0289,4483,48,45
0293,1588,28,9
0294,2783,20,17
0296,5138,89,62
0297,4778,47,46
0299,4572,91,49
0301,4302,59,30
0302,3731,87,39
0303,4011,72,26
0307,19320,284,143
0308,2886,36,28
0310,4922,83,79
0312,1497,26,12
0313,4704,62,39
0317,1265,21,6
0321,5704,80,52
0327,3141,42,25
0331,2138,41,12
0335,1900,31,8
0339,968,10,5
0340,3367,47,21
0342,5283,84,48
0344,46438,813,263
0345,10859,149,81
0351,2106,24,8
0352,2465,37,17
0353,4221,92,57
0355,6866,103,76
0356,7193,150,31
0358,4478,45,26
0361,12667,147,86
0362,10459,150,102
0363,126101,2229,878
0370,1186,9,3
0373,3179,41,40
0375,5319,49,42
0376,1370,14,6
0377,2383,19,17
0383,4120,33,24
0384,4385,61,39
0385,6036,100,24
0388,2345,32,14
0392,18530,246,157
0394,19391,210,117
0396,5038,67,32
0397,2940,32,65
0398,7212,70,38
0399,2414,24,16
0400,6460,78,42
0402,9681,107,92
0405,10478,100,55
0406,5396,69,57
0415,1570,14,6
0416,3365,37,17
0417,1346,19,29
0420,6420,62,26
0431,1247,17,8
0432,1655,12,6
0437,1811,19,5
0439,10581,208,87
0441,5694,61,61
0448,803,6,4
0450,1635,12,7
0451,3665,35,15
0453,8757,111,91
0457,2521,21,23
0473,1827,28,43
0479,20619,350,182
0482,3669,47,22
0484,14713,200,132
0489,7315,113,48
0498,2560,27,13
0501,2067,33,11
0502,10118,197,148
0503,13198,119,80
0505,17673,284,188
0512,5366,51,44
0513,10310,301,165
0518,71964,1922,584
0523,3654,21,26
0530,4730,80,45
0531,4832,45,33
0532,2987,30,15
0534,2377,23,19
0537,10799,121,65
0542,4541,52,74
0546,15763,154,78
0547,3068,38,24
0553,2909,31,17
0556,4602,74,35
0569,4431,48,24
0575,5672,73,25
0579,2687,23,31
0589,1330,39,12
0590,4448,48,47
0597,7394,122,92
0599,105645,2175,998
0603,6620,144,77
0606,11753,259,121
0610,4516,33,44
0613,3870,53,23
0614,1478,25,19
0622,10957,193,99
0626,2598,25,24
0627,4136,75,17
0629,2692,43,31
0632,6776,151,43
0637,15186,197,70
0638,1094,10,1
0642,6664,94,102
0654,2216,44,9
0664,3953,105,31
0668,2529,25,19
0677,2386,46,13
0678,1406,17,6
0687,4907,87,30
0703,4024,62,17
0715,5312,135,31
0716,3805,76,30
0717,1966,35,7
0718,4262,140,34
0736,5594,127,39
0737,2983,29,31
0743,2132,34,18
0744,780,13,4
0748,8722,101,48
0753,3844,58,32
0755,1404,43,23
0756,4715,46,50
0757,4408,54,70
0758,23292,277,157
0762,4663,98,43
0765,1185,25,13
0766,3661,49,25
0770,2867,49,30
0772,29415,475,361
0777,4999,73,39
0779,2853,33,26
0784,3183,43,20
0785,3098,43,36
0786,1785,31,24
0794,13586,213,86
0796,21525,274,176
0797,6514,93,51
0798,1991,21,20
0809,3253,52,37
0815,1563,17,10
0820,2616,35,23
0823,2745,32,27
0824,3914,57,22
0826,6755,96,41
0828,13033,255,132
0840,2759,49,17
0845,4116,54,35
0847,2781,48,13
0848,1813,43,28
0851,2849,39,19
0852,2256,33,17
0855,31320,446,281
0856,5274,143,86
0858,4030,60,64
0861,6021,90,50
0865,4014,80,53
0866,2054,23,17
0867,6684,83,77
0873,2351,23,26
0879,2349,40,17
0880,2007,38,35
0882,4764,115,77
0888,2010,36,13
0889,2026,34,14
0893,2051,26,18
0899,3787,103,56
0907,2749,30,27
0917,10612,266,136
0928,5465,155,99
0935,14184,378,206
0938,2142,63,34
0944,793,12,12
0946,2842,51,22
0957,8487,128,65
0965,1183,30,9
0971,3179,80,24
0981,884,25,14
0983,17298,248,184
0984,7260,73,52
0986,1463,26,11
0988,8205,130,74
0994,1834,42,24
0995,8805,163,63
1507,7636,67,71
1509,5148,52,45
1525,4978,42,25
1581,5478,102,75
1586,3888,39,42
1598,3195,25,24
1621,8852,105,69
1640,5151,80,52
1641,3210,48,37
1652,3808,104,38
1655,3774,60,29
1658,1888,25,13
1659,3122,64,38
1667,2001,24,10
1669,2654,51,35
1674,9851,116,76
1676,2983,63,28
1680,1802,8,21
1681,2016,34,16
1684,3580,40,29
1685,2298,51,29
1690,2600,39,26
1695,678,21,9
1696,2612,28,21
1699,2265,34,25
1700,5181,44,32
1701,1337,18,23
1702,1610,29,11
1705,4967,67,37
1706,3221,80,54
1708,4153,33,27
1709,4408,50,46
1711,4068,68,40
1714,1811,50,19
1719,3255,51,30
1721,4723,115,78
1723,1150,25,5
1724,2625,28,12
1728,3312,40,28
1729,1599,36,20
1730,2157,26,25
1731,2573,41,32
1734,5055,80,30
1735,4743,37,31
1740,4640,71,43
1742,6662,59,56
1771,5304,82,29
1773,1794,21,10
1774,4000,39,36
1783,17700,201,89
1842,2709,19,14
1859,4853,45,44
1876,3995,41,22
1883,11699,242,150
1884,3315,26,10
1891,2285,24,17
1892,6348,128,47
1894,6476,171,87
1895,3267,46,38
1896,3697,61,31
1900,10111,90,93
1901,5577,85,38
1903,2925,96,48
1904,7738,159,70
1911,5318,54,34
1916,8671,174,90
1924,6234,135,92
1926,7229,82,40
1930,11322,194,99
1931,8268,158,65
1940,5160,63,36
1942,7100,65,39
1945,4204,59,53
1948,11076,270,170
1949,3977,46,37
1950,3016,38,22
1952,4948,60,40
1954,4798,106,55
1955,3914,50,25
1959,9146,97,70
1960,7678,96,61
1961,8479,140,77
1963,11406,164,68
1966,4936,39,20
1969,4851,39,26
1970,5266,69,42
1978,7725,60,38
1979,3540,54,24