0014,10669,77,38
0034,16345,297,93
0037,2034,17,16
0047,1499,9,10
0050,1328,20,13
0059,1779,18,37
0060,147,0,0
0072,551,7,3
0074,2008,28,35
0080,5791,83,67
0085,1067,13,6
0086,1218,25,7
0088,43,1,2
0090,2571,30,32
0093,199,3,2
0096,45,0,0
0098,1270,13,28
0106,2898,46,14
0109,2381,50,28
0114,7333,120,68
0118,3719,63,40
0119,1799,23,24
0141,6069,90,54
0147,1978,28,36
0148,1817,25,19
0150,6135,82,82
0153,10863,195,164
0158,2245,32,32
0160,4675,55,37
0163,3530,39,49
0164,5838,66,65
0166,2754,73,42
0168,2172,45,32
0171,2677,30,27
0173,2639,50,43
0175,1185,14,15
0177,2854,39,40
0180,1752,14,18
0183,2304,19,18
0184,1987,44,12
0189,2629,19,27
0193,6273,87,103
0197,1856,21,19
0200,9264,184,139
0202,9762,167,120
0203,6179,47,58
0209,1715,34,18
0213,1077,30,16
0214,1886,38,18
0216,2141,43,22
0221,624,17,9
0222,3667,56,27
0225,1535,40,27
0226,1585,27,13
0228,9498,128,78
0230,1549,36,13
0232,2105,69,47
0233,1981,39,33
0243,3476,79,46
0244,648,19,7
0246,1021,55,31
0252,1087,25,17
0262,1598,33,27
0263,2606,38,39
0267,3676,46,27
0268,11287,243,174
0269,1743,46,29
0273,1990,18,14
0274,1569,32,25
0275,2892,59,56
0277,80,1,0
0279,873,5,12
0281,3418,82,72
0285,1386,30,28
0289,2356,40,41
0293,886,19,8
0294,1482,15,15
0296,2952,72,51
0297,3106,37,41
0299,2441,73,46
0301,2216,47,29
0302,1735,77,30
0303,2374,58,23
0307,11332,216,129
0308,1742,32,27
0310,3056,63,72
0312,939,21,11
0313,3688,54,39
0317,748,18,5
0321,3102,63,51
0327,1919,33,23
0331,1300,33,12
0335,1153,23,8
0339,473,6,5
0340,1921,28,19
0342,3182,67,46
0344,24949,605,227
0345,6640,119,70
0351,1235,22,8
0352,1447,26,11
0353,2394,75,53
0355,4023,77,70
0356,4129,101,25
0358,2268,32,23
0361,7616,120,72
0362,5733,122,88
0363,71583,1709,721
0370,745,7,3
0373,2021,34,34
0375,3429,39,41
0376,786,12,6
0377,1291,13,16
0383,2433,25,22
0384,2517,39,30
0385,3877,80,16
0388,1719,30,11
0392,10174,181,143
0394,10877,163,103
0396,3232,57,31
0397,1498,22,57
0398,4385,56,34
0399,1335,21,15
0400,4294,50,33
0402,5277,73,78
0405,7393,88,53
0406,3385,54,52
0415,958,12,6
0416,2057,30,13
0417,809,16,26
0420,4614,53,25
0431,814,16,8
0432,1117,9,5
0437,1027,13,5
0439,6413,166,80
0441,3556,48,54
0448,371,6,4
0450,1042,12,7
0451,1979,32,14
0453,5699,93,87
0457,1691,17,20
0473,1051,19,42
0479,12608,269,164
0482,2001,35,21
0484,9042,164,111
0489,4164,89,45
0498,1847,18,12
0501,1111,30,9
0502,5977,152,130
0503,7336,90,74
0505,10867,226,157
0512,3192,44,36
0513,5928,193,150
0518,40648,1294,537
0523,2142,16,23
0530,2504,52,40
0531,2776,36,30
0532,2183,28,15
0534,1400,15,17
0537,6961,99,54
0542,2980,45,67
0546,7971,116,65
0547,1718,34,21
0553,1645,26,17
0556,2690,61,34
0569,2574,36,21
0575,3172,63,20
0579,1549,22,30
0589,818,37,12
0590,2670,43,44
0597,4306,96,84
0599,58745,1634,883
0603,3799,114,72
0606,7327,200,105
0610,2671,29,41
0613,2338,39,20
0614,822,19,16
0622,6626,151,90
0626,1412,20,22
0627,2336,63,14
0629,1529,35,30
0632,3964,116,38
0637,8739,142,63
0638,611,7,1
0642,4152,77,88
0654,1063,31,5
0664,1882,64,25
0668,1474,24,19
0677,1386,34,13
0678,687,9,6
0687,2584,61,23
0703,1886,32,15
0715,3115,101,28
0716,1868,59,23
0717,1055,25,6
0718,2472,98,29
0736,3132,95,33
0737,1583,20,28
0743,1239,32,17
0744,380,12,4
0748,5197,85,41
0753,2382,51,30
0755,744,40,23
0756,2605,36,43
0757,2554,49,67
0758,11951,231,143
0762,2686,82,41
0765,758,17,9
0766,2360,43,25
0770,1878,43,25
0772,16770,385,328
0777,2858,64,38
0779,1708,27,25
0784,1913,32,19
0785,1790,39,36
0786,1147,29,24
0794,8256,192,81
0796,12045,221,158
0797,3724,74,47
0798,1302,19,20
0809,2069,44,35
0815,970,17,10
0820,1625,31,20
0823,1799,27,26
0824,2413,54,22
0826,3899,76,34
0828,7812,230,126
0840,1786,42,16
0845,2421,47,32
0847,1678,45,13
0848,1168,39,27
0851,1708,31,18
0852,1479,32,15
0855,17587,366,272
0856,2976,129,85
0858,2739,50,59
0861,4019,73,47
0865,2526,70,53
0866,1202,16,13
0867,3946,66,76
0873,1531,19,24
0879,1263,34,17
0880,1272,34,33
0882,2658,86,63
0888,1004,26,12
0889,982,26,11
0893,1216,18,11
0899,1940,73,47
0907,1395,29,19
0917,5352,205,119
0928,2976,117,95
0935,7227,275,192
0938,1040,32,22
0944,489,11,11
0946,1870,43,19
0957,4395,88,47
0965,689,26,7
0971,1672,66,21
0981,526,20,14
0983,9509,191,144
0984,4554,60,43
0986,738,23,11
0988,4929,105,68
0994,925,31,21
0995,4578,126,58
1507,4321,57,60
1509,2923,37,43
1525,3021,33,22
1581,3336,76,69
1586,2174,30,38
1598,2238,24,21
1621,5153,85,60
1640,3110,68,47
1641,1920,41,34
1652,2054,96,38
1655,2213,50,26
1658,1305,22,13
1659,1922,57,36
1667,1283,23,8
1669,1487,43,30
1674,6070,96,69
1676,1431,38,22
1680,1112,5,20
1681,1240,23,14
1684,1993,35,22
1685,1444,47,26
1690,1438,29,22
1695,395,13,9
1696,1555,22,16
1699,1349,22,25
1700,3599,37,29
1701,756,12,21
1702,913,26,11
1705,2951,56,26
1706,2047,74,49
1708,2297,25,22
1709,2516,41,37
1711,2207,59,31
1714,1157,41,18
1719,1785,40,25
1721,2760,107,78
1723,610,23,5
1724,1832,28,9
1728,2261,36,25
1729,895,30,19
1730,1243,18,20
1731,1623,27,28
1734,2528,71,29
1735,2863,32,28
1740,2243,60,32
1742,3776,49,48
1771,3394,73,26
1773,975,17,9
1774,2501,34,34
1783,10532,168,86
1842,1566,16,13
1859,2959,37,42
1876,2431,31,18
1883,5658,180,129
1884,1984,22,10
1891,1169,12,16
1892,3623,99,45
1894,3545,161,78
1895,2291,38,34
1896,1988,47,27
1900,6185,55,84
1901,3204,66,36
1903,1615,69,44
1904,4548,114,65
1911,3625,47,32
1916,5028,125,81
1924,3380,118,85
1926,4164,58,34
1930,6664,149,93
1931,4933,123,62
1940,2611,43,31
1942,4012,51,31
1945,2417,52,46
1948,6527,249,162
1949,2287,27,35
1950,1913,35,20
1952,3028,46,36
1954,2375,79,44
1955,2253,39,23
1959,5496,81,66
1960,4473,83,59
1961,4893,99,65
1963,6415,141,61
1966,2685,26,20
1969,2455,34,22
1970,2483,37,35
1978,4165,47,30
1979,2260,40,15