0014,24469,121,51
0034,29810,397,114
0037,3420,35,21
0047,2648,13,11
0050,2614,22,15
0059,3700,34,40
0060,309,3,1
0072,1302,13,6
0074,5658,49,41
0080,12178,121,75
0085,2277,20,6
0086,3217,33,8
0088,51,1,2
0090,6085,60,36
0093,476,3,2
0096,109,1,0
0098,2885,21,29
0106,5759,76,15
0109,4113,64,33
0114,12947,206,86
0118,6560,89,42
0119,3372,35,34
0141,10506,130,63
0147,3433,34,40
0148,3460,32,22
0150,12439,129,91
0153,21179,285,180
0158,3609,36,33
0160,8507,71,41
0163,5671,55,52
0164,10802,95,71
0166,6468,89,50
0168,3682,53,38
0171,5716,41,29
0173,4796,59,47
0175,2217,16,16
0177,5189,48,47
0180,4068,24,29
0183,4001,27,21
0184,4096,67,22
0189,4296,26,30
0193,14407,133,133
0197,3338,33,28
0200,20363,231,169
0202,20010,230,134
0203,12508,86,74
0209,3454,44,26
0213,2316,37,22
0214,3639,46,22
0216,4070,53,23
0221,1156,22,9
0222,7806,71,34
0225,2776,49,30
0226,2942,32,16
0228,19157,178,109
0230,3403,44,20
0232,4137,83,54
0233,3752,51,39
0243,6386,94,50
0244,1451,24,7
0246,1996,57,32
0252,2027,31,20
0262,3422,41,31
0263,4591,45,42
0267,6479,57,30
0268,23990,319,209
0269,3800,60,36
0273,3760,23,21
0274,3052,43,36
0275,5129,71,69
0277,160,1,0
0279,1899,7,12
0281,6356,95,75
0285,2872,33,31
0289,5010,51,46
0293,1721,29,9
0294,3202,21,18
0296,5603,89,64
0297,5286,50,47
0299,5081,91,50
0301,5108,62,33
0302,4372,89,39
0303,4498,73,28
0307,21552,284,143
0308,3417,36,28
0310,5453,86,79
0312,1673,26,13
0313,5097,63,39
0317,1440,21,6
0321,6706,80,52
0327,3485,42,25
0331,2400,41,12
0335,2172,33,9
0339,1073,10,5
0340,3798,47,21
0342,6126,85,49
0344,51204,818,265
0345,12455,151,84
0351,2401,24,9
0352,2814,38,17
0353,4845,93,58
0355,7836,105,77
0356,7944,151,31
0358,5132,46,26
0361,14379,153,86
0362,11765,153,103
0363,136650,2276,892
0370,1347,9,3
0373,3522,41,40
0375,5849,50,42
0376,1518,15,6
0377,2784,20,18
0383,4647,36,25
0384,4781,61,39
0385,6559,103,26
0388,2640,32,14
0392,21088,254,161
0394,21524,218,122
0396,5727,69,34
0397,3467,34,65
0398,8111,72,38
0399,2773,24,17
0400,7202,80,42
0402,10918,113,94
0405,11492,102,55
0406,5960,71,57
0415,1749,15,7
0416,3720,38,17
0417,1511,19,30
0420,7250,62,28
0431,1457,17,8
0432,1873,13,6
0437,2123,19,5
0439,11604,214,87
0441,6254,62,62
0448,944,6,4
0450,1879,12,11
0451,4260,36,16
0453,9533,116,93
0457,2818,21,23
0473,2061,28,43
0479,22853,360,184
0482,4149,48,24
0484,16718,204,137
0489,8102,116,49
0498,2900,28,13
0501,2309,34,11
0502,11033,204,149
0503,14174,120,81
0505,19769,286,194
0512,6057,54,45
0513,11302,308,165
0518,78139,1980,586
0523,4151,22,28
0530,5232,81,45
0531,5430,45,35
0532,3235,31,15
0534,2646,23,20
0537,12162,125,66
0542,5147,53,74
0546,17315,157,80
0547,3430,39,28
0553,3269,33,19
0556,5041,74,35
0569,4930,48,25
0575,6254,73,25
0579,3031,23,32
0589,1446,39,12
0590,5080,48,48
0597,8052,125,96
0599,113460,2203,1005
0603,7390,151,77
0606,12749,261,123
0610,5088,34,45
0613,4363,53,23
0614,1686,26,19
0622,11914,198,100
0626,2927,27,24
0627,4802,81,17
0629,2996,43,34
0632,7640,154,44
0637,16813,201,71
0638,1252,11,1
0642,7273,94,107
0654,2685,46,9
0664,4796,111,31
0668,2845,25,19
0677,3023,47,13
0678,1673,18,6
0687,5736,88,31
0703,4540,65,17
0715,6240,146,32
0716,4377,76,30
0717,2401,36,7
0718,4982,144,35
0736,6366,128,40
0737,3416,32,32
0743,2427,34,18
0744,867,13,4
0748,9692,106,49
0753,4214,59,32
0755,1658,46,23
0756,5208,48,51
0757,4910,56,71
0758,26245,284,161
0762,5273,100,46
0765,1304,26,13
0766,4060,49,26
0770,3108,52,32
0772,32529,488,367
0777,5699,76,39
0779,3187,34,26
0784,3510,45,20
0785,3481,44,37
0786,2002,32,24
0794,14804,215,87
0796,23962,281,181
0797,7221,93,51
0798,2210,21,20
0809,3681,53,41
0815,1732,17,10
0820,2861,35,24
0823,2976,33,27
0824,4455,60,24
0826,7764,103,41
0828,14248,258,132
0840,3045,49,18
0845,4550,55,37
0847,3143,48,14
0848,2045,43,28
0851,3209,41,20
0852,2487,34,18
0855,34621,458,283
0856,5907,143,86
0858,4384,62,65
0861,6544,91,51
0865,4540,81,53
0866,2310,26,17
0867,7465,86,77
0873,2582,24,26
0879,2745,43,17
0880,2258,38,35
0882,5793,118,81
0888,2413,37,14
0889,2277,36,14
0893,2338,27,19
0899,4509,109,57
0907,3074,31,30
0917,12619,276,142
0928,6513,158,103
0935,16555,393,217
0938,2642,64,37
0944,899,13,12
0946,3204,52,23
0957,9584,130,68
0965,1371,31,9
0971,3785,83,24
0981,1020,27,15
0983,19674,253,184
0984,8126,75,53
0986,1861,27,12
0988,9071,132,78
0994,2187,42,27
0995,10020,166,67
1507,8670,67,72
1509,5868,53,47
1525,5657,42,25
1581,6177,103,75
1586,4279,39,42
1598,3545,25,24
1621,9955,106,69
1640,5788,83,54
1641,3747,52,39
1652,4283,108,39
1655,4150,60,30
1658,2154,25,13
1659,3495,67,39
1667,2231,26,10
1669,3045,51,37
1674,10954,118,80
1676,3476,66,28
1680,2030,9,21
1681,2283,35,16
1684,4098,42,31
1685,2550,51,29
1690,2867,40,27
1695,782,23,10
1696,3134,30,21
1699,2577,36,25
1700,5734,46,33
1701,1544,18,23
1702,1883,29,11
1705,5814,72,40
1706,3549,80,56
1708,4848,35,28
1709,4976,54,49
1711,4742,72,41
1714,2172,52,22
1719,3672,52,30
1721,5183,117,78
1723,1319,25,5
1724,2893,29,12
1728,3622,41,28
1729,1910,38,20
1730,2443,29,26
1731,2869,41,32
1734,5743,81,32
1735,5305,39,32
1740,5455,74,44
1742,7556,59,60
1771,5880,84,29
1773,1970,21,10
1774,4421,39,37
1783,19611,212,90
1842,2967,19,14
1859,5513,46,47
1876,4702,45,25
1883,13500,249,151
1884,3691,27,10
1891,2703,29,18
1892,7036,131,47
1894,7234,172,87
1895,3530,48,39
1896,4004,64,32
1900,11327,93,93
1901,6281,87,39
1903,3464,100,52
1904,8894,159,71
1911,5827,55,34
1916,9638,181,93
1924,6798,139,92
1926,7983,83,40
1930,12471,201,100
1931,9307,162,65
1940,6091,64,36
1942,8072,67,41
1945,4802,63,54
1948,12291,273,173
1949,4497,49,38
1950,3329,38,22
1952,5376,61,40
1954,5535,109,61
1955,4487,52,27
1959,10292,100,73
1960,8612,99,63
1961,9727,145,78
1963,13030,166,69
1966,5440,42,21
1969,5681,40,29
1970,6108,77,47
1978,8669,61,39
1979,3932,54,25