0014,20507,104,46
0034,23558,366,99
0037,2722,26,21
0047,2168,13,11
0050,2058,22,14
0059,2637,29,39
0060,278,3,1
0072,961,13,6
0074,3439,40,40
0080,8842,111,74
0085,1705,18,6
0086,2133,30,8
0088,48,1,2
0090,4110,48,34
0093,302,3,2
0096,81,0,0
0098,2046,20,29
0106,4446,70,15
0109,3153,57,31
0114,9865,174,79
0118,5227,78,41
0119,2645,34,27
0141,8656,114,59
0147,2824,31,39
0148,2601,27,20
0150,10016,114,89
0153,17101,260,175
0158,2914,34,32
0160,6317,61,37
0163,4754,47,51
0164,8489,84,68
0166,4295,81,44
0168,3044,50,38
0171,3898,39,29
0173,3870,56,45
0175,1656,15,16
0177,3965,44,41
0180,2528,18,21
0183,3507,27,19
0184,2674,55,19
0189,3464,21,27
0193,9916,113,115
0197,2704,33,22
0200,15092,213,154
0202,15461,214,128
0203,8481,70,64
0209,2772,41,22
0213,1811,34,20
0214,2784,40,20
0216,3149,49,22
0221,892,19,9
0222,5576,65,31
0225,2171,41,27
0226,2372,29,15
0228,13453,149,91
0230,2311,39,14
0232,3058,79,52
0233,2698,49,34
0243,4900,88,48
0244,1028,22,7
0246,1391,57,32
0252,1622,28,19
0262,2604,40,29
0263,3908,43,42
0267,5049,53,29
0268,18942,286,198
0269,2439,50,30
0273,2766,22,18
0274,2407,38,31
0275,4006,64,59
0277,125,1,0
0279,1176,5,12
0281,5036,89,73
0285,2169,31,30
0289,3727,43,42
0293,1389,22,9
0294,2397,19,17
0296,4656,84,60
0297,4197,42,42
0299,3756,84,48
0301,3686,56,29
0302,2705,82,32
0303,3525,66,25
0307,16746,276,142
0308,2528,35,28
0310,4348,76,78
0312,1324,22,12
0313,4465,62,39
0317,1085,20,6
0321,4882,77,51
0327,2757,42,25
0331,1822,40,12
0335,1610,30,8
0339,684,7,5
0340,2636,42,21
0342,4661,81,47
0344,41283,771,255
0345,8770,136,75
0351,1611,24,8
0352,2148,34,17
0353,3763,90,55
0355,6039,98,76
0356,6239,142,30
0358,3917,42,26
0361,11435,144,86
0362,9265,142,95
0363,113626,2131,848
0370,1059,9,3
0373,2911,39,38
0375,4846,47,42
0376,1247,14,6
0377,2154,19,17
0383,3676,29,24
0384,3920,57,37
0385,5640,98,23
0388,2100,31,11
0392,16146,231,154
0394,16989,199,111
0396,4518,64,32
0397,2499,26,60
0398,6634,64,38
0399,2185,24,15
0400,5907,68,40
0402,8445,101,89
0405,9457,97,55
0406,4700,63,55
0415,1381,14,6
0416,3058,36,17
0417,1235,17,29
0420,5870,59,26
0431,1092,17,8
0432,1449,11,6
0437,1586,18,5
0439,9557,200,86
0441,5145,57,60
0448,718,6,4
0450,1511,12,7
0451,3092,34,15
0453,8016,107,90
0457,2333,20,23
0473,1689,25,43
0479,18067,334,177
0482,2968,46,22
0484,12677,192,117
0489,6376,107,48
0498,2381,25,13
0501,1856,31,10
0502,9094,190,145
0503,11708,107,76
0505,15761,271,181
0512,4703,48,43
0513,8711,283,160
0518,63211,1783,567
0523,2955,18,25
0530,4111,73,44
0531,4001,41,32
0532,2803,30,15
0534,2106,22,18
0537,9540,116,61
0542,4106,50,71
0546,13491,143,75
0547,2647,37,23
0553,2478,29,17
0556,3984,71,34
0569,3653,46,22
0575,5075,69,24
0579,2299,23,31
0589,1148,38,12
0590,3929,47,46
0597,6570,118,90
0599,94711,2064,978
0603,5729,140,76
0606,10459,246,115
0610,3652,33,41
0613,3515,51,23
0614,1324,24,19
0622,9829,183,96
0626,2190,23,24
0627,3398,75,16
0629,2429,42,31
0632,5949,147,40
0637,13049,183,70
0638,954,10,1
0642,5945,91,102
0654,1748,42,9
0664,3152,102,31
0668,2240,25,19
0677,2007,41,13
0678,1179,16,6
0687,4058,79,26
0703,3284,60,17
0715,4533,123,29
0716,3286,72,30
0717,1614,32,7
0718,3751,134,32
0736,4815,120,35
0737,2300,23,28
0743,1981,34,18
0744,671,13,4
0748,7895,98,46
0753,3495,57,32
0755,1235,42,23
0756,3695,41,45
0757,3937,53,69
0758,20589,264,147
0762,4228,93,42
0765,1118,25,13
0766,3343,48,25
0770,2644,49,26
0772,26585,460,358
0777,4340,71,38
0779,2600,31,25
0784,2968,41,19
0785,2791,42,36
0786,1614,31,24
0794,12553,209,86
0796,19606,267,172
0797,5856,91,50
0798,1796,20,20
0809,2966,52,37
0815,1349,17,10
0820,2407,34,22
0823,2566,32,27
0824,3495,55,22
0826,6062,87,37
0828,11875,246,130
0840,2546,46,16
0845,3675,53,34
0847,2502,48,13
0848,1721,43,28
0851,2584,35,19
0852,2044,33,15
0855,28037,423,277
0856,4749,140,86
0858,3719,60,63
0861,5500,88,50
0865,3680,76,53
0866,1852,23,17
0867,6024,81,77
0873,2140,23,26
0879,1940,37,17
0880,1819,38,34
0882,3841,102,70
0888,1726,35,13
0889,1632,30,13
0893,1739,25,15
0899,3071,93,53
0907,1966,29,20
0917,8435,248,129
0928,4424,143,96
0935,12272,356,203
0938,1711,54,23
0944,693,11,11
0946,2485,47,20
0957,7134,117,65
0965,1011,28,9
0971,2679,78,24
0981,772,24,14
0983,14963,238,173
0984,6230,67,50
0986,1197,26,11
0988,6933,118,69
0994,1528,38,23
0995,7047,147,63
1507,6401,61,66
1509,4554,50,45
1525,4514,41,25
1581,4624,97,73
1586,3388,36,41
1598,2965,24,24
1621,7564,101,65
1640,4386,77,52
1641,2756,44,37
1652,3310,102,38
1655,3420,57,28
1658,1753,23,13
1659,2830,63,36
1667,1788,23,10
1669,2267,48,35
1674,8764,108,75
1676,2524,57,26
1680,1611,7,20
1681,1721,32,15
1684,2975,37,27
1685,2069,51,28
1690,2203,33,24
1695,606,20,9
1696,2276,26,18
1699,2063,33,25
1700,4880,42,30
1701,1075,17,22
1702,1309,28,11
1705,4330,64,35
1706,2797,79,52
1708,3573,33,27
1709,3959,49,43
1711,3442,65,36
1714,1597,46,18
1719,2950,50,30
1721,4329,113,78
1723,1021,24,5
1724,2467,28,11
1728,3016,40,28
1729,1314,34,20
1730,1928,25,24
1731,2290,38,30
1734,4393,74,30
1735,4134,34,29
1740,3122,65,34
1742,5350,56,54
1771,4882,80,28
1773,1558,21,10
1774,3692,37,36
1783,15879,196,86
1842,2332,19,14
1859,4357,44,43
1876,3426,37,21
1883,9521,224,145
1884,2933,26,10
1891,1633,20,17
1892,5456,124,47
1894,5491,165,85
1895,3049,45,37
1896,2635,53,30
1900,8849,83,91
1901,4476,80,37
1903,2460,89,47
1904,6749,149,69
1911,4859,53,34
1916,7680,166,88
1924,5291,133,90
1926,6328,76,39
1930,10052,186,99
1931,6992,153,64
1940,4379,57,34
1942,6240,63,37
1945,3631,56,51
1948,9890,265,168
1949,3327,43,37
1950,2578,36,21
1952,4292,56,40
1954,3849,102,54
1955,3450,43,25
1959,7478,89,68
1960,6637,87,60
1961,6928,126,77
1963,9767,157,67
1966,4334,38,20
1969,4157,39,26
1970,3661,48,38
1978,6250,55,35
1979,3126,51,23