0014,29690,138,60
0034,37224,433,121
0037,4370,41,23
0047,3295,19,18
0050,3478,27,17
0059,4969,46,41
0060,356,3,1
0072,1797,13,8
0074,7441,58,44
0080,16875,147,95
0085,3285,25,7
0086,4416,38,11
0088,67,1,2
0090,8467,73,41
0093,585,3,2
0096,125,1,1
0098,3668,26,31
0106,7530,82,25
0109,5041,67,35
0114,15488,226,92
0118,8586,95,47
0119,4350,40,37
0141,12777,145,71
0147,4173,38,41
0148,4370,37,24
0150,14929,139,96
0153,26560,305,198
0158,4385,37,33
0160,10437,84,49
0163,6941,57,54
0164,13354,102,73
0166,8786,97,55
0168,4318,55,38
0171,7705,44,32
0173,5737,65,52
0175,2739,16,19
0177,6478,51,51
0180,4444,29,29
0183,4595,27,21
0184,4514,70,24
0189,5235,29,31
0193,18762,149,144
0197,4068,36,33
0200,26082,266,191
0202,25573,254,153
0203,14695,91,79
0209,4323,49,28
0213,2999,43,24
0214,4441,54,26
0216,5126,54,24
0221,1444,25,9
0222,9376,79,49
0225,3435,50,31
0226,3673,35,17
0228,22652,187,117
0230,4201,50,23
0232,5123,88,55
0233,4787,55,44
0243,7949,101,62
0244,1799,24,7
0246,2455,60,33
0252,2573,31,21
0262,4648,45,42
0263,5464,49,45
0267,8213,58,34
0268,30153,350,232
0269,4405,63,41
0273,4678,26,21
0274,3896,44,38
0275,6539,77,84
0277,214,1,0
0279,2266,7,12
0281,7719,104,80
0285,3866,33,31
0289,5907,55,71
0293,2196,33,11
0294,4007,27,24
0296,7008,92,68
0297,6293,57,49
0299,6276,102,50
0301,7194,73,45
0302,5299,94,42
0303,5938,78,32
0307,28171,291,150
0308,4378,36,29
0310,6941,89,81
0312,2193,29,14
0313,6204,66,41
0317,1761,21,6
0321,8477,83,53
0327,4735,44,32
0331,2889,42,12
0335,2630,34,10
0339,1232,11,5
0340,4520,50,26
0342,8011,87,54
0344,63632,838,294
0345,14506,156,88
0351,3025,25,9
0352,3554,39,19
0353,6043,95,59
0355,10272,108,81
0356,10072,157,36
0358,6351,47,30
0361,18588,173,92
0362,14542,160,116
0363,162654,2393,952
0370,1735,9,4
0373,4604,44,41
0375,7376,63,46
0376,2018,16,7
0377,3692,20,20
0383,5823,41,33
0384,5864,62,42
0385,8168,107,27
0388,3228,35,17
0392,27289,275,187
0394,26971,244,135
0396,7221,80,46
0397,4429,36,67
0398,10241,78,49
0399,3641,26,18
0400,9661,96,50
0402,14213,129,106
0405,14009,109,57
0406,7734,75,60
0415,2161,16,13
0416,4845,39,20
0417,1931,20,31
0420,8695,66,29
0431,1775,19,8
0432,2291,13,7
0437,2678,20,6
0439,14196,223,92
0441,7705,69,73
0448,1283,7,4
0450,2311,14,14
0451,5280,44,19
0453,11836,130,98
0457,3497,24,23
0473,2664,33,46
0479,28037,391,190
0482,4835,54,27
0484,20430,217,146
0489,9863,118,50
0498,3633,29,13
0501,2974,34,11
0502,13393,219,159
0503,17195,127,85
0505,24272,308,217
0512,7542,56,46
0513,13604,322,165
0518,94669,2144,636
0523,4949,24,30
0530,6771,90,48
0531,6705,49,41
0532,3942,36,16
0534,3361,25,23
0537,14629,132,71
0542,6398,58,78
0546,20895,163,83
0547,4175,40,28
0553,4008,35,23
0556,6092,78,45
0569,6047,51,26
0575,7660,76,31
0579,3704,24,32
0589,1687,40,12
0590,6261,50,52
0597,9733,134,107
0599,134797,2324,1064
0603,9319,154,78
0606,15520,275,126
0610,6228,40,51
0613,5373,54,23
0614,2158,28,20
0622,14735,215,108
0626,3730,29,24
0627,6123,90,19
0629,3783,49,36
0632,9592,154,46
0637,20722,213,77
0638,1572,11,1
0642,8967,95,118
0654,3761,59,11
0664,6634,143,42
0668,3447,25,19
0677,4277,67,18
0678,2160,21,8
0687,8132,109,41
0703,5687,76,23
0715,8623,172,41
0716,5625,83,35
0717,3252,43,17
0718,6838,175,41
0736,8140,130,54
0737,4650,40,34
0743,3192,36,19
0744,1150,16,4
0748,12249,119,50
0753,5422,63,36
0755,1955,46,23
0756,6218,50,53
0757,6199,60,72
0758,32967,311,181
0762,6633,100,50
0765,1626,26,13
0766,4904,53,31
0770,3685,58,33
0772,40588,536,404
0777,7299,80,40
0779,4043,38,30
0784,4552,48,20
0785,4356,48,43
0786,2358,35,27
0794,17847,219,92
0796,29911,297,190
0797,9002,97,56
0798,2612,21,20
0809,4739,57,46
0815,2131,17,12
0820,3625,38,27
0823,3677,33,27
0824,5760,64,26
0826,10213,115,43
0828,17089,265,140
0840,3959,53,18
0845,5626,57,44
0847,4018,51,21
0848,2707,45,30
0851,3919,44,22
0852,2933,36,18
0855,43702,487,299
0856,7411,150,92
0858,5661,69,71
0861,7972,93,53
0865,5843,85,55
0866,2965,27,17
0867,9301,90,82
0873,3422,27,26
0879,3450,48,18
0880,2716,41,36
0882,7757,129,91
0888,3135,41,16
0889,2918,42,15
0893,2906,31,19
0899,5916,120,69
0907,3544,32,31
0917,17038,304,158
0928,8645,174,107
0935,22182,429,249
0938,3568,69,43
0944,1071,13,13
0946,3937,54,28
0957,12108,138,79
0965,1884,36,12
0971,5024,88,27
0981,1421,29,21
0983,25202,280,199
0984,9974,78,58
0986,2409,29,12
0988,10871,145,93
0994,3043,46,34
0995,13009,182,78
1507,10532,73,78
1509,6897,58,58
1525,6821,45,27
1581,7787,110,86
1586,4963,44,47
1598,4420,29,24
1621,12506,110,72
1640,7156,90,59
1641,5000,52,44
1652,5370,108,44
1655,5141,62,31
1658,2643,25,13
1659,4049,69,45
1667,2718,26,12
1669,3847,55,40
1674,14265,129,84
1676,4716,78,39
1680,2721,10,22
1681,2887,37,22
1684,5191,44,33
1685,2961,51,29
1690,3589,43,28
1695,1069,29,11
1696,4027,37,24
1699,3454,39,26
1700,6864,53,35
1701,2050,21,24
1702,2168,29,11
1705,7475,79,53
1706,4259,84,59
1708,6097,39,30
1709,6302,62,54
1711,6251,80,44
1714,2959,65,25
1719,4664,58,31
1721,6220,121,82
1723,1732,26,5
1724,3580,31,15
1728,4412,48,33
1729,2481,39,21
1730,3215,30,26
1731,3899,45,32
1734,7219,89,38
1735,6525,41,38
1740,6263,81,51
1742,9212,65,67
1771,7151,90,33
1773,2492,23,10
1774,5049,39,38
1783,23743,227,98
1842,3690,19,14
1859,6919,54,58
1876,5788,50,27
1883,17443,275,168
1884,4528,27,11
1891,3496,34,25
1892,8713,139,50
1894,9213,177,93
1895,4488,55,39
1896,4600,67,34
1900,14499,105,98
1901,7432,92,39
1903,4809,107,59
1904,11141,163,76
1911,7528,58,36
1916,11860,197,102
1924,8553,143,93
1926,10019,85,42
1930,15491,220,106
1931,11126,171,68
1940,8084,74,38
1942,10322,75,44
1945,5899,70,66
1948,14854,279,179
1949,6131,56,43
1950,4148,44,25
1952,6745,71,43
1954,7119,115,71
1955,5561,54,31
1959,12449,110,76
1960,10621,105,67
1961,12183,150,82
1963,16270,172,75
1966,7138,49,35
1969,7398,45,34
1970,7726,85,56
1978,10347,64,44
1979,4850,56,29