0014,14023,93,45
0034,19988,338,96
0037,2532,24,20
0047,1923,12,11
0050,1786,22,14
0059,2319,26,39
0060,207,3,1
0072,833,13,3
0074,2801,37,39
0080,7633,103,74
0085,1479,17,6
0086,1736,27,7
0088,45,1,2
0090,3448,44,34
0093,250,3,2
0096,68,0,0
0098,1855,20,29
0106,3822,68,15
0109,2910,57,31
0114,9186,165,79
0118,4620,77,41
0119,2371,34,27
0141,7715,107,59
0147,2525,30,38
0148,2346,26,20
0150,8361,106,88
0153,14495,241,175
0158,2693,34,32
0160,5926,60,37
0163,4323,44,51
0164,7361,78,68
0166,3763,80,44
0168,2675,49,33
0171,3529,36,28
0173,3428,54,45
0175,1493,15,15
0177,3425,42,41
0180,2408,18,21
0183,2997,26,19
0184,2632,54,19
0189,3133,21,27
0193,8292,105,113
0197,2446,32,22
0200,12679,203,147
0202,13101,201,126
0203,7906,65,64
0209,2400,41,22
0213,1524,33,18
0214,2542,40,20
0216,2775,47,22
0221,796,19,9
0222,4890,65,29
0225,1879,40,27
0226,2094,28,14
0228,11994,143,86
0230,2106,39,14
0232,2741,78,52
0233,2478,49,34
0243,4390,87,48
0244,905,21,7
0246,1286,57,32
0252,1425,27,19
0262,2207,37,29
0263,3601,43,42
0267,4558,51,29
0268,15711,273,190
0269,2268,50,30
0273,2569,21,18
0274,2114,37,26
0275,3620,62,58
0277,108,1,0
0279,1073,5,12
0281,4619,88,73
0285,1909,31,28
0289,3116,41,42
0293,1182,21,9
0294,2114,18,17
0296,4141,81,60
0297,3911,41,42
0299,3384,82,48
0301,3225,54,29
0302,2400,80,32
0303,3121,63,25
0307,14503,259,139
0308,2244,34,28
0310,3669,76,78
0312,1168,22,12
0313,4273,62,39
0317,935,19,5
0321,4220,75,51
0327,2396,41,24
0331,1641,39,12
0335,1449,29,8
0339,625,7,5
0340,2465,42,21
0342,4033,77,47
0344,33284,723,249
0345,8052,135,75
0351,1479,22,8
0352,1950,34,17
0353,3338,87,55
0355,5138,88,73
0356,5470,134,30
0358,3206,37,26
0361,9610,141,85
0362,7480,135,90
0363,89885,1960,816
0370,908,9,3
0373,2515,39,38
0375,4230,44,42
0376,1020,13,6
0377,1697,16,17
0383,3173,27,24
0384,3120,52,34
0385,5171,96,23
0388,1932,30,11
0392,13113,218,149
0394,14300,184,109
0396,3996,63,32
0397,1982,26,60
0398,5778,59,37
0399,1728,23,15
0400,5381,67,39
0402,6911,90,86
0405,8606,94,55
0406,4101,62,53
0415,1179,12,6
0416,2623,35,16
0417,1015,16,26
0420,5456,58,26
0431,954,16,8
0432,1295,11,6
0437,1275,16,5
0439,8179,192,84
0441,4599,56,58
0448,591,6,4
0450,1314,12,7
0451,2585,34,15
0453,7052,104,90
0457,2057,20,20
0473,1424,21,43
0479,15704,314,176
0482,2702,44,22
0484,11416,191,115
0489,5529,104,48
0498,2198,24,13
0501,1683,31,10
0502,7958,184,145
0503,9620,104,75
0505,14509,265,181
0512,4228,48,42
0513,7910,278,160
0518,54890,1694,554
0523,2785,17,25
0530,3583,69,43
0531,3657,41,32
0532,2654,29,15
0534,1794,21,17
0537,8819,113,59
0542,3728,49,71
0546,10872,138,70
0547,2313,36,23
0553,2088,28,17
0556,3610,69,34
0569,3358,46,22
0575,4137,66,22
0579,1987,23,31
0589,1058,38,12
0590,3592,47,46
0597,5924,113,89
0599,79777,1968,971
0603,5013,133,76
0606,9400,237,115
0610,3415,33,41
0613,3063,49,22
0614,1157,22,18
0622,8918,175,91
0626,1899,23,24
0627,3060,71,16
0629,2126,40,31
0632,5254,143,39
0637,11565,173,70
0638,867,10,1
0642,5418,90,101
0654,1572,41,6
0664,2818,94,31
0668,2000,25,19
0677,1818,41,13
0678,1078,16,6
0687,3587,78,25
0703,3074,59,17
0715,4169,119,29
0716,2885,71,30
0717,1393,31,7
0718,3400,130,32
0736,4078,118,35
0737,2022,22,28
0743,1698,33,18
0744,572,13,4
0748,6747,93,44
0753,3122,56,30
0755,1072,42,23
0756,3348,40,45
0757,3593,51,69
0758,16697,252,147
0762,3790,91,42
0765,1042,25,13
0766,3020,46,25
0770,2439,49,26
0772,23112,454,355
0777,3822,69,38
0779,2370,31,25
0784,2665,41,19
0785,2488,42,36
0786,1456,31,24
0794,11205,205,85
0796,17164,259,171
0797,5374,90,50
0798,1640,20,20
0809,2758,52,37
0815,1252,17,10
0820,2177,34,22
0823,2403,32,27
0824,3160,55,22
0826,5264,84,36
0828,10959,243,129
0840,2312,46,16
0845,3304,52,34
0847,2275,48,13
0848,1545,42,28
0851,2305,33,19
0852,1804,33,15
0855,24331,413,277
0856,4341,139,86
0858,3389,59,63
0861,5119,85,50
0865,3275,74,53
0866,1617,19,17
0867,5569,80,77
0873,1976,23,26
0879,1702,36,17
0880,1574,35,33
0882,3615,99,70
0888,1540,32,12
0889,1501,30,13
0893,1619,25,15
0899,2839,89,52
0907,1801,28,19
0917,7590,243,126
0928,4075,142,96
0935,10194,342,198
0938,1469,49,23
0944,624,11,11
0946,2289,47,20
0957,6410,106,61
0965,902,27,9
0971,2393,78,24
0981,716,24,14
0983,13758,229,170
0984,5775,64,48
0986,1058,25,11
0988,6187,113,69
0994,1307,37,23
0995,6012,138,62
1507,5913,61,66
1509,4068,49,45
1525,3926,39,25
1581,4151,92,73
1586,2898,35,41
1598,2664,24,24
1621,6649,95,63
1640,4116,76,52
1641,2562,42,36
1652,2962,101,38
1655,3102,57,27
1658,1586,23,13
1659,2606,62,36
1667,1642,23,10
1669,2107,47,35
1674,7859,103,75
1676,2196,55,25
1680,1441,7,20
1681,1618,32,15
1684,2674,37,27
1685,1911,51,28
1690,2045,32,24
1695,568,18,9
1696,1972,25,18
1699,1690,31,25
1700,4621,41,30
1701,989,16,22
1702,1230,27,11
1705,3851,63,35
1706,2596,79,52
1708,3250,33,27
1709,3545,46,41
1711,3154,65,36
1714,1467,45,18
1719,2596,49,30
1721,3869,111,78
1723,929,24,5
1724,2291,28,11
1728,2836,39,27
1729,1161,31,19
1730,1576,22,24
1731,2072,35,30
1734,3860,74,30
1735,3689,34,29
1740,2968,63,34
1742,4788,55,54
1771,4404,75,28
1773,1346,21,10
1774,3188,37,35
1783,14062,188,86
1842,2053,19,14
1859,3955,42,42
1876,3116,37,21
1883,8555,217,145
1884,2645,25,10
1891,1484,18,17
1892,4834,120,47
1894,4964,165,85
1895,2851,44,37
1896,2449,52,30
1900,7817,75,90
1901,4069,75,36
1903,2138,87,47
1904,5869,146,69
1911,4488,49,34
1916,6686,156,84
1924,4790,130,88
1926,5430,71,38
1930,9001,184,99
1931,6446,153,64
1940,3639,55,33
1942,5115,60,35
1945,3254,56,51
1948,9074,263,167
1949,2966,40,36
1950,2364,36,21
1952,3758,54,39
1954,3521,99,49
1955,3121,42,24
1959,6937,87,68
1960,5999,87,61
1961,6317,124,76
1963,8740,155,66
1966,3581,33,20
1969,3375,38,25
1970,3306,48,38
1978,5781,54,35
1979,2845,49,23