0014,16099,93,45
0034,20244,340,96
0037,2551,24,20
0047,1948,12,11
0050,1807,22,14
0059,2340,26,39
0060,219,3,1
0072,846,13,3
0074,2874,37,39
0080,7737,103,74
0085,1502,17,6
0086,1767,27,7
0088,45,1,2
0090,3528,44,34
0093,252,3,2
0096,69,0,0
0098,1870,20,29
0106,3894,68,15
0109,2959,57,31
0114,9249,165,79
0118,4670,77,41
0119,2392,34,27
0141,7803,107,59
0147,2566,30,38
0148,2366,26,20
0150,8620,106,88
0153,14961,243,175
0158,2739,34,32
0160,5952,60,37
0163,4381,44,51
0164,7465,78,68
0166,3798,80,44
0168,2740,49,33
0171,3558,36,28
0173,3487,55,45
0175,1501,15,15
0177,3482,42,41
0180,2414,18,21
0183,3099,26,19
0184,2634,54,19
0189,3194,21,27
0193,8506,105,113
0197,2508,32,22
0200,12961,203,147
0202,13304,202,126
0203,7976,65,64
0209,2431,41,22
0213,1550,33,18
0214,2573,40,20
0216,2832,47,22
0221,803,19,9
0222,4960,65,29
0225,1930,40,27
0226,2127,28,14
0228,12198,144,86
0230,2133,39,14
0232,2780,78,52
0233,2499,49,34
0243,4438,87,48
0244,916,21,7
0246,1294,57,32
0252,1453,27,19
0262,2253,37,29
0263,3630,43,42
0267,4613,51,29
0268,16118,274,190
0269,2286,50,30
0273,2592,21,18
0274,2143,37,26
0275,3650,62,58
0277,110,1,0
0279,1097,5,12
0281,4663,88,73
0285,1947,31,28
0289,3200,41,42
0293,1196,21,9
0294,2138,18,17
0296,4170,81,60
0297,3948,41,42
0299,3407,82,48
0301,3273,54,29
0302,2431,80,32
0303,3165,63,25
0307,14830,260,139
0308,2281,34,28
0310,3858,75,78
0312,1225,22,12
0313,4295,62,39
0317,964,19,5
0321,4361,75,51
0327,2472,41,24
0331,1654,39,12
0335,1482,29,8
0339,639,7,5
0340,2479,42,21
0342,4129,77,47
0344,35899,725,250
0345,8108,135,75
0351,1489,22,8
0352,1986,34,17
0353,3404,87,55
0355,5300,88,73
0356,5579,134,30
0358,3388,37,26
0361,9735,142,85
0362,7918,136,90
0363,94402,1965,817
0370,934,9,3
0373,2562,39,38
0375,4319,44,42
0376,1053,13,6
0377,1795,16,17
0383,3227,27,24
0384,3256,52,34
0385,5220,96,23
0388,1948,30,11
0392,13590,218,149
0394,14742,184,110
0396,4071,63,32
0397,2073,26,60
0398,5829,59,37
0399,1823,23,15
0400,5431,67,39
0402,7149,91,86
0405,8677,94,55
0406,4160,63,53
0415,1218,12,6
0416,2656,35,16
0417,1061,16,26
0420,5497,58,26
0431,974,16,8
0432,1304,11,6
0437,1351,16,5
0439,8387,192,84
0441,4630,56,58
0448,613,6,4
0450,1346,12,7
0451,2703,34,15
0453,7237,104,90
0457,2119,20,20
0473,1470,21,43
0479,15970,314,176
0482,2736,44,22
0484,11649,191,115
0489,5659,104,48
0498,2216,24,13
0501,1702,31,10
0502,8105,184,145
0503,10135,104,75
0505,14660,265,181
0512,4287,48,42
0513,8010,278,160
0518,56143,1694,555
0523,2802,17,25
0530,3630,69,43
0531,3693,41,32
0532,2665,29,15
0534,1851,21,17
0537,8885,113,59
0542,3793,49,71
0546,11593,138,70
0547,2384,36,23
0553,2155,28,17
0556,3637,69,34
0569,3401,46,22
0575,4397,66,22
0579,2051,23,31
0589,1079,38,12
0590,3618,47,46
0597,5978,113,89
0599,82524,1971,972
0603,5092,133,76
0606,9494,237,115
0610,3432,33,41
0613,3128,49,22
0614,1175,22,18
0622,9007,175,91
0626,1965,23,24
0627,3098,71,16
0629,2173,40,31
0632,5382,143,39
0637,11736,173,70
0638,879,10,1
0642,5464,90,101
0654,1593,41,6
0664,2871,94,31
0668,2021,26,19
0677,1833,41,13
0678,1088,16,6
0687,3638,78,25
0703,3085,59,17
0715,4188,119,29
0716,2920,71,30
0717,1402,31,7
0718,3417,130,32
0736,4182,118,35
0737,2035,22,28
0743,1713,33,18
0744,595,13,4
0748,6901,93,44
0753,3159,56,30
0755,1077,42,23
0756,3366,40,45
0757,3626,51,69
0758,17489,252,147
0762,3812,91,42
0765,1042,25,13
0766,3074,46,25
0770,2471,49,26
0772,23795,453,355
0777,3927,69,38
0779,2408,31,25
0784,2705,41,19
0785,2537,42,36
0786,1472,31,24
0794,11429,206,85
0796,17476,259,171
0797,5412,90,50
0798,1653,20,20
0809,2776,52,37
0815,1255,17,10
0820,2232,34,22
0823,2416,32,27
0824,3193,55,22
0826,5364,84,36
0828,11003,243,129
0840,2349,46,16
0845,3341,52,34
0847,2294,48,13
0848,1570,42,28
0851,2333,33,19
0852,1865,33,15
0855,24747,413,277
0856,4369,139,86
0858,3443,59,63
0861,5162,85,50
0865,3327,74,53
0866,1641,19,17
0867,5604,80,77
0873,1998,23,26
0879,1745,36,17
0880,1613,35,33
0882,3627,99,70
0888,1543,32,12
0889,1507,30,13
0893,1628,25,15
0899,2849,89,52
0907,1805,28,19
0917,7625,244,126
0928,4089,142,96
0935,10525,342,198
0938,1494,50,23
0944,626,11,11
0946,2298,47,20
0957,6465,107,61
0965,904,27,9
0971,2403,78,24
0981,718,24,14
0983,13866,229,170
0984,5782,64,49
0986,1061,25,11
0988,6249,113,69
0994,1317,37,23
0995,6056,138,62
1507,5943,61,66
1509,4170,49,45
1525,4054,39,25
1581,4233,92,73
1586,3007,35,41
1598,2701,24,24
1621,6761,95,63
1640,4128,76,52
1641,2569,43,36
1652,2987,101,38
1655,3171,57,27
1658,1597,23,13
1659,2637,62,36
1667,1656,23,10
1669,2113,47,35
1674,7970,103,75
1676,2211,55,25
1680,1482,7,20
1681,1629,32,15
1684,2692,37,27
1685,1917,51,28
1690,2058,32,24
1695,568,18,9
1696,2032,25,18
1699,1741,31,25
1700,4660,41,30
1701,998,17,22
1702,1234,27,11
1705,3894,63,35
1706,2636,79,52
1708,3277,33,27
1709,3590,46,41
1711,3167,65,36
1714,1490,45,18
1719,2636,49,30
1721,3892,111,78
1723,942,24,5
1724,2311,28,11
1728,2850,39,27
1729,1166,31,19
1730,1633,22,24
1731,2088,35,30
1734,3925,74,30
1735,3751,34,29
1740,2970,63,34
1742,4856,55,54
1771,4454,75,28
1773,1382,21,10
1774,3314,37,35
1783,14229,188,86
1842,2091,19,14
1859,4012,42,42
1876,3162,37,21
1883,8596,217,145
1884,2689,25,10
1891,1492,18,17
1892,4922,120,47
1894,5020,165,85
1895,2871,44,37
1896,2476,52,30
1900,7956,75,90
1901,4136,75,37
1903,2169,87,47
1904,6033,146,69
1911,4513,49,34
1916,6843,157,84
1924,4877,130,89
1926,5562,72,38
1930,9073,185,99
1931,6513,153,64
1940,3734,55,33
1942,5310,61,35
1945,3286,56,51
1948,9156,263,167
1949,2979,40,36
1950,2377,36,21
1952,3821,54,39
1954,3536,99,49
1955,3157,42,24
1959,6991,87,68
1960,6062,87,61
1961,6395,124,76
1963,8838,155,66
1966,3638,33,20
1969,3508,38,25
1970,3336,48,38
1978,5828,54,35
1979,2882,49,23