0014,13799,93,45
0034,19945,338,96
0037,2531,24,20
0047,1922,12,11
0050,1785,22,14
0059,2310,26,39
0060,207,3,1
0072,833,13,3
0074,2791,37,39
0080,7619,103,74
0085,1474,17,6
0086,1734,27,7
0088,45,1,2
0090,3441,44,34
0093,249,3,2
0096,68,0,0
0098,1846,20,29
0106,3816,68,15
0109,2908,57,31
0114,9178,165,79
0118,4620,77,41
0119,2365,34,27
0141,7708,107,59
0147,2522,30,38
0148,2337,26,20
0150,8344,106,88
0153,14314,240,174
0158,2663,34,32
0160,5921,60,37
0163,4319,44,51
0164,7342,78,68
0166,3759,80,44
0168,2658,49,32
0171,3528,36,28
0173,3423,54,45
0175,1492,15,15
0177,3418,42,41
0180,2406,18,21
0183,2989,26,19
0184,2632,54,19
0189,3126,21,27
0193,8262,105,113
0197,2446,32,22
0200,12640,203,147
0202,13055,201,126
0203,7881,65,64
0209,2399,41,22
0213,1517,33,18
0214,2539,40,20
0216,2759,47,22
0221,796,19,9
0222,4874,65,29
0225,1872,40,27
0226,2090,28,14
0228,11980,143,86
0230,2098,39,14
0232,2734,78,52
0233,2476,49,34
0243,4385,87,48
0244,903,21,7
0246,1285,57,32
0252,1419,27,19
0262,2206,37,29
0263,3593,43,42
0267,4549,51,29
0268,15656,273,189
0269,2263,50,30
0273,2569,21,18
0274,2112,37,26
0275,3616,62,58
0277,108,1,0
0279,1072,5,12
0281,4607,87,73
0285,1905,31,28
0289,3109,41,42
0293,1176,21,9
0294,2114,18,17
0296,4133,81,60
0297,3896,41,42
0299,3380,82,48
0301,3207,54,29
0302,2385,80,32
0303,3119,63,25
0307,14457,257,139
0308,2238,34,28
0310,3660,75,78
0312,1166,22,12
0313,4270,62,39
0317,929,19,5
0321,4202,75,51
0327,2392,41,24
0331,1636,39,12
0335,1443,29,8
0339,623,7,5
0340,2463,42,21
0342,4027,76,47
0344,33097,723,249
0345,8048,135,75
0351,1478,22,8
0352,1945,34,17
0353,3332,87,55
0355,5127,88,73
0356,5456,134,30
0358,3174,37,26
0361,9598,141,85
0362,7416,135,90
0363,89217,1959,815
0370,904,9,3
0373,2510,39,38
0375,4223,44,42
0376,1015,13,6
0377,1683,16,17
0383,3162,27,24
0384,3099,52,34
0385,5165,96,23
0388,1930,30,11
0392,13054,218,149
0394,14240,184,109
0396,3983,63,32
0397,1960,26,60
0398,5774,59,37
0399,1719,23,15
0400,5364,67,39
0402,6888,90,86
0405,8587,94,55
0406,4090,62,53
0415,1174,12,6
0416,2603,35,16
0417,1011,16,26
0420,5448,58,26
0431,950,16,8
0432,1287,11,6
0437,1267,16,5
0439,8164,192,84
0441,4592,56,58
0448,584,6,4
0450,1310,12,7
0451,2576,34,15
0453,6989,104,90
0457,2039,20,20
0473,1418,21,43
0479,15687,314,176
0482,2684,44,22
0484,11388,191,115
0489,5492,104,48
0498,2188,24,13
0501,1678,31,9
0502,7949,184,145
0503,9580,104,74
0505,14480,265,181
0512,4221,48,40
0513,7900,278,160
0518,54709,1692,554
0523,2781,17,25
0530,3570,69,43
0531,3653,41,32
0532,2649,29,15
0534,1788,21,17
0537,8795,113,59
0542,3728,49,70
0546,10780,138,70
0547,2310,36,23
0553,2083,28,17
0556,3602,69,34
0569,3350,46,22
0575,4114,66,22
0579,1978,23,31
0589,1053,38,12
0590,3585,47,46
0597,5916,113,89
0599,79447,1968,970
0603,5001,133,76
0606,9385,237,114
0610,3409,33,41
0613,3048,49,22
0614,1155,22,18
0622,8902,175,91
0626,1888,23,24
0627,3059,71,16
0629,2109,40,31
0632,5243,143,39
0637,11545,173,70
0638,865,10,1
0642,5415,90,101
0654,1545,40,6
0664,2796,94,31
0668,1989,25,19
0677,1817,41,13
0678,1069,16,6
0687,3585,78,25
0703,3066,59,17
0715,4161,119,29
0716,2884,71,30
0717,1393,31,7
0718,3386,130,32
0736,4067,118,35
0737,2017,22,28
0743,1697,33,18
0744,569,13,4
0748,6739,93,44
0753,3117,56,30
0755,1069,41,23
0756,3345,40,45
0757,3585,51,69
0758,16532,252,147
0762,3787,91,42
0765,1042,25,13
0766,3006,46,25
0770,2433,49,26
0772,23016,454,355
0777,3806,69,38
0779,2363,31,25
0784,2662,41,19
0785,2477,42,36
0786,1454,31,24
0794,11129,205,84
0796,17114,259,171
0797,5364,90,50
0798,1637,20,20
0809,2755,52,37
0815,1251,17,10
0820,2173,34,22
0823,2400,32,27
0824,3156,55,22
0826,5228,84,36
0828,10943,243,129
0840,2306,46,16
0845,3303,52,34
0847,2273,48,13
0848,1543,42,28
0851,2301,33,19
0852,1796,33,15
0855,24276,413,277
0856,4334,139,86
0858,3375,59,63
0861,5116,85,50
0865,3271,74,53
0866,1612,19,17
0867,5564,80,77
0873,1975,23,26
0879,1698,36,17
0880,1571,35,33
0882,3614,99,70
0888,1538,32,12
0889,1500,30,13
0893,1615,24,15
0899,2832,89,52
0907,1797,28,19
0917,7585,242,126
0928,4070,142,96
0935,10153,342,198
0938,1465,49,23
0944,623,11,11
0946,2287,47,20
0957,6389,106,61
0965,901,27,9
0971,2389,78,24
0981,715,24,14
0983,13739,229,170
0984,5773,64,48
0986,1055,25,11
0988,6182,113,69
0994,1307,37,23
0995,6000,138,62
1507,5911,61,66
1509,4057,49,45
1525,3910,39,25
1581,4140,92,73
1586,2893,35,41
1598,2655,24,24
1621,6632,95,63
1640,4113,76,52
1641,2560,42,36
1652,2958,101,38
1655,3060,57,27
1658,1581,23,13
1659,2594,62,36
1667,1640,23,10
1669,2103,46,35
1674,7838,104,75
1676,2191,55,25
1680,1437,7,20
1681,1618,32,15
1684,2674,37,27
1685,1906,51,28
1690,2045,32,24
1695,566,17,9
1696,1967,25,18
1699,1687,31,25
1700,4619,41,30
1701,988,16,22
1702,1230,27,11
1705,3848,63,35
1706,2592,79,52
1708,3246,33,27
1709,3534,46,41
1711,3151,65,36
1714,1464,45,18
1719,2587,49,30
1721,3861,111,78
1723,926,24,5
1724,2287,28,11
1728,2834,39,27
1729,1161,31,19
1730,1570,22,24
1731,2068,35,30
1734,3831,74,30
1735,3674,34,29
1740,2964,63,34
1742,4768,55,54
1771,4402,75,28
1773,1346,21,10
1774,3182,37,35
1783,14028,188,86
1842,2048,19,14
1859,3934,42,42
1876,3114,37,21
1883,8545,217,145
1884,2625,25,10
1891,1483,18,17
1892,4831,119,47
1894,4954,165,85
1895,2849,44,37
1896,2445,52,30
1900,7812,75,90
1901,4038,75,36
1903,2136,87,47
1904,5844,146,69
1911,4481,49,34
1916,6652,156,84
1924,4777,130,88
1926,5420,71,38
1930,8980,184,99
1931,6423,153,64
1940,3636,55,33
1942,5059,60,35
1945,3246,56,51
1948,9060,263,167
1949,2966,40,36
1950,2359,36,21
1952,3755,54,39
1954,3517,99,49
1955,3118,42,24
1959,6916,87,68
1960,5972,87,61
1961,6303,124,76
1963,8708,155,66
1966,3557,32,20
1969,3369,38,25
1970,3294,48,38
1978,5760,54,35
1979,2843,49,23