0014,7321,59,23
0034,12313,231,61
0037,1430,15,9
0047,934,5,6
0050,1003,18,12
0059,950,4,5
0060,133,0,0
0072,273,5,2
0074,1236,20,25
0080,3465,60,30
0085,605,10,1
0086,700,17,3
0088,8,1,0
0090,1421,19,15
0093,156,1,1
0096,27,0,0
0098,691,8,12
0106,1776,35,10
0109,1447,36,17
0114,4342,71,46
0118,2654,49,31
0119,1242,19,19
0141,4757,62,45
0147,1545,25,24
0148,1314,20,17
0150,4875,71,74
0153,8669,159,130
0158,1907,29,30
0160,3261,42,32
0163,2450,24,33
0164,4802,58,54
0166,2053,69,41
0168,1746,33,25
0171,2159,27,23
0173,2117,39,39
0175,777,13,13
0177,2146,29,28
0180,1355,14,11
0183,1845,18,14
0184,1822,41,11
0189,2112,14,22
0193,4285,67,77
0197,1235,18,18
0200,6659,156,130
0202,7779,144,96
0203,4962,36,38
0209,1200,28,16
0213,801,26,14
0214,1344,30,15
0216,1556,37,15
0221,466,15,8
0222,2497,51,24
0225,977,34,20
0226,1263,24,10
0228,7474,109,65
0230,1152,33,12
0232,1432,62,32
0233,1587,35,29
0243,2484,63,35
0244,468,19,5
0246,698,55,29
0252,840,24,15
0262,1230,28,26
0263,1427,29,25
0267,2924,42,15
0268,8480,217,154
0269,1194,44,28
0273,1580,16,12
0274,1265,27,22
0275,2097,50,36
0277,67,1,0
0279,685,5,9
0281,2267,72,44
0285,1034,25,14
0289,1733,33,32
0293,688,18,8
0294,1153,13,11
0296,2247,68,42
0297,2036,31,33
0299,1737,66,31
0301,1675,44,22
0302,1287,71,27
0303,1818,51,20
0307,8554,172,92
0308,1256,27,23
0310,2209,44,63
0312,689,16,11
0313,2722,43,35
0317,519,10,2
0321,2412,50,50
0327,1394,21,19
0331,807,25,9
0335,783,18,7
0339,371,6,5
0340,1472,24,15
0342,2498,55,43
0344,19530,512,198
0345,5200,97,65
0351,965,16,7
0352,1021,18,9
0353,1674,60,47
0355,3075,57,41
0356,2852,77,20
0358,1629,21,22
0361,4791,94,53
0362,4360,97,84
0363,55807,1422,578
0370,381,6,2
0373,1337,28,29
0375,2011,27,18
0376,552,9,4
0377,929,11,9
0383,1528,19,15
0384,1971,35,25
0385,2056,65,10
0388,1190,26,9
0392,7295,155,129
0394,7868,139,88
0396,2000,44,23
0397,1119,20,54
0398,2735,42,19
0399,948,17,11
0400,2159,29,13
0402,3888,57,70
0405,3948,58,33
0406,2525,43,50
0415,615,9,5
0416,1377,23,7
0417,590,14,25
0420,2671,29,15
0431,609,15,4
0432,609,3,3
0437,809,8,3
0439,3680,119,56
0441,2249,33,27
0448,297,6,2
0450,790,9,7
0451,1389,28,11
0453,3580,74,71
0457,1296,14,17
0473,765,16,37
0479,9039,233,135
0482,1477,22,16
0484,6692,135,82
0489,3009,75,37
0498,1177,10,10
0501,808,27,8
0502,4191,116,107
0503,5454,75,56
0505,7676,139,119
0512,2373,26,27
0513,4584,137,127
0518,31181,978,451
0523,1425,5,14
0530,1834,40,18
0531,1975,19,24
0532,1311,24,10
0534,1011,13,7
0537,4833,83,41
0542,2156,31,49
0546,6066,100,48
0547,1344,31,18
0553,1214,22,14
0556,2076,53,26
0569,1580,28,17
0575,2294,53,15
0579,1214,18,28
0589,583,32,12
0590,1850,16,28
0597,2905,65,59
0599,45008,1326,719
0603,2939,93,69
0606,5408,161,57
0610,1883,16,27
0613,1840,33,17
0614,605,11,11
0622,4936,113,67
0626,1096,17,19
0627,1675,51,11
0629,1172,26,26
0632,2841,86,28
0637,6660,108,50
0638,422,6,1
0642,2843,49,66
0654,677,21,4
0664,1152,38,17
0668,957,24,15
0677,1003,25,11
0678,379,7,5
0687,1345,39,16
0703,1146,14,6
0715,2190,59,21
0716,1242,51,22
0717,587,12,2
0718,1194,32,8
0736,2279,82,32
0737,821,12,4
0743,852,24,15
0744,290,12,4
0748,3818,74,34
0753,1678,45,25
0755,610,39,21
0756,1942,32,37
0757,1780,43,54
0758,9518,220,132
0762,1817,73,37
0765,362,13,3
0766,1728,42,23
0770,1276,40,21
0772,11162,309,215
0777,2288,61,34
0779,1241,24,19
0784,1431,30,18
0785,1332,37,27
0786,848,29,23
0794,5233,160,58
0796,8340,196,133
0797,2549,69,43
0798,971,18,20
0809,1543,40,30
0815,679,15,8
0820,1122,25,14
0823,1160,24,20
0824,1701,44,21
0826,3063,69,32
0828,5085,206,109
0840,1286,31,12
0845,1692,42,28
0847,1132,38,11
0848,753,38,25
0851,1161,24,15
0852,991,27,14
0855,12396,348,262
0856,1945,121,75
0858,1941,33,45
0861,2600,54,33
0865,1961,63,49
0866,865,11,10
0867,2992,63,71
0873,990,14,21
0879,1013,32,14
0880,780,28,14
0882,1810,70,41
0888,768,24,12
0889,636,24,10
0893,934,15,7
0899,1319,65,34
0907,1102,26,16
0917,3753,169,100
0928,1962,105,63
0935,5419,240,173
0938,794,28,22
0944,420,11,11
0946,1335,39,15
0957,2758,72,30
0965,514,24,5
0971,1105,57,18
0981,365,18,11
0983,6150,179,116
0984,3305,52,28
0986,517,21,10
0988,3929,98,59
0994,683,29,13
0995,3432,111,51
1507,3033,52,54
1509,1857,32,31
1525,2172,30,10
1581,2569,54,41
1586,1688,27,32
1598,1144,15,14
1621,3913,76,56
1640,2021,63,43
1641,1209,31,17
1652,1501,87,35
1655,1599,38,17
1658,895,20,13
1659,1327,48,31
1667,950,21,7
1669,882,32,19
1674,4256,70,59
1676,939,26,19
1680,730,4,9
1681,840,17,11
1684,1420,28,19
1685,1096,47,22
1690,963,21,11
1695,158,3,1
1696,1113,18,11
1699,654,11,19
1700,2732,30,25
1701,429,11,6
1702,683,22,11
1705,2314,53,22
1706,1438,69,44
1708,1507,21,15
1709,1711,34,26
1711,1439,48,24
1714,931,30,17
1719,1354,36,23
1721,1857,103,68
1723,480,21,5
1724,1371,27,6
1728,1667,32,20
1729,662,29,18
1730,812,13,17
1731,1089,15,16
1734,1970,67,26
1735,2106,29,17
1740,1646,54,29
1742,2957,41,42
1771,2242,56,21
1773,628,14,9
1774,2056,31,28
1783,7740,139,72
1842,1152,16,12
1859,2275,31,37
1876,1699,25,12
1883,4001,162,99
1884,1356,18,8
1891,676,4,11
1892,2706,69,39
1894,2237,151,71
1895,1234,20,15
1896,1038,41,25
1900,3678,31,51
1901,2269,44,23
1903,1290,66,36
1904,3345,81,51
1911,2084,36,14
1916,3905,93,64
1924,2489,92,58
1926,3179,43,26
1930,4764,112,69
1931,3398,98,58
1940,1388,34,15
1942,2750,46,27
1945,1844,46,38
1948,4327,235,155
1949,1326,20,24
1950,1099,20,6
1952,1763,28,24
1954,1639,71,36
1955,1581,33,13
1959,4260,67,63
1960,3029,75,42
1961,3377,75,56
1963,4284,99,42
1966,1692,19,17
1969,1462,24,13
1970,1397,23,19
1978,2756,30,21
1979,1576,32,10