0014,13770,93,45
0034,19936,338,96
0037,2531,24,20
0047,1922,12,11
0050,1784,22,14
0059,2310,26,39
0060,207,3,1
0072,832,13,3
0074,2789,37,39
0080,7613,103,74
0085,1470,17,6
0086,1733,27,7
0088,45,1,2
0090,3439,44,34
0093,249,3,2
0096,68,0,0
0098,1844,20,29
0106,3814,68,15
0109,2908,57,31
0114,9176,165,79
0118,4621,77,41
0119,2362,34,27
0141,7705,107,59
0147,2521,30,38
0148,2334,26,20
0150,8341,106,88
0153,14297,240,174
0158,2663,34,32
0160,5919,60,37
0163,4318,44,51
0164,7336,78,68
0166,3759,80,44
0168,2658,49,32
0171,3527,36,28
0173,3420,54,45
0175,1492,15,15
0177,3413,42,41
0180,2406,18,21
0183,2987,26,19
0184,2632,54,19
0189,3124,21,27
0193,8253,105,113
0197,2444,32,22
0200,12634,203,147
0202,13050,201,126
0203,7872,65,64
0209,2397,41,22
0213,1512,33,18
0214,2538,40,20
0216,2756,47,22
0221,796,19,9
0222,4874,65,29
0225,1872,40,27
0226,2089,28,14
0228,11979,143,86
0230,2097,39,14
0232,2734,78,52
0233,2474,49,34
0243,4385,87,48
0244,902,21,7
0246,1285,57,32
0252,1419,27,19
0262,2205,37,29
0263,3586,43,42
0267,4546,51,29
0268,15647,273,189
0269,2262,50,30
0273,2569,21,18
0274,2112,37,26
0275,3616,61,58
0277,108,1,0
0279,1073,5,12
0281,4606,87,73
0285,1905,31,28
0289,3109,41,42
0293,1177,21,9
0294,2114,18,17
0296,4132,81,60
0297,3893,41,42
0299,3380,82,48
0301,3203,54,29
0302,2381,80,32
0303,3118,63,25
0307,14450,257,139
0308,2238,34,28
0310,3656,75,78
0312,1165,22,12
0313,4269,62,39
0317,929,19,5
0321,4202,75,51
0327,2391,41,24
0331,1636,39,12
0335,1441,29,8
0339,621,7,5
0340,2462,42,21
0342,4023,76,47
0344,33064,721,249
0345,8046,135,75
0351,1478,22,8
0352,1943,34,17
0353,3331,87,55
0355,5123,88,73
0356,5454,134,30
0358,3174,37,26
0361,9595,141,85
0362,7411,135,90
0363,89124,1959,814
0370,904,9,3
0373,2508,39,38
0375,4222,44,42
0376,1014,13,6
0377,1680,16,17
0383,3161,27,24
0384,3094,52,34
0385,5160,96,23
0388,1930,30,11
0392,13039,217,149
0394,14230,184,109
0396,3977,63,32
0397,1957,26,60
0398,5774,59,37
0399,1716,23,15
0400,5361,67,39
0402,6886,90,86
0405,8585,94,55
0406,4090,62,53
0415,1174,12,6
0416,2597,35,16
0417,1009,16,26
0420,5446,58,26
0431,948,16,8
0432,1287,11,6
0437,1266,16,5
0439,8159,191,84
0441,4592,56,58
0448,584,6,4
0450,1310,12,7
0451,2575,34,15
0453,6985,104,90
0457,2039,20,20
0473,1417,21,43
0479,15680,314,176
0482,2674,44,22
0484,11384,191,115
0489,5492,104,48
0498,2187,24,13
0501,1677,31,9
0502,7947,184,145
0503,9576,104,74
0505,14473,264,181
0512,4218,48,40
0513,7894,277,160
0518,54666,1692,553
0523,2781,17,25
0530,3565,69,43
0531,3651,41,32
0532,2647,29,15
0534,1788,21,17
0537,8791,113,59
0542,3728,49,70
0546,10768,138,70
0547,2307,36,23
0553,2079,28,17
0556,3597,69,34
0569,3349,46,22
0575,4112,66,22
0579,1976,23,31
0589,1052,38,12
0590,3584,46,46
0597,5914,113,89
0599,79377,1967,969
0603,4996,133,76
0606,9382,237,114
0610,3409,33,41
0613,3046,49,22
0614,1153,22,18
0622,8901,175,91
0626,1888,23,24
0627,3057,71,16
0629,2108,40,31
0632,5240,143,39
0637,11537,172,69
0638,864,10,1
0642,5408,90,101
0654,1539,38,6
0664,2775,94,31
0668,1988,25,19
0677,1817,41,13
0678,1066,16,6
0687,3580,78,25
0703,3066,59,17
0715,4159,118,29
0716,2882,71,30
0717,1393,31,7
0718,3385,130,32
0736,4066,117,35
0737,2015,22,28
0743,1697,33,18
0744,561,13,4
0748,6736,93,44
0753,3115,56,30
0755,1068,41,23
0756,3343,40,45
0757,3583,51,69
0758,16511,252,147
0762,3786,91,42
0765,1042,25,13
0766,3005,46,25
0770,2431,49,26
0772,23000,454,355
0777,3805,69,38
0779,2363,31,25
0784,2662,41,19
0785,2477,42,36
0786,1454,31,24
0794,11124,205,84
0796,17102,258,171
0797,5362,90,50
0798,1636,20,20
0809,2755,52,37
0815,1251,17,10
0820,2169,34,22
0823,2399,32,27
0824,3154,55,22
0826,5221,84,36
0828,10932,243,129
0840,2306,46,16
0845,3300,52,34
0847,2272,48,13
0848,1543,42,28
0851,2297,33,19
0852,1796,33,15
0855,24260,413,277
0856,4332,139,86
0858,3372,59,63
0861,5114,85,50
0865,3269,74,53
0866,1612,19,17
0867,5562,80,77
0873,1975,23,26
0879,1698,36,17
0880,1569,35,33
0882,3612,99,70
0888,1537,32,12
0889,1500,30,13
0893,1615,24,15
0899,2830,89,52
0907,1796,28,19
0917,7580,242,126
0928,4067,142,96
0935,10147,342,198
0938,1464,49,23
0944,623,11,11
0946,2286,47,20
0957,6388,106,61
0965,901,27,9
0971,2388,78,24
0981,714,24,14
0983,13729,229,170
0984,5771,64,48
0986,1053,25,11
0988,6182,113,69
0994,1307,37,23
0995,6000,138,62
1507,5908,61,66
1509,4051,49,45
1525,3898,39,25
1581,4133,92,73
1586,2891,35,41
1598,2654,24,24
1621,6627,95,63
1640,4113,76,52
1641,2560,42,36
1652,2957,101,38
1655,3051,57,27
1658,1581,23,13
1659,2594,62,36
1667,1634,23,10
1669,2103,46,35
1674,7831,103,75
1676,2185,55,25
1680,1436,7,20
1681,1618,32,15
1684,2675,37,27
1685,1905,51,28
1690,2045,32,24
1695,565,17,9
1696,1964,25,18
1699,1686,31,25
1700,4618,41,30
1701,988,16,22
1702,1229,27,11
1705,3847,63,35
1706,2589,79,52
1708,3245,33,27
1709,3531,46,41
1711,3151,65,36
1714,1464,45,18
1719,2584,49,30
1721,3859,111,78
1723,925,24,5
1724,2286,28,11
1728,2833,39,27
1729,1160,31,19
1730,1569,22,24
1731,2067,35,30
1734,3818,74,30
1735,3673,34,29
1740,2964,63,34
1742,4768,55,54
1771,4402,75,28
1773,1346,21,10
1774,3182,37,35
1783,14018,188,86
1842,2047,19,14
1859,3930,42,42
1876,3115,37,21
1883,8539,217,145
1884,2621,25,10
1891,1483,18,17
1892,4830,119,47
1894,4952,165,85
1895,2849,44,37
1896,2444,52,30
1900,7808,75,90
1901,4037,75,36
1903,2136,87,47
1904,5841,146,69
1911,4479,49,34
1916,6637,156,84
1924,4765,130,88
1926,5419,71,38
1930,8977,184,99
1931,6415,153,64
1940,3634,55,33
1942,5056,60,35
1945,3245,56,51
1948,9058,263,167
1949,2966,40,36
1950,2353,36,21
1952,3754,54,39
1954,3515,99,49
1955,3115,42,24
1959,6916,87,68
1960,5964,87,61
1961,6302,124,76
1963,8700,155,66
1966,3550,32,20
1969,3366,38,25
1970,3294,48,38
1978,5743,54,35
1979,2842,49,23