0014,27893,135,56
0034,34947,421,118
0037,3993,37,22
0047,3089,16,17
0050,3237,24,17
0059,4590,43,40
0060,342,3,1
0072,1647,13,7
0074,6935,54,43
0080,15713,142,90
0085,3033,23,6
0086,4025,37,11
0088,67,1,2
0090,7889,68,39
0093,566,3,2
0096,119,1,1
0098,3479,24,29
0106,7045,80,24
0109,4775,66,35
0114,14760,222,89
0118,7978,92,44
0119,4141,39,37
0141,12187,139,68
0147,4009,38,41
0148,4107,37,24
0150,14289,137,95
0153,25174,304,193
0158,4209,37,33
0160,10029,81,47
0163,6630,57,53
0164,12697,98,72
0166,8240,95,54
0168,4130,55,38
0171,7259,44,31
0173,5497,62,49
0175,2614,16,16
0177,6111,50,49
0180,4370,29,29
0183,4451,27,21
0184,4443,70,24
0189,5021,29,30
0193,17613,143,140
0197,3911,34,32
0200,24576,252,186
0202,24111,244,149
0203,14211,92,78
0209,4128,48,28
0213,2822,42,23
0214,4280,53,25
0216,4855,54,24
0221,1357,24,9
0222,8986,78,48
0225,3286,49,30
0226,3485,35,17
0228,21809,187,116
0230,3952,50,22
0232,4853,87,55
0233,4571,54,42
0243,7583,98,60
0244,1730,24,7
0246,2325,58,32
0252,2434,31,21
0262,4357,45,37
0263,5154,49,43
0267,7728,58,34
0268,28719,347,224
0269,4245,62,40
0273,4394,26,21
0274,3658,44,37
0275,6123,75,75
0277,201,1,0
0279,2192,7,12
0281,7392,101,78
0285,3578,33,31
0289,5606,53,66
0293,2089,30,10
0294,3808,27,23
0296,6658,92,66
0297,6023,56,48
0299,5953,99,50
0301,6588,68,39
0302,5076,94,41
0303,5463,76,30
0307,26492,288,149
0308,4197,36,29
0310,6498,89,80
0312,2039,27,14
0313,5968,64,41
0317,1662,21,6
0321,8077,82,53
0327,4443,43,28
0331,2763,42,12
0335,2511,34,9
0339,1194,10,5
0340,4337,48,24
0342,7511,86,53
0344,59735,832,286
0345,14108,155,85
0351,2850,25,9
0352,3335,39,19
0353,5654,94,59
0355,9555,107,79
0356,9448,154,34
0358,6016,47,29
0361,17328,168,87
0362,13680,160,114
0363,153131,2356,935
0370,1617,9,3
0373,4260,44,41
0375,6994,61,44
0376,1851,16,7
0377,3482,20,19
0383,5533,40,28
0384,5481,62,41
0385,7742,106,26
0388,3096,33,16
0392,25491,267,181
0394,25279,236,130
0396,6923,75,39
0397,4134,36,67
0398,9670,75,42
0399,3402,26,18
0400,9092,92,50
0402,13317,124,104
0405,13406,106,57
0406,7081,73,60
0415,2027,16,8
0416,4565,39,18
0417,1791,20,31
0420,8346,66,29
0431,1671,18,8
0432,2176,13,6
0437,2446,20,5
0439,13357,223,90
0441,7339,69,73
0448,1142,7,4
0450,2199,14,12
0451,5009,44,19
0453,11224,127,97
0457,3294,23,23
0473,2472,31,46
0479,26500,383,189
0482,4696,51,27
0484,19402,215,144
0489,9438,117,50
0498,3441,29,13
0501,2732,34,11
0502,12831,216,157
0503,16118,126,84
0505,23239,303,214
0512,7126,55,46
0513,13123,318,165
0518,89562,2085,614
0523,4745,23,30
0530,6300,89,47
0531,6415,48,40
0532,3766,36,16
0534,3168,24,23
0537,14033,130,71
0542,6060,56,78
0546,19670,160,82
0547,3969,40,28
0553,3797,35,22
0556,5849,77,40
0569,5767,51,26
0575,7260,75,30
0579,3504,24,32
0589,1582,40,12
0590,5975,50,50
0597,9210,132,104
0599,128340,2300,1037
0603,8791,153,78
0606,14764,271,123
0610,6004,39,48
0613,5102,54,23
0614,2000,27,20
0622,13878,211,107
0626,3496,29,24
0627,5815,85,18
0629,3540,47,35
0632,9024,154,45
0637,19613,208,75
0638,1468,11,1
0642,8530,95,117
0654,3492,55,9
0664,6096,135,34
0668,3293,25,19
0677,4048,63,13
0678,2017,21,6
0687,7628,105,32
0703,5377,73,20
0715,8147,168,34
0716,5344,81,33
0717,3001,42,9
0718,6404,166,36
0736,7610,128,50
0737,4310,39,32
0743,3033,37,19
0744,1088,16,4
0748,11604,116,50
0753,5118,61,34
0755,1833,46,23
0756,6052,50,53
0757,5923,59,72
0758,31391,303,181
0762,6327,100,50
0765,1535,26,13
0766,4704,51,30
0770,3507,57,32
0772,38378,521,391
0777,6883,79,40
0779,3856,36,29
0784,4231,47,20
0785,4203,48,42
0786,2290,34,25
0794,17080,216,90
0796,28400,297,187
0797,8528,97,55
0798,2490,21,20
0809,4464,56,45
0815,2060,17,12
0820,3422,37,27
0823,3505,33,27
0824,5463,61,26
0826,9612,112,43
0828,16386,263,137
0840,3733,54,18
0845,5332,57,44
0847,3817,51,21
0848,2577,43,29
0851,3753,44,21
0852,2809,35,18
0855,41353,478,297
0856,7061,149,91
0858,5410,67,69
0861,7549,92,53
0865,5517,84,55
0866,2800,27,17
0867,8883,88,81
0873,3186,26,26
0879,3304,47,17
0880,2585,40,36
0882,7396,126,87
0888,2978,40,16
0889,2780,42,15
0893,2799,30,19
0899,5666,117,65
0907,3425,32,31
0917,16133,299,155
0928,8187,169,105
0935,20883,419,246
0938,3364,67,42
0944,1032,13,13
0946,3825,53,28
0957,11623,135,77
0965,1761,34,11
0971,4783,85,27
0981,1314,28,16
0983,24252,276,192
0984,9553,77,58
0986,2284,28,12
0988,10542,143,91
0994,2873,45,31
0995,12116,178,76
1507,10192,72,77
1509,6623,56,57
1525,6494,44,27
1581,7368,107,83
1586,4719,43,46
1598,4141,29,24
1621,11881,109,70
1640,6858,89,59
1641,4797,52,41
1652,5066,108,43
1655,4811,62,31
1658,2502,25,13
1659,3933,69,44
1667,2608,26,10
1669,3690,54,39
1674,13580,124,82
1676,4451,76,31
1680,2390,10,21
1681,2693,37,21
1684,4998,44,33
1685,2869,51,29
1690,3370,43,28
1695,1012,26,10
1696,3822,34,24
1699,3205,39,26
1700,6577,53,34
1701,1915,21,24
1702,2114,29,11
1705,7102,78,50
1706,4093,84,58
1708,5779,39,30
1709,5886,62,53
1711,6002,79,44
1714,2800,63,23
1719,4468,57,31
1721,5970,121,82
1723,1622,26,5
1724,3440,31,15
1728,4251,45,33
1729,2362,39,21
1730,2987,30,26
1731,3605,44,32
1734,6821,88,37
1735,6231,41,37
1740,6123,81,51
1742,8825,64,65
1771,6824,89,32
1773,2329,22,10
1774,4816,39,37
1783,22672,221,97
1842,3451,19,14
1859,6617,54,55
1876,5541,49,27
1883,16627,270,159
1884,4270,27,11
1891,3291,34,24
1892,8324,135,48
1894,8835,175,92
1895,4175,54,39
1896,4439,66,34
1900,13617,105,97
1901,7130,91,39
1903,4527,107,56
1904,10451,161,73
1911,7019,57,36
1916,11182,191,100
1924,8046,143,93
1926,9504,85,43
1930,14647,213,105
1931,10639,166,68
1940,7533,71,37
1942,9636,72,44
1945,5668,69,63
1948,14214,279,179
1949,5612,53,42
1950,3861,42,25
1952,6312,69,42
1954,6738,113,69
1955,5229,54,31
1959,11956,110,75
1960,10146,104,66
1961,11665,149,81
1963,15256,172,74
1966,6670,48,34
1969,6884,43,32
1970,7258,83,50
1978,9943,64,44
1979,4634,56,29