0014,21280,113,46
0034,24641,375,102
0037,2814,27,21
0047,2242,13,11
0050,2120,22,14
0059,2814,30,39
0060,280,3,1
0072,988,13,6
0074,3809,44,40
0080,9420,112,74
0085,1762,19,6
0086,2279,30,8
0088,49,1,2
0090,4409,52,34
0093,337,3,2
0096,82,0,0
0098,2110,21,29
0106,4574,72,15
0109,3332,60,32
0114,10354,185,80
0118,5480,81,42
0119,2710,34,27
0141,8959,119,60
0147,2903,31,39
0148,2637,28,21
0150,10306,118,89
0153,17932,267,175
0158,2986,35,32
0160,6589,62,37
0163,4804,47,51
0164,8849,90,71
0166,4470,82,45
0168,3118,51,38
0171,4094,39,29
0173,4026,59,45
0175,1717,16,16
0177,4103,45,42
0180,2666,18,21
0183,3541,27,19
0184,2710,55,19
0189,3547,22,28
0193,10341,115,119
0197,2749,33,22
0200,15677,217,159
0202,16139,217,128
0203,8882,73,64
0209,2804,41,23
0213,1845,35,22
0214,2836,40,20
0216,3248,49,22
0221,926,22,9
0222,5713,65,31
0225,2225,43,28
0226,2429,30,15
0228,14211,156,93
0230,2432,39,15
0232,3158,80,53
0233,2796,49,34
0243,5057,91,48
0244,1043,23,7
0246,1407,57,32
0252,1657,29,19
0262,2697,40,29
0263,3960,43,42
0267,5175,55,29
0268,19523,294,201
0269,2533,51,31
0273,2849,22,19
0274,2459,38,31
0275,4126,64,62
0277,128,1,0
0279,1235,5,12
0281,5188,91,73
0285,2218,33,30
0289,3872,45,42
0293,1428,24,9
0294,2487,19,17
0296,4732,84,61
0297,4283,45,45
0299,3868,86,48
0301,3813,56,29
0302,3075,85,36
0303,3616,70,25
0307,17590,282,143
0308,2592,35,28
0310,4476,79,78
0312,1356,22,12
0313,4519,62,39
0317,1117,20,6
0321,5060,78,51
0327,2835,42,25
0331,1865,40,12
0335,1662,31,8
0339,722,7,5
0340,2764,44,21
0342,4801,82,48
0344,43100,794,258
0345,9144,140,76
0351,1689,24,8
0352,2205,34,17
0353,3836,90,55
0355,6287,101,76
0356,6446,145,31
0358,4003,43,26
0361,11720,144,86
0362,9561,145,99
0363,117807,2176,858
0370,1084,9,3
0373,2976,39,38
0375,4977,47,42
0376,1282,14,6
0377,2192,19,17
0383,3775,30,24
0384,4073,57,39
0385,5764,99,24
0388,2171,31,11
0392,16838,240,156
0394,17596,202,112
0396,4617,64,32
0397,2637,29,63
0398,6741,65,38
0399,2232,24,16
0400,6085,74,41
0402,8764,104,89
0405,9696,98,55
0406,4910,64,56
0415,1422,14,6
0416,3146,37,17
0417,1256,18,29
0420,6037,60,26
0431,1112,17,8
0432,1492,11,6
0437,1655,18,5
0439,9808,204,87
0441,5241,58,60
0448,733,6,4
0450,1544,12,7
0451,3186,34,15
0453,8154,107,91
0457,2386,20,23
0473,1714,26,43
0479,18872,340,180
0482,3052,47,22
0484,13060,194,117
0489,6669,112,48
0498,2418,26,13
0501,1893,32,10
0502,9416,194,146
0503,12164,111,76
0505,16368,277,186
0512,4876,49,44
0513,9118,289,160
0518,66379,1841,573
0523,3019,19,25
0530,4245,74,44
0531,4211,42,32
0532,2842,30,15
0534,2164,23,18
0537,9767,117,61
0542,4193,50,73
0546,13998,149,75
0547,2739,37,23
0553,2531,29,17
0556,4138,73,35
0569,3738,46,22
0575,5175,69,24
0579,2363,23,31
0589,1187,38,12
0590,4053,48,46
0597,6774,121,91
0599,98861,2117,987
0603,5997,140,76
0606,11000,255,117
0610,3742,33,41
0613,3610,52,23
0614,1340,25,19
0622,10255,186,97
0626,2239,23,24
0627,3522,75,16
0629,2499,42,31
0632,6079,148,40
0637,13621,189,70
0638,967,10,1
0642,6104,94,102
0654,1835,44,9
0664,3276,102,31
0668,2297,25,19
0677,2034,41,13
0678,1211,16,6
0687,4168,80,27
0703,3388,60,17
0715,4738,129,31
0716,3404,73,30
0717,1638,32,7
0718,3899,136,33
0736,5027,123,36
0737,2461,23,29
0743,2007,34,18
0744,707,13,4
0748,8092,99,48
0753,3573,58,32
0755,1257,43,23
0756,3797,42,45
0757,4069,54,69
0758,21134,269,150
0762,4285,93,42
0765,1133,25,13
0766,3417,48,25
0770,2676,49,26
0772,27345,468,360
0777,4455,71,38
0779,2649,31,25
0784,3013,41,20
0785,2824,42,36
0786,1637,31,24
0794,12776,209,86
0796,20066,270,173
0797,5951,93,50
0798,1811,20,20
0809,3008,52,37
0815,1368,17,10
0820,2444,34,22
0823,2591,32,27
0824,3538,56,22
0826,6217,90,37
0828,12127,249,131
0840,2585,46,16
0845,3718,53,34
0847,2537,48,13
0848,1734,43,28
0851,2652,38,19
0852,2082,33,16
0855,28946,434,280
0856,4829,142,86
0858,3755,60,64
0861,5585,89,50
0865,3763,77,53
0866,1886,23,17
0867,6156,82,77
0873,2161,23,26
0879,2000,38,17
0880,1859,38,34
0882,4029,107,73
0888,1786,35,13
0889,1708,32,13
0893,1797,25,15
0899,3236,97,54
0907,2020,29,20
0917,8904,257,130
0928,4617,149,97
0935,12605,364,204
0938,1781,54,24
0944,709,11,11
0946,2564,49,20
0957,7430,123,65
0965,1041,29,9
0971,2760,78,24
0981,792,25,14
0983,15447,241,177
0984,6349,67,50
0986,1232,26,11
0988,7128,118,70
0994,1590,38,23
0995,7555,151,63
1507,6590,61,67
1509,4616,50,45
1525,4620,41,25
1581,4775,99,73
1586,3434,36,41
1598,3009,25,24
1621,7928,102,68
1640,4476,77,52
1641,2826,45,37
1652,3375,102,38
1655,3490,57,28
1658,1774,24,13
1659,2871,64,36
1667,1868,23,10
1669,2319,49,35
1674,8951,108,75
1676,2594,60,27
1680,1641,7,20
1681,1798,32,15
1684,3030,38,27
1685,2100,51,29
1690,2245,34,26
1695,615,20,9
1696,2347,28,18
1699,2097,33,25
1700,4927,44,31
1701,1111,17,22
1702,1378,28,11
1705,4407,65,35
1706,2841,79,52
1708,3712,33,27
1709,4035,50,44
1711,3555,65,36
1714,1649,46,18
1719,3008,50,30
1721,4398,115,78
1723,1058,24,5
1724,2501,28,11
1728,3051,40,28
1729,1358,34,20
1730,1977,25,24
1731,2354,38,30
1734,4523,75,30
1735,4247,34,29
1740,3393,65,35
1742,5564,57,55
1771,4966,81,28
1773,1597,21,10
1774,3752,38,36
1783,16346,199,87
1842,2413,19,14
1859,4432,45,43
1876,3525,39,21
1883,9806,231,147
1884,2993,26,10
1891,1872,21,17
1892,5682,124,47
1894,5702,168,86
1895,3092,45,38
1896,2687,53,30
1900,9255,87,91
1901,4773,81,37
1903,2510,91,47
1904,6950,152,69
1911,4930,54,34
1916,7965,169,90
1924,5414,133,91
1926,6548,80,39
1930,10450,188,99
1931,7173,153,64
1940,4582,59,34
1942,6432,64,38
1945,3702,57,51
1948,10037,268,169
1949,3495,44,37
1950,2736,37,21
1952,4457,56,40
1954,4023,103,54
1955,3544,46,25
1959,7626,89,68
1960,6794,89,61
1961,7189,131,77
1963,10050,159,67
1966,4499,39,20
1969,4297,39,26
1970,4179,57,39
1978,6407,56,35
1979,3189,52,23