0014,7367,60,23
0034,12373,233,63
0037,1433,15,9
0047,939,5,7
0050,1010,18,12
0059,976,4,6
0060,133,0,0
0072,276,5,2
0074,1252,20,25
0080,3486,60,30
0085,611,10,2
0086,717,17,3
0088,8,1,0
0090,1448,19,15
0093,156,1,1
0096,27,0,0
0098,692,8,12
0106,1783,35,11
0109,1463,36,18
0114,4371,71,47
0118,2661,49,31
0119,1246,19,21
0141,4773,64,45
0147,1548,25,24
0148,1325,20,17
0150,4900,71,74
0153,8707,162,132
0158,1923,30,30
0160,3302,43,33
0163,2468,25,36
0164,4835,60,54
0166,2058,69,41
0168,1756,34,26
0171,2169,27,23
0173,2127,39,39
0175,787,13,13
0177,2159,30,28
0180,1376,14,13
0183,1859,18,15
0184,1825,41,12
0189,2118,14,22
0193,4298,67,78
0197,1240,18,18
0200,6684,157,133
0202,7800,145,100
0203,4993,37,39
0209,1212,28,16
0213,804,26,14
0214,1359,30,15
0216,1565,37,16
0221,467,16,8
0222,2504,51,24
0225,986,34,20
0226,1271,24,10
0228,7511,110,65
0230,1162,33,12
0232,1440,62,33
0233,1602,35,29
0243,2503,63,35
0244,468,19,5
0246,698,55,29
0252,849,24,15
0262,1232,28,26
0263,1443,30,25
0267,2936,42,15
0268,8515,217,158
0269,1206,44,28
0273,1586,16,12
0274,1272,27,22
0275,2108,51,36
0277,69,1,0
0279,685,5,9
0281,2282,72,45
0285,1048,25,15
0289,1746,33,32
0293,691,18,8
0294,1155,13,12
0296,2258,68,42
0297,2050,32,33
0299,1758,66,31
0301,1677,44,22
0302,1292,71,27
0303,1826,51,20
0307,8571,172,92
0308,1258,27,23
0310,2216,44,63
0312,690,16,11
0313,2724,43,35
0317,521,10,2
0321,2415,50,50
0327,1400,21,19
0331,810,25,9
0335,785,18,7
0339,372,6,5
0340,1477,24,15
0342,2505,56,43
0344,19579,513,198
0345,5213,97,65
0351,967,16,7
0352,1028,19,9
0353,1679,60,47
0355,3088,57,41
0356,2862,77,20
0358,1638,22,22
0361,4822,94,53
0362,4377,98,84
0363,56004,1427,580
0370,389,6,2
0373,1342,28,29
0375,2017,27,18
0376,553,9,5
0377,932,11,10
0383,1538,19,16
0384,1980,35,26
0385,2077,65,10
0388,1195,26,9
0392,7318,155,129
0394,7899,139,88
0396,2006,45,23
0397,1126,20,54
0398,2763,42,19
0399,954,17,11
0400,2185,29,13
0402,3900,57,70
0405,3981,58,34
0406,2541,44,50
0415,619,9,5
0416,1380,23,7
0417,593,14,25
0420,2690,29,15
0431,610,15,4
0432,615,3,3
0437,809,8,3
0439,3713,119,56
0441,2261,33,27
0448,297,6,2
0450,792,9,7
0451,1395,28,11
0453,3593,74,72
0457,1298,14,17
0473,767,16,37
0479,9059,234,136
0482,1478,22,16
0484,6717,136,85
0489,3013,75,37
0498,1190,10,10
0501,810,27,8
0502,4208,116,107
0503,5472,76,59
0505,7694,143,120
0512,2378,28,27
0513,4601,137,127
0518,31279,985,453
0523,1428,5,14
0530,1838,41,18
0531,1979,20,24
0532,1327,24,10
0534,1019,13,9
0537,4859,84,41
0542,2166,32,50
0546,6092,100,48
0547,1355,31,18
0553,1219,22,14
0556,2079,54,26
0569,1588,28,17
0575,2302,53,15
0579,1215,18,29
0589,584,32,12
0590,1852,17,28
0597,2909,66,59
0599,45060,1337,722
0603,2945,93,69
0606,5423,161,57
0610,1886,17,27
0613,1844,33,18
0614,606,11,11
0622,4947,115,67
0626,1100,17,19
0627,1689,52,11
0629,1174,27,26
0632,2851,86,28
0637,6684,108,50
0638,425,6,1
0642,2847,49,66
0654,688,21,4
0664,1173,38,17
0668,971,24,15
0677,1004,25,11
0678,384,7,5
0687,1356,39,16
0703,1157,14,6
0715,2196,60,21
0716,1246,51,22
0717,593,12,2
0718,1199,33,8
0736,2285,82,32
0737,831,12,4
0743,861,24,15
0744,290,12,4
0748,3827,74,34
0753,1695,46,25
0755,614,39,22
0756,1949,32,37
0757,1787,43,55
0758,9543,220,132
0762,1826,73,37
0765,366,13,3
0766,1733,42,23
0770,1282,40,21
0772,11234,312,222
0777,2292,61,34
0779,1241,24,19
0784,1438,30,18
0785,1339,37,27
0786,851,29,23
0794,5276,161,59
0796,8380,196,133
0797,2563,69,43
0798,974,18,20
0809,1553,40,31
0815,683,15,8
0820,1129,25,14
0823,1166,24,20
0824,1706,44,21
0826,3065,69,32
0828,5119,207,109
0840,1292,31,12
0845,1696,42,28
0847,1138,38,11
0848,757,38,26
0851,1163,24,15
0852,996,27,14
0855,12453,349,262
0856,1953,122,75
0858,1947,33,45
0861,2622,54,33
0865,1966,63,49
0866,866,12,10
0867,3001,63,71
0873,998,14,21
0879,1014,32,14
0880,783,28,14
0882,1827,71,41
0888,775,24,12
0889,644,24,10
0893,940,15,8
0899,1328,65,34
0907,1109,26,16
0917,3783,170,100
0928,1988,105,63
0935,5438,239,173
0938,794,28,22
0944,423,11,11
0946,1342,39,15
0957,2776,72,34
0965,519,24,5
0971,1121,57,18
0981,369,18,11
0983,6175,179,116
0984,3332,52,29
0986,526,21,10
0988,3959,98,59
0994,688,29,13
0995,3452,111,52
1507,3052,52,54
1509,1876,32,31
1525,2178,30,10
1581,2590,54,41
1586,1703,27,33
1598,1155,15,14
1621,3929,76,56
1640,2037,63,44
1641,1223,31,18
1652,1512,87,35
1655,1607,38,17
1658,898,20,13
1659,1340,48,31
1667,955,21,7
1669,886,32,20
1674,4279,72,59
1676,940,26,19
1680,734,4,9
1681,847,17,11
1684,1425,28,19
1685,1103,47,22
1690,972,21,12
1695,164,3,1
1696,1117,18,11
1699,661,11,19
1700,2756,31,25
1701,429,11,6
1702,685,22,11
1705,2326,53,22
1706,1446,70,44
1708,1514,21,16
1709,1717,34,26
1711,1450,48,24
1714,931,30,17
1719,1355,36,23
1721,1866,104,68
1723,480,21,5
1724,1381,27,6
1728,1677,32,20
1729,663,29,18
1730,820,13,17
1731,1094,15,16
1734,1975,67,26
1735,2123,29,18
1740,1651,54,29
1742,2979,42,42
1771,2254,56,21
1773,635,14,9
1774,2069,31,28
1783,7768,139,72
1842,1160,16,12
1859,2304,31,37
1876,1705,25,12
1883,4047,164,100
1884,1361,18,8
1891,684,4,12
1892,2706,71,39
1894,2249,151,71
1895,1246,20,15
1896,1039,41,25
1900,3709,31,52
1901,2278,44,23
1903,1297,66,36
1904,3351,81,53
1911,2102,36,14
1916,3916,93,65
1924,2495,92,58
1926,3185,43,26
1930,4778,112,69
1931,3412,98,58
1940,1397,34,15
1942,2763,46,27
1945,1855,46,38
1948,4342,236,156
1949,1335,20,25
1950,1120,20,10
1952,1779,28,24
1954,1655,71,37
1955,1584,33,14
1959,4269,67,63
1960,3057,75,42
1961,3399,76,56
1963,4293,99,43
1966,1704,19,18
1969,1475,24,13
1970,1414,25,19
1978,2759,30,21
1979,1580,32,10