0014,13667,93,45
0034,19776,336,96
0037,2524,24,20
0047,1897,12,11
0050,1769,22,14
0059,2308,26,39
0060,207,3,1
0072,823,11,3
0074,2757,36,39
0080,7555,101,74
0085,1467,17,6
0086,1730,27,7
0088,45,1,2
0090,3428,43,34
0093,248,3,2
0096,68,0,0
0098,1821,19,28
0106,3762,68,15
0109,2895,57,31
0114,9131,165,79
0118,4590,75,41
0119,2351,34,27
0141,7677,106,58
0147,2508,30,38
0148,2329,26,20
0150,8276,105,88
0153,14097,237,172
0158,2659,34,32
0160,5885,59,37
0163,4299,44,51
0164,7282,77,68
0166,3688,79,44
0168,2648,50,32
0171,3509,35,28
0173,3401,54,45
0175,1471,15,15
0177,3403,42,41
0180,2383,17,21
0183,2974,25,18
0184,2622,54,19
0189,3100,20,27
0193,8204,105,113
0197,2421,32,22
0200,12572,200,147
0202,12898,199,125
0203,7766,64,62
0209,2361,40,22
0213,1486,33,18
0214,2523,40,20
0216,2704,47,22
0221,793,19,9
0222,4847,64,29
0225,1868,40,27
0226,2083,28,14
0228,11874,142,86
0230,2070,39,14
0232,2729,78,52
0233,2450,48,34
0243,4355,87,48
0244,896,21,7
0246,1282,57,32
0252,1415,27,19
0262,2182,37,29
0263,3557,43,42
0267,4488,51,29
0268,15478,272,189
0269,2243,49,30
0273,2514,21,18
0274,2095,36,26
0275,3596,61,58
0277,107,1,0
0279,1069,5,12
0281,4556,87,73
0285,1891,31,28
0289,3050,40,42
0293,1165,21,9
0294,2110,17,17
0296,4093,80,60
0297,3872,41,42
0299,3356,81,48
0301,3176,54,29
0302,2360,80,32
0303,3094,63,25
0307,14305,256,139
0308,2221,34,28
0310,3595,75,78
0312,1160,22,12
0313,4229,62,39
0317,920,19,5
0321,4161,73,51
0327,2368,41,24
0331,1630,39,12
0335,1427,29,8
0339,612,7,5
0340,2456,42,21
0342,3998,76,47
0344,32656,719,249
0345,8028,134,75
0351,1471,22,8
0352,1878,34,17
0353,3320,87,55
0355,5060,88,73
0356,5419,133,30
0358,3140,37,26
0361,9470,141,85
0362,7293,134,90
0363,88235,1947,809
0370,897,9,3
0373,2499,39,38
0375,4173,44,41
0376,1000,13,6
0377,1654,16,17
0383,3142,27,24
0384,3061,52,34
0385,5138,95,23
0388,1921,30,11
0392,12892,216,149
0394,14121,183,108
0396,3935,63,32
0397,1932,26,60
0398,5747,59,37
0399,1709,23,15
0400,5304,67,39
0402,6784,90,86
0405,8532,94,55
0406,4054,62,53
0415,1155,12,6
0416,2566,35,15
0417,991,16,26
0420,5431,58,26
0431,946,16,8
0432,1284,11,6
0437,1246,16,5
0439,8109,191,84
0441,4546,56,58
0448,582,6,4
0450,1302,12,7
0451,2551,34,15
0453,6939,104,90
0457,2031,20,20
0473,1406,21,43
0479,15579,312,176
0482,2644,44,22
0484,11318,190,115
0489,5436,104,48
0498,2185,24,13
0501,1657,31,9
0502,7864,183,146
0503,9475,102,74
0505,14362,259,179
0512,4198,46,40
0513,7824,275,160
0518,53956,1676,552
0523,2768,17,25
0530,3524,68,43
0531,3623,40,32
0532,2643,29,15
0534,1775,21,17
0537,8764,113,59
0542,3701,49,70
0546,10616,137,70
0547,2276,36,23
0553,2058,28,17
0556,3573,69,35
0569,3335,45,22
0575,4068,66,22
0579,1930,23,31
0589,1045,38,12
0590,3568,46,46
0597,5845,113,89
0599,78554,1941,963
0603,4951,131,76
0606,9343,235,114
0610,3378,32,41
0613,3019,48,22
0614,1146,22,18
0622,8807,174,91
0626,1848,23,24
0627,3045,71,16
0629,2081,40,31
0632,5217,143,39
0637,11461,172,69
0638,850,10,1
0642,5358,89,101
0654,1493,38,6
0664,2686,91,31
0668,1976,25,19
0677,1814,41,13
0678,1038,14,6
0687,3547,78,25
0703,3036,59,17
0715,4144,118,29
0716,2864,71,30
0717,1381,31,7
0718,3347,129,32
0736,4036,117,35
0737,2011,22,28
0743,1684,33,18
0744,553,13,4
0748,6680,93,44
0753,3087,55,30
0755,1067,41,23
0756,3315,40,45
0757,3533,51,69
0758,16312,251,147
0762,3767,91,42
0765,1040,25,13
0766,2995,46,25
0770,2411,48,25
0772,22816,449,355
0777,3770,69,38
0779,2326,31,25
0784,2649,40,19
0785,2459,42,36
0786,1444,30,24
0794,11038,205,84
0796,16954,257,171
0797,5305,89,50
0798,1617,20,20
0809,2737,52,37
0815,1246,17,10
0820,2149,34,22
0823,2385,32,27
0824,3138,55,22
0826,5150,84,36
0828,10856,242,129
0840,2279,46,16
0845,3279,52,34
0847,2271,48,13
0848,1536,43,28
0851,2279,33,19
0852,1775,33,15
0855,24063,411,277
0856,4319,139,86
0858,3367,59,62
0861,5086,83,50
0865,3252,74,53
0866,1602,19,17
0867,5523,79,77
0873,1963,22,26
0879,1681,36,17
0880,1560,35,33
0882,3595,99,70
0888,1527,30,12
0889,1492,30,13
0893,1605,24,15
0899,2801,88,52
0907,1784,28,19
0917,7519,242,126
0928,4053,142,96
0935,10048,336,197
0938,1452,49,23
0944,607,11,11
0946,2282,47,20
0957,6346,106,60
0965,895,27,9
0971,2387,78,24
0981,712,24,14
0983,13587,226,168
0984,5733,64,48
0986,1044,25,11
0988,6147,112,68
0994,1301,37,23
0995,5962,138,62
1507,5834,61,65
1509,4035,48,45
1525,3833,39,25
1581,4077,91,73
1586,2873,35,41
1598,2640,25,24
1621,6555,91,63
1640,4094,76,52
1641,2551,42,36
1652,2948,100,38
1655,3030,57,27
1658,1577,23,13
1659,2588,62,36
1667,1624,23,10
1669,2093,46,35
1674,7713,103,74
1676,2149,54,25
1680,1418,7,20
1681,1609,31,15
1684,2654,37,26
1685,1901,51,28
1690,2031,32,24
1695,555,17,9
1696,1954,25,18
1699,1680,31,25
1700,4546,40,30
1701,982,16,22
1702,1219,27,11
1705,3818,62,35
1706,2572,79,51
1708,3229,33,27
1709,3493,46,40
1711,3140,65,36
1714,1444,45,18
1719,2550,49,30
1721,3848,111,78
1723,916,24,5
1724,2278,28,11
1728,2812,38,27
1729,1154,31,19
1730,1550,22,24
1731,2058,35,30
1734,3756,74,30
1735,3646,34,29
1740,2939,63,34
1742,4738,55,54
1771,4368,75,28
1773,1339,21,10
1774,3156,37,35
1783,13926,186,86
1842,2035,19,14
1859,3906,42,42
1876,3068,37,21
1883,8505,216,145
1884,2586,25,10
1891,1480,18,17
1892,4796,119,47
1894,4916,165,85
1895,2840,44,37
1896,2420,51,30
1900,7777,74,90
1901,4009,75,36
1903,2123,87,47
1904,5802,146,69
1911,4439,49,34
1916,6507,157,84
1924,4635,127,89
1926,5338,67,38
1930,8923,182,99
1931,6366,151,64
1940,3608,55,33
1942,5013,60,34
1945,3223,56,51
1948,9017,262,167
1949,2956,39,36
1950,2315,36,21
1952,3730,53,39
1954,3494,99,49
1955,3090,42,24
1959,6887,87,68
1960,5914,87,61
1961,6256,123,76
1963,8551,152,66
1966,3523,32,20
1969,3353,38,25
1970,3254,47,37
1978,5697,51,35
1979,2835,49,23