0014,9736,70,31
0034,15059,280,90
0037,1861,16,16
0047,1333,8,10
0050,1244,20,13
0059,1673,16,33
0060,146,0,0
0072,477,7,3
0074,1816,26,35
0080,5231,81,62
0085,874,13,6
0086,1104,22,5
0088,40,1,2
0090,2215,27,28
0093,188,1,1
0096,45,0,0
0098,1109,10,27
0106,2440,44,13
0109,2183,48,27
0114,6367,109,67
0118,3453,62,40
0119,1555,21,24
0141,5806,87,53
0147,1863,28,36
0148,1622,24,19
0150,5639,80,80
0153,10291,194,164
0158,2182,32,32
0160,4309,49,37
0163,3283,38,49
0164,5609,64,65
0166,2492,72,41
0168,2099,44,32
0171,2494,29,26
0173,2517,50,43
0175,1092,13,15
0177,2720,36,36
0180,1655,14,18
0183,2127,18,16
0184,1910,44,12
0189,2498,18,27
0193,5473,79,94
0197,1573,19,18
0200,8204,177,139
0202,9116,161,118
0203,5874,44,56
0209,1572,32,17
0213,970,29,16
0214,1715,37,17
0216,1929,41,19
0221,580,16,9
0222,3237,53,27
0225,1430,39,26
0226,1496,26,12
0228,8822,127,74
0230,1391,35,13
0232,1893,67,45
0233,1869,38,32
0243,3145,75,46
0244,585,19,7
0246,853,55,30
0252,1011,25,17
0262,1433,32,27
0263,2190,35,31
0267,3468,45,26
0268,10106,235,170
0269,1544,46,29
0273,1859,18,13
0274,1463,29,24
0275,2643,58,56
0277,75,1,0
0279,819,5,12
0281,3054,75,72
0285,1241,29,28
0289,2103,38,40
0293,817,19,8
0294,1358,13,13
0296,2788,70,51
0297,2824,36,41
0299,2245,72,45
0301,2022,47,29
0302,1569,74,30
0303,2192,57,22
0307,10427,207,127
0308,1579,30,25
0310,2845,60,72
0312,868,20,11
0313,3461,53,38
0317,693,16,3
0321,2876,62,51
0327,1784,31,23
0331,1148,31,10
0335,1068,23,8
0339,424,6,5
0340,1786,27,18
0342,2987,67,46
0344,22857,587,222
0345,6092,115,70
0351,1158,21,8
0352,1304,25,10
0353,2171,71,53
0355,3779,71,69
0356,3661,94,25
0358,2006,29,23
0361,6899,112,66
0362,5200,113,87
0363,66495,1634,702
0370,679,6,2
0373,1822,34,32
0375,3053,36,37
0376,700,11,6
0377,1163,13,16
0383,2036,23,20
0384,2377,39,30
0385,3234,75,14
0388,1617,28,11
0392,9146,171,141
0394,9745,159,99
0396,2915,54,29
0397,1335,22,57
0398,3865,54,33
0399,1193,20,12
0400,3690,46,30
0402,4925,69,77
0405,6679,79,52
0406,3146,52,52
0415,891,10,5
0416,1891,28,11
0417,761,16,26
0420,4142,47,24
0431,768,16,8
0432,1004,6,4
0437,937,12,4
0439,5733,155,74
0441,3181,42,47
0448,345,6,4
0450,984,11,7
0451,1772,32,12
0453,5030,86,85
0457,1532,17,20
0473,927,17,41
0479,11420,264,154
0482,1743,32,19
0484,8224,158,111
0489,3669,85,43
0498,1664,15,11
0501,992,30,9
0502,5192,149,126
0503,6686,85,74
0505,9708,204,150
0512,2876,42,36
0513,5449,176,149
0518,37123,1203,531
0523,1965,13,23
0530,2230,47,40
0531,2460,34,29
0532,1971,27,15
0534,1261,15,17
0537,6169,94,54
0542,2713,45,66
0546,7313,111,64
0547,1555,34,21
0553,1472,25,17
0556,2443,59,33
0569,2200,34,20
0575,2807,59,19
0579,1427,21,30
0589,738,34,12
0590,2350,37,41
0597,3843,92,79
0599,53557,1575,839
0603,3455,107,71
0606,6543,194,102
0610,2428,26,40
0613,2129,38,20
0614,724,19,16
0622,6015,140,86
0626,1276,19,21
0627,2126,59,14
0629,1394,32,30
0632,3585,111,38
0637,7992,134,60
0638,563,7,1
0642,3744,69,85
0654,928,26,5
0664,1606,57,23
0668,1405,24,19
0677,1295,30,12
0678,556,9,6
0687,2200,55,21
0703,1517,29,10
0715,2788,85,26
0716,1624,56,23
0717,907,21,5
0718,2111,78,24
0736,2825,93,33
0737,1397,19,26
0743,1111,29,17
0744,350,12,4
0748,4675,83,38
0753,2200,51,30
0755,699,40,23
0756,2425,35,43
0757,2297,46,65
0758,11028,229,143
0762,2476,80,40
0765,657,17,9
0766,2180,42,25
0770,1664,42,24
0772,15057,366,310
0777,2666,63,37
0779,1589,27,25
0784,1715,30,19
0785,1644,39,35
0786,1066,29,24
0794,7430,182,79
0796,10824,211,156
0797,3329,73,46
0798,1212,19,20
0809,1892,42,35
0815,856,17,10
0820,1464,29,20
0823,1603,27,25
0824,2230,52,22
0826,3677,73,34
0828,7090,224,122
0840,1616,39,15
0845,2230,46,30
0847,1472,42,13
0848,1018,39,27
0851,1530,29,18
0852,1342,30,15
0855,15679,362,271
0856,2558,125,82
0858,2497,44,55
0861,3554,67,46
0865,2373,69,53
0866,1060,15,12
0867,3588,65,76
0873,1398,18,24
0879,1180,34,17
0880,1124,33,32
0882,2529,85,61
0888,908,25,12
0889,834,26,11
0893,1177,18,11
0899,1684,72,46
0907,1322,27,19
0917,4914,197,118
0928,2727,114,95
0935,6669,263,189
0938,976,31,22
0944,462,11,11
0946,1754,43,17
0957,3861,81,42
0965,650,26,7
0971,1500,66,21
0981,500,19,13
0983,8226,184,141
0984,4219,60,42
0986,688,23,10
0988,4683,104,67
0994,872,31,19
0995,4184,122,58
1507,3941,56,59
1509,2574,37,41
1525,2750,33,22
1581,3096,68,69
1586,2040,29,38
1598,1915,21,20
1621,4631,82,60
1640,2797,67,47
1641,1754,40,33
1652,1900,94,37
1655,2067,49,25
1658,1191,22,13
1659,1725,55,36
1667,1188,22,8
1669,1272,38,28
1674,5537,95,69
1676,1269,31,21
1680,1007,5,20
1681,1119,21,14
1684,1790,33,22
1685,1326,47,26
1690,1297,27,22
1695,340,12,8
1696,1433,22,15
1699,1101,20,24
1700,3357,36,28
1701,654,12,19
1702,839,22,11
1705,2647,56,26
1706,1908,74,49
1708,1945,22,18
1709,2256,40,37
1711,2011,58,30
1714,1085,41,18
1719,1600,38,25
1721,2510,105,77
1723,565,23,5
1724,1707,28,9
1728,2120,35,25
1729,859,30,19
1730,1126,17,20
1731,1462,27,27
1734,2357,70,29
1735,2650,30,28
1740,2080,59,32
1742,3600,49,47
1771,3001,68,25
1773,873,16,9
1774,2377,34,34
1783,9385,164,85
1842,1393,16,13
1859,2763,35,42
1876,2131,29,17
1883,5161,177,123
1884,1737,21,9
1891,1024,9,15
1892,3305,96,45
1894,3096,159,75
1895,2058,37,31
1896,1690,44,26
1900,5392,48,83
1901,2958,60,35
1903,1563,68,44
1904,4123,104,65
1911,3184,43,30
1916,4578,119,80
1924,3111,114,74
1926,3797,55,34
1930,5773,137,92
1931,4516,113,61
1940,2196,42,30
1942,3706,51,31
1945,2185,50,45
1948,5803,248,162
1949,1967,24,33
1950,1748,33,20
1952,2734,44,34
1954,2129,76,42
1955,2040,35,23
1959,5165,81,65
1960,4084,79,57
1961,4389,94,63
1963,5512,127,56
1966,2462,24,20
1969,2194,33,22
1970,2108,33,34
1978,3712,43,27
1979,2123,38,13