0014,8865,65,28
0034,14288,264,80
0037,1734,15,14
0047,1241,7,10
0050,1172,20,13
0059,1551,15,31
0060,143,0,0
0072,393,6,3
0074,1643,25,33
0080,4646,80,59
0085,807,13,6
0086,1011,21,5
0088,33,1,0
0090,2010,25,27
0093,177,1,1
0096,40,0,0
0098,1019,10,21
0106,2261,41,12
0109,1951,44,26
0114,5636,95,58
0118,3290,60,40
0119,1457,20,24
0141,5594,85,52
0147,1766,28,36
0148,1514,22,18
0150,5360,78,80
0153,9966,190,163
0158,2118,32,32
0160,3994,46,37
0163,3076,34,49
0164,5421,64,65
0166,2333,70,41
0168,2065,43,32
0171,2378,28,26
0173,2413,49,42
0175,973,13,15
0177,2541,34,36
0180,1592,14,18
0183,2066,18,16
0184,1900,44,12
0189,2362,18,27
0193,5039,71,89
0197,1441,19,18
0200,7626,167,139
0202,8647,158,113
0203,5655,43,55
0209,1475,32,17
0213,894,28,16
0214,1609,36,17
0216,1792,41,18
0221,540,16,9
0222,2921,53,27
0225,1316,38,24
0226,1431,26,11
0228,8512,125,72
0230,1310,35,13
0232,1731,64,44
0233,1779,36,32
0243,2919,71,44
0244,535,19,7
0246,805,55,30
0252,959,25,16
0262,1354,30,26
0263,1896,31,29
0267,3337,45,26
0268,9600,230,170
0269,1424,45,29
0273,1800,17,13
0274,1393,29,24
0275,2415,58,50
0277,73,1,0
0279,799,5,12
0281,2805,75,72
0285,1188,27,28
0289,2009,38,38
0293,791,19,8
0294,1314,13,13
0296,2666,70,51
0297,2606,36,38
0299,2119,71,44
0301,1866,46,29
0302,1468,74,30
0303,2054,56,22
0307,9827,200,117
0308,1464,28,25
0310,2637,55,68
0312,796,19,11
0313,3219,46,38
0317,643,15,2
0321,2733,59,51
0327,1687,29,23
0331,1026,28,9
0335,968,20,7
0339,412,6,5
0340,1712,26,18
0342,2828,65,45
0344,21659,564,221
0345,5812,108,70
0351,1093,20,8
0352,1182,24,10
0353,1981,64,53
0355,3559,68,63
0356,3388,90,25
0358,1851,26,22
0361,6165,106,64
0362,4882,106,87
0363,63009,1576,683
0370,548,6,2
0373,1608,33,32
0375,2692,35,34
0376,645,10,5
0377,1088,13,16
0383,1808,22,20
0384,2237,37,30
0385,2758,72,14
0388,1444,27,11
0392,8420,168,140
0394,9060,154,99
0396,2617,49,28
0397,1272,21,57
0398,3444,49,28
0399,1088,19,12
0400,3119,36,27
0402,4641,66,74
0405,5697,71,47
0406,2985,51,52
0415,814,10,5
0416,1694,26,10
0417,711,15,25
0420,3659,42,23
0431,736,16,8
0432,886,6,4
0437,886,11,4
0439,5118,147,69
0441,2801,38,44
0448,328,6,3
0450,921,10,7
0451,1635,31,11
0453,4457,84,83
0457,1471,17,19
0473,864,17,41
0479,10632,256,151
0482,1613,29,18
0484,7689,155,105
0489,3426,85,39
0498,1516,15,11
0501,934,29,9
0502,4770,135,120
0503,6239,83,72
0505,8976,185,142
0512,2696,41,35
0513,5185,169,148
0518,35122,1141,518
0523,1798,9,19
0530,2083,44,38
0531,2256,25,29
0532,1745,27,15
0534,1196,15,17
0537,5860,92,50
0542,2507,43,65
0546,6857,105,61
0547,1507,34,21
0553,1355,25,17
0556,2287,56,30
0569,1982,33,20
0575,2608,57,19
0579,1333,20,29
0589,670,34,12
0590,2162,32,38
0597,3463,86,77
0599,50313,1508,800
0603,3225,100,70
0606,6179,182,100
0610,2260,23,40
0613,2012,38,19
0614,678,17,16
0622,5564,131,81
0626,1196,19,21
0627,2004,57,14
0629,1338,32,29
0632,3336,98,34
0637,7508,125,57
0638,530,7,1
0642,3395,60,78
0654,869,25,5
0664,1455,49,21
0668,1334,24,16
0677,1214,27,12
0678,505,9,6
0687,1931,52,18
0703,1383,23,9
0715,2593,78,25
0716,1463,55,22
0717,808,18,3
0718,1784,47,13
0736,2653,92,33
0737,1310,18,25
0743,1034,27,17
0744,333,12,4
0748,4394,80,38
0753,2042,49,29
0755,686,40,23
0756,2309,35,43
0757,2114,46,65
0758,10541,226,143
0762,2305,78,38
0765,585,15,8
0766,2027,42,23
0770,1533,42,23
0772,14044,356,296
0777,2544,63,36
0779,1504,25,24
0784,1615,30,19
0785,1535,39,35
0786,976,29,24
0794,6890,179,77
0796,9952,207,149
0797,3102,70,45
0798,1149,18,20
0809,1783,42,35
0815,798,17,10
0820,1380,29,19
0823,1454,26,24
0824,2056,50,22
0826,3479,71,33
0828,6444,216,120
0840,1548,39,13
0845,2051,45,28
0847,1341,41,12
0848,932,39,26
0851,1412,29,17
0852,1237,28,14
0855,14504,360,270
0856,2294,125,79
0858,2342,42,51
0861,3277,63,44
0865,2262,67,53
0866,1006,14,10
0867,3418,65,76
0873,1239,18,24
0879,1120,32,17
0880,1011,32,31
0882,2424,82,58
0888,874,25,12
0889,787,25,11
0893,1146,17,10
0899,1600,72,45
0907,1278,27,18
0917,4675,192,116
0928,2586,114,91
0935,6332,259,185
0938,938,30,22
0944,459,11,11
0946,1616,41,17
0957,3630,77,39
0965,618,26,7
0971,1403,63,21
0981,459,18,13
0983,7482,182,137
0984,4001,57,42
0986,655,21,10
0988,4516,103,66
0994,836,30,18
0995,3927,117,58
1507,3620,54,59
1509,2373,36,41
1525,2547,33,20
1581,2941,64,63
1586,1923,27,37
1598,1692,18,20
1621,4399,80,58
1640,2577,64,45
1641,1620,36,22
1652,1785,89,37
1655,1925,47,25
1658,1088,21,13
1659,1612,54,35
1667,1122,22,8
1669,1188,35,26
1674,5208,89,66
1676,1134,30,21
1680,957,5,15
1681,1031,19,13
1684,1651,28,20
1685,1244,47,25
1690,1189,24,20
1695,295,9,5
1696,1343,21,15
1699,961,16,21
1700,3187,36,28
1701,583,12,17
1702,804,22,11
1705,2514,56,26
1706,1795,73,49
1708,1755,21,18
1709,2140,39,35
1711,1922,56,30
1714,1046,37,18
1719,1534,38,25
1721,2341,105,73
1723,542,23,5
1724,1638,27,8
1728,1996,34,24
1729,830,30,19
1730,998,15,20
1731,1364,26,23
1734,2260,70,29
1735,2535,30,26
1740,1928,57,32
1742,3491,48,46
1771,2788,68,24
1773,781,15,9
1774,2319,33,34
1783,8831,156,83
1842,1305,16,13
1859,2654,35,41
1876,2009,28,16
1883,4930,177,118
1884,1562,19,9
1891,966,8,14
1892,3109,92,44
1894,2787,155,74
1895,1832,30,29
1896,1319,43,25
1900,4913,47,74
1901,2742,58,33
1903,1506,68,43
1904,3875,97,59
1911,2804,39,28
1916,4376,112,77
1924,2887,110,71
1926,3597,52,32
1930,5371,128,89
1931,4107,110,61
1940,1967,39,29
1942,3291,49,29
1945,2075,48,45
1948,5224,246,162
1949,1661,21,32
1950,1637,30,19
1952,2461,41,32
1954,1990,74,42
1955,1849,33,21
1959,4945,80,65
1960,3817,77,53
1961,4099,88,61
1963,4997,116,53
1966,2271,21,20
1969,2058,30,21
1970,1890,30,29
1978,3399,40,27
1979,1995,36,11