0014,7881,61,25
0034,13300,246,68
0037,1533,15,9
0047,1078,7,7
0050,1101,18,12
0059,1278,10,17
0060,135,0,0
0072,314,5,2
0074,1432,21,26
0080,3866,63,39
0085,697,12,5
0086,886,19,4
0088,10,1,0
0090,1708,23,23
0093,158,1,1
0096,36,0,0
0098,818,9,13
0106,1951,36,11
0109,1713,39,20
0114,4772,81,50
0118,2942,50,35
0119,1371,20,23
0141,5097,76,48
0147,1680,28,33
0148,1440,20,18
0150,5156,75,78
0153,9344,173,149
0158,2062,30,30
0160,3681,44,36
0163,2742,29,44
0164,5192,61,63
0166,2187,69,41
0168,1942,40,29
0171,2299,28,26
0173,2286,42,40
0175,884,13,15
0177,2373,31,33
0180,1537,14,17
0183,1974,18,16
0184,1879,43,12
0189,2243,17,23
0193,4598,68,81
0197,1331,19,18
0200,7066,158,136
0202,8218,153,105
0203,5376,40,50
0209,1303,30,16
0213,848,28,15
0214,1489,32,15
0216,1684,39,17
0221,495,16,9
0222,2700,52,26
0225,1161,36,24
0226,1335,24,10
0228,8028,119,63
0230,1221,34,13
0232,1587,63,37
0233,1716,35,31
0243,2700,64,39
0244,496,19,6
0246,752,55,30
0252,906,25,16
0262,1278,30,26
0263,1639,31,26
0267,3197,45,20
0268,8979,225,165
0269,1324,44,29
0273,1713,17,13
0274,1341,28,23
0275,2280,57,44
0277,73,1,0
0279,750,5,12
0281,2524,74,56
0285,1131,26,19
0289,1904,35,35
0293,734,18,8
0294,1243,13,13
0296,2458,70,49
0297,2290,35,36
0299,1947,69,36
0301,1765,45,23
0302,1365,74,30
0303,1904,52,22
0307,9088,186,100
0308,1337,28,23
0310,2388,48,64
0312,733,18,11
0313,2844,44,38
0317,566,13,2
0321,2543,52,50
0327,1525,23,20
0331,878,26,9
0335,834,18,7
0339,385,6,5
0340,1569,26,17
0342,2646,62,43
0344,20494,537,206
0345,5445,100,67
0351,1049,18,7
0352,1107,24,10
0353,1782,62,48
0355,3305,62,46
0356,3103,82,22
0358,1724,25,22
0361,5367,101,57
0362,4583,99,84
0363,58879,1497,627
0370,429,6,2
0373,1456,31,29
0375,2209,29,19
0376,580,9,5
0377,1025,12,11
0383,1632,19,17
0384,2063,37,28
0385,2421,68,10
0388,1287,26,10
0392,7816,161,136
0394,8420,147,94
0396,2182,47,24
0397,1185,21,55
0398,3033,45,23
0399,1010,18,11
0400,2472,30,14
0402,4207,61,72
0405,4623,61,41
0406,2720,48,51
0415,674,9,5
0416,1526,23,7
0417,623,15,25
0420,3173,32,17
0431,682,15,6
0432,739,3,3
0437,838,10,3
0439,4302,127,62
0441,2499,33,34
0448,305,6,3
0450,839,9,7
0451,1488,29,11
0453,3895,76,74
0457,1365,16,18
0473,800,16,41
0479,9782,246,148
0482,1508,23,18
0484,7068,145,94
0489,3178,77,38
0498,1356,13,11
0501,862,28,9
0502,4444,123,110
0503,5826,79,65
0505,8161,161,130
0512,2525,35,30
0513,4873,155,137
0518,32944,1057,485
0523,1576,6,16
0530,1930,43,35
0531,2109,22,25
0532,1535,26,14
0534,1092,14,14
0537,5283,86,43
0542,2341,36,60
0546,6439,103,51
0547,1414,34,21
0553,1272,23,17
0556,2139,55,29
0569,1710,31,19
0575,2411,56,17
0579,1268,18,29
0589,618,34,12
0590,2031,24,33
0597,3176,74,64
0599,47401,1398,758
0603,3064,96,70
0606,5737,164,91
0610,2026,23,33
0613,1923,36,19
0614,638,14,14
0622,5182,118,79
0626,1147,17,20
0627,1829,56,13
0629,1261,30,28
0632,2983,89,29
0637,7040,112,53
0638,488,6,1
0642,3043,54,71
0654,785,23,5
0664,1301,45,18
0668,1166,24,15
0677,1140,25,11
0678,435,7,5
0687,1596,45,17
0703,1286,21,7
0715,2415,74,24
0716,1361,53,22
0717,657,13,2
0718,1426,38,8
0736,2426,87,32
0737,1069,14,13
0743,934,25,15
0744,303,12,4
0748,4113,78,35
0753,1877,49,26
0755,654,40,23
0756,2124,34,40
0757,1924,43,58
0758,9991,222,134
0762,2058,75,37
0765,479,14,7
0766,1835,42,23
0770,1371,42,21
0772,12587,329,249
0777,2380,63,34
0779,1373,25,23
0784,1509,30,19
0785,1415,38,32
0786,909,29,24
0794,5952,168,69
0796,9026,199,138
0797,2785,69,44
0798,1027,18,20
0809,1648,40,33
0815,739,16,8
0820,1232,29,16
0823,1264,24,23
0824,1879,47,21
0826,3222,70,32
0828,5779,211,115
0840,1393,32,12
0845,1848,44,28
0847,1219,41,11
0848,816,38,26
0851,1268,28,15
0852,1108,28,14
0855,13392,355,268
0856,2078,123,75
0858,2121,37,46
0861,2921,57,39
0865,2052,63,50
0866,951,12,10
0867,3193,63,74
0873,1148,14,23
0879,1048,32,17
0880,868,28,14
0882,2079,77,48
0888,833,25,12
0889,733,24,10
0893,1028,15,10
0899,1464,68,36
0907,1188,26,16
0917,4224,183,108
0928,2265,110,81
0935,5905,251,176
0938,851,29,22
0944,443,11,11
0946,1481,40,16
0957,3207,73,38
0965,567,26,6
0971,1273,61,20
0981,420,18,11
0983,6812,182,123
0984,3699,54,39
0986,575,21,10
0988,4294,103,66
0994,758,29,14
0995,3647,112,55
1507,3321,52,58
1509,2178,35,39
1525,2301,31,10
1581,2757,58,50
1586,1797,27,35
1598,1365,16,18
1621,4153,76,58
1640,2270,63,44
1641,1383,33,19
1652,1669,87,36
1655,1766,44,22
1658,972,21,13
1659,1487,52,33
1667,1046,21,7
1669,1019,34,23
1674,4646,79,61
1676,1028,26,21
1680,838,5,10
1681,939,17,12
1684,1531,28,20
1685,1185,47,22
1690,1075,23,18
1695,232,4,1
1696,1220,18,11
1699,770,14,20
1700,3013,33,27
1701,507,12,11
1702,734,22,11
1705,2433,54,24
1706,1616,71,47
1708,1611,21,17
1709,1859,34,28
1711,1680,52,28
1714,1003,31,18
1719,1440,36,24
1721,2088,105,71
1723,500,21,5
1724,1474,27,7
1728,1840,32,22
1729,727,30,18
1730,909,14,19
1731,1170,19,23
1734,2098,69,26
1735,2339,30,21
1740,1765,56,29
1742,3278,41,45
1771,2493,62,22
1773,696,15,9
1774,2232,32,31
1783,8271,146,80
1842,1227,16,13
1859,2488,32,39
1876,1865,27,14
1883,4546,170,105
1884,1431,18,9
1891,806,5,12
1892,2871,88,40
1894,2501,152,71
1895,1511,24,25
1896,1140,41,25
1900,4198,37,59
1901,2506,48,31
1903,1430,67,36
1904,3572,86,58
1911,2354,36,16
1916,4129,102,70
1924,2645,97,63
1926,3380,44,29
1930,5037,116,82
1931,3713,103,59
1940,1613,35,19
1942,2957,46,28
1945,1944,47,41
1948,4603,240,160
1949,1437,20,30
1950,1418,25,15
1952,1967,31,26
1954,1820,71,39
1955,1718,33,17
1959,4613,76,65
1960,3459,75,43
1961,3755,83,58
1963,4645,107,48
1966,1969,22,19
1969,1672,28,14
1970,1615,27,23
1978,2997,35,24
1979,1747,33,10