0014,13296,89,45
0034,19481,329,96
0037,2475,23,19
0047,1813,12,11
0050,1723,22,14
0059,2268,25,39
0060,194,3,1
0072,803,11,3
0074,2693,34,39
0080,7362,95,73
0085,1442,16,6
0086,1668,27,7
0088,45,1,2
0090,3294,40,33
0093,247,3,2
0096,68,0,0
0098,1740,19,28
0106,3651,66,15
0109,2826,57,31
0114,8958,160,78
0118,4453,74,41
0119,2298,32,27
0141,7440,102,57
0147,2464,30,38
0148,2283,26,20
0150,8056,102,87
0153,13640,226,170
0158,2620,33,32
0160,5703,59,37
0163,4222,43,51
0164,7038,74,66
0166,3555,79,44
0168,2579,49,32
0171,3430,33,28
0173,3280,53,45
0175,1434,15,15
0177,3360,40,41
0180,2247,16,20
0183,2926,25,18
0184,2562,53,18
0189,3055,19,27
0193,8024,102,112
0197,2389,29,21
0200,12258,199,144
0202,12504,189,124
0203,7609,61,62
0209,2309,40,22
0213,1436,33,18
0214,2443,40,20
0216,2633,47,22
0221,770,19,9
0222,4743,64,28
0225,1838,40,27
0226,2005,27,14
0228,11574,140,86
0230,1979,39,14
0232,2699,78,52
0233,2375,44,34
0243,4280,85,48
0244,890,21,7
0246,1261,57,32
0252,1385,27,18
0262,2099,36,29
0263,3486,42,42
0267,4364,50,29
0268,15001,271,189
0269,2199,49,30
0273,2443,21,18
0274,2059,35,26
0275,3484,60,57
0277,105,1,0
0279,1054,5,12
0281,4379,87,73
0285,1835,31,28
0289,2958,40,42
0293,1132,19,9
0294,2078,16,16
0296,3900,79,56
0297,3836,40,42
0299,3254,79,48
0301,3112,54,29
0302,2311,80,32
0303,3000,63,25
0307,13827,250,137
0308,2153,34,28
0310,3536,75,78
0312,1143,22,12
0313,4175,61,39
0317,909,19,5
0321,4066,71,51
0327,2327,41,24
0331,1604,39,12
0335,1390,28,8
0339,588,7,5
0340,2417,41,21
0342,3926,76,46
0344,31885,709,247
0345,7859,133,73
0351,1449,22,8
0352,1834,34,17
0353,3251,86,55
0355,4969,88,73
0356,5295,134,30
0358,3047,36,26
0361,9350,138,82
0362,7138,130,90
0363,86474,1923,794
0370,884,8,3
0373,2440,38,38
0375,4097,44,41
0376,981,13,6
0377,1590,16,17
0383,3101,26,23
0384,2989,50,33
0385,5022,93,22
0388,1895,30,11
0392,12637,215,149
0394,13743,178,107
0396,3904,61,32
0397,1892,26,60
0398,5632,57,36
0399,1689,23,15
0400,5162,64,39
0402,6650,87,84
0405,8453,94,55
0406,3946,61,53
0415,1134,12,6
0416,2525,35,15
0417,976,16,26
0420,5351,57,25
0431,942,16,8
0432,1270,11,6
0437,1233,15,5
0439,7917,187,84
0441,4455,55,57
0448,567,6,4
0450,1289,12,7
0451,2502,34,15
0453,6831,103,90
0457,2010,20,20
0473,1396,21,43
0479,15329,305,174
0482,2605,42,22
0484,11099,187,114
0489,5314,102,48
0498,2151,24,13
0501,1618,31,9
0502,7704,183,143
0503,9196,102,74
0505,14116,253,176
0512,4042,46,39
0513,7711,268,160
0518,52485,1640,550
0523,2702,17,25
0530,3431,65,43
0531,3581,39,32
0532,2616,29,15
0534,1748,21,17
0537,8658,112,58
0542,3640,49,70
0546,10328,131,70
0547,2214,36,22
0553,2018,28,17
0556,3453,68,35
0569,3244,44,22
0575,3990,66,22
0579,1890,23,31
0589,1027,38,12
0590,3511,45,46
0597,5686,112,89
0599,76249,1908,952
0603,4808,129,76
0606,9205,233,114
0610,3301,30,41
0613,2918,46,22
0614,1143,22,18
0622,8488,171,90
0626,1814,23,24
0627,2990,69,15
0629,2004,41,30
0632,5087,141,39
0637,11174,168,69
0638,828,10,1
0642,5272,87,101
0654,1472,38,6
0664,2626,86,30
0668,1899,25,19
0677,1801,40,13
0678,1008,14,6
0687,3481,78,25
0703,2957,56,16
0715,4073,116,29
0716,2814,69,29
0717,1343,31,7
0718,3306,127,32
0736,3941,116,35
0737,1982,22,28
0743,1655,33,18
0744,541,13,4
0748,6529,92,44
0753,2969,55,30
0755,1041,41,23
0756,3243,40,45
0757,3441,51,68
0758,15877,250,146
0762,3661,91,41
0765,1007,25,13
0766,2938,46,25
0770,2384,47,25
0772,22179,436,353
0777,3655,69,38
0779,2216,31,25
0784,2582,38,19
0785,2384,42,36
0786,1427,30,24
0794,10822,205,84
0796,16505,254,170
0797,5064,88,50
0798,1584,20,20
0809,2692,52,37
0815,1202,17,10
0820,2106,34,21
0823,2329,31,27
0824,3043,55,22
0826,4957,84,36
0828,10548,240,128
0840,2224,46,16
0845,3211,52,34
0847,2227,48,13
0848,1511,42,28
0851,2232,31,19
0852,1752,33,15
0855,23387,403,275
0856,4217,139,86
0858,3302,56,61
0861,4982,83,49
0865,3173,74,53
0866,1562,19,17
0867,5346,78,77
0873,1927,21,26
0879,1641,36,17
0880,1540,35,33
0882,3534,99,69
0888,1457,29,12
0889,1457,30,12
0893,1530,22,14
0899,2737,87,51
0907,1737,28,19
0917,7324,238,125
0928,3957,137,96
0935,9786,327,195
0938,1432,49,23
0944,593,11,11
0946,2248,47,20
0957,6148,101,58
0965,881,27,9
0971,2350,76,24
0981,707,23,14
0983,13172,222,165
0984,5619,64,48
0986,1026,25,11
0988,5998,110,68
0994,1258,37,23
0995,5834,136,61
1507,5677,61,64
1509,3913,48,45
1525,3736,38,24
1581,3987,91,73
1586,2780,35,41
1598,2577,24,21
1621,6392,90,63
1640,3940,75,52
1641,2511,42,36
1652,2878,100,38
1655,2963,57,27
1658,1567,23,13
1659,2534,62,36
1667,1612,23,9
1669,2043,47,35
1674,7583,102,73
1676,2061,52,25
1680,1373,7,20
1681,1534,30,15
1684,2573,36,26
1685,1874,51,28
1690,1944,31,24
1695,547,17,9
1696,1923,25,18
1699,1637,31,25
1700,4410,39,30
1701,949,16,22
1702,1182,27,11
1705,3700,62,33
1706,2523,79,51
1708,3148,31,26
1709,3360,45,40
1711,3047,64,34
1714,1416,43,18
1719,2443,48,30
1721,3739,111,78
1723,900,24,5
1724,2229,28,11
1728,2747,38,27
1729,1133,31,19
1730,1490,22,24
1731,1995,35,30
1734,3602,73,30
1735,3544,34,29
1740,2828,63,33
1742,4650,54,54
1771,4272,75,27
1773,1275,19,10
1774,3085,36,35
1783,13594,185,86
1842,1955,18,14
1859,3781,41,42
1876,3019,37,21
1883,8263,209,143
1884,2527,25,10
1891,1416,17,17
1892,4663,117,46
1894,4828,165,84
1895,2747,43,37
1896,2382,51,30
1900,7657,72,90
1901,3939,74,36
1903,2078,85,46
1904,5701,145,68
1911,4348,49,33
1916,6297,151,83
1924,4513,127,87
1926,5230,66,38
1930,8702,178,98
1931,6204,150,62
1940,3533,53,33
1942,4908,58,33
1945,3121,56,51
1948,8790,260,166
1949,2915,39,36
1950,2260,36,21
1952,3643,53,39
1954,3404,95,48
1955,3021,42,24
1959,6738,87,68
1960,5741,87,61
1961,6067,122,75
1963,8354,151,65
1966,3407,31,20
1969,3241,38,25
1970,3169,44,37
1978,5579,50,34
1979,2801,47,21