0014,27041,130,56
0034,33549,418,116
0037,3814,36,22
0047,2962,14,16
0050,3056,23,15
0059,4350,41,40
0060,335,3,1
0072,1552,13,7
0074,6623,52,42
0080,14850,136,82
0085,2822,22,6
0086,3787,35,9
0088,66,1,2
0090,7468,66,37
0093,553,3,2
0096,117,1,1
0098,3350,22,29
0106,6706,80,21
0109,4625,66,34
0114,14392,219,88
0118,7546,91,43
0119,3927,39,37
0141,11790,139,68
0147,3890,37,40
0148,3939,35,24
0150,13751,134,95
0153,24212,295,186
0158,4074,37,33
0160,9660,80,44
0163,6465,57,53
0164,12304,98,72
0166,7714,94,52
0168,4036,53,38
0171,6923,43,31
0173,5354,61,49
0175,2502,16,16
0177,5863,49,49
0180,4312,27,29
0183,4361,27,21
0184,4399,70,24
0189,4846,26,30
0193,16805,138,139
0197,3787,34,31
0200,23337,250,181
0202,23152,240,146
0203,13873,88,78
0209,3987,47,27
0213,2698,39,23
0214,4110,49,24
0216,4650,54,24
0221,1312,22,9
0222,8777,76,43
0225,3159,49,30
0226,3354,33,17
0228,21225,185,115
0230,3803,49,22
0232,4663,84,55
0233,4348,53,42
0243,7287,97,55
0244,1701,24,7
0246,2240,58,32
0252,2343,31,21
0262,4069,43,36
0263,4975,49,43
0267,7380,58,33
0268,27709,340,218
0269,4132,62,39
0273,4243,23,21
0274,3483,44,37
0275,5916,75,74
0277,192,1,0
0279,2147,7,12
0281,7164,100,78
0285,3337,33,31
0289,5467,53,63
0293,2011,30,10
0294,3662,25,23
0296,6410,92,66
0297,5885,55,48
0299,5726,97,50
0301,6117,66,39
0302,4902,92,41
0303,5198,75,29
0307,25134,286,148
0308,4047,36,29
0310,6201,87,79
0312,1971,27,14
0313,5733,63,39
0317,1597,21,6
0321,7876,81,53
0327,4215,43,26
0331,2651,42,12
0335,2438,34,9
0339,1167,10,5
0340,4199,48,22
0342,7211,86,50
0344,57379,823,277
0345,13746,154,84
0351,2763,24,9
0352,3199,39,18
0353,5447,93,58
0355,9143,105,78
0356,8993,154,32
0358,5798,47,29
0361,16607,162,87
0362,13253,158,112
0363,148995,2332,920
0370,1574,9,3
0373,4066,43,41
0375,6738,60,44
0376,1733,16,7
0377,3334,20,18
0383,5358,39,27
0384,5277,61,41
0385,7436,105,26
0388,2990,33,16
0392,24403,261,168
0394,24285,233,126
0396,6671,74,37
0397,3976,34,66
0398,9312,74,40
0399,3246,26,17
0400,8680,89,47
0402,12681,119,101
0405,12997,105,57
0406,6702,72,60
0415,1961,16,8
0416,4360,39,18
0417,1717,20,31
0420,8072,66,29
0431,1620,18,8
0432,2099,13,6
0437,2383,20,5
0439,12932,221,89
0441,7062,66,68
0448,1090,6,4
0450,2135,13,12
0451,4843,40,17
0453,10766,123,95
0457,3156,22,23
0473,2385,31,44
0479,25505,376,188
0482,4561,51,26
0484,18820,216,144
0489,9101,117,50
0498,3322,29,13
0501,2633,34,11
0502,12396,212,154
0503,15633,125,83
0505,22476,298,206
0512,6905,55,46
0513,12801,317,165
0518,86392,2046,609
0523,4627,23,30
0530,5997,85,47
0531,6199,47,38
0532,3625,35,16
0534,3030,24,21
0537,13572,130,69
0542,5804,53,77
0546,19032,159,82
0547,3832,39,28
0553,3624,35,22
0556,5650,76,39
0569,5576,51,26
0575,6971,74,25
0579,3402,23,32
0589,1545,40,12
0590,5756,50,50
0597,8877,132,103
0599,124307,2257,1022
0603,8479,153,78
0606,14202,270,123
0610,5821,37,47
0613,4936,54,23
0614,1895,27,20
0622,13322,204,105
0626,3356,28,24
0627,5581,84,18
0629,3391,45,34
0632,8693,154,44
0637,18952,206,73
0638,1419,11,1
0642,8270,94,114
0654,3318,51,9
0664,5780,129,34
0668,3169,25,19
0677,3849,59,13
0678,1929,20,6
0687,7160,100,32
0703,5141,71,20
0715,7739,164,34
0716,5139,81,32
0717,2855,41,9
0718,6056,164,36
0736,7282,128,46
0737,4053,38,32
0743,2939,37,19
0744,1047,15,4
0748,11052,113,50
0753,4910,60,33
0755,1793,46,23
0756,5891,50,53
0757,5754,58,72
0758,30249,298,176
0762,6083,100,50
0765,1474,26,13
0766,4577,50,26
0770,3415,55,32
0772,36864,511,383
0777,6598,78,40
0779,3661,36,27
0784,4058,46,20
0785,4098,48,41
0786,2256,34,25
0794,16592,215,89
0796,27488,293,187
0797,8200,97,54
0798,2431,21,20
0809,4300,55,43
0815,2002,17,11
0820,3302,35,24
0823,3351,33,27
0824,5268,61,25
0826,9164,109,42
0828,15965,259,136
0840,3526,53,18
0845,5155,56,43
0847,3671,51,18
0848,2442,43,29
0851,3629,42,21
0852,2742,35,18
0855,39790,468,296
0856,6810,147,90
0858,5182,66,69
0861,7309,92,53
0865,5328,82,53
0866,2683,27,17
0867,8571,87,78
0873,3026,26,26
0879,3171,47,17
0880,2500,39,35
0882,7119,124,84
0888,2883,40,15
0889,2653,38,14
0893,2673,29,19
0899,5440,116,63
0907,3333,32,31
0917,15445,294,150
0928,7844,166,104
0935,20141,408,236
0938,3216,66,41
0944,1007,13,13
0946,3706,52,26
0957,11186,134,76
0965,1672,32,11
0971,4595,84,26
0981,1227,27,16
0983,23075,267,191
0984,9225,77,56
0986,2205,27,12
0988,10222,139,86
0994,2757,44,29
0995,11591,175,73
1507,9928,71,76
1509,6461,55,56
1525,6317,44,27
1581,7062,104,78
1586,4614,42,46
1598,3977,27,24
1621,11412,107,70
1640,6597,87,58
1641,4577,52,40
1652,4869,108,43
1655,4649,62,31
1658,2400,25,13
1659,3847,69,43
1667,2513,26,10
1669,3561,54,39
1674,12903,122,82
1676,4240,75,31
1680,2296,9,21
1681,2582,36,20
1684,4838,44,33
1685,2820,51,29
1690,3227,42,28
1695,956,23,10
1696,3673,31,24
1699,3047,38,26
1700,6422,51,33
1701,1823,20,24
1702,2088,29,11
1705,6871,77,46
1706,3978,84,58
1708,5528,38,30
1709,5692,62,53
1711,5745,79,44
1714,2683,59,22
1719,4310,57,31
1721,5834,120,82
1723,1541,26,5
1724,3321,30,15
1728,4137,45,31
1729,2252,38,21
1730,2862,29,26
1731,3411,44,32
1734,6559,87,36
1735,6062,41,35
1740,6012,81,49
1742,8590,64,65
1771,6623,88,31
1773,2204,21,10
1774,4751,39,37
1783,21935,218,93
1842,3354,19,14
1859,6403,51,50
1876,5309,47,27
1883,15952,263,156
1884,4074,27,11
1891,3152,33,18
1892,8018,135,48
1894,8496,175,89
1895,3990,53,39
1896,4321,66,34
1900,13014,105,96
1901,6934,91,39
1903,4332,105,55
1904,10063,160,73
1911,6722,56,36
1916,10799,189,99
1924,7617,142,93
1926,9152,85,41
1930,14132,210,103
1931,10298,165,67
1940,7106,70,37
1942,9260,69,43
1945,5520,64,58
1948,13715,279,177
1949,5310,53,41
1950,3730,42,24
1952,6093,68,42
1954,6519,111,66
1955,5036,54,29
1959,11589,110,73
1960,9788,103,66
1961,11225,147,79
1963,14590,171,74
1966,6385,47,30
1969,6543,42,32
1970,7021,82,48
1978,9692,62,43
1979,4477,56,27