0014,30936,140,62
0034,38772,438,122
0037,4527,41,23
0047,3429,19,18
0050,3604,27,17
0059,5100,46,41
0060,362,3,1
0072,1885,13,8
0074,7659,58,44
0080,17529,149,96
0085,3355,25,7
0086,4541,38,11
0088,68,1,2
0090,8720,76,41
0093,614,3,2
0096,126,1,1
0098,3740,26,31
0106,7802,82,25
0109,5298,67,35
0114,16100,227,93
0118,8840,98,47
0119,4516,40,37
0141,13150,146,71
0147,4307,38,41
0148,4517,37,24
0150,15317,142,100
0153,27323,307,198
0158,4532,37,34
0160,10682,84,49
0163,7163,57,54
0164,13770,102,73
0166,8993,97,56
0168,4473,55,38
0171,7928,44,34
0173,5880,66,52
0175,2786,16,19
0177,6659,51,52
0180,4515,29,29
0183,4748,27,21
0184,4568,70,24
0189,5406,29,31
0193,19276,149,144
0197,4139,36,33
0200,26866,268,192
0202,26482,257,153
0203,14998,91,80
0209,4455,49,28
0213,3070,43,25
0214,4555,54,26
0216,5268,54,24
0221,1478,25,9
0222,9670,82,50
0225,3523,50,31
0226,3813,35,17
0228,23106,187,118
0230,4319,50,23
0232,5291,88,55
0233,4883,55,44
0243,8145,101,62
0244,1821,24,7
0246,2529,60,33
0252,2648,31,21
0262,4761,46,43
0263,5614,50,45
0267,8485,58,34
0268,31150,351,233
0269,4480,63,41
0273,4843,26,21
0274,4001,44,38
0275,6726,78,85
0277,219,1,0
0279,2309,7,12
0281,7913,105,80
0285,3980,34,32
0289,6118,56,71
0293,2299,33,11
0294,4105,27,25
0296,7236,92,69
0297,6412,57,50
0299,6447,102,50
0301,7444,74,46
0302,5404,95,42
0303,6153,79,32
0307,29068,291,152
0308,4527,36,30
0310,7126,89,83
0312,2302,29,15
0313,6347,66,42
0317,1813,21,7
0321,8729,83,53
0327,4898,44,32
0331,2994,42,12
0335,2686,34,10
0339,1254,11,5
0340,4575,50,26
0342,8223,87,55
0344,66033,841,300
0345,14778,157,88
0351,3104,25,9
0352,3676,39,19
0353,6220,95,59
0355,10594,109,82
0356,10415,157,36
0358,6637,49,30
0361,19169,175,93
0362,15169,162,117
0363,170094,2413,961
0370,1809,10,4
0373,4832,44,41
0375,7709,63,46
0376,2099,17,8
0377,3870,20,20
0383,5982,41,33
0384,6132,63,43
0385,8520,107,27
0388,3313,35,17
0392,28410,277,187
0394,28223,247,135
0396,7426,80,46
0397,4628,36,67
0398,10530,81,50
0399,3736,26,18
0400,9907,97,51
0402,14757,130,106
0405,14349,110,57
0406,7985,75,61
0415,2248,16,13
0416,4967,39,21
0417,1996,20,31
0420,8920,67,29
0431,1846,19,8
0432,2343,14,7
0437,2792,20,6
0439,14682,223,94
0441,7928,69,78
0448,1395,7,4
0450,2420,15,16
0451,5463,44,20
0453,12210,131,98
0457,3646,24,23
0473,2799,33,46
0479,29057,392,191
0482,4900,54,27
0484,21077,218,146
0489,10159,118,50
0498,3788,29,13
0501,3048,34,11
0502,13825,220,159
0503,17771,127,86
0505,24922,308,217
0512,7696,56,47
0513,13968,323,165
0518,97499,2170,640
0523,5056,24,31
0530,6965,91,49
0531,6871,49,41
0532,4012,36,16
0534,3499,25,23
0537,14983,133,71
0542,6573,59,78
0546,21657,165,83
0547,4292,40,28
0553,4101,35,23
0556,6281,79,45
0569,6184,51,26
0575,7887,76,31
0579,3851,24,32
0589,1769,40,12
0590,6400,51,52
0597,10026,134,107
0599,139449,2333,1066
0603,9555,154,78
0606,15970,279,126
0610,6350,40,51
0613,5530,54,23
0614,2227,28,20
0622,15113,216,108
0626,3856,29,24
0627,6265,90,19
0629,3913,50,36
0632,9903,154,46
0637,21424,214,77
0638,1624,11,1
0642,9166,95,119
0654,3907,62,12
0664,6872,147,42
0668,3574,25,19
0677,4455,68,18
0678,2218,21,8
0687,8353,114,41
0703,5852,78,24
0715,8845,173,41
0716,5734,83,35
0717,3350,44,17
0718,7071,180,41
0736,8415,130,54
0737,4772,40,34
0743,3338,36,20
0744,1186,16,4
0748,12596,120,50
0753,5639,63,37
0755,2055,46,23
0756,6312,51,53
0757,6350,61,73
0758,34075,311,181
0762,6802,100,50
0765,1697,27,13
0766,5009,53,32
0770,3812,58,33
0772,41953,537,406
0777,7503,83,40
0779,4125,38,30
0784,4696,48,21
0785,4513,49,43
0786,2398,35,27
0794,18312,219,92
0796,30924,300,192
0797,9213,97,56
0798,2745,21,20
0809,4873,57,46
0815,2175,17,12
0820,3754,38,27
0823,3837,33,27
0824,5931,64,26
0826,10482,116,43
0828,17551,265,141
0840,4058,54,18
0845,5817,57,44
0847,4160,51,21
0848,2786,45,30
0851,4034,44,22
0852,3001,36,18
0855,45017,488,299
0856,7655,150,93
0858,5819,69,71
0861,8250,94,53
0865,6044,86,56
0866,3055,27,17
0867,9549,90,82
0873,3551,28,26
0879,3548,48,18
0880,2812,41,37
0882,7960,129,92
0888,3204,41,16
0889,2948,42,15
0893,2960,31,19
0899,6029,121,70
0907,3617,32,31
0917,17401,306,160
0928,8832,174,107
0935,22865,438,250
0938,3672,70,43
0944,1087,13,13
0946,3999,54,28
0957,12365,139,79
0965,1931,37,12
0971,5139,89,27
0981,1449,29,23
0983,25630,281,201
0984,10184,78,58
0986,2480,30,12
0988,11100,146,93
0994,3124,46,35
0995,13482,184,80
1507,10789,73,78
1509,7022,58,58
1525,7017,45,28
1581,8018,111,87
1586,5136,44,48
1598,4517,29,24
1621,12868,110,72
1640,7274,91,59
1641,5132,52,44
1652,5618,108,44
1655,5327,62,31
1658,2712,25,13
1659,4148,69,45
1667,2784,26,13
1669,3922,55,40
1674,14633,129,85
1676,4834,80,39
1680,2831,10,22
1681,2980,37,23
1684,5314,44,33
1685,3045,51,29
1690,3704,44,29
1695,1101,29,11
1696,4135,38,24
1699,3563,39,26
1700,7041,53,35
1701,2111,21,24
1702,2212,29,11
1705,7772,80,54
1706,4347,84,59
1708,6279,39,30
1709,6496,62,54
1711,6358,80,45
1714,3056,65,25
1719,4819,58,32
1721,6416,121,82
1723,1780,26,5
1724,3707,31,15
1728,4553,48,33
1729,2550,39,21
1730,3388,30,26
1731,4032,45,32
1734,7438,88,38
1735,6773,42,38
1740,6355,81,51
1742,9377,66,68
1771,7338,90,33
1773,2590,23,10
1774,5268,39,38
1783,24405,230,101
1842,3788,19,14
1859,7079,54,58
1876,5942,51,28
1883,17884,276,168
1884,4674,27,11
1891,3613,34,26
1892,8951,140,50
1894,9410,177,93
1895,4717,55,40
1896,4723,67,34
1900,15000,106,98
1901,7697,92,39
1903,4945,108,59
1904,11595,164,77
1911,7787,58,38
1916,12288,198,103
1924,8765,143,93
1926,10320,86,42
1930,15916,220,106
1931,11424,171,68
1940,8335,76,38
1942,10665,75,44
1945,6056,71,67
1948,15327,280,180
1949,6292,56,43
1950,4280,44,25
1952,7019,73,44
1954,7301,115,71
1955,5787,55,31
1959,12696,112,76
1960,10875,106,68
1961,12538,151,82
1963,16712,172,75
1966,7343,50,37
1969,7620,46,35
1970,7936,85,57
1978,10528,65,44
1979,5000,56,29