0014,13383,89,45
0034,19550,332,96
0037,2498,23,19
0047,1833,12,11
0050,1736,22,14
0059,2279,26,39
0060,198,3,1
0072,809,11,3
0074,2712,35,39
0080,7405,99,74
0085,1451,16,6
0086,1682,27,7
0088,45,1,2
0090,3320,41,33
0093,247,3,2
0096,68,0,0
0098,1762,19,28
0106,3675,66,15
0109,2840,57,31
0114,8989,161,78
0118,4466,74,41
0119,2308,34,27
0141,7496,103,58
0147,2477,30,38
0148,2297,26,20
0150,8106,104,87
0153,13719,228,170
0158,2632,33,32
0160,5741,59,37
0163,4234,43,51
0164,7099,74,66
0166,3596,79,44
0168,2597,49,32
0171,3451,34,28
0173,3308,53,45
0175,1440,15,15
0177,3368,41,41
0180,2263,16,20
0183,2934,25,18
0184,2570,53,18
0189,3069,19,27
0193,8074,103,113
0197,2395,30,21
0200,12313,199,145
0202,12582,190,124
0203,7630,61,62
0209,2320,40,22
0213,1446,33,18
0214,2467,40,20
0216,2646,47,22
0221,772,19,9
0222,4767,64,28
0225,1843,40,27
0226,2020,27,14
0228,11625,140,86
0230,1994,39,14
0232,2704,78,52
0233,2386,47,34
0243,4302,86,48
0244,892,21,7
0246,1269,57,32
0252,1389,27,18
0262,2111,36,29
0263,3501,42,42
0267,4386,51,29
0268,15102,271,189
0269,2206,49,30
0273,2463,21,18
0274,2072,35,26
0275,3512,61,58
0277,105,1,0
0279,1056,5,12
0281,4405,87,73
0285,1849,31,28
0289,2979,40,42
0293,1144,19,9
0294,2090,17,16
0296,3937,79,56
0297,3842,40,42
0299,3276,80,48
0301,3120,54,29
0302,2325,80,32
0303,3010,63,25
0307,13914,251,137
0308,2168,34,28
0310,3552,75,78
0312,1150,22,12
0313,4180,61,39
0317,910,19,5
0321,4082,72,51
0327,2340,41,24
0331,1611,39,12
0335,1405,29,8
0339,591,7,5
0340,2422,41,21
0342,3947,76,46
0344,32079,713,247
0345,7913,133,73
0351,1450,22,8
0352,1838,34,17
0353,3266,86,55
0355,5004,88,73
0356,5319,133,30
0358,3055,36,26
0361,9376,140,82
0362,7167,130,90
0363,86870,1928,797
0370,887,8,3
0373,2452,38,38
0375,4114,44,41
0376,984,13,6
0377,1594,16,17
0383,3106,26,23
0384,2996,51,33
0385,5043,93,22
0388,1895,30,11
0392,12678,216,149
0394,13845,181,108
0396,3912,61,32
0397,1898,26,60
0398,5658,57,36
0399,1691,23,15
0400,5197,64,39
0402,6681,87,84
0405,8471,94,55
0406,3971,61,53
0415,1136,12,6
0416,2530,35,15
0417,980,16,26
0420,5363,57,25
0431,942,16,8
0432,1275,11,6
0437,1235,15,5
0439,7968,187,84
0441,4463,55,57
0448,572,6,4
0450,1291,12,7
0451,2512,34,15
0453,6875,103,90
0457,2014,20,20
0473,1399,21,43
0479,15404,306,175
0482,2617,43,22
0484,11135,187,114
0489,5347,102,48
0498,2168,24,13
0501,1623,31,9
0502,7732,183,143
0503,9244,102,74
0505,14157,255,177
0512,4074,46,39
0513,7737,268,160
0518,52757,1651,550
0523,2718,17,25
0530,3454,65,43
0531,3588,39,32
0532,2619,29,15
0534,1762,21,17
0537,8685,113,59
0542,3654,49,70
0546,10381,131,70
0547,2231,36,23
0553,2031,28,17
0556,3490,68,35
0569,3265,45,22
0575,4000,66,22
0579,1897,23,31
0589,1031,38,12
0590,3526,45,46
0597,5710,112,89
0599,76724,1918,957
0603,4836,129,76
0606,9234,233,114
0610,3310,30,41
0613,2940,46,22
0614,1146,22,18
0622,8576,172,90
0626,1821,23,24
0627,3002,69,15
0629,2011,40,31
0632,5119,142,39
0637,11222,169,69
0638,830,10,1
0642,5292,87,101
0654,1479,38,6
0664,2637,88,30
0668,1914,25,19
0677,1805,40,13
0678,1013,14,6
0687,3492,78,25
0703,2979,56,16
0715,4087,117,29
0716,2830,69,29
0717,1345,31,7
0718,3312,127,32
0736,3954,116,35
0737,1989,22,28
0743,1662,33,18
0744,542,13,4
0748,6571,92,44
0753,2992,55,30
0755,1052,41,23
0756,3255,40,45
0757,3457,51,68
0758,15957,250,146
0762,3696,91,41
0765,1015,25,13
0766,2950,46,25
0770,2389,47,25
0772,22301,442,354
0777,3685,69,38
0779,2231,31,25
0784,2597,39,19
0785,2402,42,36
0786,1429,30,24
0794,10875,205,84
0796,16600,255,171
0797,5117,88,50
0798,1591,20,20
0809,2703,52,37
0815,1214,17,10
0820,2119,34,22
0823,2345,32,27
0824,3069,55,22
0826,4994,84,36
0828,10612,240,128
0840,2238,46,16
0845,3221,52,34
0847,2243,48,13
0848,1520,42,28
0851,2239,31,19
0852,1760,33,15
0855,23566,405,275
0856,4234,139,86
0858,3320,56,62
0861,5003,83,50
0865,3201,74,53
0866,1568,19,17
0867,5383,78,77
0873,1932,21,26
0879,1652,36,17
0880,1548,35,33
0882,3547,99,70
0888,1467,29,12
0889,1464,30,12
0893,1543,22,14
0899,2751,88,51
0907,1743,28,19
0917,7361,238,126
0928,3977,138,96
0935,9846,330,197
0938,1439,49,23
0944,601,11,11
0946,2256,47,20
0957,6188,103,59
0965,882,27,9
0971,2367,76,24
0981,708,23,14
0983,13271,222,165
0984,5647,64,48
0986,1031,25,11
0988,6032,110,68
0994,1267,37,23
0995,5863,136,62
1507,5702,61,64
1509,3919,48,45
1525,3763,38,24
1581,4001,91,73
1586,2795,35,41
1598,2599,24,22
1621,6418,90,63
1640,3967,75,52
1641,2524,42,36
1652,2896,100,38
1655,2983,57,27
1658,1568,23,13
1659,2543,62,36
1667,1614,23,10
1669,2054,47,35
1674,7608,102,73
1676,2074,52,25
1680,1384,7,20
1681,1545,31,15
1684,2586,36,26
1685,1875,51,28
1690,1957,31,24
1695,547,17,9
1696,1926,25,18
1699,1650,31,25
1700,4435,39,30
1701,957,16,22
1702,1188,27,11
1705,3723,62,34
1706,2536,79,51
1708,3177,33,27
1709,3380,46,40
1711,3066,65,35
1714,1421,43,18
1719,2470,48,30
1721,3750,111,78
1723,901,24,5
1724,2242,28,11
1728,2763,38,27
1729,1134,31,19
1730,1502,22,24
1731,2001,35,30
1734,3631,73,30
1735,3566,34,29
1740,2856,63,33
1742,4667,54,54
1771,4294,76,27
1773,1286,19,10
1774,3102,36,35
1783,13670,186,86
1842,1968,18,14
1859,3812,41,42
1876,3026,37,21
1883,8324,210,143
1884,2538,25,10
1891,1437,17,17
1892,4693,117,46
1894,4844,165,84
1895,2772,44,37
1896,2387,51,30
1900,7678,73,90
1901,3962,74,36
1903,2092,85,46
1904,5724,145,68
1911,4359,49,33
1916,6343,152,84
1924,4535,127,87
1926,5248,66,38
1930,8735,179,99
1931,6244,151,63
1940,3549,54,33
1942,4929,58,33
1945,3152,56,51
1948,8828,260,166
1949,2929,39,36
1950,2280,36,21
1952,3660,53,39
1954,3425,95,48
1955,3044,42,24
1959,6765,87,68
1960,5770,87,61
1961,6088,122,75
1963,8405,151,65
1966,3436,31,20
1969,3273,38,25
1970,3186,46,37
1978,5600,50,34
1979,2810,48,22