0014,6910,58,20
0034,11668,223,57
0037,1328,15,9
0047,792,5,6
0050,936,18,9
0059,726,2,2
0060,126,0,0
0072,256,5,2
0074,1070,19,24
0080,3227,58,24
0085,547,10,1
0086,617,17,1
0088,7,1,0
0090,1200,18,15
0093,137,1,1
0096,26,0,0
0098,648,6,12
0106,1662,33,10
0109,1288,31,12
0114,4029,70,43
0118,2365,46,26
0119,1112,17,14
0141,4499,58,39
0147,1419,25,19
0148,1206,20,16
0150,4605,70,69
0153,8175,149,116
0158,1773,26,28
0160,2878,41,26
0163,2310,22,23
0164,4491,56,47
0166,1941,68,41
0168,1629,28,20
0171,2012,27,21
0173,2004,37,39
0175,688,13,13
0177,1983,28,28
0180,1186,13,11
0183,1675,17,12
0184,1747,40,11
0189,1990,11,20
0193,4087,67,74
0197,1146,17,15
0200,6337,154,108
0202,7324,138,90
0203,4499,34,32
0209,1126,28,15
0213,774,25,10
0214,1273,30,14
0216,1451,35,14
0221,427,15,8
0222,2358,50,24
0225,885,33,20
0226,1205,23,8
0228,6971,106,62
0230,1070,33,12
0232,1352,62,31
0233,1501,35,29
0243,2335,62,31
0244,448,19,5
0246,657,55,29
0252,807,24,14
0262,1181,27,23
0263,1333,28,23
0267,2649,40,10
0268,8089,213,150
0269,1094,44,28
0273,1467,16,7
0274,1193,26,21
0275,1929,48,31
0277,66,1,0
0279,647,5,8
0281,2107,68,40
0285,953,24,12
0289,1637,31,31
0293,650,18,8
0294,1051,13,9
0296,2128,66,41
0297,1905,29,32
0299,1547,66,29
0301,1621,44,22
0302,1219,71,26
0303,1710,51,18
0307,8173,167,87
0308,1199,26,22
0310,2091,42,55
0312,664,16,11
0313,2587,41,32
0317,482,8,2
0321,2306,48,49
0327,1331,21,19
0331,758,25,9
0335,756,18,7
0339,351,6,5
0340,1404,23,13
0342,2398,52,39
0344,18812,501,192
0345,4999,93,57
0351,901,14,6
0352,966,17,9
0353,1604,60,46
0355,2945,57,41
0356,2694,75,19
0358,1580,20,22
0361,4530,92,52
0362,4165,96,84
0363,53686,1371,543
0370,355,5,2
0373,1301,28,29
0375,1877,27,17
0376,531,9,4
0377,872,11,8
0383,1457,19,14
0384,1906,35,25
0385,1910,65,10
0388,1127,24,9
0392,6993,152,126
0394,7540,132,83
0396,1874,44,23
0397,1075,21,51
0398,2504,41,17
0399,895,17,11
0400,1948,29,13
0402,3704,56,67
0405,3560,54,29
0406,2413,43,41
0415,587,9,5
0416,1324,23,7
0417,565,14,23
0420,2386,28,13
0431,567,14,4
0432,538,3,2
0437,786,8,2
0439,3412,114,52
0441,2078,32,25
0448,285,6,2
0450,748,8,7
0451,1323,28,9
0453,3377,70,68
0457,1250,14,17
0473,720,15,34
0479,8658,231,135
0482,1393,22,16
0484,6459,132,76
0489,2916,75,35
0498,1046,9,9
0501,780,25,8
0502,4037,113,102
0503,5260,74,54
0505,7403,131,116
0512,2244,25,26
0513,4395,134,116
0518,30115,940,435
0523,1294,5,10
0530,1724,39,15
0531,1891,16,21
0532,1158,23,7
0534,952,13,4
0537,4550,80,37
0542,2038,31,45
0546,5906,94,44
0547,1296,31,18
0553,1152,20,11
0556,2015,51,25
0569,1514,23,17
0575,2161,52,13
0579,1180,18,24
0589,556,32,12
0590,1762,14,27
0597,2776,63,58
0599,43648,1292,693
0603,2836,91,67
0606,5186,156,55
0610,1792,13,24
0613,1768,33,17
0614,568,11,8
0622,4786,109,61
0626,1025,14,17
0627,1596,51,11
0629,1128,23,24
0632,2707,84,28
0637,6472,102,41
0638,404,6,1
0642,2769,43,62
0654,591,17,3
0664,1041,35,15
0668,830,24,15
0677,923,23,11
0678,352,7,3
0687,1205,36,16
0703,973,12,5
0715,2046,58,18
0716,1184,51,22
0717,542,10,2
0718,1066,29,8
0736,2172,78,31
0737,711,11,4
0743,800,24,15
0744,273,12,4
0748,3721,71,33
0753,1535,44,23
0755,571,39,21
0756,1815,32,36
0757,1692,43,53
0758,9207,219,132
0762,1712,72,35
0765,294,12,2
0766,1620,40,22
0770,1203,40,19
0772,10457,297,191
0777,2222,62,33
0779,1165,22,19
0784,1372,30,18
0785,1266,37,24
0786,820,29,23
0794,4880,155,55
0796,7933,192,132
0797,2418,69,43
0798,938,18,20
0809,1464,39,30
0815,634,14,7
0820,1020,25,14
0823,1096,23,20
0824,1615,44,21
0826,2960,69,32
0828,4756,204,108
0840,1235,28,12
0845,1603,42,28
0847,1075,38,11
0848,707,38,23
0851,1128,24,15
0852,944,27,14
0855,11873,347,253
0856,1844,121,74
0858,1815,32,45
0861,2423,52,32
0865,1906,63,46
0866,810,9,10
0867,2851,62,71
0873,935,12,21
0879,972,32,14
0880,747,26,14
0882,1626,67,38
0888,707,21,12
0889,583,24,10
0893,791,13,6
0899,1229,63,32
0907,1016,24,16
0917,3408,160,89
0928,1684,96,52
0935,5142,233,168
0938,733,28,22
0944,402,11,10
0946,1178,38,15
0957,2504,71,29
0965,479,24,5
0971,1011,55,18
0981,308,16,9
0983,5629,173,112
0984,2972,50,28
0986,458,19,10
0988,3622,97,52
0994,650,28,13
0995,3282,110,48
1507,2694,52,51
1509,1703,30,27
1525,2095,27,9
1581,2438,52,38
1586,1524,27,31
1598,1012,15,13
1621,3735,73,55
1640,1830,63,43
1641,1053,31,17
1652,1416,85,34
1655,1527,38,17
1658,844,20,13
1659,1219,47,30
1667,905,20,6
1669,797,31,16
1674,4133,66,58
1676,901,25,18
1680,671,3,5
1681,793,16,11
1684,1332,24,19
1685,1030,47,22
1690,854,21,10
1695,140,3,1
1696,1045,17,8
1699,563,11,17
1700,2510,27,16
1701,400,11,6
1702,622,22,11
1705,2194,53,20
1706,1333,69,43
1708,1406,21,14
1709,1646,32,26
1711,1251,46,23
1714,888,28,15
1719,1291,35,23
1721,1759,102,68
1723,469,21,5
1724,1285,25,6
1728,1560,27,19
1729,629,29,18
1730,731,13,16
1731,990,14,4
1734,1853,66,25
1735,1950,28,16
1740,1565,52,28
1742,2739,41,40
1771,2057,56,21
1773,580,13,8
1774,1908,27,23
1783,7339,129,71
1842,1106,16,11
1859,2096,30,35
1876,1580,23,12
1883,3693,159,95
1884,1284,17,3
1891,621,4,10
1892,2528,62,34
1894,2079,150,70
1895,1052,17,15
1896,977,40,24
1900,3385,31,45
1901,2087,41,20
1903,1198,64,34
1904,3178,78,44
1911,1888,36,11
1916,3750,91,62
1924,2356,88,58
1926,3086,43,25
1930,4575,110,64
1931,3177,94,56
1940,1273,33,13
1942,2610,45,25
1945,1749,45,37
1948,4091,233,151
1949,1217,20,23
1950,947,19,6
1952,1572,27,23
1954,1508,68,35
1955,1465,31,12
1959,3966,64,61
1960,2860,75,42
1961,3177,71,55
1963,4050,96,40
1966,1521,17,17
1969,1367,24,12
1970,1233,20,17
1978,2570,29,21
1979,1424,28,10