0014,9639,70,31
0034,14950,277,88
0037,1837,16,16
0047,1324,8,10
0050,1243,20,13
0059,1661,16,33
0060,146,0,0
0072,466,7,3
0074,1790,26,35
0080,5128,81,62
0085,859,13,6
0086,1083,22,5
0088,40,1,2
0090,2171,27,28
0093,188,1,1
0096,45,0,0
0098,1086,10,27
0106,2418,43,13
0109,2152,47,27
0114,6248,108,66
0118,3433,61,40
0119,1543,21,24
0141,5785,87,53
0147,1839,28,36
0148,1605,24,19
0150,5589,80,80
0153,10242,194,164
0158,2175,32,32
0160,4269,49,37
0163,3262,38,49
0164,5583,64,65
0166,2463,72,41
0168,2090,44,32
0171,2477,29,26
0173,2507,50,43
0175,1079,13,15
0177,2694,36,36
0180,1642,14,18
0183,2115,18,16
0184,1908,44,12
0189,2490,18,27
0193,5409,79,94
0197,1554,19,18
0200,8106,177,139
0202,9056,160,117
0203,5836,44,56
0209,1555,32,17
0213,964,29,16
0214,1701,37,17
0216,1904,41,19
0221,575,16,9
0222,3194,53,27
0225,1416,39,26
0226,1486,26,12
0228,8779,127,74
0230,1374,35,13
0232,1875,67,45
0233,1845,38,32
0243,3123,75,45
0244,574,19,7
0246,847,55,30
0252,1008,25,17
0262,1415,32,27
0263,2147,33,31
0267,3435,45,26
0268,10042,235,170
0269,1519,46,29
0273,1853,17,13
0274,1459,29,24
0275,2616,58,56
0277,75,1,0
0279,816,5,12
0281,3012,75,72
0285,1231,29,28
0289,2094,38,40
0293,813,19,8
0294,1352,13,13
0296,2777,70,51
0297,2799,36,41
0299,2233,72,45
0301,1999,47,29
0302,1562,74,30
0303,2176,57,22
0307,10334,206,126
0308,1559,30,25
0310,2816,60,72
0312,857,20,11
0313,3442,53,38
0317,691,16,3
0321,2865,62,51
0327,1772,31,23
0331,1138,31,10
0335,1061,23,8
0339,422,6,5
0340,1781,27,18
0342,2968,67,46
0344,22697,586,222
0345,6054,114,70
0351,1146,21,8
0352,1291,24,10
0353,2154,70,53
0355,3749,70,69
0356,3626,92,25
0358,1973,29,23
0361,6809,112,66
0362,5146,112,87
0363,66062,1628,698
0370,669,6,2
0373,1806,34,32
0375,3005,36,37
0376,692,11,6
0377,1153,13,16
0383,2001,23,20
0384,2362,39,30
0385,3156,75,14
0388,1598,28,11
0392,9033,171,141
0394,9651,157,99
0396,2884,54,29
0397,1322,22,57
0398,3820,54,33
0399,1186,20,12
0400,3603,44,30
0402,4884,68,77
0405,6571,78,52
0406,3130,52,52
0415,887,10,5
0416,1869,28,11
0417,757,16,26
0420,4088,47,24
0431,759,16,8
0432,986,6,4
0437,928,12,4
0439,5639,154,74
0441,3144,41,47
0448,343,6,4
0450,977,10,7
0451,1745,32,12
0453,4944,86,85
0457,1529,17,20
0473,916,17,41
0479,11326,262,154
0482,1717,32,19
0484,8157,158,111
0489,3610,85,43
0498,1652,15,11
0501,985,30,9
0502,5114,146,125
0503,6588,83,73
0505,9626,204,148
0512,2859,42,36
0513,5397,175,149
0518,36770,1192,531
0523,1949,13,23
0530,2202,47,40
0531,2420,33,29
0532,1931,27,15
0534,1251,15,17
0537,6107,94,54
0542,2673,45,66
0546,7259,109,64
0547,1541,34,21
0553,1459,25,17
0556,2408,59,32
0569,2167,34,20
0575,2758,59,19
0579,1412,21,30
0589,731,34,12
0590,2323,37,41
0597,3793,90,79
0599,53061,1569,836
0603,3432,104,71
0606,6480,191,102
0610,2413,26,40
0613,2111,38,20
0614,714,19,16
0622,5938,139,85
0626,1262,19,21
0627,2104,58,14
0629,1387,32,30
0632,3556,111,38
0637,7923,132,58
0638,561,7,1
0642,3694,68,85
0654,914,26,5
0664,1591,57,22
0668,1402,24,19
0677,1277,29,12
0678,550,9,6
0687,2162,55,21
0703,1487,28,10
0715,2735,85,26
0716,1602,56,23
0717,895,21,5
0718,2071,78,24
0736,2803,93,33
0737,1381,19,26
0743,1104,29,17
0744,347,12,4
0748,4630,83,38
0753,2185,51,30
0755,699,40,23
0756,2391,35,43
0757,2265,46,65
0758,10939,228,143
0762,2453,80,40
0765,646,17,9
0766,2157,42,24
0770,1643,42,24
0772,14932,365,309
0777,2647,63,37
0779,1581,26,24
0784,1691,30,19
0785,1630,39,35
0786,1053,29,24
0794,7348,181,78
0796,10711,211,155
0797,3298,71,46
0798,1206,19,20
0809,1876,42,35
0815,845,17,10
0820,1453,29,19
0823,1586,26,25
0824,2199,52,22
0826,3649,73,34
0828,6979,223,122
0840,1606,39,15
0845,2202,46,30
0847,1459,42,13
0848,1011,39,27
0851,1498,29,18
0852,1330,29,15
0855,15499,362,271
0856,2516,125,81
0858,2472,44,53
0861,3508,66,45
0865,2357,69,53
0866,1046,15,12
0867,3552,65,76
0873,1381,18,24
0879,1170,34,17
0880,1110,33,32
0882,2521,85,61
0888,902,25,12
0889,822,26,11
0893,1169,18,11
0899,1675,72,46
0907,1318,27,19
0917,4885,197,118
0928,2699,114,95
0935,6632,262,188
0938,972,31,22
0944,461,11,11
0946,1734,43,17
0957,3832,81,42
0965,649,26,7
0971,1486,66,21
0981,495,19,13
0983,8088,183,141
0984,4185,60,42
0986,682,22,10
0988,4660,104,67
0994,862,31,19
0995,4145,121,58
1507,3894,56,59
1509,2546,37,41
1525,2727,33,22
1581,3070,68,69
1586,2029,29,38
1598,1887,21,20
1621,4592,82,60
1640,2746,67,47
1641,1733,40,33
1652,1877,91,37
1655,2049,48,25
1658,1166,21,13
1659,1703,55,36
1667,1180,22,8
1669,1261,38,28
1674,5477,95,69
1676,1255,31,21
1680,1005,5,20
1681,1101,21,14
1684,1758,33,22
1685,1318,47,26
1690,1277,27,22
1695,333,11,7
1696,1418,22,15
1699,1085,20,24
1700,3330,36,28
1701,645,12,19
1702,837,22,11
1705,2609,56,26
1706,1893,74,49
1708,1925,21,18
1709,2238,40,36
1711,1993,58,30
1714,1081,41,18
1719,1591,38,25
1721,2470,105,77
1723,563,23,5
1724,1696,28,9
1728,2107,35,25
1729,852,30,19
1730,1106,17,20
1731,1451,27,27
1734,2340,70,29
1735,2633,30,27
1740,2071,59,32
1742,3588,49,46
1771,2979,68,25
1773,860,16,9
1774,2370,34,34
1783,9306,163,85
1842,1373,16,13
1859,2746,35,42
1876,2117,29,17
1883,5132,177,123
1884,1709,21,9
1891,1018,9,15
1892,3263,96,45
1894,3058,159,74
1895,2029,37,31
1896,1629,44,26
1900,5284,48,82
1901,2932,60,34
1903,1557,68,44
1904,4101,103,64
1911,3132,43,30
1916,4532,119,80
1924,3085,114,74
1926,3754,55,34
1930,5706,137,91
1931,4462,113,61
1940,2153,41,30
1942,3672,50,31
1945,2172,50,45
1948,5725,248,162
1949,1915,23,33
1950,1738,33,20
1952,2699,44,34
1954,2106,76,42
1955,2018,35,23
1959,5127,81,65
1960,4047,79,57
1961,4327,95,64
1963,5409,125,56
1966,2443,23,20
1969,2179,33,22
1970,2060,33,34
1978,3658,43,27
1979,2108,38,13