0014,10107,73,35
0034,15477,286,93
0037,1925,16,16
0047,1401,8,10
0050,1272,20,13
0059,1700,16,36
0060,146,0,0
0072,503,7,3
0074,1859,28,35
0080,5413,81,64
0085,930,13,6
0086,1145,23,6
0088,40,1,2
0090,2366,28,31
0093,190,2,2
0096,45,0,0
0098,1165,10,27
0106,2593,45,13
0109,2275,49,27
0114,6701,110,67
0118,3534,63,40
0119,1635,21,24
0141,5892,87,54
0147,1910,28,36
0148,1695,24,19
0150,5767,81,81
0153,10455,194,164
0158,2204,32,32
0160,4431,49,37
0163,3360,38,49
0164,5693,65,65
0166,2605,72,41
0168,2128,44,32
0171,2537,29,27
0173,2551,50,43
0175,1138,14,15
0177,2771,37,38
0180,1704,14,18
0183,2180,18,17
0184,1928,44,12
0189,2540,18,27
0193,5747,81,97
0197,1647,21,18
0200,8612,181,139
0202,9333,165,118
0203,5961,45,56
0209,1636,32,17
0213,1011,29,16
0214,1767,37,17
0216,1994,42,21
0221,589,16,9
0222,3382,54,27
0225,1466,39,26
0226,1519,27,13
0228,8991,128,75
0230,1443,35,13
0232,1969,67,45
0233,1904,38,32
0243,3261,76,46
0244,607,19,7
0246,901,55,30
0252,1034,25,17
0262,1490,32,27
0263,2349,37,33
0267,3548,45,27
0268,10417,237,170
0269,1618,46,29
0273,1895,18,14
0274,1496,29,25
0275,2723,58,56
0277,78,1,0
0279,832,5,12
0281,3206,76,72
0285,1296,29,28
0289,2179,40,41
0293,845,19,8
0294,1401,13,13
0296,2839,70,51
0297,2948,36,41
0299,2307,73,46
0301,2090,47,29
0302,1617,74,30
0303,2236,57,22
0307,10700,210,128
0308,1635,30,25
0310,2924,60,72
0312,891,20,11
0313,3531,53,39
0317,714,16,4
0321,2952,63,51
0327,1808,31,23
0331,1200,32,10
0335,1097,23,8
0339,437,6,5
0340,1824,27,18
0342,3039,67,46
0344,23536,595,224
0345,6269,117,70
0351,1201,22,8
0352,1364,26,10
0353,2240,73,53
0355,3873,74,69
0356,3829,94,25
0358,2089,30,23
0361,7148,115,67
0362,5442,117,88
0363,68211,1665,705
0370,702,6,2
0373,1886,34,33
0375,3189,38,40
0376,730,11,6
0377,1209,13,16
0383,2185,23,20
0384,2419,39,30
0385,3474,76,15
0388,1654,28,11
0392,9472,175,142
0394,10133,161,100
0396,3038,55,29
0397,1388,22,57
0398,4034,55,33
0399,1230,20,12
0400,3954,46,31
0402,5045,72,77
0405,6964,83,53
0406,3196,52,52
0415,923,11,5
0416,1949,29,12
0417,775,16,26
0420,4320,49,24
0431,788,16,8
0432,1054,7,4
0437,974,12,4
0439,5975,157,78
0441,3312,44,48
0448,357,6,4
0450,1006,11,7
0451,1847,32,12
0453,5255,90,85
0457,1576,17,20
0473,958,18,42
0479,11841,265,157
0482,1832,33,21
0484,8512,160,111
0489,3843,86,43
0498,1732,16,12
0501,1034,30,9
0502,5458,151,127
0503,6915,87,74
0505,10099,213,155
0512,2998,43,36
0513,5600,179,149
0518,38130,1225,532
0523,2028,13,23
0530,2318,50,40
0531,2566,34,29
0532,2051,27,15
0534,1307,15,17
0537,6422,96,54
0542,2816,45,67
0546,7526,114,65
0547,1599,34,21
0553,1535,25,17
0556,2525,59,33
0569,2338,35,21
0575,2966,62,20
0579,1458,22,30
0589,775,34,12
0590,2452,39,42
0597,3986,94,80
0599,55128,1598,866
0603,3550,112,71
0606,6797,197,103
0610,2525,27,40
0613,2191,38,20
0614,759,18,16
0622,6210,144,87
0626,1329,19,21
0627,2197,61,14
0629,1436,33,30
0632,3725,111,38
0637,8255,138,62
0638,575,7,1
0642,3881,71,87
0654,970,28,5
0664,1700,58,23
0668,1425,24,19
0677,1333,32,12
0678,588,9,6
0687,2328,56,21
0703,1621,30,14
0715,2916,87,26
0716,1665,56,23
0717,961,21,5
0718,2231,84,24
0736,2911,93,33
0737,1458,19,26
0743,1145,30,17
0744,355,12,4
0748,4876,84,38
0753,2254,51,30
0755,711,40,23
0756,2474,35,43
0757,2398,48,65
0758,11293,230,143
0762,2553,82,41
0765,684,17,9
0766,2232,42,25
0770,1743,42,24
0772,15632,373,319
0777,2730,63,38
0779,1634,27,25
0784,1776,32,19
0785,1696,39,35
0786,1101,29,24
0794,7714,187,80
0796,11196,214,156
0797,3465,74,47
0798,1242,19,20
0809,1947,42,35
0815,886,17,10
0820,1521,31,20
0823,1673,27,26
0824,2293,53,22
0826,3743,73,34
0828,7347,225,123
0840,1677,41,15
0845,2287,47,31
0847,1555,42,13
0848,1069,39,27
0851,1601,31,18
0852,1400,31,15
0855,16257,365,271
0856,2710,126,83
0858,2579,47,57
0861,3713,70,46
0865,2427,69,53
0866,1096,16,13
0867,3704,65,76
0873,1430,18,24
0879,1196,34,17
0880,1192,34,32
0882,2571,86,63
0888,929,25,12
0889,882,26,11
0893,1190,18,11
0899,1747,72,47
0907,1339,28,19
0917,5047,200,118
0928,2842,114,95
0935,6869,270,190
0938,991,31,22
0944,470,11,11
0946,1802,43,18
0957,3975,82,44
0965,656,26,7
0971,1555,66,21
0981,508,19,13
0983,8595,187,142
0984,4358,60,43
0986,708,23,10
0988,4772,104,68
0994,891,31,20
0995,4302,123,58
1507,4055,56,59
1509,2683,37,43
1525,2814,33,22
1581,3174,71,69
1586,2094,30,38
1598,2034,21,20
1621,4778,83,60
1640,2913,68,47
1641,1814,41,33
1652,1954,95,37
1655,2127,49,25
1658,1234,22,13
1659,1784,55,36
1667,1208,23,8
1669,1309,40,28
1674,5741,96,69
1676,1312,32,22
1680,1036,5,20
1681,1170,22,14
1684,1865,34,22
1685,1357,47,26
1690,1343,28,22
1695,357,12,8
1696,1467,22,15
1699,1171,22,25
1700,3436,36,29
1701,675,12,20
1702,873,22,11
1705,2770,56,26
1706,1966,74,49
1708,2032,22,18
1709,2344,40,37
1711,2078,58,31
1714,1108,41,18
1719,1655,38,25
1721,2605,106,78
1723,571,23,5
1724,1763,28,9
1728,2158,36,25
1729,870,30,19
1730,1167,17,20
1731,1509,27,27
1734,2402,70,29
1735,2716,32,28
1740,2134,59,32
1742,3654,49,47
1771,3129,69,25
1773,895,17,9
1774,2429,34,34
1783,9665,165,86
1842,1442,16,13
1859,2823,36,42
1876,2221,30,17
1883,5285,178,126
1884,1835,21,9
1891,1067,9,16
1892,3412,96,45
1894,3199,161,77
1895,2156,38,33
1896,1841,46,26
1900,5703,50,84
1901,3036,62,35
1903,1580,68,44
1904,4244,109,65
1911,3351,44,31
1916,4733,120,80
1924,3188,116,85
1926,3906,57,34
1930,6065,140,92
1931,4700,118,62
1940,2352,42,30
1942,3797,51,31
1945,2235,51,45
1948,6049,249,162
1949,2100,25,33
1950,1805,34,20
1952,2833,44,35
1954,2208,76,43
1955,2095,38,23
1959,5275,81,65
1960,4204,79,57
1961,4541,96,63
1963,5795,133,58
1966,2519,25,20
1969,2277,34,22
1970,2230,34,35
1978,3862,45,28
1979,2179,38,14