0014,30458,139,62
0034,38210,437,122
0037,4470,41,23
0047,3397,19,18
0050,3560,27,17
0059,5055,46,41
0060,361,3,1
0072,1858,13,8
0074,7583,58,44
0080,17331,149,96
0085,3331,25,7
0086,4494,38,11
0088,67,1,2
0090,8620,75,41
0093,609,3,2
0096,126,1,1
0098,3702,26,31
0106,7716,82,25
0109,5176,67,35
0114,15855,227,93
0118,8771,96,47
0119,4455,40,37
0141,13003,145,71
0147,4258,38,41
0148,4484,37,24
0150,15199,141,100
0153,27076,306,198
0158,4475,37,34
0160,10618,84,49
0163,7081,57,54
0164,13611,102,73
0166,8923,97,56
0168,4415,55,38
0171,7865,44,34
0173,5831,65,52
0175,2775,16,19
0177,6611,51,52
0180,4487,29,29
0183,4686,27,21
0184,4550,70,24
0189,5342,29,31
0193,19088,149,144
0197,4126,36,33
0200,26620,268,192
0202,26116,256,153
0203,14893,91,79
0209,4412,49,28
0213,3047,43,25
0214,4506,54,26
0216,5227,54,24
0221,1467,25,9
0222,9581,81,49
0225,3485,50,31
0226,3764,35,17
0228,22943,187,118
0230,4287,50,23
0232,5213,88,55
0233,4844,55,44
0243,8057,101,62
0244,1816,24,7
0246,2498,60,33
0252,2619,31,21
0262,4722,46,43
0263,5576,50,45
0267,8400,58,34
0268,30717,350,233
0269,4454,63,41
0273,4783,26,21
0274,3975,44,38
0275,6666,78,85
0277,217,1,0
0279,2296,7,12
0281,7852,104,80
0285,3945,34,32
0289,6031,56,71
0293,2274,33,11
0294,4063,27,25
0296,7141,92,69
0297,6375,57,50
0299,6380,102,50
0301,7372,73,45
0302,5375,95,42
0303,6092,79,32
0307,28816,291,151
0308,4482,36,30
0310,7072,89,82
0312,2278,29,14
0313,6304,66,41
0317,1793,21,6
0321,8679,83,53
0327,4850,44,32
0331,2962,42,12
0335,2671,34,10
0339,1248,11,5
0340,4563,50,26
0342,8178,87,55
0344,65141,840,298
0345,14701,157,88
0351,3095,25,9
0352,3651,39,19
0353,6175,95,59
0355,10498,108,81
0356,10319,157,36
0358,6523,49,30
0361,18949,174,92
0362,14945,161,117
0363,167444,2406,960
0370,1795,10,4
0373,4752,44,41
0375,7598,63,46
0376,2074,17,8
0377,3813,20,20
0383,5920,41,33
0384,6044,63,43
0385,8420,107,27
0388,3281,35,17
0392,28052,277,187
0394,27833,245,135
0396,7359,80,46
0397,4554,36,67
0398,10431,81,50
0399,3698,26,18
0400,9820,97,51
0402,14563,130,106
0405,14252,110,57
0406,7907,75,60
0415,2209,16,13
0416,4920,39,21
0417,1977,20,31
0420,8851,67,29
0431,1813,19,8
0432,2321,13,7
0437,2753,20,6
0439,14553,223,92
0441,7840,69,78
0448,1361,7,4
0450,2381,15,16
0451,5398,44,20
0453,12096,130,98
0457,3601,24,23
0473,2767,33,46
0479,28732,392,190
0482,4875,54,27
0484,20895,217,146
0489,10056,118,50
0498,3737,29,13
0501,3022,34,11
0502,13718,220,159
0503,17538,127,85
0505,24681,308,217
0512,7646,56,47
0513,13835,323,165
0518,96304,2164,639
0523,5013,24,31
0530,6919,91,49
0531,6817,49,41
0532,3988,36,16
0534,3452,25,23
0537,14911,133,71
0542,6532,59,78
0546,21402,164,83
0547,4263,40,28
0553,4077,35,23
0556,6236,79,45
0569,6148,51,26
0575,7830,76,31
0579,3813,24,32
0589,1752,40,12
0590,6361,50,52
0597,9952,134,107
0599,138030,2332,1066
0603,9476,154,78
0606,15845,278,126
0610,6303,40,51
0613,5474,54,23
0614,2212,28,20
0622,15025,216,108
0626,3823,29,24
0627,6219,90,19
0629,3860,50,36
0632,9814,154,46
0637,21192,214,77
0638,1606,11,1
0642,9101,95,119
0654,3846,62,12
0664,6799,147,42
0668,3519,25,19
0677,4429,68,18
0678,2202,21,8
0687,8293,113,41
0703,5776,78,24
0715,8780,173,41
0716,5705,83,35
0717,3325,44,17
0718,6991,180,41
0736,8335,130,54
0737,4728,40,34
0743,3271,36,20
0744,1175,16,4
0748,12490,119,50
0753,5562,63,37
0755,2021,46,23
0756,6284,51,53
0757,6287,61,73
0758,33660,311,181
0762,6730,100,50
0765,1674,27,13
0766,4975,53,32
0770,3750,58,33
0772,41396,537,406
0777,7437,81,40
0779,4104,38,30
0784,4649,48,21
0785,4455,48,43
0786,2381,35,27
0794,18133,219,92
0796,30612,299,191
0797,9149,97,56
0798,2713,21,20
0809,4838,57,46
0815,2159,17,12
0820,3685,38,27
0823,3758,33,27
0824,5871,64,26
0826,10385,116,43
0828,17419,265,141
0840,4021,54,18
0845,5767,57,44
0847,4101,51,21
0848,2748,45,30
0851,3995,44,22
0852,2977,36,18
0855,44655,488,299
0856,7595,150,93
0858,5753,69,71
0861,8141,93,53
0865,5983,86,56
0866,3011,27,17
0867,9494,90,82
0873,3501,28,26
0879,3511,48,18
0880,2782,41,36
0882,7886,129,92
0888,3177,41,16
0889,2932,42,15
0893,2938,31,19
0899,5997,122,70
0907,3589,32,31
0917,17284,305,160
0928,8776,174,107
0935,22646,434,249
0938,3634,70,43
0944,1080,13,13
0946,3974,54,28
0957,12255,138,79
0965,1920,37,12
0971,5096,89,27
0981,1441,29,23
0983,25436,281,201
0984,10104,78,58
0986,2459,29,12
0988,11008,146,93
0994,3104,46,34
0995,13321,184,80
1507,10699,73,78
1509,6986,58,58
1525,6960,45,27
1581,7971,110,86
1586,5093,44,47
1598,4483,29,24
1621,12754,110,72
1640,7220,90,59
1641,5080,52,44
1652,5516,108,44
1655,5259,62,31
1658,2676,25,13
1659,4106,69,45
1667,2753,26,12
1669,3891,55,40
1674,14474,129,84
1676,4807,80,39
1680,2793,10,22
1681,2951,37,23
1684,5278,44,33
1685,3027,51,29
1690,3667,44,28
1695,1095,29,11
1696,4095,38,24
1699,3518,39,26
1700,6981,53,35
1701,2083,21,24
1702,2198,29,11
1705,7654,80,54
1706,4313,84,59
1708,6227,39,30
1709,6421,62,54
1711,6316,80,45
1714,3034,65,25
1719,4758,58,32
1721,6356,121,82
1723,1765,26,5
1724,3648,31,15
1728,4490,48,33
1729,2527,39,21
1730,3337,30,26
1731,3986,45,32
1734,7345,88,38
1735,6685,42,38
1740,6323,81,51
1742,9317,65,68
1771,7269,90,33
1773,2581,23,10
1774,5183,39,38
1783,24182,228,100
1842,3754,19,14
1859,7021,54,58
1876,5888,50,28
1883,17738,275,168
1884,4633,27,11
1891,3581,34,26
1892,8870,139,50
1894,9338,177,93
1895,4650,55,40
1896,4696,67,34
1900,14820,106,98
1901,7616,92,39
1903,4895,107,59
1904,11431,164,77
1911,7694,58,38
1916,12123,197,102
1924,8717,143,93
1926,10215,86,42
1930,15826,220,106
1931,11339,171,68
1940,8250,76,38
1942,10521,75,44
1945,5985,71,67
1948,15164,280,179
1949,6257,56,43
1950,4235,44,25
1952,6942,72,43
1954,7240,115,71
1955,5726,55,31
1959,12614,110,76
1960,10785,106,68
1961,12436,151,82
1963,16541,172,75
1966,7254,49,37
1969,7529,46,35
1970,7850,85,57
1978,10460,65,44
1979,4954,56,29