0014,20715,106,46
0034,23818,369,100
0037,2734,26,21
0047,2177,13,11
0050,2075,22,14
0059,2672,30,39
0060,278,3,1
0072,964,13,6
0074,3537,40,40
0080,8995,111,74
0085,1718,18,6
0086,2164,30,8
0088,48,1,2
0090,4191,50,34
0093,317,3,2
0096,82,0,0
0098,2071,20,29
0106,4485,70,15
0109,3199,57,31
0114,9993,176,79
0118,5313,78,41
0119,2678,34,27
0141,8722,115,59
0147,2845,31,39
0148,2613,27,20
0150,10119,117,89
0153,17322,263,175
0158,2948,34,32
0160,6377,62,37
0163,4762,47,51
0164,8603,85,68
0166,4349,81,44
0168,3074,50,38
0171,3949,39,29
0173,3915,56,45
0175,1665,15,16
0177,3985,44,41
0180,2550,18,21
0183,3521,27,19
0184,2679,55,19
0189,3477,22,27
0193,10024,114,116
0197,2712,33,22
0200,15216,216,156
0202,15595,215,128
0203,8554,71,64
0209,2779,41,23
0213,1815,34,21
0214,2791,40,20
0216,3170,49,22
0221,906,20,9
0222,5606,65,31
0225,2173,41,27
0226,2390,30,15
0228,13600,150,91
0230,2336,39,14
0232,3079,79,52
0233,2715,49,34
0243,4936,89,48
0244,1036,22,7
0246,1398,57,32
0252,1632,28,19
0262,2623,40,29
0263,3919,43,42
0267,5076,53,29
0268,19094,288,199
0269,2461,50,30
0273,2783,22,18
0274,2423,38,31
0275,4031,64,59
0277,125,1,0
0279,1183,5,12
0281,5066,90,73
0285,2182,32,30
0289,3780,44,42
0293,1391,23,9
0294,2428,19,17
0296,4660,84,61
0297,4217,43,43
0299,3781,86,48
0301,3725,56,29
0302,2850,83,32
0303,3539,67,25
0307,16873,278,142
0308,2540,35,28
0310,4376,78,78
0312,1327,22,12
0313,4474,62,39
0317,1088,20,6
0321,4922,77,51
0327,2768,42,25
0331,1832,40,12
0335,1618,30,8
0339,694,7,5
0340,2656,42,21
0342,4697,81,47
0344,41670,777,256
0345,8837,138,75
0351,1615,24,8
0352,2159,34,17
0353,3779,90,55
0355,6096,99,76
0356,6279,144,30
0358,3941,42,26
0361,11524,144,86
0362,9331,142,97
0363,114730,2146,851
0370,1066,9,3
0373,2932,39,38
0375,4893,47,42
0376,1258,14,6
0377,2164,19,17
0383,3698,29,24
0384,3950,57,38
0385,5674,98,23
0388,2104,31,11
0392,16331,232,154
0394,17165,201,111
0396,4542,64,32
0397,2556,26,60
0398,6667,65,38
0399,2194,24,15
0400,5960,68,40
0402,8526,102,89
0405,9526,97,55
0406,4766,64,55
0415,1391,14,6
0416,3078,36,17
0417,1239,17,29
0420,5917,60,26
0431,1095,17,8
0432,1455,11,6
0437,1600,18,5
0439,9628,200,86
0441,5163,58,60
0448,722,6,4
0450,1519,12,7
0451,3102,34,15
0453,8054,107,90
0457,2341,20,23
0473,1698,25,43
0479,18272,334,178
0482,2999,46,22
0484,12743,193,117
0489,6441,107,48
0498,2389,25,13
0501,1865,31,10
0502,9173,190,145
0503,11801,107,76
0505,15891,273,181
0512,4732,49,43
0513,8767,283,160
0518,63934,1785,567
0523,2966,18,25
0530,4148,73,44
0531,4039,41,32
0532,2815,30,15
0534,2110,22,18
0537,9583,116,61
0542,4125,50,71
0546,13588,143,75
0547,2653,37,23
0553,2491,29,17
0556,4022,72,34
0569,3664,46,22
0575,5094,69,24
0579,2310,23,31
0589,1154,38,12
0590,3954,48,46
0597,6612,121,90
0599,95688,2073,978
0603,5789,141,76
0606,10582,249,116
0610,3663,33,41
0613,3536,51,23
0614,1327,24,19
0622,9903,183,96
0626,2199,23,24
0627,3418,75,16
0629,2443,42,31
0632,5985,148,40
0637,13189,184,70
0638,955,10,1
0642,5982,92,102
0654,1759,42,9
0664,3173,102,31
0668,2245,25,19
0677,2008,41,13
0678,1190,16,6
0687,4075,80,26
0703,3308,60,17
0715,4552,125,29
0716,3311,73,30
0717,1618,32,7
0718,3777,135,32
0736,4879,121,36
0737,2315,23,28
0743,1986,34,18
0744,671,13,4
0748,7952,98,46
0753,3520,57,32
0755,1241,42,23
0756,3710,41,45
0757,3960,53,69
0758,20687,264,148
0762,4241,93,42
0765,1122,25,13
0766,3355,48,25
0770,2648,49,26
0772,26774,461,358
0777,4357,71,38
0779,2610,31,25
0784,2979,41,19
0785,2801,42,36
0786,1621,31,24
0794,12602,208,86
0796,19705,267,173
0797,5869,91,50
0798,1801,20,20
0809,2974,52,37
0815,1355,17,10
0820,2415,34,22
0823,2577,32,27
0824,3507,55,22
0826,6104,87,37
0828,11928,246,130
0840,2558,46,16
0845,3683,53,34
0847,2514,48,13
0848,1727,43,28
0851,2597,36,19
0852,2052,33,15
0855,28232,426,278
0856,4762,140,86
0858,3731,60,63
0861,5524,88,50
0865,3695,76,53
0866,1860,23,17
0867,6068,81,77
0873,2147,23,26
0879,1952,37,17
0880,1829,38,34
0882,3883,102,70
0888,1732,35,13
0889,1642,30,13
0893,1751,25,15
0899,3096,93,53
0907,1976,29,20
0917,8507,251,129
0928,4462,145,97
0935,12359,356,203
0938,1727,54,23
0944,698,11,11
0946,2499,47,20
0957,7200,118,65
0965,1013,28,9
0971,2703,78,24
0981,776,24,14
0983,15055,238,174
0984,6255,67,50
0986,1199,26,11
0988,6990,118,70
0994,1538,38,23
0995,7166,149,63
1507,6417,61,66
1509,4568,50,45
1525,4536,41,25
1581,4651,97,73
1586,3398,36,41
1598,2978,24,24
1621,7667,101,66
1640,4401,77,52
1641,2765,44,37
1652,3320,102,38
1655,3425,57,28
1658,1756,23,13
1659,2835,63,36
1667,1791,23,10
1669,2279,48,35
1674,8822,108,75
1676,2532,57,26
1680,1618,7,20
1681,1748,32,15
1684,2992,38,27
1685,2074,51,29
1690,2208,33,24
1695,606,20,9
1696,2287,26,18
1699,2073,33,25
1700,4885,42,30
1701,1081,17,22
1702,1328,28,11
1705,4346,64,35
1706,2803,79,52
1708,3633,33,27
1709,3982,49,44
1711,3464,65,36
1714,1608,46,18
1719,2967,50,30
1721,4343,115,78
1723,1022,24,5
1724,2480,28,11
1728,3028,40,28
1729,1325,34,20
1730,1945,25,24
1731,2304,38,30
1734,4431,74,30
1735,4167,34,29
1740,3143,65,35
1742,5401,57,54
1771,4902,80,28
1773,1565,21,10
1774,3704,37,36
1783,15994,196,86
1842,2356,19,14
1859,4376,45,43
1876,3449,37,21
1883,9576,227,145
1884,2949,26,10
1891,1675,20,17
1892,5510,124,47
1894,5526,165,85
1895,3061,45,37
1896,2644,53,30
1900,8989,85,91
1901,4494,80,37
1903,2472,90,47
1904,6797,149,69
1911,4866,53,34
1916,7752,167,88
1924,5316,133,90
1926,6374,76,39
1930,10124,186,99
1931,7033,153,64
1940,4441,58,34
1942,6288,63,37
1945,3648,56,51
1948,9931,265,168
1949,3372,43,37
1950,2615,36,21
1952,4331,56,40
1954,3869,102,54
1955,3460,44,25
1959,7509,89,68
1960,6666,87,60
1961,6990,128,77
1963,9827,158,67
1966,4380,39,20
1969,4189,39,26
1970,3740,51,39
1978,6278,55,35
1979,3147,52,23