0014,27659,135,56
0034,34527,421,118
0037,3926,37,22
0047,3037,15,16
0050,3178,24,17
0059,4530,43,40
0060,338,3,1
0072,1620,13,7
0074,6862,54,43
0080,15498,139,88
0085,2986,23,6
0086,3968,36,11
0088,67,1,2
0090,7781,68,39
0093,563,3,2
0096,117,1,1
0098,3439,24,29
0106,6936,80,23
0109,4743,66,35
0114,14666,222,89
0118,7837,92,43
0119,4095,39,37
0141,12093,139,68
0147,3989,37,40
0148,4054,37,24
0150,14092,136,95
0153,24929,303,191
0158,4176,37,33
0160,9918,81,45
0163,6590,57,53
0164,12598,98,72
0166,8075,94,53
0168,4106,54,38
0171,7156,44,31
0173,5470,62,49
0175,2580,16,16
0177,6034,49,49
0180,4350,29,29
0183,4424,27,21
0184,4429,70,24
0189,4971,29,30
0193,17378,141,139
0197,3884,34,32
0200,24281,251,184
0202,23816,242,149
0203,14136,92,78
0209,4105,48,28
0213,2791,42,23
0214,4238,53,25
0216,4797,54,24
0221,1346,22,9
0222,8925,78,47
0225,3256,49,30
0226,3449,34,17
0228,21654,186,116
0230,3912,49,22
0232,4807,87,55
0233,4508,54,42
0243,7502,98,60
0244,1723,24,7
0246,2296,58,32
0252,2407,31,21
0262,4288,44,36
0263,5113,49,43
0267,7614,58,33
0268,28500,346,223
0269,4211,62,40
0273,4350,26,21
0274,3609,44,37
0275,6052,75,75
0277,199,1,0
0279,2176,7,12
0281,7337,101,78
0285,3503,33,31
0289,5561,53,66
0293,2070,30,10
0294,3778,25,23
0296,6579,92,66
0297,5991,56,48
0299,5894,98,50
0301,6452,67,39
0302,5025,93,41
0303,5382,75,29
0307,26116,287,149
0308,4153,36,29
0310,6428,87,80
0312,2024,27,14
0313,5906,64,41
0317,1647,21,6
0321,8031,82,53
0327,4393,43,27
0331,2736,42,12
0335,2500,34,9
0339,1188,10,5
0340,4296,48,24
0342,7426,86,52
0344,59118,829,283
0345,14021,155,85
0351,2825,25,9
0352,3304,39,19
0353,5589,93,59
0355,9453,106,78
0356,9353,154,34
0358,5970,47,29
0361,17076,167,87
0362,13548,159,114
0363,151946,2349,930
0370,1603,9,3
0373,4210,44,41
0375,6928,60,44
0376,1825,16,7
0377,3451,20,19
0383,5497,40,27
0384,5441,62,41
0385,7637,105,26
0388,3062,33,16
0392,25180,265,179
0394,24954,235,129
0396,6864,75,39
0397,4106,35,67
0398,9542,75,42
0399,3365,26,17
0400,8984,92,48
0402,13159,124,104
0405,13266,105,57
0406,6963,73,60
0415,2001,16,8
0416,4479,39,18
0417,1768,20,31
0420,8272,66,29
0431,1656,18,8
0432,2149,13,6
0437,2431,20,5
0439,13233,221,90
0441,7260,67,68
0448,1119,7,4
0450,2176,14,12
0451,4971,43,17
0453,11093,125,97
0457,3266,23,23
0473,2447,31,46
0479,26195,381,189
0482,4648,51,26
0484,19215,215,144
0489,9376,117,50
0498,3410,29,13
0501,2701,34,11
0502,12746,216,157
0503,15957,125,84
0505,23014,301,209
0512,7063,55,46
0513,13040,317,165
0518,88620,2074,613
0523,4711,23,30
0530,6189,87,47
0531,6344,48,38
0532,3716,35,16
0534,3110,24,22
0537,13903,130,71
0542,5998,56,77
0546,19473,159,82
0547,3927,40,28
0553,3731,35,22
0556,5789,77,40
0569,5705,51,26
0575,7171,75,30
0579,3476,23,32
0589,1576,40,12
0590,5908,50,50
0597,9122,133,104
0599,127229,2290,1034
0603,8713,153,78
0606,14580,271,123
0610,5968,38,48
0613,5062,54,23
0614,1967,27,20
0622,13702,210,107
0626,3458,29,24
0627,5736,84,18
0629,3495,47,35
0632,8941,154,45
0637,19427,207,75
0638,1456,11,1
0642,8448,94,115
0654,3460,51,9
0664,5999,130,34
0668,3252,25,19
0677,3984,59,13
0678,1991,20,6
0687,7494,102,32
0703,5293,71,20
0715,8067,165,34
0716,5288,81,33
0717,2965,42,9
0718,6319,165,36
0736,7539,128,49
0737,4259,39,32
0743,3012,37,19
0744,1076,16,4
0748,11449,114,50
0753,5050,61,34
0755,1814,46,23
0756,6019,50,53
0757,5886,58,72
0758,31066,300,180
0762,6275,100,50
0765,1517,26,13
0766,4678,51,29
0770,3480,57,32
0772,37937,516,387
0777,6792,79,40
0779,3798,36,28
0784,4190,47,20
0785,4188,48,42
0786,2285,34,25
0794,16930,216,89
0796,28191,295,187
0797,8440,97,55
0798,2472,21,20
0809,4427,56,45
0815,2047,17,12
0820,3388,37,27
0823,3462,33,27
0824,5419,61,25
0826,9487,111,43
0828,16269,262,137
0840,3684,54,18
0845,5294,57,44
0847,3781,51,20
0848,2542,43,29
0851,3721,43,21
0852,2790,35,18
0855,40921,478,297
0856,7015,149,91
0858,5350,67,69
0861,7483,92,53
0865,5471,82,55
0866,2764,27,17
0867,8818,87,81
0873,3141,26,26
0879,3264,47,17
0880,2568,40,36
0882,7344,126,86
0888,2957,40,16
0889,2751,42,15
0893,2768,30,19
0899,5606,117,65
0907,3393,32,31
0917,15958,299,155
0928,8113,169,105
0935,20715,416,246
0938,3340,67,42
0944,1023,13,13
0946,3800,52,27
0957,11533,135,76
0965,1738,34,11
0971,4747,85,27
0981,1293,28,16
0983,23980,275,191
0984,9471,77,58
0986,2267,28,12
0988,10493,142,90
0994,2849,45,31
0995,11947,178,76
1507,10129,72,77
1509,6587,56,56
1525,6437,44,27
1581,7284,107,82
1586,4683,42,46
1598,4079,28,24
1621,11751,108,70
1640,6797,88,59
1641,4756,52,41
1652,5020,108,43
1655,4761,62,31
1658,2467,25,13
1659,3915,69,43
1667,2581,26,10
1669,3662,54,39
1674,13395,124,82
1676,4383,76,31
1680,2355,9,21
1681,2660,37,21
1684,4950,44,33
1685,2859,51,29
1690,3312,43,28
1695,1001,25,10
1696,3791,32,24
1699,3155,39,26
1700,6527,53,34
1701,1895,21,24
1702,2107,29,11
1705,7044,78,49
1706,4058,84,58
1708,5706,39,30
1709,5804,62,53
1711,5944,79,44
1714,2757,60,23
1719,4436,57,31
1721,5938,121,82
1723,1591,26,5
1724,3412,31,15
1728,4227,45,33
1729,2335,39,21
1730,2939,30,26
1731,3542,44,32
1734,6740,87,36
1735,6189,41,37
1740,6089,81,50
1742,8759,64,65
1771,6761,89,32
1773,2291,22,10
1774,4801,39,37
1783,22475,220,96
1842,3418,19,14
1859,6558,53,54
1876,5483,49,27
1883,16473,267,159
1884,4215,27,11
1891,3257,34,20
1892,8230,135,48
1894,8767,175,89
1895,4124,53,39
1896,4402,66,34
1900,13466,105,97
1901,7053,91,39
1903,4473,106,56
1904,10328,161,73
1911,6925,56,36
1916,11084,191,100
1924,7924,143,93
1926,9425,85,41
1930,14482,213,105
1931,10542,166,67
1940,7412,71,37
1942,9545,72,44
1945,5627,69,63
1948,14100,279,179
1949,5528,53,42
1950,3829,42,25
1952,6239,68,42
1954,6689,113,69
1955,5182,54,31
1959,11849,110,75
1960,10048,104,66
1961,11557,149,81
1963,15047,172,74
1966,6588,48,34
1969,6760,43,32
1970,7198,83,48
1978,9863,64,44
1979,4594,56,29