0014,40524,9999,63
0034,49181,9999,124
0037,5638,9999,24
0047,4222,9999,19
0050,4255,9999,17
0059,5830,9999,41
0060,380,9999,1
0072,2168,9999,8
0074,8803,9999,44
0080,21306,9999,97
0085,3808,9999,7
0086,5161,9999,11
0088,96,9999,2
0090,9923,9999,42
0093,767,9999,2
0096,181,9999,1
0098,4305,9999,31
0106,9798,9999,26
0109,6424,9999,35
0114,19329,9999,96
0118,10443,9999,48
0119,5805,9999,37
0141,16252,9999,71
0147,5378,9999,41
0148,5483,9999,24
0150,18962,9999,101
0153,34567,9999,199
0158,5566,9999,34
0160,12408,9999,51
0163,8439,9999,54
0164,17301,9999,74
0166,11034,9999,57
0168,5431,9999,38
0171,9179,9999,34
0173,7495,9999,53
0175,3375,9999,19
0177,8020,9999,52
0180,5254,9999,29
0183,6220,9999,21
0184,5164,9999,24
0189,6636,9999,31
0193,24506,9999,146
0197,4884,9999,33
0200,33034,9999,196
0202,32351,9999,160
0203,16636,9999,82
0209,5575,9999,28
0213,3574,9999,25
0214,5434,9999,26
0216,6325,9999,24
0221,1710,9999,9
0222,11750,9999,53
0225,4465,9999,31
0226,4484,9999,18
0228,26384,9999,118
0230,5197,9999,23
0232,6423,9999,55
0233,5782,9999,45
0243,10059,9999,62
0244,2330,9999,7
0246,3153,9999,33
0252,3333,9999,21
0262,6008,9999,43
0263,6827,9999,45
0267,10067,9999,34
0268,38330,9999,235
0269,5387,9999,42
0273,5830,9999,21
0274,4675,9999,38
0275,7914,9999,87
0277,301,9999,0
0279,2716,9999,12
0281,9393,9999,80
0285,4789,9999,34
0289,7473,9999,72
0293,2680,9999,11
0294,5284,9999,25
0296,8660,9999,71
0297,7660,9999,50
0299,7412,9999,50
0301,8751,9999,48
0302,6183,9999,43
0303,7573,9999,32
0307,37208,9999,153
0308,5778,9999,30
0310,8877,9999,84
0312,2838,9999,15
0313,7636,9999,42
0317,2311,9999,7
0321,10862,9999,53
0327,6178,9999,32
0331,3699,9999,12
0335,3437,9999,10
0339,1504,9999,5
0340,5306,9999,26
0342,10812,9999,55
0344,87495,9999,304
0345,17147,9999,90
0351,3670,9999,9
0352,4616,9999,19
0353,8148,9999,59
0355,13480,9999,82
0356,13573,9999,37
0358,8309,9999,30
0361,24690,9999,93
0362,20478,9999,118
0363,229609,9999,975
0373,6249,9999,41
0375,9531,9999,46
0376,2793,9999,8
0377,5399,9999,20
0383,7537,9999,33
0384,8131,9999,43
0385,11724,9999,27
0388,3910,9999,17
0392,36845,9999,190
0394,36881,9999,138
0396,9082,9999,46
0397,6112,9999,67
0399,4713,9999,18
0400,11740,9999,51
0402,19596,9999,107
0405,17677,9999,59
0406,9769,9999,62
0415,3013,9999,13
0417,2629,9999,31
0420,10505,9999,29
0431,2491,9999,8
0432,2729,9999,7
0437,3604,9999,6
0439,21390,9999,104
0441,10126,9999,78
0448,1765,9999,4
0450,3217,9999,16
0451,7016,9999,21
0453,15312,9999,98
0457,4563,9999,23
0473,3705,9999,47
0479,38480,9999,193
0482,5637,9999,29
0484,25406,9999,147
0489,12515,9999,50
0498,4482,9999,13
0501,3685,9999,12
0502,16738,9999,159
0503,23124,9999,89
0505,30070,9999,217
0512,9387,9999,48
0513,16897,9999,166
0518,125870,9999,647
0523,5719,9999,31
0530,8232,9999,50
0531,8394,9999,41
0532,4882,9999,16
0534,4341,9999,23
0537,17825,9999,71
0542,7835,9999,79
0546,27321,9999,83
0547,5303,9999,28
0553,5049,9999,24
0556,7576,9999,46
0569,7278,9999,26
0575,9654,9999,32
0579,5016,9999,32
0589,2397,9999,12
0590,7563,9999,52
0597,11800,9999,107
0599,178616,9999,1076
0603,12443,9999,78
0606,19545,9999,127
0610,7348,9999,52
0613,6721,9999,23
0614,2835,9999,20
0622,18220,9999,108
0626,4925,9999,24
0627,7332,9999,19
0629,5411,9999,37
0632,12648,9999,46
0637,27421,9999,78
0638,1987,9999,1
0642,10813,9999,119
0654,4993,9999,12
0664,8285,9999,44
0668,4447,9999,20
0677,6298,9999,18
0678,2694,9999,8
0687,10189,9999,41
0703,6811,9999,25
0715,11050,9999,41
0716,6852,9999,36
0717,4184,9999,18
0718,8759,9999,41
0736,10775,9999,55
0737,5751,9999,36
0743,3927,9999,20
0744,1494,9999,4
0748,15629,9999,51
0753,6533,9999,38
0755,2486,9999,23
0757,7837,9999,73
0758,42662,9999,182
0762,7677,9999,51
0765,2149,9999,14
0766,6102,9999,32
0770,4462,9999,35
0772,49598,9999,413
0777,9145,9999,40
0779,5080,9999,30
0784,5703,9999,21
0785,5689,9999,43
0794,20861,9999,93
0796,38649,9999,194
0797,11118,9999,56
0798,3604,9999,20
0809,5844,9999,47
0820,4379,9999,27
0823,4469,9999,27
0824,7422,9999,27
0826,12539,9999,44
0828,21055,9999,143
0840,5023,9999,18
0845,7326,9999,44
0847,4730,9999,21
0848,3327,9999,30
0851,4959,9999,22
0852,3977,9999,18
0855,55837,9999,300
0858,6783,9999,72
0861,9518,9999,54
0865,7799,9999,56
0866,3646,9999,18
0867,11375,9999,83
0873,4390,9999,26
0879,4332,9999,18
0880,3667,9999,37
0882,8940,9999,93
0888,3708,9999,16
0889,3311,9999,15
0893,3233,9999,20
0899,6848,9999,71
0907,4145,9999,31
0917,19976,9999,161
0928,9989,9999,108
0935,27579,9999,254
0938,4370,9999,43
0944,1403,9999,13
0946,4480,9999,28
0957,14039,9999,79
0965,2181,9999,12
0971,5841,9999,28
0981,1676,9999,23
0983,28998,9999,201
0984,11818,9999,58
0986,2854,9999,13
0988,12570,9999,97
0994,3580,9999,36
0995,16397,9999,83
1507,12245,9999,78
1509,7980,9999,58
1525,8509,9999,28
1581,9751,9999,87
1586,6374,9999,49
1598,5488,9999,24
1621,16039,9999,72
1640,8439,9999,59
1641,5719,9999,44
1652,6408,9999,44
1655,6474,9999,31
1658,3132,9999,13
1659,4639,9999,45
1667,3090,9999,14
1669,4443,9999,40
1674,17678,9999,88
1676,6128,9999,39
1680,3607,9999,23
1681,3678,9999,23
1690,4500,9999,32
1695,1248,9999,12
1696,5245,9999,24
1699,4374,9999,27
1700,8818,9999,35
1701,2573,9999,24
1705,9354,9999,54
1706,4905,9999,59
1708,7449,9999,30
1709,7757,9999,54
1711,7273,9999,45
1714,4093,9999,26
1719,5936,9999,32
1721,7851,9999,82
1723,2116,9999,5
1724,4435,9999,15
1728,5149,9999,33
1729,2942,9999,21
1730,4365,9999,26
1731,4819,9999,32
1734,8896,9999,40
1735,8265,9999,39
1740,7254,9999,51
1742,10829,9999,68
1771,8534,9999,33
1773,3087,9999,10
1774,7166,9999,38
1783,29574,9999,101
1842,4682,9999,14
1859,8805,9999,58
1876,7008,9999,28
1883,20609,9999,171
1884,5706,9999,11
1891,4361,9999,26
1892,10705,9999,51
1894,10779,9999,93
1895,6032,9999,40
1896,5676,9999,35
1900,17872,9999,98
1901,9145,9999,39
1903,5880,9999,60
1904,14722,9999,77
1911,9435,9999,38
1916,15800,9999,106
1924,10755,9999,95
1926,13427,9999,43
1930,19313,9999,108
1931,13456,9999,69
1940,9966,9999,38
1942,14444,9999,45
1945,7323,9999,68
1948,18840,9999,180
1949,7664,9999,44
1950,5220,9999,25
1952,9118,9999,47
1954,8259,9999,71
1955,7006,9999,31
1959,14097,9999,76
1960,12842,9999,69
1961,15001,9999,82
1963,20320,9999,76
1966,8899,9999,37
1969,9356,9999,36
1970,9353,9999,57
1978,12221,9999,45
1979,6059,9999,29
1980,19274,9999,71
1982,21276,9999,137
1991,13050,9999,123