0014,20974,110,46
0034,24180,372,101
0037,2765,26,21
0047,2211,13,11
0050,2099,22,14
0059,2722,30,39
0060,278,3,1
0072,972,13,6
0074,3698,43,40
0080,9207,112,74
0085,1747,19,6
0086,2219,30,8
0088,49,1,2
0090,4309,51,34
0093,324,3,2
0096,82,0,0
0098,2088,21,29
0106,4524,72,15
0109,3248,57,31
0114,10171,181,79
0118,5386,80,41
0119,2687,34,27
0141,8830,117,59
0147,2874,31,39
0148,2615,28,20
0150,10211,118,89
0153,17611,265,175
0158,2965,35,32
0160,6483,62,37
0163,4772,47,51
0164,8709,90,69
0166,4412,81,45
0168,3098,50,38
0171,4037,39,29
0173,3955,57,45
0175,1684,15,16
0177,4028,45,42
0180,2570,18,21
0183,3529,27,19
0184,2693,55,19
0189,3504,22,28
0193,10130,114,117
0197,2724,33,22
0200,15416,216,159
0202,15764,216,128
0203,8648,72,64
0209,2784,41,23
0213,1829,34,21
0214,2802,40,20
0216,3205,49,22
0221,919,21,9
0222,5655,65,31
0225,2187,41,27
0226,2409,30,15
0228,13736,151,92
0230,2377,39,15
0232,3115,79,53
0233,2746,49,34
0243,4996,90,48
0244,1041,22,7
0246,1400,57,32
0252,1644,29,19
0262,2655,40,29
0263,3931,43,42
0267,5123,54,29
0268,19277,290,200
0269,2481,51,30
0273,2806,22,18
0274,2436,38,31
0275,4062,64,60
0277,128,1,0
0279,1194,5,12
0281,5106,90,73
0285,2197,32,30
0289,3812,45,42
0293,1406,24,9
0294,2457,19,17
0296,4684,84,61
0297,4244,43,43
0299,3827,86,48
0301,3771,56,29
0302,2986,84,32
0303,3553,67,25
0307,17105,280,143
0308,2563,35,28
0310,4412,78,78
0312,1331,22,12
0313,4493,62,39
0317,1091,20,6
0321,4970,77,51
0327,2786,42,25
0331,1840,40,12
0335,1627,31,8
0339,702,7,5
0340,2681,43,21
0342,4737,81,47
0344,42287,781,256
0345,8883,139,75
0351,1635,24,8
0352,2168,34,17
0353,3793,90,55
0355,6186,100,76
0356,6324,144,31
0358,3971,42,26
0361,11613,144,86
0362,9451,144,99
0363,116310,2163,854
0370,1077,9,3
0373,2955,39,38
0375,4937,47,42
0376,1265,14,6
0377,2175,19,17
0383,3735,29,24
0384,4017,57,39
0385,5724,98,24
0388,2126,31,11
0392,16585,234,154
0394,17394,201,111
0396,4583,64,32
0397,2605,27,61
0398,6699,65,38
0399,2215,24,16
0400,6021,71,40
0402,8624,104,89
0405,9613,97,55
0406,4823,64,55
0415,1407,14,6
0416,3101,37,17
0417,1245,18,29
0420,5982,60,26
0431,1099,17,8
0432,1465,11,6
0437,1624,18,5
0439,9696,200,86
0441,5191,58,60
0448,726,6,4
0450,1527,12,7
0451,3126,34,15
0453,8097,107,91
0457,2358,20,23
0473,1708,26,43
0479,18564,339,179
0482,3017,46,22
0484,12841,193,117
0489,6541,108,48
0498,2402,25,13
0501,1875,31,10
0502,9279,191,145
0503,11959,108,76
0505,16106,275,182
0512,4766,49,43
0513,8893,285,160
0518,64916,1806,569
0523,2974,19,25
0530,4193,73,44
0531,4093,42,32
0532,2826,30,15
0534,2129,23,18
0537,9623,116,61
0542,4145,50,72
0546,13738,144,75
0547,2678,37,23
0553,2514,29,17
0556,4068,72,34
0569,3706,46,22
0575,5126,69,24
0579,2337,23,31
0589,1166,38,12
0590,4005,48,46
0597,6684,121,90
0599,96980,2091,983
0603,5893,140,76
0606,10773,255,117
0610,3686,33,41
0613,3560,51,23
0614,1334,25,19
0622,10067,184,96
0626,2209,23,24
0627,3444,75,16
0629,2477,42,31
0632,6018,148,40
0637,13392,186,70
0638,963,10,1
0642,6014,93,102
0654,1782,43,9
0664,3190,102,31
0668,2252,25,19
0677,2008,41,13
0678,1200,16,6
0687,4101,80,26
0703,3346,60,17
0715,4601,127,30
0716,3359,73,30
0717,1623,32,7
0718,3830,135,32
0736,4944,122,36
0737,2342,23,29
0743,1996,34,18
0744,671,13,4
0748,8014,99,47
0753,3545,58,32
0755,1248,43,23
0756,3724,41,45
0757,4004,54,69
0758,20861,267,148
0762,4257,93,42
0765,1126,25,13
0766,3378,48,25
0770,2660,49,26
0772,27039,464,359
0777,4405,71,38
0779,2634,31,25
0784,3002,41,19
0785,2807,42,36
0786,1629,31,24
0794,12684,208,86
0796,19853,268,173
0797,5891,91,50
0798,1804,20,20
0809,2983,52,37
0815,1363,17,10
0820,2429,34,22
0823,2582,32,27
0824,3517,56,22
0826,6165,89,37
0828,11990,248,130
0840,2571,46,16
0845,3690,53,34
0847,2520,48,13
0848,1729,43,28
0851,2627,37,19
0852,2068,33,16
0855,28499,430,279
0856,4789,142,86
0858,3744,60,64
0861,5547,89,50
0865,3722,77,53
0866,1870,23,17
0867,6103,81,77
0873,2150,23,26
0879,1963,38,17
0880,1842,38,34
0882,3919,103,70
0888,1746,35,13
0889,1656,30,13
0893,1758,25,15
0899,3136,96,53
0907,1986,29,20
0917,8639,256,129
0928,4508,146,97
0935,12451,359,203
0938,1741,54,23
0944,703,11,11
0946,2509,47,20
0957,7296,118,65
0965,1030,28,9
0971,2720,78,24
0981,781,24,14
0983,15160,239,174
0984,6290,67,50
0986,1204,26,11
0988,7045,118,70
0994,1558,38,23
0995,7318,150,63
1507,6459,61,67
1509,4587,50,45
1525,4580,41,25
1581,4689,97,73
1586,3405,36,41
1598,2986,24,24
1621,7762,101,66
1640,4424,77,52
1641,2778,44,37
1652,3355,102,38
1655,3450,57,28
1658,1758,23,13
1659,2842,63,36
1667,1817,23,10
1669,2290,48,35
1674,8869,108,75
1676,2566,57,26
1680,1630,7,20
1681,1776,32,15
1684,3006,38,27
1685,2087,51,29
1690,2219,34,25
1695,612,20,9
1696,2304,27,18
1699,2085,33,25
1700,4891,42,30
1701,1091,17,22
1702,1340,28,11
1705,4370,65,35
1706,2820,79,52
1708,3671,33,27
1709,3995,50,44
1711,3515,65,36
1714,1627,46,18
1719,2983,50,30
1721,4362,115,78
1723,1025,24,5
1724,2489,28,11
1728,3039,40,28
1729,1330,34,20
1730,1959,25,24
1731,2326,38,30
1734,4465,75,30
1735,4196,34,29
1740,3206,65,35
1742,5479,57,54
1771,4920,80,28
1773,1578,21,10
1774,3729,38,36
1783,16105,197,87
1842,2380,19,14
1859,4396,45,43
1876,3479,37,21
1883,9633,227,145
1884,2971,26,10
1891,1757,20,17
1892,5576,124,47
1894,5560,166,85
1895,3078,45,38
1896,2657,53,30
1900,9106,87,91
1901,4582,80,37
1903,2488,90,47
1904,6858,150,69
1911,4890,54,34
1916,7851,168,88
1924,5351,133,90
1926,6444,78,39
1930,10248,186,99
1931,7066,153,64
1940,4505,58,34
1942,6357,64,38
1945,3668,57,51
1948,9966,266,168
1949,3423,43,37
1950,2654,36,21
1952,4358,56,40
1954,3901,102,54
1955,3481,45,25
1959,7540,89,68
1960,6711,87,61
1961,7051,128,77
1963,9914,159,67
1966,4426,39,20
1969,4240,39,26
1970,3870,53,39
1978,6313,56,35
1979,3159,52,23