0014,13695,93,45
0034,19834,336,96
0037,2529,24,20
0047,1902,12,11
0050,1775,22,14
0059,2308,26,39
0060,207,3,1
0072,824,11,3
0074,2764,37,39
0080,7568,102,74
0085,1468,17,6
0086,1732,27,7
0088,45,1,2
0090,3433,43,34
0093,248,3,2
0096,68,0,0
0098,1827,19,28
0106,3788,68,15
0109,2904,57,31
0114,9152,165,79
0118,4602,75,41
0119,2356,34,27
0141,7694,106,58
0147,2518,30,38
0148,2329,26,20
0150,8294,106,88
0153,14153,238,173
0158,2661,34,32
0160,5898,59,37
0163,4307,44,51
0164,7297,77,68
0166,3718,79,44
0168,2653,50,32
0171,3521,35,28
0173,3410,54,45
0175,1478,15,15
0177,3405,42,41
0180,2390,17,21
0183,2979,26,18
0184,2628,54,19
0189,3102,20,27
0193,8221,105,113
0197,2426,32,22
0200,12597,202,147
0202,12959,199,125
0203,7798,64,62
0209,2373,41,22
0213,1498,33,18
0214,2527,40,20
0216,2722,47,22
0221,793,19,9
0222,4856,64,29
0225,1869,40,27
0226,2085,28,14
0228,11921,142,86
0230,2079,39,14
0232,2733,78,52
0233,2459,48,34
0243,4361,87,48
0244,896,21,7
0246,1283,57,32
0252,1417,27,19
0262,2196,37,29
0263,3565,43,42
0267,4511,51,29
0268,15539,272,189
0269,2252,49,30
0273,2522,21,18
0274,2098,37,26
0275,3605,61,58
0277,107,1,0
0279,1070,5,12
0281,4587,87,73
0285,1895,31,28
0289,3067,40,42
0293,1167,21,9
0294,2110,17,17
0296,4111,81,60
0297,3882,41,42
0299,3360,81,48
0301,3185,54,29
0302,2361,80,32
0303,3103,63,25
0307,14342,256,139
0308,2222,34,28
0310,3615,75,78
0312,1161,22,12
0313,4241,62,39
0317,921,19,5
0321,4169,73,51
0327,2375,41,24
0331,1631,39,12
0335,1433,29,8
0339,612,7,5
0340,2459,42,21
0342,4005,76,47
0344,32771,719,249
0345,8030,134,75
0351,1472,22,8
0352,1901,34,17
0353,3323,87,55
0355,5072,88,73
0356,5426,133,30
0358,3150,37,26
0361,9489,141,85
0362,7333,134,90
0363,88464,1950,812
0370,899,9,3
0373,2502,39,38
0375,4179,44,41
0376,1002,13,6
0377,1654,16,17
0383,3149,27,24
0384,3069,52,34
0385,5145,95,23
0388,1924,30,11
0392,12925,216,149
0394,14149,184,109
0396,3946,63,32
0397,1938,26,60
0398,5757,59,37
0399,1709,23,15
0400,5322,67,39
0402,6797,90,86
0405,8544,94,55
0406,4066,62,53
0415,1163,12,6
0416,2570,35,15
0417,994,16,26
0420,5435,58,26
0431,946,16,8
0432,1284,11,6
0437,1256,16,5
0439,8133,191,84
0441,4554,56,58
0448,584,6,4
0450,1304,12,7
0451,2559,34,15
0453,6950,104,90
0457,2035,20,20
0473,1406,21,43
0479,15603,312,176
0482,2654,44,22
0484,11333,190,115
0489,5447,104,48
0498,2185,24,13
0501,1669,31,9
0502,7885,184,145
0503,9505,103,74
0505,14393,260,179
0512,4204,46,40
0513,7847,275,160
0518,54214,1682,552
0523,2772,17,25
0530,3537,68,43
0531,3633,40,32
0532,2644,29,15
0534,1781,21,17
0537,8772,113,59
0542,3708,49,70
0546,10656,137,70
0547,2286,36,23
0553,2060,28,17
0556,3580,69,35
0569,3341,45,22
0575,4078,66,22
0579,1950,23,31
0589,1048,38,12
0590,3568,46,46
0597,5860,113,89
0599,78782,1948,965
0603,4967,132,76
0606,9349,235,114
0610,3383,32,41
0613,3030,48,22
0614,1148,22,18
0622,8838,175,91
0626,1858,23,24
0627,3048,71,16
0629,2089,40,31
0632,5221,143,39
0637,11489,172,69
0638,853,10,1
0642,5366,90,101
0654,1494,38,6
0664,2698,91,31
0668,1977,25,19
0677,1816,41,13
0678,1043,15,6
0687,3565,78,25
0703,3045,59,17
0715,4148,118,29
0716,2866,71,30
0717,1386,31,7
0718,3363,129,32
0736,4046,117,35
0737,2012,22,28
0743,1689,33,18
0744,555,13,4
0748,6698,93,44
0753,3095,56,30
0755,1068,41,23
0756,3329,40,45
0757,3548,51,69
0758,16359,252,147
0762,3776,91,42
0765,1041,25,13
0766,2997,46,25
0770,2413,49,26
0772,22875,450,355
0777,3781,69,38
0779,2340,31,25
0784,2655,40,19
0785,2465,42,36
0786,1450,30,24
0794,11066,205,84
0796,16994,257,171
0797,5326,89,50
0798,1624,20,20
0809,2743,52,37
0815,1247,17,10
0820,2150,34,22
0823,2387,32,27
0824,3144,55,22
0826,5171,84,36
0828,10883,242,129
0840,2284,46,16
0845,3284,52,34
0847,2272,48,13
0848,1539,43,28
0851,2284,33,19
0852,1787,33,15
0855,24130,412,277
0856,4326,139,86
0858,3370,59,62
0861,5093,83,50
0865,3254,74,53
0866,1605,19,17
0867,5539,80,77
0873,1965,22,26
0879,1685,36,17
0880,1563,35,33
0882,3600,99,70
0888,1532,30,12
0889,1500,30,13
0893,1612,24,15
0899,2814,89,52
0907,1790,28,19
0917,7531,242,126
0928,4056,142,96
0935,10090,336,197
0938,1457,49,23
0944,616,11,11
0946,2283,47,20
0957,6368,106,60
0965,897,27,9
0971,2387,78,24
0981,712,24,14
0983,13645,226,169
0984,5748,64,48
0986,1043,25,11
0988,6159,112,68
0994,1304,37,23
0995,5975,138,62
1507,5873,61,65
1509,4043,48,45
1525,3846,39,25
1581,4105,91,73
1586,2878,35,41
1598,2643,24,24
1621,6572,91,63
1640,4102,76,52
1641,2552,42,36
1652,2955,101,38
1655,3033,57,27
1658,1578,23,13
1659,2588,62,36
1667,1630,23,10
1669,2098,46,35
1674,7754,103,75
1676,2156,55,25
1680,1423,7,20
1681,1611,31,15
1684,2662,37,26
1685,1901,51,28
1690,2038,32,24
1695,555,17,9
1696,1955,25,18
1699,1683,31,25
1700,4561,40,30
1701,982,16,22
1702,1226,27,11
1705,3823,63,35
1706,2582,79,51
1708,3234,33,27
1709,3509,46,40
1711,3144,65,36
1714,1447,45,18
1719,2566,49,30
1721,3853,111,78
1723,918,24,5
1724,2282,28,11
1728,2813,38,27
1729,1158,31,19
1730,1556,22,24
1731,2066,35,30
1734,3767,74,30
1735,3652,34,29
1740,2946,63,34
1742,4745,55,54
1771,4382,75,28
1773,1344,21,10
1774,3162,37,35
1783,13965,187,86
1842,2040,19,14
1859,3914,42,42
1876,3077,37,21
1883,8516,217,145
1884,2593,25,10
1891,1481,18,17
1892,4805,119,47
1894,4923,165,85
1895,2844,44,37
1896,2421,51,30
1900,7794,75,90
1901,4019,75,36
1903,2127,87,47
1904,5818,146,69
1911,4447,49,34
1916,6543,156,84
1924,4668,127,89
1926,5356,68,38
1930,8946,182,99
1931,6376,151,64
1940,3615,55,33
1942,5028,60,34
1945,3226,56,51
1948,9042,263,167
1949,2958,39,36
1950,2330,36,21
1952,3739,54,39
1954,3500,99,49
1955,3094,42,24
1959,6897,87,68
1960,5931,87,61
1961,6273,123,76
1963,8581,152,66
1966,3525,32,20
1969,3358,38,25
1970,3270,47,37
1978,5711,53,35
1979,2838,49,23