0014,12393,85,45
0034,18531,319,95
0037,2386,21,19
0047,1703,11,10
0050,1596,21,14
0059,2135,24,37
0060,187,3,1
0072,760,11,3
0074,2532,32,39
0080,6794,88,71
0085,1345,15,6
0086,1492,25,7
0088,45,1,2
0090,3104,33,33
0093,241,3,2
0096,53,0,0
0098,1570,15,28
0106,3458,58,14
0109,2684,56,31
0114,8487,148,75
0118,4199,70,40
0119,2163,30,26
0141,6844,97,56
0147,2261,29,37
0148,2125,26,20
0150,7457,93,84
0153,12634,214,167
0158,2451,32,32
0160,5360,58,37
0163,4013,42,50
0164,6546,71,66
0166,3284,77,43
0168,2370,48,32
0171,3183,32,28
0173,2927,52,45
0175,1347,15,15
0177,3206,39,41
0180,2060,16,19
0183,2702,23,18
0184,2397,50,14
0189,2876,19,27
0193,7544,95,109
0197,2258,27,21
0200,11476,195,144
0202,11538,179,122
0203,7208,56,61
0209,2142,39,21
0213,1315,32,17
0214,2239,40,20
0216,2505,46,22
0221,721,18,9
0222,4448,62,27
0225,1731,40,27
0226,1858,27,13
0228,10883,136,82
0230,1850,38,14
0232,2548,77,52
0233,2278,40,34
0243,4054,82,49
0244,829,20,7
0246,1184,56,32
0252,1265,27,17
0262,1928,35,29
0263,3300,41,42
0267,4194,49,28
0268,14059,262,186
0269,2088,49,30
0273,2289,20,16
0274,1892,33,26
0275,3309,59,57
0277,98,1,0
0279,1006,5,12
0281,4024,86,73
0285,1708,30,28
0289,2766,40,41
0293,1045,19,9
0294,1795,15,15
0296,3562,75,53
0297,3651,39,41
0299,2957,76,47
0301,2876,51,29
0302,2169,80,32
0303,2811,62,24
0307,13171,239,135
0308,2014,34,28
0310,3400,75,78
0312,1070,21,12
0313,4064,60,39
0317,872,19,5
0321,3817,69,51
0327,2195,40,23
0331,1492,38,12
0335,1333,24,8
0339,559,7,5
0340,2252,41,21
0342,3693,74,46
0344,29805,689,239
0345,7518,130,72
0351,1379,22,8
0352,1740,34,17
0353,2999,82,55
0355,4618,87,73
0356,4950,124,28
0358,2846,36,26
0361,8830,128,74
0362,6714,126,89
0363,81679,1869,765
0370,834,8,3
0373,2339,38,36
0375,3918,44,41
0376,917,12,6
0377,1536,15,17
0383,2936,25,22
0384,2820,47,31
0385,4730,89,21
0388,1853,30,11
0392,11997,205,148
0394,12930,174,107
0396,3716,60,32
0397,1805,26,60
0398,5276,56,34
0399,1602,22,15
0400,4956,58,36
0402,6279,84,83
0405,8160,93,55
0406,3778,59,53
0415,1070,12,6
0416,2392,32,13
0417,926,16,26
0420,5174,57,25
0431,902,16,8
0432,1217,9,5
0437,1167,14,5
0439,7567,181,82
0441,4222,49,55
0448,491,6,4
0450,1215,12,7
0451,2368,34,15
0453,6536,98,89
0457,1929,18,20
0473,1312,20,42
0479,14570,295,172
0482,2465,38,21
0484,10607,182,114
0489,5006,99,47
0498,2028,21,12
0501,1500,31,9
0502,7256,174,137
0503,8513,100,74
0505,13380,247,171
0512,3743,45,37
0513,7319,250,157
0518,48958,1525,545
0523,2574,16,25
0530,3278,61,43
0531,3358,37,30
0532,2529,29,15
0534,1674,19,17
0537,8233,109,57
0542,3479,47,69
0546,9570,123,70
0547,2053,36,22
0553,1929,28,17
0556,3185,67,35
0569,3040,42,22
0575,3840,67,21
0579,1831,22,30
0589,946,38,12
0590,3217,44,45
0597,5336,109,87
0599,70632,1808,927
0603,4567,127,76
0606,8671,223,112
0610,3129,29,41
0613,2725,45,21
0614,1058,22,16
0622,7827,166,89
0626,1742,23,24
0627,2794,67,14
0629,1890,39,30
0632,4634,132,39
0637,10525,160,68
0638,763,10,1
0642,4965,84,94
0654,1349,36,6
0664,2394,76,26
0668,1744,25,19
0677,1682,39,13
0678,923,13,6
0687,3192,75,25
0703,2570,49,16
0715,3773,114,28
0716,2429,64,24
0717,1287,29,7
0718,3075,120,32
0736,3718,113,34
0737,1848,22,28
0743,1543,33,17
0744,490,13,4
0748,6209,91,42
0753,2797,54,30
0755,896,40,23
0756,3040,39,44
0757,3214,50,68
0758,14616,241,146
0762,3296,87,41
0765,948,23,12
0766,2772,44,25
0770,2269,46,25
0772,20566,417,347
0777,3394,68,38
0779,2039,29,25
0784,2398,35,19
0785,2192,39,36
0786,1334,30,24
0794,10070,199,83
0796,15054,241,165
0797,4649,82,50
0798,1521,20,20
0809,2461,49,35
0815,1128,17,10
0820,1981,34,21
0823,2143,28,26
0824,2843,54,22
0826,4652,82,35
0828,9683,238,128
0840,2100,44,16
0845,2943,50,34
0847,2074,46,13
0848,1419,42,27
0851,2096,31,19
0852,1679,33,15
0855,21688,391,272
0856,3826,138,85
0858,3120,54,61
0861,4665,79,49
0865,2962,73,53
0866,1450,19,15
0867,4788,73,76
0873,1801,20,25
0879,1505,36,17
0880,1452,35,33
0882,3268,91,66
0888,1321,29,12
0889,1339,30,12
0893,1395,20,13
0899,2533,80,49
0907,1640,28,19
0917,6750,227,124
0928,3614,129,96
0935,8939,306,193
0938,1342,42,23
0944,574,11,11
0946,2132,44,20
0957,5676,98,54
0965,824,26,7
0971,2174,71,22
0981,659,21,14
0983,11959,211,157
0984,5213,61,44
0986,953,25,11
0988,5651,106,68
0994,1189,34,22
0995,5468,131,59
1507,5319,60,64
1509,3685,41,44
1525,3611,36,24
1581,3766,89,73
1586,2577,33,39
1598,2477,24,21
1621,6018,86,63
1640,3727,75,51
1641,2331,42,36
1652,2597,99,38
1655,2712,55,27
1658,1495,23,13
1659,2276,59,36
1667,1506,23,9
1669,1881,45,34
1674,7197,101,72
1676,1838,46,24
1680,1300,6,20
1681,1440,27,15
1684,2431,36,25
1685,1768,51,28
1690,1747,31,23
1695,495,16,9
1696,1812,24,18
1699,1528,28,25
1700,4047,38,30
1701,889,16,22
1702,1082,27,11
1705,3500,62,31
1706,2389,78,51
1708,2921,28,26
1709,3112,44,39
1711,2844,64,34
1714,1323,42,18
1719,2261,45,27
1721,3435,109,78
1723,816,24,5
1724,2138,28,10
1728,2602,38,26
1729,1065,30,19
1730,1427,22,24
1731,1903,33,30
1734,3296,71,30
1735,3299,32,29
1740,2550,62,32
1742,4286,53,52
1771,3998,74,27
1773,1189,19,9
1774,2848,36,35
1783,12756,180,86
1842,1844,17,14
1859,3588,40,43
1876,2825,36,21
1883,7522,196,138
1884,2367,25,10
1891,1337,15,17
1892,4383,112,46
1894,4504,163,82
1895,2618,42,37
1896,2286,50,30
1900,7251,67,88
1901,3719,73,36
1903,1929,77,46
1904,5351,136,67
1911,4167,48,33
1916,5929,147,82
1924,4132,126,86
1926,4923,65,35
1930,8212,170,96
1931,5882,138,62
1940,3258,50,31
1942,4612,54,32
1945,2956,56,51
1948,8054,256,164
1949,2759,38,36
1950,2163,35,21
1952,3468,52,38
1954,3141,88,48
1955,2820,41,24
1959,6341,84,68
1960,5370,85,60
1961,5754,116,70
1963,7860,147,62
1966,3186,30,20
1969,3015,35,23
1970,3004,42,37
1978,5180,48,34
1979,2656,45,20