0014,21218,113,46
0034,24558,374,102
0037,2805,27,21
0047,2239,13,11
0050,2118,22,14
0059,2801,30,39
0060,280,3,1
0072,989,13,6
0074,3796,44,40
0080,9383,112,74
0085,1761,19,6
0086,2270,30,8
0088,49,1,2
0090,4396,52,34
0093,334,3,2
0096,82,0,0
0098,2110,21,29
0106,4565,72,15
0109,3310,60,32
0114,10325,184,80
0118,5477,81,42
0119,2706,34,27
0141,8942,119,60
0147,2897,31,39
0148,2632,28,20
0150,10290,118,89
0153,17890,267,175
0158,2978,35,32
0160,6567,62,37
0163,4801,47,51
0164,8818,90,71
0166,4457,82,45
0168,3113,50,38
0171,4081,39,29
0173,4014,58,45
0175,1712,16,16
0177,4093,45,42
0180,2616,18,21
0183,3538,27,19
0184,2704,55,19
0189,3544,22,28
0193,10304,115,118
0197,2746,33,22
0200,15619,216,159
0202,16073,216,128
0203,8829,72,64
0209,2798,41,23
0213,1843,35,22
0214,2828,40,20
0216,3242,49,22
0221,925,21,9
0222,5697,65,31
0225,2217,42,27
0226,2426,30,15
0228,14148,156,93
0230,2404,39,15
0232,3146,80,53
0233,2776,49,34
0243,5044,91,48
0244,1042,23,7
0246,1407,57,32
0252,1656,29,19
0262,2691,40,29
0263,3952,43,42
0267,5166,54,29
0268,19489,293,201
0269,2528,51,31
0273,2847,22,19
0274,2454,38,31
0275,4119,64,61
0277,128,1,0
0279,1225,5,12
0281,5174,91,73
0285,2214,33,30
0289,3851,45,42
0293,1427,24,9
0294,2486,19,17
0296,4724,84,61
0297,4274,45,45
0299,3861,86,48
0301,3807,56,29
0302,3052,85,36
0303,3610,70,25
0307,17530,282,143
0308,2587,35,28
0310,4465,79,78
0312,1355,22,12
0313,4511,62,39
0317,1114,20,6
0321,5051,78,51
0327,2830,42,25
0331,1863,40,12
0335,1659,31,8
0339,722,7,5
0340,2743,44,21
0342,4789,82,48
0344,43023,793,258
0345,9087,139,76
0351,1673,24,8
0352,2201,34,17
0353,3829,90,55
0355,6277,101,76
0356,6429,144,31
0358,3998,43,26
0361,11704,144,86
0362,9547,145,99
0363,117575,2175,857
0370,1084,9,3
0373,2972,39,38
0375,4971,47,42
0376,1279,14,6
0377,2189,19,17
0383,3769,29,24
0384,4061,57,39
0385,5758,99,24
0388,2163,31,11
0392,16802,239,155
0394,17562,201,112
0396,4613,64,32
0397,2632,28,62
0398,6738,65,38
0399,2231,24,16
0400,6077,74,41
0402,8747,104,89
0405,9687,97,55
0406,4892,64,56
0415,1420,14,6
0416,3145,37,17
0417,1255,18,29
0420,6030,60,26
0431,1109,17,8
0432,1480,11,6
0437,1653,18,5
0439,9783,203,86
0441,5237,58,60
0448,731,6,4
0450,1540,12,7
0451,3175,34,15
0453,8142,107,91
0457,2384,20,23
0473,1714,26,43
0479,18831,339,180
0482,3041,47,22
0484,13032,193,117
0489,6653,112,48
0498,2418,26,13
0501,1890,32,10
0502,9393,194,146
0503,12134,111,76
0505,16350,277,186
0512,4847,49,43
0513,9087,289,160
0518,66148,1839,572
0523,3001,19,25
0530,4238,74,44
0531,4194,42,32
0532,2841,30,15
0534,2154,23,18
0537,9741,117,61
0542,4182,50,73
0546,13971,149,75
0547,2733,37,23
0553,2528,29,17
0556,4131,73,35
0569,3734,46,22
0575,5173,69,24
0579,2356,23,31
0589,1186,38,12
0590,4042,48,46
0597,6749,121,91
0599,98590,2115,987
0603,5983,140,76
0606,10958,255,117
0610,3734,33,41
0613,3606,52,23
0614,1338,25,19
0622,10216,185,97
0626,2237,23,24
0627,3515,75,16
0629,2496,42,31
0632,6072,148,40
0637,13584,188,70
0638,966,10,1
0642,6095,94,102
0654,1830,44,9
0664,3258,102,31
0668,2294,25,19
0677,2031,41,13
0678,1211,16,6
0687,4159,80,27
0703,3379,60,17
0715,4720,128,31
0716,3399,73,30
0717,1636,32,7
0718,3889,136,33
0736,5018,123,36
0737,2435,23,29
0743,2004,34,18
0744,695,13,4
0748,8077,99,48
0753,3570,58,32
0755,1256,43,23
0756,3785,42,45
0757,4065,54,69
0758,21081,267,150
0762,4282,93,42
0765,1132,25,13
0766,3413,48,25
0770,2672,49,26
0772,27300,468,360
0777,4445,71,38
0779,2644,31,25
0784,3011,41,20
0785,2823,42,36
0786,1635,31,24
0794,12761,209,86
0796,20044,269,173
0797,5942,92,50
0798,1809,20,20
0809,3005,52,37
0815,1367,17,10
0820,2437,34,22
0823,2589,32,27
0824,3535,56,22
0826,6204,90,37
0828,12103,249,131
0840,2582,46,16
0845,3715,53,34
0847,2532,48,13
0848,1734,43,28
0851,2648,37,19
0852,2078,33,16
0855,28874,434,280
0856,4824,142,86
0858,3755,60,64
0861,5584,89,50
0865,3760,77,53
0866,1875,23,17
0867,6149,81,77
0873,2157,23,26
0879,1991,38,17
0880,1857,38,34
0882,4001,106,73
0888,1784,35,13
0889,1702,31,13
0893,1789,25,15
0899,3218,97,54
0907,2015,29,20
0917,8835,257,130
0928,4596,148,97
0935,12570,364,204
0938,1774,54,24
0944,708,11,11
0946,2563,48,20
0957,7400,121,65
0965,1039,28,9
0971,2754,78,24
0981,791,25,14
0983,15395,239,175
0984,6342,67,50
0986,1223,26,11
0988,7116,118,70
0994,1586,38,23
0995,7508,151,63
1507,6574,61,67
1509,4607,50,45
1525,4611,41,25
1581,4759,99,73
1586,3421,36,41
1598,3006,25,24
1621,7902,102,68
1640,4463,77,52
1641,2821,45,37
1652,3374,102,38
1655,3487,57,28
1658,1770,23,13
1659,2868,64,36
1667,1864,23,10
1669,2309,49,35
1674,8941,108,75
1676,2591,60,27
1680,1641,7,20
1681,1793,32,15
1684,3026,38,27
1685,2100,51,29
1690,2238,34,26
1695,614,20,9
1696,2338,27,18
1699,2097,33,25
1700,4917,44,31
1701,1107,17,22
1702,1375,28,11
1705,4396,65,35
1706,2841,79,52
1708,3709,33,27
1709,4025,50,44
1711,3549,65,36
1714,1643,46,18
1719,3007,50,30
1721,4391,115,78
1723,1055,24,5
1724,2496,28,11
1728,3047,40,28
1729,1350,34,20
1730,1974,25,24
1731,2353,38,30
1734,4515,75,30
1735,4240,34,29
1740,3356,65,35
1742,5548,57,55
1771,4955,81,28
1773,1594,21,10
1774,3750,38,36
1783,16318,199,87
1842,2411,19,14
1859,4419,45,43
1876,3514,39,21
1883,9771,230,147
1884,2989,26,10
1891,1857,20,17
1892,5670,124,47
1894,5684,168,86
1895,3091,45,38
1896,2682,53,30
1900,9239,87,91
1901,4753,81,37
1903,2508,91,47
1904,6939,152,69
1911,4927,54,34
1916,7941,169,90
1924,5405,133,91
1926,6524,80,39
1930,10419,188,99
1931,7146,153,64
1940,4570,59,34
1942,6420,64,38
1945,3696,57,51
1948,10021,267,169
1949,3487,44,37
1950,2720,37,21
1952,4443,56,40
1954,4009,103,54
1955,3541,46,25
1959,7600,89,68
1960,6781,88,61
1961,7179,131,77
1963,10022,159,67
1966,4489,39,20
1969,4292,39,26
1970,4124,56,39
1978,6392,56,35
1979,3180,52,23