0014,12168,84,45
0034,18283,318,95
0037,2355,21,17
0047,1679,11,10
0050,1571,21,13
0059,2089,22,37
0060,183,3,1
0072,747,9,3
0074,2480,31,39
0080,6654,87,69
0085,1325,15,6
0086,1455,25,7
0088,45,1,2
0090,3054,33,33
0093,232,3,2
0096,51,0,0
0098,1533,15,28
0106,3387,56,14
0109,2643,55,31
0114,8340,147,75
0118,4119,69,40
0119,2128,30,25
0141,6759,96,56
0147,2235,29,37
0148,2080,26,20
0150,7271,89,83
0153,12453,212,167
0158,2416,32,32
0160,5273,58,37
0163,3969,42,50
0164,6449,71,66
0166,3223,77,43
0168,2337,48,32
0171,3111,32,28
0173,2897,52,45
0175,1336,15,15
0177,3171,39,41
0180,2024,16,19
0183,2640,23,18
0184,2357,47,14
0189,2846,19,27
0193,7387,95,109
0197,2223,27,21
0200,11281,195,143
0202,11301,178,122
0203,7086,55,61
0209,2090,38,21
0213,1286,32,17
0214,2178,39,20
0216,2460,46,22
0221,714,18,9
0222,4358,59,27
0225,1705,40,27
0226,1823,27,13
0228,10723,135,82
0230,1826,38,14
0232,2498,76,52
0233,2264,40,34
0243,4001,82,48
0244,822,20,7
0246,1166,56,32
0252,1241,26,17
0262,1904,34,29
0263,3234,41,42
0267,4160,49,28
0268,13659,258,186
0269,2057,49,30
0273,2235,20,16
0274,1856,33,26
0275,3263,59,56
0277,96,1,0
0279,986,5,12
0281,3935,86,73
0285,1680,30,28
0289,2703,40,41
0293,1010,19,8
0294,1742,15,15
0296,3463,75,53
0297,3553,39,41
0299,2909,75,47
0301,2797,50,29
0302,2114,79,31
0303,2766,62,24
0307,12969,236,134
0308,1971,34,28
0310,3345,75,78
0312,1057,21,12
0313,4021,60,39
0317,857,19,5
0321,3739,67,51
0327,2157,39,23
0331,1463,38,12
0335,1305,24,8
0339,548,7,5
0340,2200,39,20
0342,3634,74,46
0344,29266,682,237
0345,7440,130,72
0351,1365,22,8
0352,1702,34,16
0353,2925,81,55
0355,4545,86,72
0356,4881,124,28
0358,2796,36,26
0361,8694,128,74
0362,6581,126,89
0363,80210,1853,762
0370,827,8,3
0373,2311,37,36
0375,3868,44,41
0376,896,12,6
0377,1513,15,17
0383,2894,25,22
0384,2770,46,31
0385,4641,88,20
0388,1835,30,11
0392,11808,198,147
0394,12706,172,107
0396,3666,59,32
0397,1783,25,59
0398,5172,56,34
0399,1563,22,15
0400,4902,57,36
0402,6174,83,81
0405,8089,94,55
0406,3715,58,53
0415,1057,12,6
0416,2353,32,13
0417,915,16,26
0420,5131,56,25
0431,895,16,8
0432,1208,9,5
0437,1147,14,5
0439,7454,181,82
0441,4155,49,54
0448,474,6,4
0450,1196,12,7
0451,2322,34,15
0453,6462,97,89
0457,1901,17,20
0473,1290,20,42
0479,14359,291,172
0482,2417,38,21
0484,10470,180,113
0489,4909,97,47
0498,2009,21,12
0501,1462,31,9
0502,7126,170,136
0503,8295,96,74
0505,13134,246,170
0512,3673,45,37
0513,7194,240,155
0518,48037,1494,544
0523,2539,16,23
0530,3174,61,43
0531,3300,37,30
0532,2505,29,15
0534,1659,19,17
0537,8105,107,57
0542,3427,47,69
0546,9348,123,70
0547,2027,36,22
0553,1899,28,17
0556,3110,64,34
0569,2983,38,22
0575,3789,67,21
0579,1802,22,30
0589,933,38,12
0590,3157,44,45
0597,5233,106,86
0599,69114,1784,924
0603,4486,127,75
0606,8533,218,111
0610,3092,29,41
0613,2678,44,21
0614,1032,21,16
0622,7713,166,89
0626,1698,22,23
0627,2752,65,14
0629,1851,39,30
0632,4566,132,39
0637,10352,159,67
0638,740,10,1
0642,4870,83,92
0654,1322,35,6
0664,2356,77,26
0668,1721,24,19
0677,1643,39,13
0678,890,12,6
0687,3136,73,25
0703,2504,45,16
0715,3750,112,28
0716,2362,62,24
0717,1266,29,7
0718,3014,118,32
0736,3620,113,34
0737,1815,21,28
0743,1504,33,17
0744,470,13,4
0748,6126,91,42
0753,2767,53,30
0755,876,40,23
0756,2995,39,44
0757,3146,49,67
0758,14297,239,145
0762,3176,86,41
0765,935,23,12
0766,2732,43,25
0770,2193,46,25
0772,20106,415,347
0777,3318,68,38
0779,1986,29,25
0784,2358,35,19
0785,2145,39,36
0786,1309,30,24
0794,9837,197,83
0796,14700,238,163
0797,4521,80,49
0798,1504,20,20
0809,2398,47,35
0815,1118,17,10
0820,1944,34,21
0823,2110,28,26
0824,2801,54,22
0826,4578,81,35
0828,9449,236,128
0840,2069,43,16
0845,2886,50,34
0847,2035,46,13
0848,1382,41,27
0851,2059,31,19
0852,1650,33,15
0855,21270,391,272
0856,3735,138,85
0858,3085,54,61
0861,4598,79,49
0865,2900,73,53
0866,1411,18,15
0867,4679,71,76
0873,1761,20,25
0879,1468,35,17
0880,1430,35,33
0882,3180,89,66
0888,1287,28,12
0889,1293,30,12
0893,1369,20,13
0899,2451,80,49
0907,1618,28,19
0917,6574,225,124
0928,3503,128,96
0935,8732,302,193
0938,1298,41,23
0944,558,11,11
0946,2110,44,20
0957,5529,97,54
0965,802,26,7
0971,2097,71,22
0981,634,21,14
0983,11691,208,156
0984,5117,61,44
0986,930,25,11
0988,5579,106,68
0994,1165,34,22
0995,5382,130,59
1507,5227,60,62
1509,3609,40,44
1525,3554,36,24
1581,3710,88,73
1586,2535,33,39
1598,2452,24,21
1621,5911,86,63
1640,3665,75,51
1641,2288,42,36
1652,2531,99,38
1655,2633,55,27
1658,1484,23,13
1659,2204,58,36
1667,1492,23,9
1669,1837,45,34
1674,7078,100,72
1676,1802,43,23
1680,1288,6,20
1681,1403,27,15
1684,2359,36,25
1685,1726,51,27
1690,1713,30,23
1695,485,15,9
1696,1783,24,18
1699,1508,27,25
1700,4010,38,30
1701,870,15,22
1702,1064,27,11
1705,3433,62,30
1706,2370,78,51
1708,2865,28,26
1709,3046,44,39
1711,2772,64,34
1714,1315,42,18
1719,2225,44,27
1721,3357,109,78
1723,790,24,5
1724,2115,28,10
1728,2548,38,26
1729,1049,30,19
1730,1404,22,24
1731,1883,32,28
1734,3183,71,29
1735,3232,32,29
1740,2492,62,32
1742,4200,52,52
1771,3916,74,27
1773,1169,19,9
1774,2761,36,35
1783,12532,179,86
1842,1811,17,14
1859,3535,39,43
1876,2781,36,20
1883,7305,193,135
1884,2337,25,10
1891,1323,14,17
1892,4294,110,46
1894,4443,163,82
1895,2594,42,37
1896,2249,50,30
1900,7124,66,88
1901,3658,72,36
1903,1901,77,46
1904,5283,135,66
1911,4106,47,33
1916,5822,143,82
1924,4027,126,86
1926,4813,65,35
1930,8043,168,96
1931,5770,137,62
1940,3201,50,31
1942,4527,54,32
1945,2903,55,50
1948,7875,255,163
1949,2719,34,35
1950,2130,35,21
1952,3440,52,38
1954,3055,87,47
1955,2765,41,24
1959,6268,84,68
1960,5265,85,60
1961,5675,114,68
1963,7725,147,61
1966,3137,30,20
1969,2945,34,23
1970,2968,42,37
1978,5062,48,33
1979,2613,45,20