0014,11277,80,43
0034,17265,309,93
0037,2192,18,16
0047,1583,10,10
0050,1437,21,13
0059,1908,19,37
0060,167,1,0
0072,644,9,3
0074,2227,30,37
0080,6219,86,69
0085,1185,14,6
0086,1325,25,7
0088,44,1,2
0090,2805,31,33
0093,217,3,2
0096,47,0,0
0098,1401,14,28
0106,3144,50,14
0109,2488,53,31
0114,7857,135,72
0118,3890,65,40
0119,1995,26,25
0141,6327,93,54
0147,2076,28,37
0148,1928,25,20
0150,6649,84,82
0153,11473,199,166
0158,2310,32,32
0160,4927,56,37
0163,3781,40,49
0164,6106,67,65
0166,2923,75,43
0168,2233,47,32
0171,2863,32,27
0173,2736,52,44
0175,1277,15,15
0177,2971,39,41
0180,1836,14,19
0183,2450,20,18
0184,2146,46,12
0189,2734,19,27
0193,6808,92,107
0197,2087,24,20
0200,10273,189,140
0202,10420,171,121
0203,6550,50,60
0209,1871,36,19
0213,1164,30,17
0214,2039,39,19
0216,2267,44,22
0221,662,17,9
0222,3968,56,27
0225,1613,40,27
0226,1686,27,13
0228,10058,132,80
0230,1686,37,14
0232,2303,73,49
0233,2116,39,33
0243,3697,79,46
0244,727,20,7
0246,1106,55,31
0252,1146,25,17
0262,1697,34,28
0263,2925,40,42
0267,3908,49,28
0268,12402,251,177
0269,1906,47,29
0273,2084,19,16
0274,1736,33,25
0275,3044,59,56
0277,87,1,0
0279,919,5,12
0281,3619,83,73
0285,1538,30,28
0289,2529,40,41
0293,934,19,8
0294,1571,15,15
0296,3151,74,51
0297,3274,37,41
0299,2619,75,46
0301,2452,48,29
0302,1884,77,31
0303,2577,61,24
0307,12083,228,132
0308,1813,33,27
0310,3201,74,76
0312,987,21,12
0313,3823,55,39
0317,809,18,5
0321,3348,65,51
0327,2031,39,23
0331,1376,38,12
0335,1204,24,8
0339,506,7,5
0340,2061,35,20
0342,3347,70,46
0344,26817,649,230
0345,7052,126,70
0351,1289,22,8
0352,1556,33,11
0353,2568,78,55
0355,4279,82,71
0356,4500,113,27
0358,2486,34,25
0361,8162,124,74
0362,6128,124,89
0363,75399,1775,747
0370,794,8,3
0373,2159,37,36
0375,3646,41,41
0376,846,12,6
0377,1393,13,16
0383,2667,25,22
0384,2617,45,31
0385,4273,87,18
0388,1764,30,11
0392,10966,191,146
0394,11721,168,105
0396,3470,58,32
0397,1648,24,59
0398,4771,56,34
0399,1429,22,15
0400,4574,55,34
0402,5578,78,78
0405,7779,91,55
0406,3542,55,53
0415,999,12,6
0416,2189,31,13
0417,861,16,26
0420,4888,55,25
0431,857,16,8
0432,1173,9,5
0437,1088,14,5
0439,6918,179,82
0441,3869,49,54
0448,398,6,4
0450,1117,12,7
0451,2140,34,15
0453,6108,94,89
0457,1799,17,20
0473,1155,20,42
0479,13466,279,168
0482,2192,37,21
0484,9682,173,113
0489,4542,94,45
0498,1927,19,12
0501,1270,30,9
0502,6510,163,136
0503,7713,91,74
0505,11940,241,164
0512,3441,44,37
0513,6469,211,151
0518,43943,1391,541
0523,2328,16,23
0530,2794,55,41
0531,3024,37,30
0532,2337,29,15
0534,1521,19,17
0537,7548,104,56
0542,3170,46,68
0546,8562,119,69
0547,1890,34,22
0553,1785,27,17
0556,2879,63,34
0569,2804,38,21
0575,3543,65,20
0579,1683,22,30
0589,871,38,12
0590,2863,43,45
0597,4709,102,86
0599,63357,1723,903
0603,4138,118,73
0606,7868,211,106
0610,2860,29,41
0613,2493,41,21
0614,900,21,16
0622,7132,159,89
0626,1522,22,23
0627,2492,63,14
0629,1721,35,30
0632,4195,126,38
0637,9383,148,64
0638,665,9,1
0642,4526,81,90
0654,1140,35,6
0664,2095,68,26
0668,1586,24,19
0677,1478,36,13
0678,778,11,6
0687,2867,70,24
0703,2158,38,15
0715,3391,105,28
0716,2063,61,24
0717,1167,27,7
0718,2721,110,31
0736,3352,107,34
0737,1674,20,28
0743,1350,32,17
0744,424,12,4
0748,5632,87,41
0753,2556,51,30
0755,803,40,23
0756,2738,36,43
0757,2800,49,67
0758,12971,234,144
0762,2849,84,41
0765,841,21,10
0766,2519,43,25
0770,2016,45,25
0772,18231,402,338
0777,3028,65,38
0779,1838,28,25
0784,2098,32,19
0785,1966,39,36
0786,1194,29,24
0794,8918,194,83
0796,13235,226,159
0797,4033,75,48
0798,1399,19,20
0809,2205,46,35
0815,1038,17,10
0820,1748,31,21
0823,1935,28,26
0824,2608,54,22
0826,4202,80,35
0828,8518,232,127
0840,1906,42,16
0845,2630,49,34
0847,1841,46,13
0848,1248,40,27
0851,1877,31,19
0852,1554,33,15
0855,19302,377,272
0856,3332,135,85
0858,2890,53,59
0861,4255,78,48
0865,2718,70,53
0866,1296,17,15
0867,4226,67,76
0873,1637,19,25
0879,1317,35,17
0880,1355,35,33
0882,2862,86,64
0888,1125,27,12
0889,1127,27,12
0893,1294,19,12
0899,2171,77,48
0907,1501,28,19
0917,5875,212,120
0928,3159,122,95
0935,7820,288,193
0938,1137,38,22
0944,521,11,11
0946,1998,44,20
0957,4930,93,54
0965,716,26,7
0971,1871,66,21
0981,566,21,14
0983,10650,198,147
0984,4756,60,43
0986,821,24,11
0988,5218,106,68
0994,1023,32,21
0995,4940,127,58
1507,4776,60,61
1509,3290,39,43
1525,3241,35,23
1581,3523,83,71
1586,2345,30,38
1598,2354,24,21
1621,5485,85,62
1640,3356,71,47
1641,2080,41,34
1652,2251,97,38
1655,2392,52,26
1658,1395,23,13
1659,2030,57,36
1667,1384,23,8
1669,1664,44,33
1674,6506,98,70
1676,1600,40,23
1680,1222,6,20
1681,1315,24,15
1684,2153,36,25
1685,1614,49,26
1690,1580,29,23
1695,435,14,9
1696,1649,22,16
1699,1432,23,25
1700,3784,38,29
1701,828,15,21
1702,967,26,11
1705,3150,62,30
1706,2205,76,51
1708,2593,27,24
1709,2738,43,38
1711,2443,61,31
1714,1231,41,18
1719,2027,42,25
1721,3024,109,78
1723,679,24,5
1724,1956,28,10
1728,2394,36,26
1729,983,30,19
1730,1317,20,23
1731,1743,30,28
1734,2821,71,29
1735,3023,32,29
1740,2319,61,32
1742,3904,49,49
1771,3616,74,26
1773,1076,17,9
1774,2626,34,34
1783,11583,173,86
1842,1679,17,14
1859,3176,37,42
1876,2588,33,18
1883,6312,187,130
1884,2187,23,10
1891,1255,13,17
1892,3950,104,45
1894,3982,161,81
1895,2427,41,36
1896,2092,47,29
1900,6743,64,87
1901,3407,69,36
1903,1762,74,45
1904,4830,128,65
1911,3844,47,32
1916,5371,132,82
1924,3677,121,85
1926,4476,63,35
1930,7271,159,94
1931,5303,134,62
1940,2887,44,31
1942,4290,52,31
1945,2602,53,48
1948,7092,253,163
1949,2527,27,35
1950,1997,35,21
1952,3230,49,37
1954,2675,82,44
1955,2472,41,23
1959,5849,84,68
1960,4843,83,59
1961,5266,108,67
1963,7105,143,61
1966,2883,28,20
1969,2656,34,22
1970,2721,40,36
1978,4556,48,33
1979,2433,42,16