0014,51317,9999,64
0034,58869,9999,126
0037,6986,9999,24
0047,5437,9999,19
0050,5028,9999,18
0059,6850,9999,41
0060,401,9999,1
0072,2649,9999,8
0074,10173,9999,44
0080,25427,9999,97
0085,4308,9999,7
0086,6103,9999,11
0088,106,9999,2
0090,11438,9999,42
0093,838,9999,2
0096,222,9999,1
0098,4919,9999,31
0106,12257,9999,26
0109,7578,9999,35
0114,23306,9999,96
0118,12833,9999,48
0119,7311,9999,37
0141,19958,9999,72
0147,6699,9999,41
0148,7250,9999,24
0150,25019,9999,102
0153,42453,9999,201
0158,6687,9999,34
0160,15665,9999,51
0163,9937,9999,54
0164,21174,9999,74
0166,14593,9999,59
0168,6257,9999,38
0171,11094,9999,34
0173,8919,9999,53
0175,4414,9999,19
0177,10045,9999,52
0180,6456,9999,29
0183,7080,9999,21
0184,6282,9999,24
0189,7820,9999,31
0193,32912,9999,148
0197,6051,9999,33
0200,41928,9999,197
0202,37809,9999,161
0203,18367,9999,83
0209,6934,9999,28
0213,4591,9999,25
0214,6961,9999,26
0216,7979,9999,24
0221,2061,9999,9
0222,14661,9999,54
0225,5490,9999,31
0226,5205,9999,19
0228,30238,9999,118
0230,6743,9999,26
0232,7834,9999,55
0233,7374,9999,45
0243,13226,9999,63
0244,3174,9999,7
0246,4030,9999,33
0252,4090,9999,21
0262,7529,9999,43
0263,8429,9999,45
0267,11910,9999,34
0268,48537,9999,235
0269,6678,9999,43
0273,7655,9999,21
0274,5389,9999,38
0275,9167,9999,87
0277,380,9999,0
0279,3147,9999,12
0281,12264,9999,80
0285,6113,9999,34
0289,8455,9999,72
0293,3110,9999,11
0294,6653,9999,25
0296,10548,9999,71
0297,9759,9999,50
0299,8663,9999,51
0301,10847,9999,48
0302,7658,9999,44
0303,9196,9999,32
0307,48802,9999,153
0308,7197,9999,30
0310,11315,9999,84
0312,3673,9999,15
0313,9521,9999,43
0317,2810,9999,7
0321,13998,9999,53
0327,8080,9999,32
0331,4599,9999,12
0335,4615,9999,10
0339,1883,9999,5
0340,6517,9999,26
0342,13809,9999,55
0344,110830,9999,306
0345,21929,9999,91
0351,4463,9999,9
0352,6012,9999,19
0353,10329,9999,59
0355,17338,9999,82
0356,17377,9999,37
0358,10212,9999,30
0361,31324,9999,95
0362,26046,9999,119
0363,276850,9999,990
0373,7473,9999,41
0375,11770,9999,46
0376,3450,9999,8
0377,6589,9999,22
0383,9899,9999,33
0384,9927,9999,43
0385,13484,9999,27
0388,4798,9999,17
0392,46140,9999,192
0394,45282,9999,140
0396,11191,9999,46
0397,7380,9999,68
0399,6040,9999,18
0400,15158,9999,51
0402,25305,9999,107
0405,22639,9999,59
0406,12122,9999,64
0415,3616,9999,13
0417,3025,9999,31
0420,13137,9999,29
0431,2944,9999,8
0432,3545,9999,7
0437,4356,9999,6
0439,25502,9999,107
0441,12845,9999,78
0448,2162,9999,4
0450,3923,9999,16
0451,8933,9999,21
0453,19138,9999,99
0457,5923,9999,23
0473,4415,9999,47
0479,46438,9999,194
0482,6930,9999,30
0484,31953,9999,148
0489,15498,9999,50
0498,5632,9999,13
0501,4527,9999,12
0502,20666,9999,159
0503,28267,9999,90
0505,37231,9999,220
0512,11630,9999,48
0513,21776,9999,166
0518,158175,9999,652
0523,6849,9999,31
0530,10046,9999,50
0531,10489,9999,41
0532,6245,9999,17
0534,5715,9999,23
0537,22836,9999,71
0542,9528,9999,78
0546,33952,9999,84
0547,6919,9999,29
0553,6320,9999,24
0556,9635,9999,46
0569,8839,9999,26
0575,12301,9999,32
0579,6494,9999,32
0589,3037,9999,12
0590,9324,9999,51
0597,14550,9999,109
0599,217320,9999,1077
0603,15735,9999,78
0606,24424,9999,127
0610,8924,9999,52
0613,8448,9999,23
0614,3551,9999,20
0622,22939,9999,112
0626,6447,9999,24
0627,9428,9999,19
0629,6868,9999,37
0632,15770,9999,46
0637,35714,9999,78
0638,2573,9999,1
0642,13283,9999,120
0654,6717,9999,13
0664,10404,9999,44
0668,5440,9999,20
0677,7579,9999,18
0678,3533,9999,8
0687,12790,9999,41
0703,8380,9999,25
0715,13989,9999,41
0716,8633,9999,36
0717,5599,9999,18
0718,11273,9999,42
0736,13314,9999,55
0737,7127,9999,36
0743,4688,9999,20
0744,1854,9999,4
0748,20228,9999,51
0753,8313,9999,38
0755,2840,9999,23
0757,9266,9999,73
0758,53301,9999,184
0762,9852,9999,51
0765,2696,9999,14
0766,7343,9999,32
0770,6045,9999,35
0772,64488,9999,413
0777,11856,9999,41
0779,6322,9999,30
0784,6892,9999,21
0785,6945,9999,43
0794,27559,9999,93
0796,45720,9999,194
0797,13282,9999,56
0798,4333,9999,20
0809,6809,9999,47
0820,5994,9999,27
0823,5595,9999,27
0824,8604,9999,27
0826,16066,9999,44
0828,24857,9999,143
0840,6471,9999,19
0845,8469,9999,46
0847,5763,9999,21
0848,4568,9999,30
0851,6418,9999,22
0852,4775,9999,18
0855,66216,9999,301
0858,8943,9999,72
0861,12329,9999,55
0865,9093,9999,56
0866,4801,9999,18
0867,13483,9999,83
0873,5482,9999,26
0879,5380,9999,19
0880,4484,9999,37
0882,10878,9999,94
0888,4527,9999,16
0889,3959,9999,15
0893,3968,9999,20
0899,8161,9999,71
0907,5024,9999,31
0917,24015,9999,161
0928,11996,9999,108
0935,32553,9999,255
0938,5300,9999,43
0944,1815,9999,13
0946,5186,9999,28
0957,17042,9999,79
0965,2637,9999,12
0971,7268,9999,28
0981,2058,9999,23
0983,34268,9999,201
0984,13941,9999,58
0986,3381,9999,14
0988,14927,9999,99
0994,4129,9999,36
0995,19255,9999,84
1507,14427,9999,78
1509,9644,9999,58
1525,10704,9999,28
1581,12201,9999,88
1586,7956,9999,49
1598,6837,9999,24
1621,20248,9999,72
1640,10031,9999,59
1641,6710,9999,44
1652,8205,9999,44
1655,8417,9999,31
1658,3948,9999,13
1659,6137,9999,45
1667,3973,9999,14
1669,5333,9999,40
1674,22223,9999,88
1676,7917,9999,40
1680,4339,9999,23
1681,4602,9999,27
1690,5603,9999,32
1695,1569,9999,12
1696,6768,9999,24
1699,5305,9999,27
1700,10427,9999,36
1701,3178,9999,24
1705,10930,9999,54
1706,6225,9999,60
1708,9136,9999,30
1709,9763,9999,54
1711,8871,9999,45
1714,4897,9999,26
1719,7487,9999,32
1721,9291,9999,82
1723,2630,9999,5
1724,5765,9999,15
1728,6466,9999,33
1729,3472,9999,22
1730,5614,9999,26
1731,5850,9999,32
1734,10499,9999,40
1735,9607,9999,39
1740,8950,9999,51
1742,12517,9999,68
1771,11207,9999,33
1773,3933,9999,10
1774,8225,9999,38
1783,37444,9999,101
1842,5928,9999,15
1859,10961,9999,58
1876,8481,9999,28
1883,25603,9999,171
1884,7449,9999,11
1891,5141,9999,27
1892,13821,9999,51
1894,12842,9999,93
1895,7505,9999,40
1896,7313,9999,35
1900,21205,9999,98
1901,11428,9999,39
1903,6830,9999,60
1904,18967,9999,77
1911,11911,9999,38
1916,20180,9999,107
1924,13718,9999,94
1926,17316,9999,43
1930,24193,9999,108
1931,16547,9999,69
1940,12033,9999,39
1942,17963,9999,45
1945,8930,9999,69
1948,21833,9999,180
1949,9297,9999,45
1950,6280,9999,25
1952,11979,9999,47
1954,10032,9999,72
1955,8618,9999,31
1959,17516,9999,76
1960,16122,9999,69
1961,18394,9999,82
1963,25390,9999,76
1966,11876,9999,38
1969,12146,9999,36
1970,11013,9999,57
1978,14956,9999,45
1979,7943,9999,29
1980,24992,9999,71
1982,24324,9999,137
1991,15305,9999,123