0014,20919,110,46
0034,24126,370,100
0037,2762,26,21
0047,2203,13,11
0050,2096,22,14
0059,2712,30,39
0060,278,3,1
0072,971,13,6
0074,3669,42,40
0080,9166,112,74
0085,1745,19,6
0086,2204,30,8
0088,49,1,2
0090,4296,50,34
0093,322,3,2
0096,82,0,0
0098,2083,21,29
0106,4517,70,15
0109,3234,57,31
0114,10133,180,79
0118,5373,80,41
0119,2686,34,27
0141,8803,117,59
0147,2870,31,39
0148,2615,28,20
0150,10195,118,89
0153,17541,265,175
0158,2963,35,32
0160,6473,62,37
0163,4769,47,51
0164,8690,89,69
0166,4407,81,44
0168,3096,50,38
0171,4017,39,29
0173,3949,56,45
0175,1681,15,16
0177,4015,45,42
0180,2564,18,21
0183,3523,27,19
0184,2692,55,19
0189,3493,22,28
0193,10111,114,116
0197,2722,33,22
0200,15371,216,159
0202,15728,216,128
0203,8636,72,64
0209,2784,41,23
0213,1824,34,21
0214,2801,40,20
0216,3196,49,22
0221,916,20,9
0222,5649,65,31
0225,2182,41,27
0226,2403,30,15
0228,13701,151,92
0230,2370,39,15
0232,3104,79,53
0233,2737,49,34
0243,4981,90,48
0244,1041,22,7
0246,1400,57,32
0252,1643,29,19
0262,2653,40,29
0263,3926,43,42
0267,5112,54,29
0268,19239,291,200
0269,2473,51,30
0273,2796,22,18
0274,2432,38,31
0275,4055,64,59
0277,128,1,0
0279,1193,5,12
0281,5097,90,73
0285,2194,32,30
0289,3804,45,42
0293,1401,24,9
0294,2453,19,17
0296,4680,84,61
0297,4242,43,43
0299,3814,86,48
0301,3764,56,29
0302,2958,84,32
0303,3547,67,25
0307,17059,280,143
0308,2561,35,28
0310,4400,78,78
0312,1330,22,12
0313,4492,62,39
0317,1091,20,6
0321,4965,77,51
0327,2781,42,25
0331,1840,40,12
0335,1624,31,8
0339,702,7,5
0340,2673,43,21
0342,4728,81,47
0344,42143,781,256
0345,8867,139,75
0351,1633,24,8
0352,2166,34,17
0353,3789,90,55
0355,6169,100,76
0356,6311,144,31
0358,3968,42,26
0361,11595,144,86
0362,9430,144,99
0363,116012,2162,853
0370,1074,9,3
0373,2946,39,38
0375,4932,47,42
0376,1265,14,6
0377,2173,19,17
0383,3729,29,24
0384,3999,57,38
0385,5709,98,23
0388,2117,31,11
0392,16525,234,154
0394,17359,201,111
0396,4573,64,32
0397,2599,27,61
0398,6693,65,38
0399,2209,24,15
0400,6010,71,40
0402,8595,103,89
0405,9597,97,55
0406,4811,64,55
0415,1405,14,6
0416,3096,36,17
0417,1241,17,29
0420,5971,60,26
0431,1099,17,8
0432,1459,11,6
0437,1622,18,5
0439,9684,200,86
0441,5187,58,60
0448,724,6,4
0450,1526,12,7
0451,3123,34,15
0453,8091,107,91
0457,2353,20,23
0473,1706,26,43
0479,18516,337,179
0482,3017,46,22
0484,12816,193,117
0489,6519,108,48
0498,2399,25,13
0501,1871,31,10
0502,9258,191,145
0503,11922,107,76
0505,16058,275,181
0512,4761,49,43
0513,8851,285,160
0518,64697,1800,568
0523,2972,19,25
0530,4182,73,44
0531,4075,42,32
0532,2823,30,15
0534,2126,23,18
0537,9604,116,61
0542,4144,50,71
0546,13708,144,75
0547,2672,37,23
0553,2505,29,17
0556,4059,72,34
0569,3695,46,22
0575,5118,69,24
0579,2331,23,31
0589,1163,38,12
0590,3993,48,46
0597,6667,121,90
0599,96680,2088,982
0603,5872,140,76
0606,10730,255,117
0610,3678,33,41
0613,3557,51,23
0614,1332,25,19
0622,10033,183,96
0626,2205,23,24
0627,3436,75,16
0629,2470,42,31
0632,6006,148,40
0637,13361,184,70
0638,960,10,1
0642,6009,93,102
0654,1780,43,9
0664,3189,102,31
0668,2250,25,19
0677,2008,41,13
0678,1198,16,6
0687,4094,80,26
0703,3333,60,17
0715,4589,125,29
0716,3351,73,30
0717,1623,32,7
0718,3818,135,32
0736,4929,122,36
0737,2335,23,29
0743,1994,34,18
0744,670,13,4
0748,8009,98,47
0753,3545,58,32
0755,1248,43,23
0756,3715,41,45
0757,3997,54,69
0758,20807,266,148
0762,4256,94,42
0765,1124,25,13
0766,3372,48,25
0770,2656,49,26
0772,26988,463,358
0777,4396,71,38
0779,2632,31,25
0784,2998,41,19
0785,2804,42,36
0786,1626,31,24
0794,12667,208,86
0796,19825,268,173
0797,5886,91,50
0798,1803,20,20
0809,2981,52,37
0815,1362,17,10
0820,2430,34,22
0823,2582,32,27
0824,3516,56,22
0826,6148,89,37
0828,11972,248,130
0840,2570,46,16
0845,3689,53,34
0847,2519,48,13
0848,1729,43,28
0851,2623,37,19
0852,2061,33,15
0855,28447,429,279
0856,4784,142,86
0858,3742,60,64
0861,5542,89,50
0865,3715,76,53
0866,1868,23,17
0867,6099,81,77
0873,2150,23,26
0879,1961,38,17
0880,1837,38,34
0882,3913,102,70
0888,1745,35,13
0889,1652,30,13
0893,1757,25,15
0899,3127,96,53
0907,1983,29,20
0917,8607,253,129
0928,4502,145,97
0935,12437,358,203
0938,1734,54,23
0944,701,11,11
0946,2505,47,20
0957,7275,118,65
0965,1025,28,9
0971,2717,78,24
0981,781,24,14
0983,15139,239,174
0984,6284,67,50
0986,1203,26,11
0988,7036,118,70
0994,1552,38,23
0995,7291,150,63
1507,6451,61,67
1509,4581,50,45
1525,4572,41,25
1581,4683,97,73
1586,3403,36,41
1598,2984,24,24
1621,7750,101,66
1640,4424,77,52
1641,2773,44,37
1652,3342,102,38
1655,3446,57,28
1658,1758,23,13
1659,2840,63,36
1667,1808,23,10
1669,2289,48,35
1674,8860,108,75
1676,2557,57,26
1680,1629,7,20
1681,1773,32,15
1684,3005,38,27
1685,2083,51,29
1690,2218,33,24
1695,612,20,9
1696,2297,27,18
1699,2079,33,25
1700,4890,42,30
1701,1090,17,22
1702,1340,28,11
1705,4361,65,35
1706,2816,79,52
1708,3656,33,27
1709,3991,50,44
1711,3503,65,36
1714,1622,46,18
1719,2982,50,30
1721,4356,115,78
1723,1024,24,5
1724,2485,28,11
1728,3035,40,28
1729,1330,34,20
1730,1954,25,24
1731,2324,38,30
1734,4457,75,30
1735,4191,34,29
1740,3195,65,35
1742,5462,57,54
1771,4915,80,28
1773,1578,21,10
1774,3725,38,36
1783,16075,197,86
1842,2374,19,14
1859,4391,45,43
1876,3474,37,21
1883,9628,227,145
1884,2968,26,10
1891,1744,20,17
1892,5551,124,47
1894,5557,165,85
1895,3076,45,38
1896,2653,53,30
1900,9071,87,91
1901,4544,80,37
1903,2487,90,47
1904,6845,149,69
1911,4889,54,34
1916,7833,167,88
1924,5347,133,90
1926,6424,78,39
1930,10221,186,99
1931,7058,153,64
1940,4497,58,34
1942,6351,64,38
1945,3664,56,51
1948,9955,266,168
1949,3414,43,37
1950,2644,36,21
1952,4355,56,40
1954,3897,102,54
1955,3478,45,25
1959,7531,89,68
1960,6707,87,61
1961,7045,128,77
1963,9890,159,67
1966,4412,39,20
1969,4233,39,26
1970,3848,53,39
1978,6310,56,35
1979,3157,52,23