0014,28416,137,60
0034,35645,422,119
0037,4127,37,23
0047,3156,17,17
0050,3315,24,17
0059,4757,43,40
0060,347,3,1
0072,1703,13,8
0074,7122,55,44
0080,16113,145,93
0085,3133,23,6
0086,4173,37,11
0088,67,1,2
0090,8121,70,40
0093,568,3,2
0096,121,1,1
0098,3552,24,29
0106,7233,81,25
0109,4870,66,35
0114,14995,225,89
0118,8225,93,46
0119,4229,40,37
0141,12403,141,68
0147,4072,38,41
0148,4216,37,24
0150,14485,137,95
0153,25693,304,196
0158,4289,37,33
0160,10192,81,47
0163,6733,57,53
0164,12921,100,72
0166,8483,97,54
0168,4206,55,38
0171,7415,44,32
0173,5594,65,51
0175,2667,16,17
0177,6242,50,51
0180,4393,29,29
0183,4508,27,21
0184,4472,70,24
0189,5100,29,30
0193,18004,146,142
0197,3962,34,33
0200,25055,255,187
0202,24648,248,152
0203,14396,92,78
0209,4205,49,28
0213,2887,42,23
0214,4337,53,25
0216,4952,54,24
0221,1387,24,9
0222,9102,78,48
0225,3341,49,30
0226,3548,35,17
0228,22136,187,116
0230,4034,50,22
0232,4940,87,55
0233,4636,54,42
0243,7706,99,60
0244,1747,24,7
0246,2381,58,32
0252,2475,31,21
0262,4471,45,40
0263,5249,49,44
0267,7922,58,34
0268,29169,348,230
0269,4297,63,40
0273,4474,26,21
0274,3742,44,38
0275,6275,75,76
0277,207,1,0
0279,2214,7,12
0281,7504,101,78
0285,3686,33,31
0289,5677,53,71
0293,2130,30,10
0294,3865,27,23
0296,6802,92,67
0297,6123,57,48
0299,6061,100,50
0301,6759,68,43
0302,5157,94,41
0303,5601,78,30
0307,27158,291,149
0308,4276,36,29
0310,6657,89,80
0312,2072,27,14
0313,6062,64,41
0317,1700,21,6
0321,8219,82,53
0327,4539,43,30
0331,2810,42,12
0335,2547,34,9
0339,1209,10,5
0340,4414,50,24
0342,7697,86,53
0344,60953,834,288
0345,14262,155,86
0351,2903,25,9
0352,3395,39,19
0353,5812,94,59
0355,9798,107,80
0356,9700,155,34
0358,6107,47,29
0361,17833,170,87
0362,13913,160,115
0363,155769,2365,943
0370,1652,9,4
0373,4377,44,41
0375,7131,61,44
0376,1902,16,7
0377,3557,20,19
0383,5621,41,30
0384,5576,62,41
0385,7879,107,27
0388,3138,34,17
0392,26051,268,185
0394,25818,237,131
0396,7046,78,41
0397,4225,36,67
0398,9872,76,44
0399,3486,26,18
0400,9296,93,50
0402,13630,126,104
0405,13609,108,57
0406,7268,73,60
0415,2054,16,8
0416,4679,39,19
0417,1837,20,31
0420,8470,66,29
0431,1709,18,8
0432,2206,13,6
0437,2490,20,5
0439,13600,223,91
0441,7487,69,73
0448,1202,7,4
0450,2237,14,12
0451,5076,44,19
0453,11463,128,98
0457,3370,23,23
0473,2531,32,46
0479,27017,384,189
0482,4746,51,27
0484,19666,215,144
0489,9560,117,50
0498,3491,29,13
0501,2805,34,11
0502,13023,216,157
0503,16416,126,85
0505,23618,304,215
0512,7279,55,46
0513,13271,319,165
0518,91346,2111,626
0523,4811,23,30
0530,6485,89,47
0531,6531,48,40
0532,3831,37,16
0534,3222,24,23
0537,14264,131,71
0542,6170,57,78
0546,20000,161,83
0547,4023,40,28
0553,3877,35,22
0556,5943,77,41
0569,5854,51,26
0575,7383,75,30
0579,3551,24,32
0589,1616,40,12
0590,6097,50,51
0597,9382,133,106
0599,130259,2314,1046
0603,8958,154,78
0606,14996,274,123
0610,6089,39,50
0613,5185,54,23
0614,2055,28,20
0622,14147,211,107
0626,3585,29,24
0627,5934,87,18
0629,3621,48,35
0632,9222,154,45
0637,19969,209,76
0638,1503,11,1
0642,8686,95,117
0654,3585,55,9
0664,6278,135,34
0668,3357,25,19
0677,4125,66,13
0678,2063,21,6
0687,7802,105,32
0703,5483,73,20
0715,8307,168,35
0716,5440,81,33
0717,3074,42,9
0718,6541,169,36
0736,7812,128,53
0737,4445,40,32
0743,3077,37,19
0744,1110,16,4
0748,11807,117,50
0753,5210,61,35
0755,1863,46,23
0756,6114,50,53
0757,6010,59,72
0758,31850,306,181
0762,6419,100,50
0765,1562,26,13
0766,4766,52,31
0770,3547,57,32
0772,39036,527,397
0777,7025,80,40
0779,3932,36,30
0784,4350,47,20
0785,4250,48,43
0786,2315,35,27
0794,17324,218,91
0796,28926,296,189
0797,8746,97,55
0798,2520,21,20
0809,4558,56,45
0815,2085,17,12
0820,3495,37,27
0823,3566,33,27
0824,5558,63,26
0826,9775,113,43
0828,16629,263,140
0840,3831,54,18
0845,5434,57,44
0847,3885,51,22
0848,2623,44,30
0851,3821,44,22
0852,2839,36,18
0855,42134,481,297
0856,7179,150,91
0858,5514,67,69
0861,7678,92,52
0865,5616,84,55
0866,2871,27,17
0867,9023,89,81
0873,3261,27,26
0879,3349,47,18
0880,2624,41,36
0882,7540,127,89
0888,3033,40,16
0889,2844,42,15
0893,2855,30,19
0899,5770,119,67
0907,3478,32,31
0917,16475,301,156
0928,8378,171,105
0935,21292,423,249
0938,3433,67,43
0944,1051,13,13
0946,3870,53,28
0957,11781,136,77
0965,1814,35,11
0971,4881,86,27
0981,1370,29,16
0983,24624,279,192
0984,9715,77,58
0986,2334,29,12
0988,10644,143,91
0994,2930,45,31
0995,12450,179,76
1507,10307,72,77
1509,6704,57,57
1525,6600,45,27
1581,7515,107,85
1586,4810,43,46
1598,4243,29,24
1621,12123,110,71
1640,6974,89,59
1641,4861,52,41
1652,5200,108,43
1655,4922,62,31
1658,2557,25,13
1659,3967,69,44
1667,2657,26,11
1669,3755,54,40
1674,13834,125,83
1676,4531,77,31
1680,2494,10,21
1681,2735,37,21
1684,5059,44,33
1685,2891,51,29
1690,3467,43,28
1695,1035,26,10
1696,3890,35,24
1699,3277,39,26
1700,6660,53,35
1701,1965,21,24
1702,2136,29,11
1705,7223,78,51
1706,4158,84,58
1708,5900,39,30
1709,6040,62,53
1711,6110,79,44
1714,2853,63,23
1719,4532,57,31
1721,6039,121,82
1723,1657,26,5
1724,3493,31,15
1728,4302,45,33
1729,2411,39,21
1730,3066,30,26
1731,3707,44,32
1734,6986,88,38
1735,6348,41,37
1740,6165,81,51
1742,8967,65,66
1771,6929,89,33
1773,2385,22,10
1774,4882,39,37
1783,23071,222,97
1842,3540,19,14
1859,6714,54,58
1876,5624,49,27
1883,16947,271,166
1884,4353,27,11
1891,3359,34,25
1892,8446,136,49
1894,8964,176,93
1895,4252,54,39
1896,4509,66,34
1900,13946,105,97
1901,7226,92,39
1903,4645,107,58
1904,10694,162,75
1911,7195,58,36
1916,11402,192,100
1924,8234,143,93
1926,9669,85,43
1930,14908,214,106
1931,10784,166,68
1940,7753,72,38
1942,9847,72,44
1945,5746,69,66
1948,14422,279,179
1949,5803,54,42
1950,3938,44,25
1952,6463,69,43
1954,6865,115,70
1955,5337,54,31
1959,12132,110,76
1960,10309,104,67
1961,11849,149,82
1963,15653,172,74
1966,6866,49,34
1969,7076,43,33
1970,7461,83,54
1978,10098,64,44
1979,4711,56,29