0014,6773,56,20
0034,11438,221,56
0037,1298,15,9
0047,761,5,5
0050,916,18,9
0059,697,2,2
0060,125,0,0
0072,246,5,2
0074,1029,19,24
0080,3165,58,24
0085,536,10,1
0086,583,16,1
0088,7,1,0
0090,1154,17,14
0093,132,1,1
0096,26,0,0
0098,635,6,12
0106,1618,32,9
0109,1250,31,12
0114,3931,68,41
0118,2283,44,24
0119,1077,16,14
0141,4428,57,39
0147,1382,25,17
0148,1173,19,16
0150,4508,70,64
0153,8004,148,111
0158,1718,26,28
0160,2765,41,26
0163,2234,21,23
0164,4393,56,46
0166,1889,68,41
0168,1583,27,18
0171,1965,27,21
0173,1965,36,38
0175,644,13,12
0177,1910,28,28
0180,1134,13,10
0183,1633,16,12
0184,1724,40,11
0189,1959,11,19
0193,4024,67,73
0197,1115,17,15
0200,6200,154,108
0202,7223,138,89
0203,4363,34,29
0209,1108,26,12
0213,759,25,10
0214,1248,30,14
0216,1431,35,14
0221,411,15,8
0222,2305,47,23
0225,871,32,18
0226,1188,23,8
0228,6821,105,62
0230,1043,33,12
0232,1320,62,30
0233,1472,35,29
0243,2269,62,30
0244,441,19,5
0246,640,55,29
0252,795,24,13
0262,1155,26,23
0263,1301,28,23
0267,2573,40,9
0268,7957,212,143
0269,1053,43,28
0273,1432,16,7
0274,1170,26,23
0275,1881,45,32
0277,66,1,0
0279,641,5,8
0281,2067,68,40
0285,923,24,12
0289,1586,31,31
0293,644,18,8
0294,1018,13,9
0296,2080,65,36
0297,1875,29,31
0299,1511,67,28
0301,1598,44,22
0302,1194,71,26
0303,1686,51,18
0307,8057,165,86
0308,1184,26,22
0310,2058,42,54
0312,659,16,11
0313,2540,40,32
0317,477,8,2
0321,2283,47,49
0327,1308,21,19
0331,746,25,9
0335,739,18,7
0339,347,6,5
0340,1380,23,13
0342,2363,51,39
0344,18617,497,191
0345,4933,93,49
0351,892,13,6
0352,953,16,9
0353,1577,59,46
0355,2900,57,41
0356,2640,75,19
0358,1558,19,22
0361,4455,91,52
0362,4128,96,83
0363,53204,1366,539
0370,347,5,2
0373,1287,28,29
0375,1842,27,17
0376,529,9,4
0377,866,11,8
0383,1438,19,14
0384,1888,35,25
0385,1877,64,10
0388,1098,24,9
0392,6892,152,123
0394,7468,132,83
0396,1851,45,23
0397,1066,21,51
0398,2453,41,16
0399,874,15,10
0400,1896,29,12
0402,3644,55,62
0405,3453,54,26
0406,2370,43,38
0415,574,9,5
0416,1304,23,7
0417,554,14,23
0420,2313,28,12
0431,561,14,4
0432,517,3,2
0437,783,8,2
0439,3322,112,52
0441,2014,31,24
0448,277,6,2
0450,727,8,7
0451,1315,28,8
0453,3322,69,68
0457,1245,14,17
0473,711,15,19
0479,8569,229,132
0482,1377,22,16
0484,6378,130,73
0489,2874,75,35
0498,1017,9,9
0501,774,25,8
0502,3969,111,102
0503,5214,74,53
0505,7319,131,113
0512,2207,25,26
0513,4332,133,116
0518,29759,938,433
0523,1269,5,10
0530,1700,39,15
0531,1861,16,21
0532,1114,22,7
0534,928,13,3
0537,4492,78,36
0542,2004,31,44
0546,5848,94,44
0547,1284,31,18
0553,1131,20,11
0556,1990,51,24
0569,1490,23,16
0575,2118,52,13
0579,1175,18,24
0589,542,32,12
0590,1746,14,27
0597,2739,63,58
0599,43255,1287,690
0603,2803,91,67
0606,5148,156,55
0610,1770,13,24
0613,1746,33,17
0614,565,11,8
0622,4730,107,60
0626,1014,14,17
0627,1565,50,11
0629,1116,23,24
0632,2659,84,28
0637,6403,101,40
0638,402,6,1
0642,2740,43,62
0654,570,13,3
0664,1004,33,15
0668,777,24,15
0677,898,23,11
0678,339,6,3
0687,1158,35,16
0703,931,10,5
0715,1979,50,15
0716,1153,51,22
0717,525,10,2
0718,997,24,7
0736,2136,78,31
0737,665,10,4
0743,790,24,15
0744,272,12,4
0748,3702,71,33
0753,1510,44,21
0755,552,39,21
0756,1763,32,36
0757,1656,43,52
0758,9108,219,132
0762,1667,72,35
0765,282,12,2
0766,1594,40,22
0770,1188,40,19
0772,10268,294,186
0777,2198,61,32
0779,1137,22,19
0784,1357,30,18
0785,1238,37,24
0786,809,29,23
0794,4799,155,55
0796,7763,187,130
0797,2364,69,43
0798,919,18,20
0809,1435,39,30
0815,612,14,7
0820,991,25,14
0823,1072,23,20
0824,1598,44,21
0826,2928,69,32
0828,4635,203,108
0840,1221,28,12
0845,1571,42,28
0847,1050,38,11
0848,697,38,23
0851,1115,24,15
0852,929,27,14
0855,11667,345,252
0856,1794,121,70
0858,1765,32,45
0861,2373,52,32
0865,1873,62,46
0866,792,9,10
0867,2806,62,69
0873,921,12,21
0879,960,32,13
0880,744,26,14
0882,1563,67,36
0888,689,20,12
0889,571,24,10
0893,748,13,6
0899,1191,63,32
0907,991,24,16
0917,3307,158,80
0928,1630,93,50
0935,5070,232,162
0938,722,27,21
0944,394,11,9
0946,1125,38,15
0957,2446,70,29
0965,464,24,5
0971,997,55,18
0981,286,15,9
0983,5508,173,112
0984,2918,50,28
0986,444,19,8
0988,3544,97,51
0994,648,28,13
0995,3213,109,48
1507,2629,52,51
1509,1662,30,27
1525,2069,27,9
1581,2408,52,38
1586,1479,26,30
1598,991,15,13
1621,3674,73,54
1640,1774,63,42
1641,1012,31,17
1652,1391,85,34
1655,1509,38,17
1658,833,20,13
1659,1202,47,30
1667,879,20,6
1669,783,31,15
1674,4091,66,58
1676,888,23,17
1680,654,3,1
1681,777,16,11
1684,1289,24,18
1685,1000,46,22
1690,825,21,10
1695,134,3,1
1696,1020,17,8
1699,547,11,17
1700,2430,27,13
1701,395,11,6
1702,609,22,11
1705,2160,53,20
1706,1311,69,43
1708,1376,21,14
1709,1622,32,26
1711,1209,46,22
1714,864,25,15
1719,1276,35,23
1721,1702,102,68
1723,467,21,5
1724,1261,25,6
1728,1528,27,19
1729,613,29,18
1730,699,13,13
1731,931,14,3
1734,1824,66,24
1735,1888,28,16
1740,1534,52,28
1742,2646,41,40
1771,2007,55,21
1773,570,13,8
1774,1842,27,22
1783,7191,129,69
1842,1089,14,9
1859,2045,30,35
1876,1553,23,12
1883,3618,159,92
1884,1261,17,3
1891,574,4,8
1892,2465,58,32
1894,2044,150,69
1895,1000,17,15
1896,955,40,24
1900,3280,31,44
1901,2051,38,19
1903,1167,64,33
1904,3125,77,44
1911,1810,36,9
1916,3689,91,60
1924,2334,87,58
1926,3055,43,25
1930,4532,110,64
1931,3114,91,55
1940,1246,32,13
1942,2573,44,24
1945,1718,45,36
1948,3997,233,151
1949,1192,20,23
1950,903,18,6
1952,1506,27,22
1954,1469,68,34
1955,1431,31,12
1959,3894,64,60
1960,2814,74,42
1961,3123,70,55
1963,3990,95,39
1966,1484,17,17
1969,1342,24,11
1970,1180,19,16
1978,2528,28,20
1979,1366,26,9