0014,18417,93,45
0034,20942,342,96
0037,2585,24,20
0047,2022,12,11
0050,1862,22,14
0059,2412,27,39
0060,267,3,1
0072,876,13,3
0074,3065,37,39
0080,7999,104,74
0085,1567,17,6
0086,1885,28,7
0088,46,1,2
0090,3778,44,34
0093,262,3,2
0096,71,0,0
0098,1901,20,29
0106,4092,68,15
0109,3008,57,31
0114,9348,166,79
0118,4850,77,41
0119,2445,34,27
0141,7967,108,59
0147,2646,30,38
0148,2419,26,20
0150,9165,106,88
0153,15421,243,175
0158,2798,34,32
0160,6013,60,37
0163,4496,44,51
0164,7744,78,68
0166,3919,80,44
0168,2840,50,33
0171,3655,36,28
0173,3604,55,45
0175,1538,15,15
0177,3628,42,41
0180,2423,18,21
0183,3296,26,19
0184,2637,54,19
0189,3279,21,27
0193,8912,107,113
0197,2586,32,22
0200,13682,205,147
0202,14033,204,126
0203,8092,65,64
0209,2580,41,22
0213,1627,33,18
0214,2630,40,20
0216,2921,47,22
0221,836,19,9
0222,5168,65,29
0225,2020,40,27
0226,2208,28,14
0228,12553,144,86
0230,2197,39,14
0232,2857,78,52
0233,2549,49,34
0243,4569,87,48
0244,954,21,7
0246,1313,57,32
0252,1509,27,19
0262,2393,37,29
0263,3739,43,42
0267,4730,52,29
0268,17494,275,190
0269,2323,50,30
0273,2628,21,18
0274,2214,37,26
0275,3782,63,58
0277,118,1,0
0279,1135,5,12
0281,4752,88,73
0285,2045,31,28
0289,3386,43,42
0293,1243,21,9
0294,2213,18,17
0296,4323,81,60
0297,3997,41,42
0299,3541,82,48
0301,3394,55,29
0302,2497,80,32
0303,3274,63,25
0307,15476,260,139
0308,2373,34,28
0310,4027,75,78
0312,1266,22,12
0313,4333,62,39
0317,1025,19,5
0321,4557,75,51
0327,2583,41,24
0331,1694,39,12
0335,1518,29,8
0339,659,7,5
0340,2519,42,21
0342,4334,77,47
0344,38387,732,250
0345,8252,135,75
0351,1521,22,8
0352,2043,34,17
0353,3534,87,55
0355,5545,89,73
0356,5752,134,30
0358,3619,38,26
0361,10384,143,85
0362,8461,136,92
0363,102329,1975,818
0370,984,9,3
0373,2690,39,38
0375,4502,45,42
0376,1110,14,6
0377,1949,16,17
0383,3368,27,24
0384,3522,53,36
0385,5343,96,23
0388,2001,30,11
0392,14590,220,150
0394,15422,185,110
0396,4241,63,32
0397,2248,26,60
0398,6072,61,37
0399,2006,23,15
0400,5537,67,39
0402,7665,91,86
0405,8878,94,55
0406,4328,63,53
0415,1276,12,6
0416,2782,35,16
0417,1126,16,26
0420,5574,58,26
0431,1018,16,8
0432,1341,11,6
0437,1458,16,5
0439,8818,192,84
0441,4771,56,58
0448,658,6,4
0450,1403,12,7
0451,2851,34,15
0453,7519,104,90
0457,2207,20,20
0473,1553,22,43
0479,16627,314,176
0482,2782,45,22
0484,11942,191,115
0489,5895,105,48
0498,2285,25,13
0501,1743,31,10
0502,8422,185,145
0503,10814,104,75
0505,14964,265,181
0512,4452,48,42
0513,8188,278,160
0518,57988,1697,555
0523,2855,17,25
0530,3725,69,43
0531,3764,41,32
0532,2717,29,15
0534,1949,21,17
0537,9007,113,59
0542,3910,49,71
0546,12392,138,70
0547,2474,36,23
0553,2282,28,17
0556,3689,69,34
0569,3497,46,22
0575,4648,66,22
0579,2145,23,31
0589,1106,38,12
0590,3700,47,46
0597,6172,114,89
0599,86945,1977,973
0603,5259,133,76
0606,9726,237,115
0610,3488,33,41
0613,3247,50,23
0614,1196,23,19
0622,9166,175,91
0626,2043,23,24
0627,3161,72,16
0629,2259,41,31
0632,5587,143,39
0637,12037,173,70
0638,904,10,1
0642,5573,90,102
0654,1644,42,6
0664,2938,99,31
0668,2119,25,19
0677,1909,41,13
0678,1113,16,6
0687,3749,78,25
0703,3114,59,17
0715,4239,119,29
0716,2997,71,30
0717,1504,31,7
0718,3473,130,32
0736,4452,118,35
0737,2080,22,28
0743,1781,33,18
0744,627,13,4
0748,7232,94,44
0753,3241,56,30
0755,1102,42,23
0756,3454,40,45
0757,3712,51,69
0758,18825,254,147
0762,3917,91,42
0765,1055,25,13
0766,3178,46,25
0770,2513,49,26
0772,24834,453,355
0777,4059,69,38
0779,2463,31,25
0784,2797,41,19
0785,2635,42,36
0786,1507,31,24
0794,11753,205,85
0796,18217,260,171
0797,5548,90,50
0798,1710,20,20
0809,2831,52,37
0815,1272,17,10
0820,2292,34,22
0823,2468,32,27
0824,3275,55,22
0826,5586,84,36
0828,11196,244,129
0840,2414,46,16
0845,3453,52,34
0847,2325,48,13
0848,1624,42,28
0851,2438,33,19
0852,1957,33,15
0855,25927,414,277
0856,4442,139,86
0858,3559,59,63
0861,5256,85,50
0865,3466,75,53
0866,1726,19,17
0867,5706,80,77
0873,2054,23,26
0879,1812,36,17
0880,1684,35,33
0882,3675,99,70
0888,1582,32,12
0889,1533,30,13
0893,1647,25,15
0899,2880,89,52
0907,1863,28,19
0917,7731,244,126
0928,4121,142,96
0935,11154,343,198
0938,1543,50,23
0944,651,11,11
0946,2353,47,20
0957,6591,107,61
0965,925,27,9
0971,2451,78,24
0981,724,24,14
0983,14212,229,170
0984,5892,64,49
0986,1094,25,11
0988,6451,114,69
0994,1379,37,23
0995,6194,139,62
1507,6068,61,66
1509,4303,49,45
1525,4239,39,25
1581,4356,92,73
1586,3129,35,41
1598,2799,24,24
1621,7023,96,63
1640,4204,76,52
1641,2622,43,36
1652,3069,101,38
1655,3262,57,27
1658,1635,23,13
1659,2701,62,36
1667,1710,23,10
1669,2150,48,35
1674,8181,103,75
1676,2279,55,25
1680,1543,7,20
1681,1651,32,15
1684,2772,37,27
1685,1950,51,28
1690,2110,33,24
1695,581,18,9
1696,2136,25,18
1699,1863,31,25
1700,4713,41,30
1701,1021,17,22
1702,1263,27,11
1705,4053,63,35
1706,2697,79,52
1708,3335,33,27
1709,3708,46,41
1711,3215,65,36
1714,1515,45,18
1719,2773,49,30
1721,3968,111,78
1723,975,24,5
1724,2359,28,11
1728,2906,39,27
1729,1202,31,19
1730,1740,23,24
1731,2135,35,30
1734,4064,74,30
1735,3866,34,29
1740,3000,63,34
1742,5032,55,54
1771,4594,77,28
1773,1458,21,10
1774,3436,37,35
1783,14573,188,86
1842,2140,19,14
1859,4139,42,42
1876,3251,37,21
1883,8741,217,145
1884,2750,25,10
1891,1510,18,17
1892,5095,121,47
1894,5131,165,85
1895,2915,44,37
1896,2520,52,30
1900,8216,76,90
1901,4232,75,37
1903,2259,87,47
1904,6294,146,69
1911,4601,49,34
1916,7109,157,84
1924,4974,130,89
1926,5789,72,38
1930,9313,185,99
1931,6670,153,64
1940,3936,55,33
1942,5645,61,35
1945,3409,56,51
1948,9332,263,167
1949,3027,40,37
1950,2411,36,21
1952,3984,55,39
1954,3592,99,49
1955,3256,42,24
1959,7123,87,68
1960,6282,87,61
1961,6549,124,76
1963,9088,155,66
1966,3822,33,20
1969,3781,38,25
1970,3374,48,38
1978,5981,54,35
1979,2937,49,23