"Category";"Meldingen";"Meldingen per 100000";"Zkh opname";"Zkh opname per 100000";"Overleden";"Overleden per 100000"
"'s-Hertogenbosch";525;340,50;126;81,70;78;50,60
"Aa en Hunze";14;55,10;1;3,90;0;0,00
"Aalsmeer";43;135,50;9;28,40;4;12,60
"Aalten";60;222,10;9;33,30;7;25,90
"Achtkarspelen";13;46,70;0;0,00;0;0,00
"Alblasserdam";44;219,20;10;49,80;4;19,90
"Albrandswaard";111;439,20;14;55,40;8;31,70
"Alkmaar";248;228,40;54;49,70;31;28,60
"Almelo";93;127,70;23;31,60;9;12,40
"Almere";454;218,40;124;59,60;31;14,90
"Alphen aan den Rijn";227;204,50;62;55,90;25;22,50
"Alphen-Chaam";52;512,40;18;177,40;5;49,30
"Altena";136;245,50;32;57,80;11;19,90
"Ameland";0;0,00;0;0,00;0;0,00
"Amersfoort";254;162,50;61;39,00;23;14,70
"Amstelveen";332;365,50;58;63,80;35;38,50
"Amsterdam";2873;332,90;623;72,20;282;32,70
"Apeldoorn";456;280,70;96;59,10;50;30,80
"Appingedam";5;42,70;3;25,60;0;0,00
"Arnhem";419;263,10;67;42,10;32;20,10
"Assen";50;73,60;12;17,70;2;2,90
"Asten";78;466,80;18;107,70;12;71,80
"Baarle-Nassau";25;365,10;9;131,40;2;29,20
"Baarn";63;254,40;11;44,40;9;36,30
"Barendrecht";146;300,00;40;82,20;12;24,70
"Barneveld";139;239,80;18;31,10;6;10,40
"Beek";44;276,20;16;100,40;6;37,70
"Beekdaelen";172;481,40;52;145,50;23;64,40
"Beemster";14;143,60;4;41,00;1;10,30
"Beesel";44;325,50;20;147,90;8;59,20
"Berg en Dal";182;523,00;29;83,30;16;46,00
"Bergeijk";58;313,70;19;102,80;5;27,00
"Bergen (L.)";25;190,30;7;53,30;2;15,20
"Bergen (NH.)";91;303,60;16;53,40;4;13,30
"Bergen op Zoom";185;276,90;24;35,90;13;19,50
"Berkelland";95;216,40;13;29,60;7;15,90
"Bernheze";282;915,40;95;308,40;65;211,00
"Best";82;275,00;31;104,00;10;33,50
"Beuningen";75;289,80;19;73,40;5;19,30
"Beverwijk";83;201,60;15;36,40;10;24,30
"Bladel";78;386,60;21;104,10;8;39,70
"Blaricum";33;294,60;8;71,40;2;17,90
"Bloemendaal";52;222,10;7;29,90;5;21,40
"Bodegraven-Reeuwijk";68;197,30;7;20,30;1;2,90
"Boekel";89;840,60;34;321,10;20;188,90
"Borger-Odoorn";10;39,40;4;15,80;3;11,80
"Borne";50;215,40;14;60,30;6;25,90
"Borsele";28;122,80;5;21,90;0;0,00
"Boxmeer";127;437,00;20;68,80;27;92,90
"Boxtel";134;435,80;24;78,10;26;84,60
"Breda";552;300,20;146;79,40;63;34,30
"Brielle";33;192,10;11;64,00;0;0,00
"Bronckhorst";75;207,10;17;46,90;7;19,30
"Brummen";36;173,90;18;87,00;6;29,00
"Brunssum";110;391,40;44;156,60;19;67,60
"Bunnik";46;302,80;9;59,20;1;6,60
"Bunschoten";68;315,20;9;41,70;7;32,40
"Buren";63;237,10;17;64,00;8;30,10
"Capelle aan den IJssel";328;490,90;54;80,80;54;80,80
"Castricum";79;220,80;15;41,90;9;25,20
"Coevorden";57;160,60;13;36,60;2;5,60
"Cranendonck";173;846,40;63;308,20;36;176,10
"Cuijk";79;316,90;12;48,10;10;40,10
"Culemborg";80;280,20;21;73,50;7;24,50
"Dalfsen";82;287,70;16;56,10;6;21,10
"Dantumadiel";5;26,40;2;10,60;0;0,00
"De Bilt";187;436,70;27;63,00;24;56,00
"De Fryske Marren";72;140,00;16;31,10;6;11,70
"De Ronde Venen";105;238,30;39;88,50;13;29,50
"De Wolden";48;199,10;11;45,60;5;20,70
"Delft";161;156,10;38;36,80;12;11,60
"Delfzijl";18;72,80;6;24,30;0;0,00
"Den Helder";42;75,50;12;21,60;2;3,60
"Deurne";192;593,30;55;170,00;24;74,20
"Deventer";340;340,10;47;47,00;33;33,00
"Diemen";107;366,50;17;58,20;13;44,50
"Dinkelland";74;280,80;20;75,90;10;38,00
"Doesburg";32;287,00;9;80,70;6;53,80
"Doetinchem";102;177,20;26;45,20;15;26,10
"Dongen";86;330,10;20;76,80;13;49,90
"Dordrecht";555;467,70;85;71,60;62;52,30
"Drechterland";46;234,70;5;25,50;8;40,80
"Drimmelen";69;254,10;18;66,30;8;29,50
"Dronten";124;303,80;30;73,50;12;29,40
"Druten";115;611,80;25;133,00;8;42,60
"Duiven";52;205,30;14;55,30;6;23,70
"Echt-Susteren";93;294,00;39;123,30;16;50,60
"Edam-Volendam";126;349,00;25;69,30;3;8,30
"Ede";223;192,70;54;46,70;20;17,30
"Eemnes";20;219,50;2;21,90;1;11,00
"Eersel";69;361,10;27;141,30;10;52,30
"Eijsden-Margraten";175;682,00;54;210,50;27;105,20
"Eindhoven";562;242,60;182;78,60;85;36,70
"Elburg";151;654,10;28;121,30;8;34,70
"Emmen";104;97,10;20;18,70;11;10,30
"Enkhuizen";30;162,10;18;97,30;4;21,60
"Enschede";256;161,00;53;33,30;25;15,70
"Epe";138;416,40;48;144,80;23;69,40
"Ermelo";149;554,80;33;122,90;23;85,60
"Etten-Leur";207;472,90;40;91,40;30;68,50
"Geertruidenberg";43;199,90;11;51,10;6;27,90
"Geldrop-Mierlo";110;277,80;33;83,30;16;40,40
"Gemert-Bakel";218;716,00;79;259,50;32;105,10
"Gennep";58;339,80;16;93,70;10;58,60
"Gilze en Rijen";86;325,40;20;75,70;15;56,80
"Goeree-Overflakkee";264;532,10;54;108,80;34;68,50
"Goes";121;321,40;11;29,20;11;29,20
"Goirle";83;348,80;32;134,50;17;71,40
"Gooise Meren";122;211,40;23;39,90;9;15,60
"Gorinchem";152;414,40;18;49,10;15;40,90
"Gouda";274;374,40;43;58,80;41;56,00
"Grave";71;568,80;21;168,20;11;88,10
"Groningen";178;77,00;18;7,80;3;1,30
"Gulpen-Wittem";79;554,50;21;147,40;14;98,30
"Haaksbergen";56;230,70;14;57,70;7;28,80
"Haaren";58;408,60;18;126,80;8;56,40
"Haarlem";302;187,30;61;37,80;57;35,30
"Haarlemmermeer";318;206,20;68;44,10;27;17,50
"Halderberge";60;198,70;14;46,40;7;23,20
"Hardenberg";170;280,60;23;38,00;8;13,20
"Harderwijk";179;376,20;42;88,30;20;42,00
"Hardinxveld-Giessendam";35;193,90;2;11,10;2;11,10
"Harlingen";17;107,90;4;25,40;1;6,30
"Hattem";42;345,00;16;131,40;5;41,10
"Heemskerk";94;240,00;28;71,50;10;25,50
"Heemstede";100;366,50;11;40,30;32;117,30
"Heerde";192;1035,30;55;296,60;28;151,00
"Heerenveen";95;189,00;13;25,90;21;41,80
"Heerhugowaard";150;264,40;27;47,60;9;15,90
"Heerlen";389;448,00;125;144,00;54;62,20
"Heeze-Leende";70;438,50;16;100,20;8;50,10
"Heiloo";49;208,80;9;38,40;8;34,10
"Hellendoorn";96;268,10;8;22,30;12;33,50
"Hellevoetsluis";78;194,80;16;40,00;3;7,50
"Helmond";430;469,80;115;125,70;43;47,00
"Hendrik-Ido-Ambacht";72;232,50;10;32,30;6;19,40
"Hengelo";129;159,90;21;26,00;19;23,50
"Het Hogeland";35;73,10;7;14,60;3;6,30
"Heumen";73;442,80;17;103,10;9;54,60
"Heusden";146;330,80;44;99,70;22;49,80
"Hillegom";63;286,80;8;36,40;2;9,10
"Hilvarenbeek";51;332,60;9;58,70;6;39,10
"Hilversum";225;249,30;33;36,60;24;26,60
"Hoeksche Waard";312;360,00;75;86,50;20;23,10
"Hof van Twente";63;180,30;15;42,90;5;14,30
"Hollands Kroon";63;131,80;26;54,40;6;12,50
"Hoogeveen";93;167,10;19;34,10;8;14,40
"Hoorn";100;137,00;35;47,90;12;16,40
"Horst aan de Maas";136;321,60;41;96,90;24;56,70
"Houten";144;288,50;24;48,10;14;28,00
"Huizen";159;385,20;22;53,30;10;24,20
"Hulst";31;112,60;9;32,70;5;18,20
"IJsselstein";154;450,80;36;105,40;34;99,50
"Kaag en Braassem";33;122,80;7;26,10;2;7,40
"Kampen";343;637,80;59;109,70;27;50,20
"Kapelle";25;195,50;3;23,50;1;7,80
"Katwijk";281;430,30;31;47,50;15;23,00
"Kerkrade";208;455,70;64;140,20;35;76,70
"Koggenland";36;158,30;6;26,40;6;26,40
"Krimpen aan den IJssel";82;279,10;10;34,00;8;27,20
"Krimpenerwaard";198;353,30;45;80,30;34;60,70
"Laarbeek";125;559,70;41;183,60;26;116,40
"Landerd";146;940,20;39;251,10;21;135,20
"Landgraaf";145;385,70;52;138,30;13;34,60
"Landsmeer";23;200,20;3;26,10;3;26,10
"Langedijk";46;164,30;16;57,20;4;14,30
"Lansingerland";199;323,00;43;69,80;25;40,60
"Laren";25;223,30;8;71,50;2;17,90
"Leeuwarden";69;56,00;33;26,80;6;4,90
"Leiden";180;144,10;40;32,00;18;14,40
"Leiderdorp";40;147,60;14;51,60;6;22,10
"Leidschendam-Voorburg";162;214,80;20;26,50;15;19,90
"Lelystad";191;245,20;63;80,90;29;37,20
"Leudal";191;535,30;53;148,50;33;92,50
"Leusden";54;179,80;9;30,00;5;16,70
"Lingewaard";131;281,90;31;66,70;10;21,50
"Lisse";31;136,00;8;35,10;2;8,80
"Lochem";97;288,80;15;44,70;15;44,70
"Loon op Zand";61;261,50;24;102,90;7;30,00
"Lopik";63;435,30;19;131,30;8;55,30
"Loppersum";2;20,80;0;0,00;0;0,00
"Losser";26;114,90;7;30,90;0;0,00
"Maasdriel";62;251,10;15;60,70;7;28,30
"Maasgouw";107;451,20;27;113,80;14;59,00
"Maassluis";94;286,90;20;61,00;9;27,50
"Maastricht";918;755,20;186;153,00;140;115,20
"Medemblik";74;165,10;19;42,40;6;13,40
"Meerssen";118;623,60;22;116,30;13;68,70
"Meierijstad";558;690,50;211;261,10;131;162,10
"Meppel";46;137,10;10;29,80;5;14,90
"Middelburg";65;133,90;18;37,10;10;20,60
"Midden-Delfland";30;154,70;4;20,60;0;0,00
"Midden-Drenthe";22;66,30;6;18,10;0;0,00
"Midden-Groningen";32;52,50;6;9,90;3;4,90
"Mill en Sint Hubert";41;376,50;9;82,60;5;45,90
"Moerdijk";83;224,60;14;37,90;8;21,60
"Molenlanden";123;280,50;18;41,00;8;18,20
"Montferland";103;285,90;21;58,30;9;25,00
"Montfoort";45;321,50;13;92,90;5;35,70
"Mook en Middelaar";40;512,40;6;76,90;5;64,10
"Neder-Betuwe";145;603,30;37;153,90;21;87,40
"Nederweert";53;311,70;31;182,30;7;41,20
"Nieuwegein";159;252,20;44;69,80;14;22,20
"Nieuwkoop";52;181,60;9;31,40;5;17,50
"Nijkerk";68;158,30;22;51,20;3;7,00
"Nijmegen";677;383,10;128;72,40;70;39,60
"Nissewaard";217;255,90;55;64,90;17;20,00
"Noardeast-Fryslân";29;64,20;6;13,30;4;8,90
"Noord-Beveland";11;150,50;1;13,70;0;0,00
"Noordenveld";21;67,10;4;12,80;1;3,20
"Noordoostpolder";81;172,90;14;29,90;10;21,30
"Noordwijk";55;128,30;19;44,30;3;7,00
"Nuenen, Gerwen en Nederwetten";55;237,20;18;77,60;9;38,80
"Nunspeet";222;807,80;55;200,10;21;76,40
"Oegstgeest";46;188,30;8;32,80;3;12,30
"Oirschot";67;359,80;13;69,80;9;48,30
"Oisterwijk";76;290,70;23;88,00;11;42,10
"Oldambt";13;34,10;7;18,40;2;5,20
"Oldebroek";170;720,40;40;169,50;19;80,50
"Oldenzaal";49;153,90;13;40,80;7;22,00
"Olst-Wijhe";51;282,20;12;66,40;8;44,30
"Ommen";54;303,10;9;50,50;2;11,20
"Oost Gelre";76;255,90;18;60,60;6;20,20
"Oosterhout";139;249,90;48;86,30;17;30,60
"Ooststellingwerf";8;31,40;3;11,80;0;0,00
"Oostzaan";26;266,50;11;112,70;2;20,50
"Opmeer";9;76,40;1;8,50;1;8,50
"Opsterland";24;80,70;7;23,60;0;0,00
"Oss";493;539,10;164;179,30;87;95,10
"Oude IJsselstreek";78;197,60;21;53,20;9;22,80
"Ouder-Amstel";40;287,40;5;35,90;0;0,00
"Oudewater";61;598,00;26;254,90;8;78,40
"Overbetuwe";139;292,40;57;119,90;16;33,70
"Papendrecht";82;253,90;9;27,90;7;21,70
"Peel en Maas";280;646,50;144;332,50;65;150,10
"Pekela";5;40,90;4;32,70;0;0,00
"Pijnacker-Nootdorp";137;252,20;24;44,20;16;29,40
"Purmerend";228;284,60;66;82,40;35;43,70
"Putten";35;144,60;10;41,30;0;0,00
"Raalte";155;413,20;24;64,00;17;45,30
"Reimerswaal";35;154,30;4;17,60;2;8,80
"Renkum";80;255,60;14;44,70;7;22,40
"Renswoude";19;361,30;5;95,10;5;95,10
"Reusel-De Mierden";24;183,80;11;84,20;2;15,30
"Rheden";146;334,60;34;77,90;14;32,10
"Rhenen";48;240,00;11;55,00;6;30,00
"Ridderkerk";155;335,20;37;80,00;16;34,60
"Rijssen-Holten";202;527,40;29;75,70;23;60,10
"Rijswijk";152;284,30;36;67,30;22;41,10
"Roerdalen";49;237,70;27;131,00;8;38,80
"Roermond";138;237,10;59;101,40;23;39,50
"Roosendaal";234;303,80;28;36,30;21;27,30
"Rotterdam";2973;461,20;527;81,80;347;53,80
"Rozendaal";3;181,40;1;60,50;0;0,00
"Rucphen";70;310,10;10;44,30;10;44,30
"s-Gravenhage";1921;357,20;344;64,00;243;45,20
"Schagen";75;161,10;18;38,70;10;21,50
"Scherpenzeel";33;334,20;4;40,50;2;20,30
"Schiedam";298;382,10;58;74,40;23;29,50
"Schiermonnikoog";0;0,00;0;0,00;0;0,00
"Schouwen-Duiveland";94;278,30;11;32,60;9;26,60
"Simpelveld";48;456,40;19;180,70;5;47,50
"Sint Anthonis";70;603,10;20;172,30;11;94,80
"Sint-Michielsgestel";120;413,90;36;124,20;19;65,50
"Sittard-Geleen";413;445,70;115;124,10;63;68,00
"Sliedrecht";67;267,70;9;36,00;5;20,00
"Sluis";18;77,00;9;38,50;4;17,10
"Smallingerland";58;103,70;9;16,10;5;8,90
"Soest";96;207,80;23;49,80;12;26,00
"Someren";106;548,60;33;170,80;8;41,40
"Son en Breugel";74;437,80;31;183,40;14;82,80
"Stadskanaal";9;28,30;2;6,30;2;6,30
"Staphorst";61;358,80;8;47,10;4;23,50
"Stede Broec";49;225,70;18;82,90;5;23,00
"Steenbergen";93;371,20;13;51,90;13;51,90
"Steenwijkerland";105;239,00;14;31,90;5;11,40
"Stein";122;488,80;43;172,30;15;60,10
"Stichtse Vecht";134;208,30;34;52,80;13;20,20
"Súdwest-Fryslân";106;118,20;18;20,10;6;6,70
"Terneuzen";119;218,00;25;45,80;4;7,30
"Terschelling";2;40,90;0;0,00;0;0,00
"Texel";11;81,20;5;36,90;2;14,80
"Teylingen";65;175,40;14;37,80;2;5,40
"Tholen";170;659,40;40;155,20;16;62,10
"Tiel";150;357,30;42;100,10;18;42,90
"Tilburg";842;387,60;250;115,10;162;74,60
"Tubbergen";81;380,70;12;56,40;5;23,50
"Twenterand";61;180,50;12;35,50;2;5,90
"Tynaarlo";40;118,70;9;26,70;0;0,00
"Tytsjerksteradiel";16;50,30;4;12,60;1;3,10
"Uden";263;629,50;115;275,20;63;150,80
"Uitgeest";25;184,80;5;37,00;1;7,40
"Uithoorn";57;193,70;16;54,40;2;6,80
"Urk";83;399,50;22;105,90;4;19,30
"Utrecht";1405;398,20;268;75,90;118;33,40
"Utrechtse Heuvelrug";124;250,40;28;56,50;14;28,30
"Vaals";31;307,20;10;99,10;2;19,80
"Valkenburg aan de Geul";88;534,30;19;115,40;7;42,50
"Valkenswaard";180;582,30;19;61,50;37;119,70
"Veendam";8;29,10;2;7,30;0;0,00
"Veenendaal";197;300,40;47;71,70;11;16,80
"Veere";29;132,80;6;27,50;2;9,20
"Veldhoven";131;288,90;31;68,40;16;35,30
"Velsen";285;417,00;32;46,80;39;57,10
"Venlo";309;304,10;129;127,00;63;62,00
"Venray";126;290,80;37;85,40;17;39,20
"Vijfheerenlanden";274;491,80;34;61,00;37;66,40
"Vlaardingen";315;435,10;43;59,40;30;41,40
"Vlieland";0;0,00;0;0,00;0;0,00
"Vlissingen";54;121,70;9;20,30;5;11,30
"Voerendaal";47;377,40;17;136,50;8;64,20
"Voorschoten";67;263,00;9;35,30;11;43,20
"Voorst";82;335,80;17;69,60;11;45,10
"Vught";106;401,60;42;159,10;17;64,40
"Waadhoeke";101;219,40;12;26,10;15;32,60
"Waalre";30;173,90;7;40,60;5;29,00
"Waalwijk";186;385,60;36;74,60;36;74,60
"Waddinxveen";91;321,40;16;56,50;7;24,70
"Wageningen";55;141,80;20;51,60;9;23,20
"Wassenaar";56;213,70;9;34,30;12;45,80
"Waterland";34;196,40;16;92,40;4;23,10
"Weert";142;284,90;67;134,40;14;28,10
"Weesp";81;419,00;9;46,60;13;67,20
"West Betuwe";214;422,10;43;84,80;27;53,30
"West Maas en Waal";85;445,60;20;104,80;9;47,20
"Westerkwartier";58;92,00;14;22,20;4;6,30
"Westerveld";35;180,90;9;46,50;4;20,70
"Westervoort";43;287,70;12;80,30;6;40,10
"Westerwolde";6;23,80;5;19,80;0;0,00
"Westland";300;276,20;57;52,50;30;27,60
"Weststellingwerf";28;108,40;3;11,60;4;15,50
"Westvoorne";25;170,90;6;41,00;0;0,00
"Wierden";50;205,30;5;20,50;6;24,60
"Wijchen";150;366,30;44;107,40;13;31,70
"Wijdemeren";34;141,60;8;33,30;0;0,00
"Wijk bij Duurstede";41;172,50;10;42,10;1;4,20
"Winterswijk";48;166,10;7;24,20;3;10,40
"Woensdrecht";72;329,30;5;22,90;7;32,00
"Woerden";180;344,80;49;93,90;20;38,30
"Wormerland";49;300,10;20;122,50;6;36,70
"Woudenberg";33;250,60;9;68,40;2;15,20
"Zaanstad";468;300,20;117;75,10;48;30,80
"Zaltbommel";100;351,50;20;70,30;9;31,60
"Zandvoort";36;211,60;10;58,80;8;47,00
"Zeewolde";50;224,10;12;53,80;6;26,90
"Zeist";222;347,20;37;57,90;24;37,50
"Zevenaar";120;275,90;44;101,20;15;34,50
"Zoetermeer";255;204,10;53;42,40;14;11,20
"Zoeterwoude";14;165,70;3;35,50;1;11,80
"Zuidplas";156;364,80;24;56,10;21;49,10
"Zundert";108;499,70;24;111,00;11;50,90
"Zutphen";104;218,40;30;63,00;13;27,30
"Zwartewaterland";146;648,80;35;155,50;19;84,40
"Zwijndrecht";164;367,40;23;51,50;26;58,20
"Zwolle";363;284,70;53;41,60;46;36,10