"Category";"Meldingen";"Meldingen per 100000";"Zkh opname";"Zkh opname per 100000";"Overleden";"Overleden per 100000"
"'s-Hertogenbosch";5277;3396,20;173;111,30;109;70,20
"Aa en Hunze";361;1422,20;2;7,90;1;3,90
"Aalsmeer";1128;3538,00;18;56,50;21;65,90
"Aalten";668;2465,60;14;51,70;12;44,30
"Achtkarspelen";337;1210,00;1;3,60;0;0,00
"Alblasserdam";966;4794,00;15;74,40;13;64,50
"Albrandswaard";1323;5156,90;32;124,70;16;62,40
"Alkmaar";2934;2677,30;81;73,90;42;38,30
"Almelo";2868;3921,70;43;58,80;25;34,20
"Almere";7079;3332,70;190;89,50;50;23,50
"Alphen aan den Rijn";4331;3610,60;113;94,20;57;47,50
"Alphen-Chaam";357;3488,40;20;195,40;5;48,90
"Altena";2392;4274,00;52;92,90;42;75,00
"Ameland";50;1339,00;0;0,00;0;0,00
"Amersfoort";5264;3346,20;131;83,30;62;39,40
"Amstelveen";3190;3476,20;88;95,90;68;74,10
"Amsterdam";42505;4861,80;1215;139,00;443;50,70
"Apeldoorn";3685;2249,00;135;82,40;68;41,50
"Appingedam";156;1340,80;9;77,40;1;8,60
"Arnhem";4680;2896,10;116;71,80;77;47,70
"Assen";1109;1613,30;23;33,50;8;11,60
"Asten";523;3129,10;22;131,60;14;83,80
"Baarle-Nassau";222;3227,20;12;174,40;4;58,10
"Baarn";746;3000,00;24;96,50;19;76,40
"Barendrecht";2235;4590,20;71;145,80;32;65,70
"Barneveld";2069;3488,60;32;54,00;19;32,00
"Beek";381;2401,10;18;113,40;10;63,00
"Beekdaelen";820;2280,80;55;153,00;29;80,70
"Beemster";235;2348,40;4;40,00;2;20,00
"Beesel";325;2411,50;24;178,10;10;74,20
"Berg en Dal";1339;3823,60;43;122,80;34;97,10
"Bergeijk";810;4343,20;22;118,00;6;32,20
"Bergen (L.)";346;2645,30;12;91,70;3;22,90
"Bergen (NH.)";891;2985,00;25;83,80;25;83,80
"Bergen op Zoom";3051;4514,00;64;94,70;28;41,40
"Berkelland";1309;2991,30;27;61,70;29;66,30
"Bernheze";1219;3894,40;101;322,70;67;214,10
"Best";866;2885,10;39;129,90;14;46,60
"Beuningen";737;2841,90;24;92,50;10;38,60
"Beverwijk";1302;3129,10;23;55,30;15;36,00
"Bladel";1111;5440,20;25;122,40;13;63,70
"Blaricum";352;3039,50;8;69,10;2;17,30
"Bloemendaal";567;2409,00;10;42,50;6;25,50
"Bodegraven-Reeuwijk";1317;3769,50;29;83,00;12;34,30
"Boekel";311;2886,60;36;334,10;20;185,60
"Borger-Odoorn";476;1862,80;10;39,10;9;35,20
"Borne";730;3123,90;18;77,00;6;25,70
"Borsele";302;1328,00;7;30,80;2;8,80
"Boxmeer";907;3084,70;25;85,00;34;115,60
"Boxtel";983;3189,50;34;110,30;32;103,80
"Breda";6546;3554,00;203;110,20;110;59,70
"Brielle";556;3220,00;23;133,20;4;23,20
"Bronckhorst";1004;2788,40;22;61,10;8;22,20
"Brummen";414;1991,90;22;105,90;7;33,70
"Brunssum";585;2103,90;55;197,80;23;82,70
"Bunnik";456;2996,80;16;105,20;11;72,30
"Bunschoten";1427;6518,70;34;155,30;13;59,40
"Buren";729;2720,50;27;100,80;12;44,80
"Capelle aan den IJssel";2979;4431,90;97;144,30;87;129,40
"Castricum";908;2521,00;18;50,00;12;33,30
"Coevorden";642;1818,40;22;62,30;7;19,80
"Cranendonck";858;4043,50;65;306,30;37;174,40
"Cuijk";837;3327,40;20;79,50;15;59,60
"Culemborg";987;3401,00;34;117,20;11;37,90
"Dalfsen";733;2555,30;18;62,80;10;34,90
"Dantumadiel";256;1353,90;2;10,60;0;0,00
"De Bilt";1455;3374,90;38;88,10;32;74,20
"De Fryske Marren";795;1540,50;26;50,40;12;23,30
"De Ronde Venen";1479;3323,70;70;157,30;23;51,70
"De Wolden";429;1761,80;17;69,80;6;24,60
"Delft";4073;3933,90;69;66,60;37;35,70
"Delfzijl";340;1378,80;9;36,50;1;4,10
"Den Helder";899;1595,10;19;33,70;8;14,20
"Deurne";1181;3640,80;64;197,30;32;98,60
"Deventer";2772;2747,50;59;58,50;52;51,50
"Diemen";1477;4730,90;29;92,90;20;64,10
"Dinkelland";1201;4540,10;24;90,70;18;68,00
"Doesburg";274;2477,80;12;108,50;7;63,30
"Doetinchem";1390;2393,90;40;68,90;20;34,40
"Dongen";1095;4164,00;38;144,50;19;72,30
"Dordrecht";5447;4561,50;108;90,40;105;87,90
"Drechterland";527;2670,80;7;35,50;8;40,50
"Drimmelen";848;3114,30;31;113,80;14;51,40
"Dronten";845;2028,60;43;103,20;16;38,40
"Druten";525;2773,70;30;158,50;17;89,80
"Duiven";766;3055,20;18;71,80;8;31,90
"Echt-Susteren";556;1757,80;44;139,10;20;63,20
"Edam-Volendam";1396;3860,80;56;154,90;8;22,10
"Ede";3681;3145,10;92;78,60;48;41,00
"Eemnes";281;3032,30;6;64,70;1;10,80
"Eersel";859;4445,00;36;186,30;18;93,10
"Eijsden-Margraten";733;2844,80;62;240,60;31;120,30
"Eindhoven";7203;3067,10;250;106,50;141;60,00
"Elburg";617;2656,20;31;133,50;11;47,40
"Emmen";2431;2272,50;57;53,30;31;29,00
"Enkhuizen";504;2701,80;20;107,20;5;26,80
"Enschede";5343;3347,70;103;64,50;69;43,20
"Epe";718;2163,80;56;168,80;25;75,30
"Ermelo";719;2663,80;33;122,30;25;92,60
"Etten-Leur";1533;3493,90;59;134,50;31;70,70
"Geertruidenberg";707;3275,30;19;88,00;8;37,10
"Geldrop-Mierlo";1304;3276,50;44;110,60;19;47,70
"Gemert-Bakel";886;2882,10;81;263,50;34;110,60
"Gennep";528;3118,20;19;112,20;15;88,60
"Gilze en Rijen";957;3598,00;29;109,00;18;67,70
"Goeree-Overflakkee";1678;3346,20;76;151,60;47;93,70
"Goes";691;1808,10;26;68,00;14;36,60
"Goirle";881;3683,60;36;150,50;23;96,20
"Gooise Meren";1759;3028,40;36;62,00;20;34,40
"Gorinchem";1507;4059,90;23;62,00;23;62,00
"Gouda";3214;4373,70;104;141,50;86;117,00
"Grave";525;4209,80;28;224,50;23;184,40
"Groningen";4717;2024,60;38;16,30;8;3,40
"Gulpen-Wittem";377;2664,10;27;190,80;16;113,10
"Haaksbergen";957;3941,20;22;90,60;23;94,70
"Haaren";533;3713,30;23;160,20;10;69,70
"Haarlem";4669;2862,50;136;83,40;103;63,10
"Haarlemmermeer";5239;3350,70;114;72,90;47;30,10
"Halderberge";1088;3594,60;34;112,30;17;56,20
"Hardenberg";1280;2099,40;31;50,80;17;27,90
"Harderwijk";1267;2603,50;55;113,00;23;47,30
"Hardinxveld-Giessendam";777;4238,00;2;10,90;7;38,20
"Harlingen";162;1031,80;5;31,80;2;12,70
"Hattem";261;2135,10;19;155,40;5;40,90
"Heemskerk";1282;3270,50;42;107,10;22;56,10
"Heemstede";741;2715,60;19;69,60;40;146,60
"Heerde";413;2222,80;55;296,00;29;156,10
"Heerenveen";643;1274,00;17;33,70;24;47,60
"Heerhugowaard";1451;2512,50;33;57,10;11;19,00
"Heerlen";1876;2155,70;140;160,90;61;70,10
"Heeze-Leende";559;3464,30;20;123,90;12;74,40
"Heiloo";533;2226,20;14;58,50;10;41,80
"Hellendoorn";1179;3285,50;16;44,60;15;41,80
"Hellevoetsluis";1202;2991,40;33;82,10;11;27,40
"Helmond";3587;3885,70;141;152,70;53;57,40
"Hendrik-Ido-Ambacht";1362;4356,70;13;41,60;10;32,00
"Hengelo";2675;3294,40;47;57,90;33;40,60
"Het Hogeland";776;1621,00;13;27,20;7;14,60
"Heumen";538;3264,00;21;127,40;13;78,90
"Heusden";1713;3831,40;63;140,90;36;80,50
"Hillegom";616;2775,60;9;40,60;2;9,00
"Hilvarenbeek";557;3585,00;17;109,40;15;96,50
"Hilversum";2547;2797,70;49;53,80;44;48,30
"Hoeksche Waard";2905;3318,80;88;100,50;33;37,70
"Hof van Twente";1174;3358,30;25;71,50;13;37,20
"Hollands Kroon";878;1811,80;33;68,10;7;14,40
"Hoogeveen";1033;1856,40;34;61,10;15;27,00
"Hoorn";1952;2663,20;50;68,20;18;24,60
"Horst aan de Maas";1494;3518,50;50;117,80;37;87,10
"Houten";1577;3139,30;43;85,60;45;89,60
"Huizen";1521;3693,40;37;89,80;18;43,70
"Hulst";674;2419,80;21;75,40;10;35,90
"IJsselstein";1172;3445,50;52;152,90;46;135,20
"Kaag en Braassem";801;2925,80;14;51,10;3;11,00
"Kampen";1181;2173,10;66;121,40;40;73,60
"Kapelle";148;1165,60;4;31,50;1;7,90
"Katwijk";2867;4356,10;58;88,10;29;44,10
"Kerkrade";866;1895,60;79;172,90;42;91,90
"Koggenland";624;2740,00;13;57,10;12;52,70
"Krimpen aan den IJssel";1322;4476,00;26;88,00;33;111,70
"Krimpenerwaard";2102;3733,80;70;124,30;51;90,60
"Laarbeek";804;3556,90;42;185,80;27;119,40
"Landerd";680;4318,60;44;279,40;22;139,70
"Landgraaf";696;1859,60;56;149,60;19;50,80
"Landsmeer";394;3412,70;6;52,00;4;34,60
"Langedijk";779;2764,90;22;78,10;7;24,80
"Lansingerland";2568;4106,80;60;96,00;48;76,80
"Laren";373;3291,30;11;97,10;8;70,60
"Leeuwarden";2010;1620,70;54;43,50;16;12,90
"Leiden";4459;3565,30;84;67,20;40;32,00
"Leiderdorp";920;3393,60;30;110,70;10;36,90
"Leidschendam-Voorburg";2548;3329,70;69;90,20;51;66,60
"Lelystad";2028;2569,70;96;121,60;44;55,80
"Leudal";991;2765,10;58;161,80;41;114,40
"Leusden";825;2711,80;16;52,60;12;39,40
"Lingewaard";1372;2941,40;46;98,60;19;40,70
"Lisse";673;2923,00;16;69,50;5;21,70
"Lochem";745;2208,10;22;65,20;20;59,30
"Loon op Zand";923;3942,30;37;158,00;29;123,90
"Lopik";571;3942,60;25;172,60;8;55,20
"Loppersum";110;1157,20;1;10,50;0;0,00
"Losser";888;3914,50;15;66,10;6;26,40
"Maasdriel";876;3477,80;26;103,20;17;67,50
"Maasgouw";528;2205,60;29;121,10;16;66,80
"Maassluis";1475;4439,00;44;132,40;19;57,20
"Maastricht";3364;2768,50;213;175,30;146;120,20
"Medemblik";1100;2438,30;23;51,00;7;15,50
"Meerssen";414;2200,40;26;138,20;15;79,70
"Meierijstad";2657;3268,10;224;275,50;139;171,00
"Meppel";550;1618,50;13;38,30;5;14,70
"Middelburg";655;1342,20;28;57,40;15;30,70
"Midden-Delfland";720;3730,20;13;67,40;7;36,30
"Midden-Drenthe";532;1602,10;11;33,10;3;9,00
"Midden-Groningen";808;1329,20;17;28,00;11;18,10
"Mill en Sint Hubert";385;3513,40;14;127,80;6;54,80
"Moerdijk";1231;3313,60;26;70,00;23;61,90
"Molenlanden";1657;3768,00;21;47,80;18;40,90
"Montferland";872;2422,40;28;77,80;12;33,30
"Montfoort";501;3604,10;16;115,10;7;50,40
"Mook en Middelaar";254;3241,90;9;114,90;9;114,90
"Neder-Betuwe";974;3985,10;47;192,30;25;102,30
"Nederweert";581;3405,00;37;216,80;9;52,70
"Nieuwegein";1908;3004,50;66;103,90;17;26,80
"Nieuwkoop";931;3223,90;19;65,80;12;41,60
"Nijkerk";1393;3224,40;33;76,40;7;16,20
"Nijmegen";5513;3103,60;199;112,00;120;67,60
"Nissewaard";3578;4199,20;96;112,70;50;58,70
"Noardeast-Fryslân";619;1367,60;13;28,70;7;15,50
"Noord-Beveland";109;1475,80;3;40,60;1;13,50
"Noordenveld";342;1095,40;8;25,60;14;44,80
"Noordoostpolder";1172;2470,30;23;48,50;20;42,20
"Noordwijk";1395;3200,60;41;94,10;8;18,40
"Nuenen, Gerwen en Nederwetten";694;2967,70;22;94,10;13;55,60
"Nunspeet";743;2671,80;64;230,10;24;86,30
"Oegstgeest";773;3105,50;17;68,30;6;24,10
"Oirschot";711;3792,20;20;106,70;19;101,30
"Oisterwijk";877;3336,40;31;117,90;14;53,30
"Oldambt";419;1097,20;11;28,80;6;15,70
"Oldebroek";505;2135,30;40;169,10;20;84,60
"Oldenzaal";1227;3853,40;27;84,80;31;97,40
"Olst-Wijhe";327;1792,00;12;65,80;8;43,80
"Ommen";337;1868,90;9;49,90;7;38,80
"Oost Gelre";906;3058,10;23;77,60;26;87,80
"Oosterhout";2050;3657,30;58;103,50;28;50,00
"Ooststellingwerf";372;1461,40;8;31,40;1;3,90
"Oostzaan";377;3878,60;13;133,70;3;30,90
"Opmeer";266;2251,90;3;25,40;2;16,90
"Opsterland";322;1085,40;13;43,80;0;0,00
"Oss";3547;3855,50;195;212,00;106;115,20
"Oude IJsselstreek";952;2417,80;27;68,60;20;50,80
"Ouder-Amstel";572;4051,60;8;56,70;0;0,00
"Oudewater";356;3486,80;32;313,40;12;117,50
"Overbetuwe";1157;2412,20;63;131,30;21;43,80
"Papendrecht";1178;3665,10;11;34,20;19;59,10
"Peel en Maas";1284;2943,10;148;339,20;65;149,00
"Pekela";126;1035,90;8;65,80;2;16,40
"Pijnacker-Nootdorp";2146;3872,80;40;72,20;22;39,70
"Purmerend";2241;2751,00;98;120,30;49;60,20
"Putten";676;2802,70;13;53,90;6;24,90
"Raalte";1103;2927,00;27;71,60;25;66,30
"Reimerswaal";453;1993,80;9;39,60;5;22,00
"Renkum";809;2575,70;20;63,70;14;44,60
"Renswoude";157;2861,80;5;91,10;5;91,10
"Reusel-De Mierden";633;4835,80;18;137,50;5;38,20
"Rheden";1151;2635,60;40;91,60;20;45,80
"Rhenen";718;3570,50;15;74,60;8;39,80
"Ridderkerk";2068;4462,60;56;120,80;51;110,10
"Rijssen-Holten";1457;3812,40;34;89,00;33;86,30
"Rijswijk";2097;3839,30;80;146,50;62;113,50
"Roerdalen";409;1993,60;28;136,50;9;43,90
"Roermond";1452;2489,90;66;113,20;26;44,60
"Roosendaal";3190;4126,90;63;81,50;42;54,30
"Rotterdam";36046;5525,50;1145;175,50;623;95,50
"Rozendaal";35;2063,70;1;59,00;0;0,00
"Rucphen";896;3903,10;23;100,20;12;52,30
"s-Gravenhage";23326;4273,20;800;146,60;378;69,20
"Schagen";1254;2698,50;24;51,60;16;34,40
"Scherpenzeel";346;3501,00;5;50,60;3;30,40
"Schiedam";4335;5498,30;139;176,30;43;54,50
"Schiermonnikoog";5;528,50;1;105,70;0;0,00
"Schouwen-Duiveland";579;1708,40;16;47,20;16;47,20
"Simpelveld";229;2171,90;21;199,20;5;47,40
"Sint Anthonis";360;3085,90;21;180,00;11;94,30
"Sint-Michielsgestel";1011;3454,80;39;133,30;23;78,60
"Sittard-Geleen";1989;2154,20;139;150,50;75;81,20
"Sliedrecht";1065;4228,20;12;47,60;16;63,50
"Sluis";482;2077,80;18;77,60;7;30,20
"Smallingerland";668;1189,20;14;24,90;12;21,40
"Soest";1568;3360,80;44;94,30;34;72,90
"Someren";604;3118,50;36;185,90;9;46,50
"Son en Breugel";509;2935,40;33;190,30;19;109,60
"Stadskanaal";736;2326,50;10;31,60;7;22,10
"Staphorst";544;3172,00;11;64,10;5;29,20
"Stede Broec";481;2215,00;20;92,10;5;23,00
"Steenbergen";814;3327,30;20;81,80;14;57,20
"Steenwijkerland";741;1678,10;18;40,80;10;22,60
"Stein";546;2188,60;51;204,40;16;64,10
"Stichtse Vecht";2236;3438,50;68;104,60;35;53,80
"Súdwest-Fryslân";2019;2246,30;26;28,90;30;33,40
"Terneuzen";1205;2215,70;39;71,70;5;9,20
"Terschelling";75;1547,70;1;20,60;1;20,60
"Texel";128;942,90;6;44,20;2;14,70
"Teylingen";1298;3459,10;25;66,60;6;16,00
"Tholen";843;3269,50;50;193,90;20;77,60
"Tiel";1494;3549,40;63;149,70;33;78,40
"Tilburg";8232;3739,40;318;144,50;211;95,80
"Tubbergen";1166;5481,10;14;65,80;9;42,30
"Twenterand";1146;3395,80;17;50,40;5;14,80
"Tynaarlo";423;1250,80;13;38,40;12;35,50
"Tytsjerksteradiel";379;1180,30;9;28,00;3;9,30
"Uden";1188;2819,70;120;284,80;70;166,10
"Uitgeest";443;3243,50;7;51,30;4;29,30
"Uithoorn";957;3232,90;27;91,20;6;20,30
"Urk";1256;5960,20;36;170,80;11;52,20
"Utrecht";14762;4118,20;460;128,30;171;47,70
"Utrechtse Heuvelrug";1440;2894,40;40;80,40;22;44,20
"Vaals";172;1702,30;11;108,90;2;19,80
"Valkenburg aan de Geul";412;2521,10;24;146,90;11;67,30
"Valkenswaard";1118;3580,70;25;80,10;44;140,90
"Veendam";342;1249,00;4;14,60;1;3,70
"Veenendaal";2883;4327,70;74;111,10;29;43,50
"Veere";211;963,10;10;45,60;2;9,10
"Veldhoven";1588;3488,00;43;94,40;27;59,30
"Velsen";2189;3184,80;59;85,80;57;82,90
"Venlo";3288;3228,90;154;151,20;90;88,40
"Venray";1558;3571,40;47;107,70;23;52,70
"Vijfheerenlanden";2216;3893,70;60;105,40;52;91,40
"Vlaardingen";3919;5329,10;93;126,50;57;77,50
"Vlieland";19;1636,50;0;0,00;0;0,00
"Vlissingen";592;1335,20;20;45,10;7;15,80
"Voerendaal";229;1833,30;18;144,10;8;64,00
"Voorschoten";709;2770,30;12;46,90;14;54,70
"Voorst";516;2097,50;18;73,20;11;44,70
"Vught";1025;3856,30;47;176,80;25;94,10
"Waadhoeke";654;1419,30;18;39,10;22;47,70
"Waalre";538;3081,20;9;51,50;10;57,30
"Waalwijk";1880;3866,20;57;117,20;55;113,10
"Waddinxveen";1113;3790,20;42;143,00;10;34,10
"Wageningen";1113;2790,80;30;75,20;28;70,20
"Wassenaar";764;2912,00;19;72,40;17;64,80
"Waterland";607;3485,70;24;137,80;14;80,40
"Weert";1752;3491,10;85;169,40;28;55,80
"Weesp";918;4611,70;11;55,30;15;75,40
"West Betuwe";1839;3589,50;68;132,70;40;78,10
"West Maas en Waal";498;2572,60;24;124,00;15;77,50
"Westerkwartier";730;1151,90;21;33,10;8;12,60
"Westerveld";234;1202,60;10;51,40;5;25,70
"Westervoort";423;2824,90;15;100,20;7;46,70
"Westerwolde";452;1730,40;14;53,60;3;11,50
"Westland";4751;4295,40;107;96,70;57;51,50
"Weststellingwerf";403;1554,70;5;19,30;12;46,30
"Westvoorne";421;2855,20;9;61,00;1;6,80
"Wierden";1181;4835,40;11;45,00;14;57,30
"Wijchen";1237;3010,20;60;146,00;25;60,80
"Wijdemeren";705;2895,50;15;61,60;5;20,50
"Wijk bij Duurstede";634;2655,10;14;58,60;8;33,50
"Winterswijk";675;2343,60;13;45,10;8;27,80
"Woensdrecht";711;3235,30;11;50,10;21;95,60
"Woerden";1822;3479,80;76;145,20;25;47,70
"Wormerland";523;3215,70;25;153,70;13;79,90
"Woudenberg";478;3569,80;11;82,20;4;29,90
"Zaanstad";6152;3922,10;201;128,10;98;62,50
"Zaltbommel";1080;3723,80;26;89,60;10;34,50
"Zandvoort";437;2550,20;15;87,50;9;52,50
"Zeewolde";454;2009,90;16;70,80;7;31,00
"Zeist";1967;3028,10;52;80,10;35;53,90
"Zevenaar";967;2207,60;61;139,30;22;50,20
"Zoetermeer";4578;3654,60;86;68,70;27;21,60
"Zoeterwoude";274;3171,30;4;46,30;1;11,60
"Zuidplas";1742;3955,20;47;106,70;27;61,30
"Zundert";690;3159,10;30;137,40;13;59,50
"Zutphen";1064;2216,20;39;81,20;17;35,40
"Zwartewaterland";657;2892,20;38;167,30;24;105,70
"Zwijndrecht";2033;4548,60;33;73,80;53;118,60
"Zwolle";2600;2014,50;62;48,00;66;51,10