"Category";"Meldingen";"Meldingen per 100000";"Zkh opname";"Zkh opname per 100000";"Overleden";"Overleden per 100000"
"'s-Hertogenbosch";1364;877,80;137;88,20;80;51,50
"Aa en Hunze";85;334,90;1;3,90;0;0,00
"Aalsmeer";277;868,80;10;31,40;5;15,70
"Aalten";156;575,80;11;40,60;7;25,80
"Achtkarspelen";76;272,90;0;0,00;0;0,00
"Alblasserdam";258;1280,40;11;54,60;5;24,80
"Albrandswaard";368;1434,40;16;62,40;8;31,20
"Alkmaar";680;620,50;58;52,90;31;28,30
"Almelo";405;553,80;29;39,70;11;15,00
"Almere";1858;874,70;143;67,30;37;17,40
"Alphen aan den Rijn";1003;836,20;72;60,00;26;21,70
"Alphen-Chaam";93;908,70;18;175,90;5;48,90
"Altena";392;700,40;35;62,50;11;19,70
"Ameland";15;401,70;0;0,00;0;0,00
"Amersfoort";1250;794,60;81;51,50;25;15,90
"Amstelveen";1221;1330,50;69;75,20;42;45,80
"Amsterdam";17419;1992,40;830;94,90;307;35,10
"Apeldoorn";1038;633,50;106;64,70;52;31,70
"Appingedam";28;240,70;5;43,00;0;0,00
"Arnhem";1166;721,60;75;46,40;34;21,00
"Assen";211;306,90;12;17,50;2;2,90
"Asten";142;849,60;18;107,70;12;71,80
"Baarle-Nassau";44;639,60;9;130,80;2;29,10
"Baarn";174;699,70;12;48,30;9;36,20
"Barendrecht";730;1499,30;43;88,30;13;26,70
"Barneveld";337;568,20;19;32,00;8;13,50
"Beek";73;460,00;16;100,80;6;37,80
"Beekdaelen";262;728,70;52;144,60;23;64,00
"Beemster";63;629,60;4;40,00;1;10,00
"Beesel";69;512,00;20;148,40;8;59,40
"Berg en Dal";400;1142,20;32;91,40;20;57,10
"Bergeijk";232;1244,00;19;101,90;5;26,80
"Bergen (L.)";71;542,80;7;53,50;2;15,30
"Bergen (NH.)";274;918,00;20;67,00;6;20,10
"Bergen op Zoom";840;1242,80;33;48,80;13;19,20
"Berkelland";254;580,40;14;32,00;7;16,00
"Bernheze";420;1341,80;95;303,50;65;207,70
"Best";201;669,60;31;103,30;11;36,60
"Beuningen";237;913,90;20;77,10;5;19,30
"Beverwijk";341;819,50;16;38,50;12;28,80
"Bladel";373;1826,50;21;102,80;9;44,10
"Blaricum";99;854,80;8;69,10;2;17,30
"Bloemendaal";209;888,00;8;34,00;5;21,20
"Bodegraven-Reeuwijk";323;924,50;9;25,80;9;25,80
"Boekel";106;983,90;34;315,60;20;185,60
"Borger-Odoorn";67;262,20;4;15,70;4;15,70
"Borne";123;526,40;14;59,90;6;25,70
"Borsele";84;369,40;5;22,00;1;4,40
"Boxmeer";244;829,80;20;68,00;28;95,20
"Boxtel";226;733,30;24;77,90;26;84,40
"Breda";1700;923,00;155;84,20;70;38,00
"Brielle";159;920,80;12;69,50;0;0,00
"Bronckhorst";194;538,80;17;47,20;7;19,40
"Brummen";107;514,80;18;86,60;6;28,90
"Brunssum";203;730,10;46;165,40;19;68,30
"Bunnik";129;847,80;10;65,70;1;6,60
"Bunschoten";180;822,30;12;54,80;7;32,00
"Buren";148;552,30;19;70,90;8;29,90
"Capelle aan den IJssel";1039;1545,70;60;89,30;62;92,20
"Castricum";185;513,60;16;44,40;10;27,80
"Coevorden";138;390,90;14;39,70;2;5,70
"Cranendonck";288;1357,30;63;296,90;36;169,70
"Cuijk";181;719,50;12;47,70;10;39,80
"Culemborg";267;920,00;24;82,70;8;27,60
"Dalfsen";213;742,50;16;55,80;7;24,40
"Dantumadiel";78;412,50;2;10,60;0;0,00
"De Bilt";468;1085,50;30;69,60;24;55,70
"De Fryske Marren";208;403,00;19;36,80;6;11,60
"De Ronde Venen";436;979,80;41;92,10;13;29,20
"De Wolden";92;377,80;11;45,20;5;20,50
"Delft";1369;1322,20;42;40,60;12;11,60
"Delfzijl";79;320,40;6;24,30;0;0,00
"Den Helder";134;237,80;13;23,10;2;3,50
"Deurne";348;1072,80;56;172,60;25;77,10
"Deventer";749;742,40;49;48,60;37;36,70
"Diemen";577;1848,20;20;64,10;14;44,80
"Dinkelland";202;763,60;20;75,60;10;37,80
"Doesburg";90;813,90;10;90,40;6;54,30
"Doetinchem";348;599,30;27;46,50;15;25,80
"Dongen";192;730,10;21;79,90;13;49,40
"Dordrecht";1398;1170,70;96;80,40;69;57,80
"Drechterland";96;486,50;5;25,30;8;40,50
"Drimmelen";174;639,00;21;77,10;9;33,10
"Dronten";196;470,50;34;81,60;13;31,20
"Druten";163;861,20;25;132,10;8;42,30
"Duiven";183;729,90;15;59,80;6;23,90
"Echt-Susteren";134;423,60;40;126,50;18;56,90
"Edam-Volendam";436;1205,80;28;77,40;3;8,30
"Ede";897;766,40;62;53,00;25;21,40
"Eemnes";58;625,90;2;21,60;1;10,80
"Eersel";235;1216,00;27;139,70;10;51,70
"Eijsden-Margraten";257;997,40;54;209,60;27;104,80
"Eindhoven";1965;836,70;190;80,90;92;39,20
"Elburg";197;848,10;28;120,50;8;34,40
"Emmen";638;596,40;34;31,80;17;15,90
"Enkhuizen";67;359,20;19;101,90;4;21,40
"Enschede";848;531,30;60;37,60;26;16,30
"Epe";218;657,00;50;150,70;23;69,30
"Ermelo";233;863,20;33;122,30;23;85,20
"Etten-Leur";408;929,90;43;98,00;30;68,40
"Geertruidenberg";120;555,90;13;60,20;6;27,80
"Geldrop-Mierlo";288;723,70;34;85,40;16;40,20
"Gemert-Bakel";316;1027,90;79;257,00;32;104,10
"Gennep";127;750,00;17;100,40;10;59,10
"Gilze en Rijen";212;797,10;20;75,20;15;56,40
"Goeree-Overflakkee";512;1021,00;57;113,70;35;69,80
"Goes";266;696,00;13;34,00;13;34,00
"Goirle";249;1041,10;32;133,80;19;79,40
"Gooise Meren";521;897,00;25;43,00;15;25,80
"Gorinchem";396;1066,80;19;51,20;16;43,10
"Gouda";1031;1403,00;51;69,40;43;58,50
"Grave";130;1042,40;21;168,40;11;88,20
"Groningen";1955;839,10;22;9,40;3;1,30
"Gulpen-Wittem";131;925,70;22;155,50;15;106,00
"Haaksbergen";271;1116,10;15;61,80;8;32,90
"Haaren";103;717,60;19;132,40;8;55,70
"Haarlem";1441;883,50;85;52,10;67;41,10
"Haarlemmermeer";1552;992,60;80;51,20;33;21,10
"Halderberge";245;809,40;16;52,90;9;29,70
"Hardenberg";268;439,60;23;37,70;10;16,40
"Harderwijk";409;840,40;44;90,40;20;41,10
"Hardinxveld-Giessendam";126;687,20;2;10,90;2;10,90
"Harlingen";39;248,40;4;25,50;1;6,40
"Hattem";81;662,60;18;147,30;5;40,90
"Heemskerk";274;699,00;32;81,60;11;28,10
"Heemstede";266;974,80;13;47,60;33;120,90
"Heerde";254;1367,10;55;296,00;28;150,70
"Heerenveen";215;426,00;14;27,70;22;43,60
"Heerhugowaard";365;632,00;27;46,80;9;15,60
"Heerlen";597;686,00;126;144,80;54;62,10
"Heeze-Leende";140;867,60;16;99,20;8;49,60
"Heiloo";110;459,40;11;45,90;8;33,40
"Hellendoorn";144;401,30;8;22,30;12;33,40
"Hellevoetsluis";348;866,10;17;42,30;5;12,40
"Helmond";1071;1160,20;119;128,90;45;48,70
"Hendrik-Ido-Ambacht";376;1202,70;13;41,60;6;19,20
"Hengelo";557;686,00;32;39,40;21;25,90
"Het Hogeland";186;388,50;8;16,70;4;8,40
"Heumen";209;1268,00;19;115,30;11;66,70
"Heusden";381;852,20;46;102,90;26;58,20
"Hillegom";208;937,20;8;36,00;2;9,00
"Hilvarenbeek";140;901,10;10;64,40;7;45,10
"Hilversum";770;845,80;37;40,60;25;27,50
"Hoeksche Waard";981;1120,70;81;92,50;21;24,00
"Hof van Twente";213;609,30;15;42,90;5;14,30
"Hollands Kroon";164;338,40;26;53,70;6;12,40
"Hoogeveen";190;341,50;22;39,50;8;14,40
"Hoorn";409;558,00;37;50,50;12;16,40
"Horst aan de Maas";280;659,40;41;96,60;27;63,60
"Houten";389;774,40;28;55,70;15;29,90
"Huizen";417;1012,60;25;60,70;10;24,30
"Hulst";106;380,60;10;35,90;5;18,00
"IJsselstein";331;973,10;37;108,80;35;102,90
"Kaag en Braassem";158;577,10;8;29,20;3;11,00
"Kampen";490;901,60;60;110,40;37;68,10
"Kapelle";47;370,20;3;23,60;1;7,90
"Katwijk";653;992,20;37;56,20;15;22,80
"Kerkrade";309;676,40;64;140,10;35;76,60
"Koggenland";146;641,10;7;30,70;7;30,70
"Krimpen aan den IJssel";364;1232,40;13;44,00;8;27,10
"Krimpenerwaard";643;1142,20;47;83,50;35;62,20
"Laarbeek";215;951,20;41;181,40;26;115,00
"Landerd";229;1454,30;42;266,70;21;133,40
"Landgraaf";213;569,10;53;141,60;14;37,40
"Landsmeer";122;1056,70;3;26,00;3;26,00
"Langedijk";201;713,40;19;67,40;5;17,70
"Lansingerland";788;1260,20;47;75,20;27;43,20
"Laren";112;988,30;8;70,60;3;26,50
"Leeuwarden";770;620,80;42;33,90;6;4,80
"Leiden";1385;1107,40;51;40,80;22;17,60
"Leiderdorp";208;767,20;17;62,70;7;25,80
"Leidschendam-Voorburg";848;1108,10;34;44,40;25;32,70
"Lelystad";533;675,40;74;93,80;31;39,30
"Leudal";252;703,10;54;150,70;33;92,10
"Leusden";242;795,50;9;29,60;8;26,30
"Lingewaard";352;754,60;36;77,20;11;23,60
"Lisse";114;495,10;9;39,10;2;8,70
"Lochem";223;660,90;16;47,40;15;44,50
"Loon op Zand";192;820,10;27;115,30;8;34,20
"Lopik";162;1118,60;20;138,10;8;55,20
"Loppersum";20;210,40;0;0,00;0;0,00
"Losser";140;617,10;11;48,50;0;0,00
"Maasdriel";159;631,30;16;63,50;7;27,80
"Maasgouw";153;639,10;28;117,00;15;62,70
"Maassluis";415;1248,90;23;69,20;9;27,10
"Maastricht";1330;1094,60;193;158,80;140;115,20
"Medemblik";182;403,40;19;42,10;6;13,30
"Meerssen";156;829,10;23;122,20;13;69,10
"Meierijstad";881;1083,60;211;259,50;131;161,10
"Meppel";134;394,30;11;32,40;5;14,70
"Middelburg";208;426,20;19;38,90;10;20,50
"Midden-Delfland";159;823,70;5;25,90;0;0,00
"Midden-Drenthe";71;213,80;6;18,10;0;0,00
"Midden-Groningen";153;251,70;7;11,50;4;6,60
"Mill en Sint Hubert";110;1003,80;9;82,10;5;45,60
"Moerdijk";263;707,90;17;45,80;9;24,20
"Molenlanden";326;741,30;20;45,50;9;20,50
"Montferland";180;500,00;22;61,10;9;25,00
"Montfoort";134;964,00;15;107,90;6;43,20
"Mook en Middelaar";93;1187,00;7;89,30;5;63,80
"Neder-Betuwe";218;891,90;41;167,80;21;85,90
"Nederweert";110;644,70;31;181,70;7;41,00
"Nieuwegein";519;817,30;47;74,00;14;22,00
"Nieuwkoop";195;675,30;10;34,60;6;20,80
"Nijkerk";373;863,40;22;50,90;3;6,90
"Nijmegen";2281;1284,10;152;85,60;73;41,10
"Nissewaard";830;974,10;64;75,10;23;27,00
"Noardeast-Fryslân";149;329,20;7;15,50;4;8,80
"Noord-Beveland";32;433,30;1;13,50;0;0,00
"Noordenveld";146;467,60;4;12,80;13;41,60
"Noordoostpolder";190;400,50;17;35,80;10;21,10
"Noordwijk";341;782,40;22;50,50;3;6,90
"Nuenen, Gerwen en Nederwetten";198;846,70;18;77,00;9;38,50
"Nunspeet";310;1114,70;58;208,60;21;75,50
"Oegstgeest";197;791,50;10;40,20;3;12,10
"Oirschot";201;1072,10;13;69,30;9;48,00
"Oisterwijk";171;650,50;24;91,30;11;41,80
"Oldambt";108;282,80;8;20,90;3;7,90
"Oldebroek";222;938,70;40;169,10;19;80,30
"Oldenzaal";223;700,30;15;47,10;7;22,00
"Olst-Wijhe";110;602,80;12;65,80;8;43,80
"Ommen";118;654,40;9;49,90;4;22,20
"Oost Gelre";219;739,20;18;60,80;6;20,30
"Oosterhout";415;740,40;51;91,00;17;30,30
"Ooststellingwerf";43;168,90;3;11,80;1;3,90
"Oostzaan";105;1080,20;12;123,50;2;20,60
"Opmeer";40;338,60;1;8,50;1;8,50
"Opsterland";76;256,20;8;27,00;0;0,00
"Oss";1136;1234,80;172;187,00;88;95,70
"Oude IJsselstreek";219;556,20;22;55,90;9;22,90
"Ouder-Amstel";223;1579,50;6;42,50;0;0,00
"Oudewater";115;1126,30;26;254,70;9;88,10
"Overbetuwe";372;775,60;56;116,80;16;33,40
"Papendrecht";247;768,50;9;28,00;8;24,90
"Peel en Maas";391;896,20;144;330,10;65;149,00
"Pekela";21;172,70;4;32,90;0;0,00
"Pijnacker-Nootdorp";623;1124,30;30;54,10;18;32,50
"Purmerend";664;815,10;74;90,80;35;43,00
"Putten";120;497,50;10;41,50;1;4,10
"Raalte";287;761,60;24;63,70;21;55,70
"Reimerswaal";88;387,30;5;22,00;2;8,80
"Renkum";268;853,30;14;44,60;9;28,70
"Renswoude";41;747,40;5;91,10;5;91,10
"Reusel-De Mierden";204;1558,40;12;91,70;2;15,30
"Rheden";274;627,40;34;77,90;14;32,10
"Rhenen";113;561,90;11;54,70;6;29,80
"Ridderkerk";536;1156,60;41;88,50;19;41,00
"Rijssen-Holten";314;821,60;29;75,90;25;65,40
"Rijswijk";675;1235,80;47;86,10;27;49,40
"Roerdalen";83;404,60;27;131,60;8;39,00
"Roermond";325;557,30;62;106,30;23;39,40
"Roosendaal";727;940,50;36;46,60;24;31,00
"Rotterdam";13223;2026,90;689;105,60;376;57,60
"Rozendaal";8;471,70;1;59,00;0;0,00
"Rucphen";222;967,10;11;47,90;10;43,60
"s-Gravenhage";9735;1783,40;476;87,20;291;53,30
"Schagen";207;445,40;19;40,90;10;21,50
"Scherpenzeel";66;667,80;4;40,50;2;20,20
"Schiedam";1233;1563,90;64;81,20;24;30,40
"Schiermonnikoog";0;0,00;0;0,00;0;0,00
"Schouwen-Duiveland";181;534,00;12;35,40;9;26,60
"Simpelveld";63;597,50;19;180,20;5;47,40
"Sint Anthonis";111;951,50;20;171,40;11;94,30
"Sint-Michielsgestel";280;956,80;37;126,40;19;64,90
"Sittard-Geleen";614;665,00;120;130,00;64;69,30
"Sliedrecht";193;766,20;9;35,70;5;19,90
"Sluis";36;155,20;9;38,80;4;17,20
"Smallingerland";149;265,30;9;16,00;6;10,70
"Soest";452;968,80;26;55,70;13;27,90
"Someren";143;738,30;33;170,40;8;41,30
"Son en Breugel";137;790,10;31;178,80;14;80,70
"Stadskanaal";90;284,50;2;6,30;2;6,30
"Staphorst";126;734,70;8;46,60;4;23,30
"Stede Broec";99;455,90;19;87,50;5;23,00
"Steenbergen";208;850,20;13;53,10;13;53,10
"Steenwijkerland";247;559,40;15;34,00;8;18,10
"Stein";161;645,40;44;176,40;15;60,10
"Stichtse Vecht";598;919,60;42;64,60;14;21,50
"Súdwest-Fryslân";316;351,60;19;21,10;6;6,70
"Terneuzen";230;422,90;25;46,00;4;7,40
"Terschelling";17;350,80;0;0,00;0;0,00
"Texel";44;324,10;5;36,80;2;14,70
"Teylingen";322;858,10;17;45,30;3;8,00
"Tholen";246;954,10;41;159,00;16;62,10
"Tiel";357;848,10;44;104,50;21;49,90
"Tilburg";2233;1014,30;260;118,10;168;76,30
"Tubbergen";210;987,20;12;56,40;5;23,50
"Twenterand";121;358,50;12;35,60;3;8,90
"Tynaarlo";132;390,30;9;26,60;0;0,00
"Tytsjerksteradiel";122;379,90;6;18,70;1;3,10
"Uden";383;909,00;115;273,00;63;149,50
"Uitgeest";97;710,20;5;36,60;1;7,30
"Uithoorn";292;986,40;18;60,80;2;6,80
"Urk";103;488,80;23;109,10;4;19,00
"Utrecht";5218;1455,70;312;87,00;122;34,00
"Utrechtse Heuvelrug";395;793,90;29;58,30;14;28,10
"Vaals";39;386,00;10;99,00;2;19,80
"Valkenburg aan de Geul";120;734,30;19;116,30;7;42,80
"Valkenswaard";323;1034,50;19;60,90;37;118,50
"Veendam";82;299,50;2;7,30;1;3,70
"Veenendaal";536;804,60;49;73,60;14;21,00
"Veere";72;328,60;6;27,40;2;9,10
"Veldhoven";386;847,80;31;68,10;18;39,50
"Velsen";655;953,00;39;56,70;43;62,60
"Venlo";829;814,10;135;132,60;67;65,80
"Venray";315;722,10;37;84,80;18;41,30
"Vijfheerenlanden";704;1237,00;40;70,30;43;75,60
"Vlaardingen";1071;1456,40;50;68,00;30;40,80
"Vlieland";9;775,20;0;0,00;0;0,00
"Vlissingen";174;392,40;9;20,30;5;11,30
"Voerendaal";67;536,40;17;136,10;8;64,00
"Voorschoten";211;824,40;10;39,10;11;43,00
"Voorst";158;642,30;17;69,10;11;44,70
"Vught";223;839,00;43;161,80;17;64,00
"Waadhoeke";208;451,40;13;28,20;15;32,60
"Waalre";130;744,50;7;40,10;5;28,60
"Waalwijk";414;851,40;40;82,30;37;76,10
"Waddinxveen";304;1035,20;21;71,50;7;23,80
"Wageningen";353;885,10;21;52,70;9;22,60
"Wassenaar";249;949,10;10;38,10;13;49,60
"Waterland";157;901,60;17;97,60;4;23,00
"Weert";311;619,70;68;135,50;16;31,90
"Weesp";323;1622,60;9;45,20;13;65,30
"West Betuwe";369;720,20;44;85,90;28;54,70
"West Maas en Waal";147;759,40;21;108,50;9;46,50
"Westerkwartier";194;306,10;16;25,20;4;6,30
"Westerveld";62;318,60;9;46,30;4;20,60
"Westervoort";92;614,40;12;80,10;6;40,10
"Westerwolde";65;248,80;7;26,80;1;3,80
"Westland";1110;1003,60;65;58,80;30;27,10
"Weststellingwerf";81;312,50;3;11,60;4;15,40
"Westvoorne";129;874,90;6;40,70;0;0,00
"Wierden";144;589,60;7;28,70;6;24,60
"Wijchen";377;917,40;47;114,40;13;31,60
"Wijdemeren";183;751,60;9;37,00;0;0,00
"Wijk bij Duurstede";132;552,80;10;41,90;2;8,40
"Winterswijk";101;350,70;7;24,30;3;10,40
"Woensdrecht";174;791,80;7;31,90;7;31,90
"Woerden";466;890,00;55;105,00;20;38,20
"Wormerland";129;793,20;20;123,00;6;36,90
"Woudenberg";87;649,70;9;67,20;2;14,90
"Zaanstad";1561;995,20;137;87,30;54;34,40
"Zaltbommel";208;717,20;21;72,40;9;31,00
"Zandvoort";146;852,00;12;70,00;9;52,50
"Zeewolde";131;580,00;12;53,10;6;26,60
"Zeist";663;1020,60;39;60,00;27;41,60
"Zevenaar";279;636,90;50;114,10;16;36,50
"Zoetermeer";1354;1080,90;62;49,50;14;11,20
"Zoeterwoude";61;706,00;3;34,70;1;11,60
"Zuidplas";614;1394,10;28;63,60;21;47,70
"Zundert";206;943,10;24;109,90;11;50,40
"Zutphen";239;497,80;31;64,60;13;27,10
"Zwartewaterland";209;920,10;35;154,10;21;92,40
"Zwijndrecht";557;1246,20;27;60,40;28;62,60
"Zwolle";772;598,20;53;41,10;49;38,00