"Category";"Meldingen";"Meldingen per 100000";"Zkh opname";"Zkh opname per 100000";"Overleden";"Overleden per 100000"
"'s-Hertogenbosch";560;360,40;128;82,40;78;50,20
"Aa en Hunze";14;55,20;1;3,90;0;0,00
"Aalsmeer";50;156,80;9;28,20;4;12,50
"Aalten";61;225,20;9;33,20;7;25,80
"Achtkarspelen";15;53,90;0;0,00;0;0,00
"Alblasserdam";50;248,10;11;54,60;4;19,90
"Albrandswaard";129;502,80;14;54,60;8;31,20
"Alkmaar";272;248,20;54;49,30;31;28,30
"Almelo";96;131,30;23;31,40;9;12,30
"Almere";519;244,30;127;59,80;32;15,10
"Alphen aan den Rijn";245;204,20;62;51,70;25;20,80
"Alphen-Chaam";63;615,60;18;175,90;5;48,90
"Altena";151;269,80;32;57,20;11;19,70
"Ameland";0;0,00;0;0,00;0;0,00
"Amersfoort";288;183,10;62;39,40;23;14,60
"Amstelveen";389;423,90;58;63,20;35;38,10
"Amsterdam";4089;467,70;645;73,80;282;32,30
"Apeldoorn";486;296,60;97;59,20;50;30,50
"Appingedam";5;43,00;3;25,80;0;0,00
"Arnhem";443;274,10;67;41,50;32;19,80
"Assen";54;78,60;12;17,50;2;2,90
"Asten";79;472,70;18;107,70;12;71,80
"Baarle-Nassau";27;392,50;9;130,80;2;29,10
"Baarn";66;265,40;11;44,20;9;36,20
"Barendrecht";176;361,50;40;82,20;12;24,60
"Barneveld";146;246,20;18;30,40;6;10,10
"Beek";44;277,30;16;100,80;6;37,80
"Beekdaelen";173;481,20;52;144,60;23;64,00
"Beemster";23;229,80;4;40,00;1;10,00
"Beesel";45;333,90;20;148,40;8;59,40
"Berg en Dal";188;536,90;29;82,80;16;45,70
"Bergeijk";59;316,40;19;101,90;5;26,80
"Bergen (L.)";25;191,10;7;53,50;2;15,30
"Bergen (NH.)";103;345,10;16;53,60;4;13,40
"Bergen op Zoom";333;492,70;26;38,50;13;19,20
"Berkelland";96;219,40;12;27,40;7;16,00
"Bernheze";284;907,30;95;303,50;65;207,70
"Best";89;296,50;31;103,30;10;33,30
"Beuningen";81;312,30;19;73,30;5;19,30
"Beverwijk";88;211,50;15;36,00;10;24,00
"Bladel";82;401,50;21;102,80;8;39,20
"Blaricum";40;345,40;8;69,10;2;17,30
"Bloemendaal";59;250,70;7;29,70;5;21,20
"Bodegraven-Reeuwijk";88;251,90;7;20,00;1;2,90
"Boekel";89;826,10;34;315,60;20;185,60
"Borger-Odoorn";10;39,10;4;15,70;3;11,70
"Borne";51;218,20;14;59,90;6;25,70
"Borsele";29;127,50;5;22,00;0;0,00
"Boxmeer";129;438,70;20;68,00;27;91,80
"Boxtel";135;438,00;24;77,90;26;84,40
"Breda";733;398,00;146;79,30;64;34,70
"Brielle";37;214,30;11;63,70;0;0,00
"Bronckhorst";81;225,00;17;47,20;7;19,40
"Brummen";44;211,70;18;86,60;6;28,90
"Brunssum";112;402,80;44;158,20;19;68,30
"Bunnik";48;315,50;9;59,10;1;6,60
"Bunschoten";74;338,00;9;41,10;7;32,00
"Buren";63;235,10;17;63,40;8;29,90
"Capelle aan den IJssel";391;581,70;55;81,80;54;80,30
"Castricum";85;236,00;15;41,60;9;25,00
"Coevorden";57;161,40;13;36,80;2;5,70
"Cranendonck";173;815,30;63;296,90;36;169,70
"Cuijk";79;314,10;12;47,70;10;39,80
"Culemborg";88;303,20;21;72,40;7;24,10
"Dalfsen";84;292,80;16;55,80;6;20,90
"Dantumadiel";5;26,40;2;10,60;0;0,00
"De Bilt";196;454,60;28;64,90;24;55,70
"De Fryske Marren";76;147,30;16;31,00;6;11,60
"De Ronde Venen";117;262,90;39;87,60;13;29,20
"De Wolden";48;197,10;11;45,20;5;20,50
"Delft";204;197,00;38;36,70;12;11,60
"Delfzijl";20;81,10;6;24,30;0;0,00
"Den Helder";49;86,90;12;21,30;2;3,50
"Deurne";196;604,20;55;169,60;24;74,00
"Deventer";364;360,80;47;46,60;33;32,70
"Diemen";134;429,20;17;54,50;13;41,60
"Dinkelland";78;294,90;20;75,60;10;37,80
"Doesburg";32;289,40;9;81,40;6;54,30
"Doetinchem";109;187,70;26;44,80;15;25,80
"Dongen";91;346,00;20;76,10;13;49,40
"Dordrecht";620;519,20;87;72,90;62;51,90
"Drechterland";46;233,10;5;25,30;8;40,50
"Drimmelen";76;279,10;19;69,80;8;29,40
"Dronten";124;297,70;30;72,00;12;28,80
"Druten";115;607,60;25;132,10;8;42,30
"Duiven";54;215,40;14;55,80;6;23,90
"Echt-Susteren";94;297,20;39;123,30;16;50,60
"Edam-Volendam";129;356,80;25;69,10;3;8,30
"Ede";248;211,90;53;45,30;20;17,10
"Eemnes";23;248,20;2;21,60;1;10,80
"Eersel";71;367,40;27;139,70;10;51,70
"Eijsden-Margraten";179;694,70;54;209,60;27;104,80
"Eindhoven";622;264,90;182;77,50;86;36,60
"Elburg";151;650,00;28;120,50;8;34,40
"Emmen";108;101,00;20;18,70;11;10,30
"Enkhuizen";32;171,50;18;96,50;4;21,40
"Enschede";272;170,40;54;33,80;25;15,70
"Epe";138;415,90;48;144,70;23;69,30
"Ermelo";151;559,40;33;122,30;23;85,20
"Etten-Leur";223;508,20;41;93,40;30;68,40
"Geertruidenberg";49;227,00;11;51,00;6;27,80
"Geldrop-Mierlo";120;301,50;33;82,90;16;40,20
"Gemert-Bakel";224;728,70;79;257,00;32;104,10
"Gennep";58;342,50;16;94,50;10;59,10
"Gilze en Rijen";93;349,70;20;75,20;15;56,40
"Goeree-Overflakkee";275;548,40;54;107,70;34;67,80
"Goes";151;395,10;12;31,40;11;28,80
"Goirle";93;388,80;32;133,80;17;71,10
"Gooise Meren";134;230,70;23;39,60;9;15,50
"Gorinchem";196;528,00;18;48,50;15;40,40
"Gouda";396;538,90;45;61,20;41;55,80
"Grave";71;569,30;21;168,40;11;88,20
"Groningen";228;97,90;18;7,70;3;1,30
"Gulpen-Wittem";80;565,30;21;148,40;14;98,90
"Haaksbergen";57;234,70;14;57,70;7;28,80
"Haaren";59;411,00;18;125,40;8;55,70
"Haarlem";361;221,30;61;37,40;58;35,60
"Haarlemmermeer";387;247,50;69;44,10;28;17,90
"Halderberge";71;234,60;14;46,30;7;23,10
"Hardenberg";174;285,40;23;37,70;8;13,10
"Harderwijk";183;376,00;42;86,30;20;41,10
"Hardinxveld-Giessendam";42;229,10;2;10,90;2;10,90
"Harlingen";17;108,30;4;25,50;1;6,40
"Hattem";42;343,60;16;130,90;5;40,90
"Heemskerk";94;239,80;28;71,40;10;25,50
"Heemstede";102;373,80;11;40,30;32;117,30
"Heerde";192;1033,40;55;296,00;28;150,70
"Heerenveen";95;188,20;13;25,80;21;41,60
"Heerhugowaard";167;289,20;27;46,80;9;15,60
"Heerlen";394;452,70;125;143,60;54;62,10
"Heeze-Leende";72;446,20;16;99,20;8;49,60
"Heiloo";51;213,00;9;37,60;8;33,40
"Hellendoorn";98;273,10;8;22,30;12;33,40
"Hellevoetsluis";95;236,40;16;39,80;3;7,50
"Helmond";459;497,20;115;124,60;43;46,60
"Hendrik-Ido-Ambacht";91;291,10;10;32,00;6;19,20
"Hengelo";136;167,50;21;25,90;19;23,40
"Het Hogeland";38;79,40;7;14,60;3;6,30
"Heumen";77;467,10;17;103,10;9;54,60
"Heusden";167;373,50;45;100,70;22;49,20
"Hillegom";81;365,00;8;36,00;2;9,00
"Hilvarenbeek";52;334,70;9;57,90;6;38,60
"Hilversum";257;282,30;33;36,20;24;26,40
"Hoeksche Waard";336;383,90;76;86,80;20;22,80
"Hof van Twente";63;180,20;15;42,90;5;14,30
"Hollands Kroon";65;134,10;26;53,70;6;12,40
"Hoogeveen";104;186,90;19;34,10;8;14,40
"Hoorn";123;167,80;35;47,80;12;16,40
"Horst aan de Maas";142;334,40;41;96,60;24;56,50
"Houten";162;322,50;24;47,80;14;27,90
"Huizen";172;417,70;22;53,40;10;24,30
"Hulst";34;122,10;9;32,30;5;18,00
"IJsselstein";171;502,70;36;105,80;35;102,90
"Kaag en Braassem";36;131,50;7;25,60;2;7,30
"Kampen";346;636,60;59;108,60;27;49,70
"Kapelle";27;212,60;3;23,60;1;7,90
"Katwijk";290;440,60;31;47,10;15;22,80
"Kerkrade";207;453,10;64;140,10;35;76,60
"Koggenland";38;166,90;6;26,30;6;26,30
"Krimpen aan den IJssel";98;331,80;11;37,20;8;27,10
"Krimpenerwaard";222;394,30;45;79,90;34;60,40
"Laarbeek";125;553,00;41;181,40;26;115,00
"Landerd";148;939,90;39;247,70;21;133,40
"Landgraaf";145;387,40;52;138,90;13;34,70
"Landsmeer";25;216,50;3;26,00;3;26,00
"Langedijk";54;191,70;16;56,80;4;14,20
"Lansingerland";232;371,00;43;68,80;25;40,00
"Laren";32;282,40;8;70,60;2;17,60
"Leeuwarden";74;59,70;33;26,60;6;4,80
"Leiden";228;182,30;40;32,00;18;14,40
"Leiderdorp";46;169,70;14;51,60;6;22,10
"Leidschendam-Voorburg";186;243,10;21;27,40;15;19,60
"Lelystad";197;249,60;63;79,80;29;36,70
"Leudal";193;538,50;53;147,90;33;92,10
"Leusden";62;203,80;9;29,60;5;16,40
"Lingewaard";132;283,00;31;66,50;10;21,40
"Lisse";41;178,10;8;34,70;2;8,70
"Lochem";100;296,40;15;44,50;15;44,50
"Loon op Zand";65;277,60;25;106,80;7;29,90
"Lopik";70;483,30;19;131,20;8;55,20
"Loppersum";2;21,00;0;0,00;0;0,00
"Losser";26;114,60;7;30,90;0;0,00
"Maasdriel";62;246,10;15;59,60;7;27,80
"Maasgouw";107;447,00;27;112,80;14;58,50
"Maassluis";118;355,10;20;60,20;9;27,10
"Maastricht";929;764,50;186;153,10;140;115,20
"Medemblik";77;170,70;19;42,10;6;13,30
"Meerssen";120;637,80;22;116,90;13;69,10
"Meierijstad";564;693,70;211;259,50;131;161,10
"Meppel";51;150,10;11;32,40;5;14,70
"Middelburg";88;180,30;18;36,90;10;20,50
"Midden-Delfland";36;186,50;4;20,70;0;0,00
"Midden-Drenthe";25;75,30;6;18,10;0;0,00
"Midden-Groningen";38;62,50;6;9,90;3;4,90
"Mill en Sint Hubert";41;374,20;9;82,10;5;45,60
"Moerdijk";89;239,60;14;37,70;8;21,50
"Molenlanden";127;288,80;18;40,90;8;18,20
"Montferland";105;291,70;21;58,30;9;25,00
"Montfoort";49;352,50;13;93,50;5;36,00
"Mook en Middelaar";41;523,30;6;76,60;5;63,80
"Neder-Betuwe";146;597,40;37;151,40;21;85,90
"Nederweert";54;316,50;31;181,70;7;41,00
"Nieuwegein";193;303,90;45;70,90;14;22,00
"Nieuwkoop";58;200,80;9;31,20;5;17,30
"Nijkerk";70;162,00;22;50,90;3;6,90
"Nijmegen";708;398,60;128;72,10;70;39,40
"Nissewaard";254;298,10;56;65,70;17;20,00
"Noardeast-Fryslân";48;106,00;6;13,30;4;8,80
"Noord-Beveland";13;176,00;1;13,50;0;0,00
"Noordenveld";21;67,30;4;12,80;1;3,20
"Noordoostpolder";82;172,80;14;29,50;10;21,10
"Noordwijk";64;146,80;19;43,60;3;6,90
"Nuenen, Gerwen en Nederwetten";55;235,20;18;77,00;9;38,50
"Nunspeet";224;805,50;55;197,80;21;75,50
"Oegstgeest";49;196,90;8;32,10;3;12,10
"Oirschot";73;389,40;13;69,30;9;48,00
"Oisterwijk";83;315,80;23;87,50;11;41,80
"Oldambt";16;41,90;7;18,30;2;5,20
"Oldebroek";175;740,00;40;169,10;19;80,30
"Oldenzaal";50;157,00;13;40,80;7;22,00
"Olst-Wijhe";54;295,90;12;65,80;8;43,80
"Ommen";54;299,50;9;49,90;2;11,10
"Oost Gelre";77;259,90;18;60,80;6;20,30
"Oosterhout";168;299,70;48;85,60;17;30,30
"Ooststellingwerf";8;31,40;3;11,80;0;0,00
"Oostzaan";33;339,50;10;102,90;2;20,60
"Opmeer";9;76,20;1;8,50;1;8,50
"Opsterland";24;80,90;7;23,60;0;0,00
"Oss";508;552,20;165;179,40;88;95,70
"Oude IJsselstreek";80;203,20;21;53,30;9;22,90
"Ouder-Amstel";51;361,20;5;35,40;0;0,00
"Oudewater";64;626,80;26;254,70;9;88,10
"Overbetuwe";141;294,00;55;114,70;16;33,40
"Papendrecht";88;273,80;9;28,00;8;24,90
"Peel en Maas";285;653,30;144;330,10;65;149,00
"Pekela";6;49,30;4;32,90;0;0,00
"Pijnacker-Nootdorp";169;305,00;24;43,30;16;28,90
"Purmerend";253;310,60;67;82,20;35;43,00
"Putten";40;165,80;10;41,50;0;0,00
"Raalte";158;419,30;24;63,70;17;45,10
"Reimerswaal";37;162,90;4;17,60;2;8,80
"Renkum";83;264,30;14;44,60;7;22,30
"Renswoude";19;346,30;5;91,10;5;91,10
"Reusel-De Mierden";25;191,00;11;84,00;2;15,30
"Rheden";147;336,60;34;77,90;14;32,10
"Rhenen";49;243,70;11;54,70;6;29,80
"Ridderkerk";190;410,00;37;79,80;16;34,50
"Rijssen-Holten";206;539,00;29;75,90;23;60,20
"Rijswijk";199;364,30;37;67,70;22;40,30
"Roerdalen";51;248,60;27;131,60;8;39,00
"Roermond";150;257,20;59;101,20;23;39,40
"Roosendaal";284;367,40;29;37,50;22;28,50
"Rotterdam";4311;660,80;536;82,20;348;53,30
"Rozendaal";3;176,90;1;59,00;0;0,00
"Rucphen";72;313,60;10;43,60;10;43,60
"s-Gravenhage";2458;450,30;349;63,90;249;45,60
"Schagen";78;167,80;18;38,70;10;21,50
"Scherpenzeel";34;344,00;4;40,50;2;20,20
"Schiedam";383;485,80;58;73,60;23;29,20
"Schiermonnikoog";0;0,00;0;0,00;0;0,00
"Schouwen-Duiveland";99;292,10;11;32,50;9;26,60
"Simpelveld";48;455,20;19;180,20;5;47,40
"Sint Anthonis";72;617,20;20;171,40;11;94,30
"Sint-Michielsgestel";123;420,30;36;123,00;19;64,90
"Sittard-Geleen";421;456,00;115;124,60;64;69,30
"Sliedrecht";73;289,80;9;35,70;5;19,90
"Sluis";21;90,50;9;38,80;4;17,20
"Smallingerland";59;105,00;9;16,00;5;8,90
"Soest";99;212,20;24;51,40;13;27,90
"Someren";108;557,60;33;170,40;8;41,30
"Son en Breugel";75;432,50;31;178,80;14;80,70
"Stadskanaal";10;31,60;2;6,30;2;6,30
"Staphorst";62;361,50;8;46,60;4;23,30
"Stede Broec";51;234,80;18;82,90;5;23,00
"Steenbergen";101;412,90;13;53,10;13;53,10
"Steenwijkerland";108;244,60;14;31,70;5;11,30
"Stein";122;489,00;43;172,40;15;60,10
"Stichtse Vecht";155;238,40;35;53,80;14;21,50
"Súdwest-Fryslân";108;120,20;18;20,00;6;6,70
"Terneuzen";122;224,30;25;46,00;4;7,40
"Terschelling";2;41,30;0;0,00;0;0,00
"Texel";11;81,00;5;36,80;2;14,70
"Teylingen";73;194,50;14;37,30;2;5,30
"Tholen";175;678,70;40;155,10;16;62,10
"Tiel";154;365,90;42;99,80;18;42,80
"Tilburg";915;415,60;251;114,00;163;74,00
"Tubbergen";81;380,80;12;56,40;5;23,50
"Twenterand";61;180,80;12;35,60;2;5,90
"Tynaarlo";41;121,20;9;26,60;0;0,00
"Tytsjerksteradiel";16;49,80;4;12,50;1;3,10
"Uden";269;638,50;115;273,00;63;149,50
"Uitgeest";27;197,70;5;36,60;1;7,30
"Uithoorn";66;223,00;16;54,10;2;6,80
"Urk";84;398,60;23;109,10;4;19,00
"Utrecht";1657;462,30;271;75,60;118;32,90
"Utrechtse Heuvelrug";136;273,40;28;56,30;14;28,10
"Vaals";31;306,80;10;99,00;2;19,80
"Valkenburg aan de Geul";88;538,50;19;116,30;7;42,80
"Valkenswaard";187;598,90;19;60,90;37;118,50
"Veendam";11;40,20;2;7,30;0;0,00
"Veenendaal";198;297,20;47;70,60;11;16,50
"Veere";40;182,60;6;27,40;2;9,10
"Veldhoven";142;311,90;31;68,10;16;35,10
"Velsen";297;432,10;32;46,60;39;56,70
"Venlo";332;326,00;129;126,70;63;61,90
"Venray";133;304,90;37;84,80;17;39,00
"Vijfheerenlanden";284;499,00;34;59,70;36;63,30
"Vlaardingen";387;526,30;43;58,50;30;40,80
"Vlieland";0;0,00;0;0,00;0;0,00
"Vlissingen";82;184,90;9;20,30;5;11,30
"Voerendaal";48;384,30;17;136,10;8;64,00
"Voorschoten";72;281,30;9;35,20;11;43,00
"Voorst";85;345,50;17;69,10;11;44,70
"Vught";110;413,80;43;161,80;17;64,00
"Waadhoeke";101;219,20;12;26,00;15;32,60
"Waalre";33;189,00;7;40,10;5;28,60
"Waalwijk";202;415,40;36;74,00;37;76,10
"Waddinxveen";128;435,90;18;61,30;7;23,80
"Wageningen";59;147,90;20;50,10;9;22,60
"Wassenaar";65;247,80;9;34,30;12;45,70
"Waterland";36;206,70;16;91,90;4;23,00
"Weert";145;288,90;67;133,50;14;27,90
"Weesp";89;447,10;9;45,20;13;65,30
"West Betuwe";217;423,60;43;83,90;27;52,70
"West Maas en Waal";85;439,10;20;103,30;9;46,50
"Westerkwartier";59;93,10;14;22,10;4;6,30
"Westerveld";38;195,30;9;46,30;4;20,60
"Westervoort";45;300,50;12;80,10;6;40,10
"Westerwolde";8;30,60;5;19,10;0;0,00
"Westland";356;321,90;57;51,50;30;27,10
"Weststellingwerf";29;111,90;3;11,60;4;15,40
"Westvoorne";32;217,00;6;40,70;0;0,00
"Wierden";51;208,80;5;20,50;6;24,60
"Wijchen";153;372,30;44;107,10;13;31,60
"Wijdemeren";42;172,50;8;32,90;0;0,00
"Wijk bij Duurstede";44;184,30;10;41,90;1;4,20
"Winterswijk";48;166,70;7;24,30;3;10,40
"Woensdrecht";82;373,10;5;22,80;7;31,90
"Woerden";192;366,70;49;93,60;20;38,20
"Wormerland";51;313,60;20;123,00;6;36,90
"Woudenberg";34;253,90;9;67,20;2;14,90
"Zaanstad";511;325,80;121;77,10;48;30,60
"Zaltbommel";107;368,90;21;72,40;9;31,00
"Zandvoort";46;268,40;10;58,40;8;46,70
"Zeewolde";51;225,80;12;53,10;6;26,60
"Zeist";235;361,80;37;57,00;24;36,90
"Zevenaar";123;280,80;45;102,70;15;34,20
"Zoetermeer";292;233,10;53;42,30;14;11,20
"Zoeterwoude";17;196,80;3;34,70;1;11,60
"Zuidplas";170;386,00;24;54,50;21;47,70
"Zundert";116;531,10;24;109,90;11;50,40
"Zutphen";112;233,30;30;62,50;13;27,10
"Zwartewaterland";146;642,70;35;154,10;19;83,60
"Zwijndrecht";184;411,70;23;51,50;26;58,20
"Zwolle";372;288,20;53;41,10;46;35,60