"Category";"Meldingen";"Meldingen per 100000";"Zkh opname";"Zkh opname per 100000";"Overleden";"Overleden per 100000"
"'s-Hertogenbosch";2961;1905,60;153;98,50;89;57,30
"Aa en Hunze";218;858,80;1;3,90;1;3,90
"Aalsmeer";705;2211,30;12;37,60;9;28,20
"Aalten";396;1461,60;13;48,00;8;29,50
"Achtkarspelen";201;721,70;0;0,00;0;0,00
"Alblasserdam";646;3206,00;11;54,60;9;44,70
"Albrandswaard";889;3465,20;18;70,20;10;39,00
"Alkmaar";1640;1496,50;68;62,10;32;29,20
"Almelo";1458;1993,70;32;43,80;14;19,10
"Almere";4059;1910,90;170;80,00;40;18,80
"Alphen aan den Rijn";2562;2135,90;89;74,20;36;30,00
"Alphen-Chaam";185;1807,70;18;175,90;5;48,90
"Altena";1030;1840,40;40;71,50;18;32,20
"Ameland";45;1205,10;0;0,00;0;0,00
"Amersfoort";3077;1956,00;99;62,90;30;19,10
"Amstelveen";2270;2473,70;76;82,80;49;53,40
"Amsterdam";31039;3550,30;1049;120,00;343;39,20
"Apeldoorn";2128;1298,70;117;71,40;56;34,20
"Appingedam";61;524,30;8;68,80;1;8,60
"Arnhem";2596;1606,50;99;61,30;38;23,50
"Assen";697;1013,90;14;20,40;3;4,40
"Asten";314;1878,70;18;107,70;12;71,80
"Baarle-Nassau";117;1700,80;9;130,80;2;29,10
"Baarn";457;1837,80;17;68,40;9;36,20
"Barendrecht";1567;3218,30;51;104,70;19;39,00
"Barneveld";976;1645,60;25;42,20;11;18,50
"Beek";184;1159,60;18;113,40;8;50,40
"Beekdaelen";455;1265,60;52;144,60;26;72,30
"Beemster";136;1359,00;4;40,00;1;10,00
"Beesel";193;1432,10;20;148,40;8;59,40
"Berg en Dal";857;2447,20;41;117,10;25;71,40
"Bergeijk";471;2525,50;20;107,20;5;26,80
"Bergen (L.)";190;1452,60;10;76,50;3;22,90
"Bergen (NH.)";595;1993,40;22;73,70;17;57,00
"Bergen op Zoom";1847;2732,70;47;69,50;19;28,10
"Berkelland";756;1727,60;19;43,40;13;29,70
"Bernheze";801;2559,00;98;313,10;67;214,10
"Best";514;1712,40;35;116,60;13;43,30
"Beuningen";430;1658,10;20;77,10;6;23,10
"Beverwijk";796;1913,00;20;48,10;13;31,20
"Bladel";737;3608,90;23;112,60;9;44,10
"Blaricum";203;1752,90;8;69,10;2;17,30
"Bloemendaal";395;1678,20;10;42,50;6;25,50
"Bodegraven-Reeuwijk";726;2078,00;15;42,90;11;31,50
"Boekel";212;1967,70;36;334,10;20;185,60
"Borger-Odoorn";278;1087,90;8;31,30;7;27,40
"Borne";414;1771,70;16;68,50;6;25,70
"Borsele";159;699,20;5;22,00;1;4,40
"Boxmeer";578;1965,80;23;78,20;28;95,20
"Boxtel";560;1817,00;24;77,90;26;84,40
"Breda";4076;2213,00;184;99,90;88;47,80
"Brielle";350;2027,00;17;98,50;0;0,00
"Bronckhorst";597;1658,10;18;50,00;7;19,40
"Brummen";235;1130,70;19;91,40;6;28,90
"Brunssum";333;1197,60;50;179,80;21;75,50
"Bunnik";289;1899,30;12;78,90;3;19,70
"Bunschoten";672;3069,80;17;77,70;8;36,50
"Buren";438;1634,50;23;85,80;8;29,90
"Capelle aan den IJssel";1976;2939,70;73;108,60;66;98,20
"Castricum";470;1304,90;18;50,00;11;30,50
"Coevorden";348;985,70;19;53,80;3;8,50
"Cranendonck";516;2431,80;63;296,90;36;169,70
"Cuijk";499;1983,70;18;71,60;12;47,70
"Culemborg";624;2150,20;28;96,50;10;34,50
"Dalfsen";483;1683,80;17;59,30;7;24,40
"Dantumadiel";134;708,70;2;10,60;0;0,00
"De Bilt";982;2277,70;35;81,20;24;55,70
"De Fryske Marren";510;988,20;24;46,50;9;17,40
"De Ronde Venen";927;2083,20;53;119,10;16;36,00
"De Wolden";254;1043,10;16;65,70;5;20,50
"Delft";2744;2650,30;48;46,40;18;17,40
"Delfzijl";144;584,00;8;32,40;0;0,00
"Den Helder";455;807,30;17;30,20;4;7,10
"Deurne";770;2373,80;58;178,80;27;83,20
"Deventer";1520;1506,50;50;49,60;42;41,60
"Diemen";1019;3263,90;24;76,90;18;57,70
"Dinkelland";706;2668,90;21;79,40;12;45,40
"Doesburg";192;1736,30;11;99,50;7;63,30
"Doetinchem";820;1412,20;34;58,60;17;29,30
"Dongen";524;1992,60;30;114,10;13;49,40
"Dordrecht";3215;2692,30;97;81,20;79;66,20
"Drechterland";307;1555,80;6;30,40;8;40,50
"Drimmelen";478;1755,50;21;77,10;10;36,70
"Dronten";394;945,90;40;96,00;15;36,00
"Druten";334;1764,60;28;147,90;10;52,80
"Duiven";385;1535,60;17;67,80;6;23,90
"Echt-Susteren";275;869,40;43;135,90;19;60,10
"Edam-Volendam";1012;2798,80;42;116,20;5;13,80
"Ede";2057;1757,50;75;64,10;31;26,50
"Eemnes";157;1694,20;3;32,40;1;10,80
"Eersel";523;2706,30;32;165,60;12;62,10
"Eijsden-Margraten";456;1769,80;59;229,00;28;108,70
"Eindhoven";4304;1832,70;210;89,40;110;46,80
"Elburg";344;1480,90;29;124,80;8;34,40
"Emmen";1516;1417,10;49;45,80;23;21,50
"Enkhuizen";218;1168,70;20;107,20;4;21,40
"Enschede";3100;1942,30;70;43,90;42;26,30
"Epe";479;1443,60;53;159,70;23;69,30
"Ermelo";417;1544,90;33;122,30;23;85,20
"Etten-Leur";992;2260,90;51;116,20;31;70,70
"Geertruidenberg";342;1584,40;17;78,80;6;27,80
"Geldrop-Mierlo";736;1849,30;37;93,00;17;42,70
"Gemert-Bakel";585;1903,00;79;257,00;34;110,60
"Gennep";256;1511,80;17;100,40;10;59,10
"Gilze en Rijen";512;1925,00;24;90,20;16;60,20
"Goeree-Overflakkee";1010;2014,10;61;121,60;35;69,80
"Goes";444;1161,80;15;39,30;13;34,00
"Goirle";502;2098,90;35;146,30;23;96,20
"Gooise Meren";1111;1912,70;29;49,90;15;25,80
"Gorinchem";858;2311,50;20;53,90;19;51,20
"Gouda";2009;2733,90;73;99,30;58;78,90
"Grave";303;2429,60;24;192,40;11;88,20
"Groningen";3539;1519,00;32;13,70;4;1,70
"Gulpen-Wittem";246;1738,40;24;169,60;15;106,00
"Haaksbergen";563;2318,60;18;74,10;11;45,30
"Haaren";308;2145,70;20;139,30;8;55,70
"Haarlem";3046;1867,50;107;65,60;76;46,60
"Haarlemmermeer";3361;2149,60;100;64,00;41;26,20
"Halderberge";660;2180,50;26;85,90;13;42,90
"Hardenberg";740;1213,70;24;39,40;10;16,40
"Harderwijk";743;1526,80;47;96,60;22;45,20
"Hardinxveld-Giessendam";382;2083,60;2;10,90;5;27,30
"Harlingen";99;630,60;4;25,50;1;6,40
"Hattem";156;1276,20;18;147,30;5;40,90
"Heemskerk";727;1854,60;35;89,30;15;38,30
"Heemstede";455;1667,50;17;62,30;35;128,30
"Heerde";330;1776,10;55;296,00;28;150,70
"Heerenveen";418;828,20;16;31,70;22;43,60
"Heerhugowaard";820;1419,90;30;51,90;10;17,30
"Heerlen";1028;1181,30;131;150,50;55;63,20
"Heeze-Leende";367;2274,40;18;111,60;8;49,60
"Heiloo";294;1228,00;12;50,10;9;37,60
"Hellendoorn";595;1658,10;13;36,20;14;39,00
"Hellevoetsluis";769;1913,80;21;52,30;7;17,40
"Helmond";2360;2556,50;124;134,30;47;50,90
"Hendrik-Ido-Ambacht";851;2722,20;13;41,60;7;22,40
"Hengelo";1602;1973,00;39;48,00;24;29,60
"Het Hogeland";406;848,10;7;14,60;5;10,40
"Heumen";384;2329,70;19;115,30;13;78,90
"Heusden";906;2026,40;50;111,80;27;60,40
"Hillegom";422;1901,50;8;36,00;2;9,00
"Hilvarenbeek";342;2201,20;15;96,50;10;64,40
"Hilversum";1647;1809,10;42;46,10;26;28,60
"Hoeksche Waard";1971;2251,80;85;97,10;31;35,40
"Hof van Twente";633;1810,70;20;57,20;6;17,20
"Hollands Kroon";467;963,70;26;53,70;6;12,40
"Hoogeveen";648;1164,50;29;52,10;12;21,60
"Hoorn";1073;1464,00;40;54,60;14;19,10
"Horst aan de Maas";765;1801,70;44;103,60;28;65,90
"Houten";977;1944,90;34;67,70;26;51,80
"Huizen";938;2277,70;31;75,30;12;29,10
"Hulst";306;1098,60;13;46,70;5;18,00
"IJsselstein";774;2275,50;44;129,40;35;102,90
"Kaag en Braassem";514;1877,50;9;32,90;3;11,00
"Kampen";719;1323,00;61;112,20;37;68,10
"Kapelle";97;764,00;3;23,60;1;7,90
"Katwijk";1809;2748,60;46;69,90;22;33,40
"Kerkrade";562;1230,20;70;153,20;37;81,00
"Koggenland";325;1427,10;9;39,50;8;35,10
"Krimpen aan den IJssel";859;2908,40;18;60,90;13;44,00
"Krimpenerwaard";1335;2371,40;58;103,00;37;65,70
"Laarbeek";442;1955,40;42;185,80;26;115,00
"Landerd";450;2857,90;42;266,70;21;133,40
"Landgraaf";380;1015,30;55;146,90;15;40,10
"Landsmeer";249;2156,80;5;43,30;3;26,00
"Langedijk";443;1572,30;21;74,50;7;24,80
"Lansingerland";1709;2733,10;51;81,60;36;57,60
"Laren";237;2091,20;10;88,20;3;26,50
"Leeuwarden";1417;1142,50;47;37,90;10;8,10
"Leiden";3097;2476,30;64;51,20;27;21,60
"Leiderdorp";599;2209,50;25;92,20;8;29,50
"Leidschendam-Voorburg";1681;2196,70;41;53,60;30;39,20
"Lelystad";1145;1450,80;85;107,70;34;43,10
"Leudal";465;1297,40;54;150,70;35;97,70
"Leusden";546;1794,70;11;36,20;10;32,90
"Lingewaard";852;1826,60;38;81,50;12;25,70
"Lisse";410;1780,80;11;47,80;4;17,40
"Lochem";448;1327,80;18;53,30;15;44,50
"Loon op Zand";479;2045,90;30;128,10;19;81,20
"Lopik";339;2340,70;25;172,60;8;55,20
"Loppersum";54;568,10;0;0,00;0;0,00
"Losser";468;2063,00;11;48,50;2;8,80
"Maasdriel";456;1810,40;20;79,40;9;35,70
"Maasgouw";265;1107,00;28;117,00;15;62,70
"Maassluis";979;2946,30;32;96,30;13;39,10
"Maastricht";2087;1717,50;200;164,60;140;115,20
"Medemblik";573;1270,10;20;44,30;6;13,30
"Meerssen";226;1201,20;23;122,20;13;69,10
"Meierijstad";1696;2086,10;217;266,90;137;168,50
"Meppel";307;903,40;11;32,40;5;14,70
"Middelburg";377;772,50;21;43,00;10;20,50
"Midden-Delfland";422;2186,30;8;41,40;1;5,20
"Midden-Drenthe";328;987,70;6;18,10;0;0,00
"Midden-Groningen";405;666,20;10;16,50;5;8,20
"Mill en Sint Hubert";256;2336,20;9;82,10;5;45,60
"Moerdijk";753;2026,90;20;53,80;11;29,60
"Molenlanden";910;2069,30;20;45,50;12;27,30
"Montferland";512;1422,30;25;69,40;10;27,80
"Montfoort";290;2086,20;16;115,10;7;50,40
"Mook en Middelaar";172;2195,30;8;102,10;5;63,80
"Neder-Betuwe";501;2049,80;44;180,00;22;90,00
"Nederweert";280;1641,00;34;199,30;7;41,00
"Nieuwegein";1218;1918,00;54;85,00;15;23,60
"Nieuwkoop";527;1824,90;14;48,50;7;24,20
"Nijkerk";817;1891,10;27;62,50;4;9,30
"Nijmegen";3914;2203,50;180;101,30;84;47,30
"Nissewaard";2144;2516,20;74;86,80;27;31,70
"Noardeast-Fryslân";292;645,10;7;15,50;4;8,80
"Noord-Beveland";77;1042,50;1;13,50;1;13,50
"Noordenveld";250;800,70;6;19,20;14;44,80
"Noordoostpolder";450;948,50;20;42,20;12;25,30
"Noordwijk";922;2115,40;32;73,40;4;9,20
"Nuenen, Gerwen en Nederwetten";424;1813,10;20;85,50;10;42,80
"Nunspeet";463;1664,90;62;222,90;22;79,10
"Oegstgeest";476;1912,30;11;44,20;3;12,10
"Oirschot";418;2229,50;17;90,70;9;48,00
"Oisterwijk";453;1723,40;27;102,70;12;45,70
"Oldambt";236;618,00;10;26,20;4;10,50
"Oldebroek";319;1348,80;40;169,10;20;84,60
"Oldenzaal";723;2270,60;16;50,20;17;53,40
"Olst-Wijhe";226;1238,50;12;65,80;8;43,80
"Ommen";214;1186,80;9;49,90;4;22,20
"Oost Gelre";592;1998,20;21;70,90;11;37,10
"Oosterhout";1120;1998,10;52;92,80;17;30,30
"Ooststellingwerf";177;695,30;5;19,60;1;3,90
"Oostzaan";268;2757,20;12;123,50;2;20,60
"Opmeer";134;1134,40;1;8,50;2;16,90
"Opsterland";185;623,60;8;27,00;0;0,00
"Oss";2368;2574,00;177;192,40;95;103,30
"Oude IJsselstreek";480;1219,00;25;63,50;9;22,90
"Ouder-Amstel";399;2826,20;8;56,70;0;0,00
"Oudewater";234;2291,90;30;293,80;11;107,70
"Overbetuwe";714;1488,60;62;129,30;18;37,50
"Papendrecht";711;2212,10;9;28,00;10;31,10
"Peel en Maas";825;1891,00;146;334,70;65;149,00
"Pekela";82;674,20;6;49,30;0;0,00
"Pijnacker-Nootdorp";1348;2432,70;32;57,70;18;32,50
"Purmerend";1495;1835,20;88;108,00;38;46,60
"Putten";298;1235,50;12;49,80;1;4,10
"Raalte";575;1525,80;25;66,30;24;63,70
"Reimerswaal";225;990,30;6;26,40;3;13,20
"Renkum";517;1646,00;17;54,10;10;31,80
"Renswoude";91;1658,80;5;91,10;5;91,10
"Reusel-De Mierden";447;3414,80;15;114,60;3;22,90
"Rheden";620;1419,70;35;80,10;16;36,60
"Rhenen";370;1840,00;13;64,60;6;29,80
"Ridderkerk";1292;2788,00;47;101,40;22;47,50
"Rijssen-Holten";772;2020,00;30;78,50;27;70,60
"Rijswijk";1469;2689,50;62;113,50;42;76,90
"Roerdalen";161;784,80;27;131,60;8;39,00
"Roermond";674;1155,80;65;111,50;24;41,20
"Roosendaal";1823;2358,40;46;59,50;32;41,40
"Rotterdam";25028;3836,50;850;130,30;439;67,30
"Rozendaal";11;648,60;1;59,00;0;0,00
"Rucphen";531;2313,10;16;69,70;10;43,60
"s-Gravenhage";17324;3173,70;617;113,00;330;60,50
"Schagen";662;1424,50;21;45,20;11;23,70
"Scherpenzeel";173;1750,50;5;50,60;2;20,20
"Schiedam";2685;3405,50;79;100,20;27;34,20
"Schiermonnikoog";3;317,10;1;105,70;0;0,00
"Schouwen-Duiveland";397;1171,40;13;38,40;13;38,40
"Simpelveld";110;1043,20;19;180,20;5;47,40
"Sint Anthonis";228;1954,40;21;180,00;11;94,30
"Sint-Michielsgestel";623;2128,90;37;126,40;19;64,90
"Sittard-Geleen";1062;1150,20;128;138,60;66;71,50
"Sliedrecht";538;2135,90;10;39,70;5;19,90
"Sluis";105;452,60;10;43,10;4;17,20
"Smallingerland";422;751,30;12;21,40;7;12,50
"Soest";1094;2344,80;37;79,30;20;42,90
"Someren";330;1703,80;34;175,50;8;41,30
"Son en Breugel";308;1776,20;31;178,80;15;86,50
"Stadskanaal";315;995,70;8;25,30;5;15,80
"Staphorst";350;2040,80;8;46,60;4;23,30
"Stede Broec";275;1266,30;19;87,50;5;23,00
"Steenbergen";522;2133,70;18;73,60;14;57,20
"Steenwijkerland";425;962,50;15;34,00;9;20,40
"Stein";292;1170,50;49;196,40;16;64,10
"Stichtse Vecht";1325;2037,60;52;80,00;17;26,10
"Súdwest-Fryslân";972;1081,40;22;24,50;6;6,70
"Terneuzen";482;886,30;25;46,00;4;7,40
"Terschelling";64;1320,70;1;20,60;1;20,60
"Texel";90;663,00;6;44,20;2;14,70
"Teylingen";778;2073,30;19;50,60;4;10,70
"Tholen";476;1846,10;45;174,50;19;73,70
"Tiel";949;2254,60;48;114,00;22;52,30
"Tilburg";4673;2122,70;278;126,30;177;80,40
"Tubbergen";753;3539,70;12;56,40;6;28,20
"Twenterand";559;1656,40;12;35,60;2;5,90
"Tynaarlo";305;901,90;11;32,50;1;3,00
"Tytsjerksteradiel";246;766,10;7;21,80;3;9,30
"Uden";728;1727,90;116;275,30;65;154,30
"Uitgeest";249;1823,10;7;51,30;1;7,30
"Uithoorn";623;2104,60;21;70,90;3;10,10
"Urk";208;987,00;24;113,90;4;19,00
"Utrecht";10696;2983,90;368;102,70;129;36,00
"Utrechtse Heuvelrug";972;1953,70;33;66,30;18;36,20
"Vaals";75;742,30;10;99,00;2;19,80
"Valkenburg aan de Geul";240;1468,60;20;122,40;9;55,10
"Valkenswaard";750;2402,10;23;73,70;38;121,70
"Veendam";196;715,80;4;14,60;1;3,70
"Veenendaal";1605;2409,30;59;88,60;17;25,50
"Veere";125;570,60;8;36,50;2;9,10
"Veldhoven";993;2181,10;38;83,50;19;41,70
"Velsen";1345;1956,90;50;72,70;46;66,90
"Venlo";1915;1880,60;144;141,40;71;69,70
"Venray";929;2129,60;42;96,30;20;45,80
"Vijfheerenlanden";1325;2328,20;48;84,30;45;79,10
"Vlaardingen";2527;3436,30;62;84,30;36;49,00
"Vlieland";16;1378,10;0;0,00;0;0,00
"Vlissingen";340;766,80;12;27,10;5;11,30
"Voerendaal";134;1072,80;17;136,10;8;64,00
"Voorschoten";463;1809,10;11;43,00;11;43,00
"Voorst";302;1227,60;18;73,20;11;44,70
"Vught";498;1873,60;43;161,80;18;67,70
"Waadhoeke";449;974,40;15;32,60;17;36,90
"Waalre";328;1878,50;8;45,80;8;45,80
"Waalwijk";1059;2177,80;45;92,50;40;82,30
"Waddinxveen";683;2325,90;27;91,90;7;23,80
"Wageningen";664;1665,00;26;65,20;19;47,60
"Wassenaar";503;1917,20;11;41,90;13;49,60
"Waterland";398;2285,50;21;120,60;7;40,20
"Weert";806;1606,10;72;143,50;16;31,90
"Weesp";582;2923,70;10;50,20;14;70,30
"West Betuwe";911;1778,20;54;105,40;30;58,60
"West Maas en Waal";340;1756,40;24;124,00;10;51,70
"Westerkwartier";440;694,30;19;30,00;4;6,30
"Westerveld";123;632,10;9;46,30;5;25,70
"Westervoort";195;1302,30;12;80,10;6;40,10
"Westerwolde";221;846,10;12;45,90;2;7,70
"Westland";2617;2366,10;75;67,80;31;28,00
"Weststellingwerf";245;945,10;3;11,60;5;19,30
"Westvoorne";311;2109,20;6;40,70;0;0,00
"Wierden";577;2362,40;7;28,70;6;24,60
"Wijchen";735;1788,60;54;131,40;17;41,40
"Wijdemeren";450;1848,20;11;45,20;1;4,10
"Wijk bij Duurstede";380;1591,40;12;50,30;4;16,80
"Winterswijk";341;1183,90;9;31,20;4;13,90
"Woensdrecht";429;1952,10;10;45,50;13;59,20
"Woerden";1000;1909,90;64;122,20;22;42,00
"Wormerland";320;1967,50;21;129,10;12;73,80
"Woudenberg";245;1829,70;9;67,20;2;14,90
"Zaanstad";3726;2375,40;161;102,60;66;42,10
"Zaltbommel";497;1713,60;23;79,30;10;34,50
"Zandvoort";274;1599,00;15;87,50;9;52,50
"Zeewolde";282;1248,50;13;57,60;6;26,60
"Zeist";1328;2044,40;46;70,80;30;46,20
"Zevenaar";589;1344,60;58;132,40;18;41,10
"Zoetermeer";2829;2258,40;70;55,90;20;16,00
"Zoeterwoude";163;1886,60;4;46,30;1;11,60
"Zuidplas";1161;2636,10;32;72,70;23;52,20
"Zundert";462;2115,20;27;123,60;11;50,40
"Zutphen";598;1245,60;34;70,80;13;27,10
"Zwartewaterland";412;1813,70;35;154,10;22;96,80
"Zwijndrecht";1309;2928,70;30;67,10;32;71,60
"Zwolle";1635;1266,80;54;41,80;51;39,50