"Category";"Meldingen";"Meldingen per 100000";"Zkh opname";"Zkh opname per 100000";"Overleden";"Overleden per 100000"
"'s-Hertogenbosch";1859;1196,40;140;90,10;82;52,80
"Aa en Hunze";163;642,10;1;3,90;1;3,90
"Aalsmeer";393;1232,70;10;31,40;6;18,80
"Aalten";258;952,30;13;48,00;7;25,80
"Achtkarspelen";134;481,10;0;0,00;0;0,00
"Alblasserdam";352;1746,90;11;54,60;5;24,80
"Albrandswaard";492;1917,80;17;66,30;8;31,20
"Alkmaar";955;871,40;61;55,70;31;28,30
"Almelo";640;875,10;31;42,40;12;16,40
"Almere";2502;1177,90;157;73,90;38;17,90
"Alphen aan den Rijn";1442;1202,10;77;64,20;30;25,00
"Alphen-Chaam";122;1192,10;18;175,90;5;48,90
"Altena";603;1077,40;37;66,10;12;21,40
"Ameland";30;803,40;0;0,00;0;0,00
"Amersfoort";1770;1125,20;88;55,90;28;17,80
"Amstelveen";1586;1728,30;70;76,30;42;45,80
"Amsterdam";22398;2561,90;901;103,10;312;35,70
"Apeldoorn";1312;800,70;109;66,50;53;32,30
"Appingedam";41;352,40;7;60,20;0;0,00
"Arnhem";1603;992,00;81;50,10;34;21,00
"Assen";392;570,20;13;18,90;3;4,40
"Asten";177;1059,00;18;107,70;12;71,80
"Baarle-Nassau";63;915,80;9;130,80;2;29,10
"Baarn";263;1057,60;12;48,30;9;36,20
"Barendrecht";999;2051,70;45;92,40;14;28,80
"Barneveld";523;881,80;23;38,80;10;16,90
"Beek";110;693,20;17;107,10;6;37,80
"Beekdaelen";305;848,40;52;144,60;25;69,50
"Beemster";84;839,40;4;40,00;1;10,00
"Beesel";106;786,50;20;148,40;8;59,40
"Berg en Dal";523;1493,50;34;97,10;21;60,00
"Bergeijk";290;1555,00;19;101,90;5;26,80
"Bergen (L.)";99;756,90;8;61,20;2;15,30
"Bergen (NH.)";388;1299,90;21;70,40;7;23,50
"Bergen op Zoom";1162;1719,20;39;57,70;14;20,70
"Berkelland";390;891,20;15;34,30;9;20,60
"Bernheze";512;1635,70;96;306,70;65;207,70
"Best";296;986,10;31;103,30;11;36,60
"Beuningen";281;1083,60;20;77,10;5;19,30
"Beverwijk";476;1144,00;19;45,70;12;28,80
"Bladel";522;2556,10;22;107,70;9;44,10
"Blaricum";129;1113,90;8;69,10;2;17,30
"Bloemendaal";274;1164,10;8;34,00;5;21,20
"Bodegraven-Reeuwijk";457;1308,00;11;31,50;9;25,80
"Boekel";137;1271,60;36;334,10;20;185,60
"Borger-Odoorn";176;688,80;5;19,60;4;15,70
"Borne";229;980,00;15;64,20;6;25,70
"Borsele";105;461,70;5;22,00;1;4,40
"Boxmeer";333;1132,50;20;68,00;28;95,20
"Boxtel";298;966,90;24;77,90;26;84,40
"Breda";2416;1311,70;163;88,50;72;39,10
"Brielle";233;1349,40;14;81,10;0;0,00
"Bronckhorst";327;908,20;18;50,00;7;19,40
"Brummen";131;630,30;18;86,60;6;28,90
"Brunssum";235;845,20;48;172,60;19;68,30
"Bunnik";171;1123,80;12;78,90;1;6,60
"Bunschoten";308;1407,00;12;54,80;7;32,00
"Buren";242;903,10;23;85,80;8;29,90
"Capelle aan den IJssel";1342;1996,50;64;95,20;63;93,70
"Castricum";280;777,40;18;50,00;10;27,80
"Coevorden";219;620,30;14;39,70;2;5,70
"Cranendonck";364;1715,40;63;296,90;36;169,70
"Cuijk";253;1005,80;13;51,70;10;39,80
"Culemborg";377;1299,10;24;82,70;9;31,00
"Dalfsen";286;997,00;17;59,30;7;24,40
"Dantumadiel";100;528,90;2;10,60;0;0,00
"De Bilt";650;1507,70;31;71,90;24;55,70
"De Fryske Marren";335;649,10;21;40,70;6;11,60
"De Ronde Venen";585;1314,60;44;98,90;14;31,50
"De Wolden";155;636,60;13;53,40;5;20,50
"Delft";1797;1735,60;44;42,50;13;12,60
"Delfzijl";93;377,10;7;28,40;0;0,00
"Den Helder";228;404,50;15;26,60;2;3,50
"Deurne";463;1427,30;57;175,70;26;80,20
"Deventer";986;977,30;50;49,60;38;37,70
"Diemen";749;2399,10;21;67,30;14;44,80
"Dinkelland";343;1296,60;20;75,60;10;37,80
"Doesburg";135;1220,80;10;90,40;6;54,30
"Doetinchem";535;921,40;29;49,90;15;25,80
"Dongen";269;1022,90;22;83,70;13;49,40
"Dordrecht";1912;1601,20;97;81,20;75;62,80
"Drechterland";171;866,60;5;25,30;8;40,50
"Drimmelen";245;899,80;21;77,10;9;33,10
"Dronten";260;624,20;36;86,40;13;31,20
"Druten";211;1114,80;25;132,10;9;47,50
"Duiven";251;1001,10;16;63,80;6;23,90
"Echt-Susteren";186;588,00;40;126,50;19;60,10
"Edam-Volendam";634;1753,40;35;96,80;4;11,10
"Ede";1263;1079,10;68;58,10;26;22,20
"Eemnes";82;884,90;2;21,60;1;10,80
"Eersel";331;1712,80;28;144,90;10;51,70
"Eijsden-Margraten";316;1226,40;55;213,50;27;104,80
"Eindhoven";2663;1133,90;193;82,20;95;40,50
"Elburg";245;1054,70;28;120,50;8;34,40
"Emmen";1057;988,10;41;38,30;19;17,80
"Enkhuizen";95;509,30;19;101,90;4;21,40
"Enschede";1403;879,10;64;40,10;26;16,30
"Epe";279;840,80;51;153,70;23;69,30
"Ermelo";265;981,80;33;122,30;23;85,20
"Etten-Leur";610;1390,30;45;102,60;30;68,40
"Geertruidenberg";198;917,30;13;60,20;6;27,80
"Geldrop-Mierlo";394;990,00;34;85,40;16;40,20
"Gemert-Bakel";400;1301,20;79;257,00;32;104,10
"Gennep";154;909,50;17;100,40;10;59,10
"Gilze en Rijen";289;1086,50;20;75,20;15;56,40
"Goeree-Overflakkee";643;1282,20;57;113,70;35;69,80
"Goes";313;819,00;13;34,00;13;34,00
"Goirle";316;1321,20;32;133,80;20;83,60
"Gooise Meren";762;1311,90;27;46,50;15;25,80
"Gorinchem";523;1409,00;19;51,20;16;43,10
"Gouda";1340;1823,50;53;72,10;46;62,60
"Grave";177;1419,30;21;168,40;11;88,20
"Groningen";2719;1167,00;26;11,20;3;1,30
"Gulpen-Wittem";174;1229,60;22;155,50;15;106,00
"Haaksbergen";354;1457,90;16;65,90;9;37,10
"Haaren";151;1052,00;19;132,40;8;55,70
"Haarlem";1956;1199,20;92;56,40;69;42,30
"Haarlemmermeer";2196;1404,50;90;57,60;38;24,30
"Halderberge";367;1212,50;18;59,50;10;33,00
"Hardenberg";404;662,60;23;37,70;10;16,40
"Harderwijk";534;1097,30;46;94,50;20;41,10
"Hardinxveld-Giessendam";193;1052,70;2;10,90;2;10,90
"Harlingen";66;420,40;4;25,50;1;6,40
"Hattem";105;859,00;18;147,30;5;40,90
"Heemskerk";385;982,20;32;81,60;13;33,20
"Heemstede";324;1187,40;14;51,30;34;124,60
"Heerde";272;1463,90;55;296,00;28;150,70
"Heerenveen";307;608,30;16;31,70;22;43,60
"Heerhugowaard";476;824,20;28;48,50;9;15,60
"Heerlen";694;797,50;127;145,90;54;62,10
"Heeze-Leende";207;1282,80;16;99,20;8;49,60
"Heiloo";166;693,30;11;45,90;8;33,40
"Hellendoorn";263;732,90;13;36,20;13;36,20
"Hellevoetsluis";469;1167,20;20;49,80;5;12,40
"Helmond";1497;1621,70;122;132,20;45;48,70
"Hendrik-Ido-Ambacht";492;1573,80;13;41,60;6;19,20
"Hengelo";890;1096,10;36;44,30;24;29,60
"Het Hogeland";269;561,90;7;14,60;4;8,40
"Heumen";278;1686,60;19;115,30;12;72,80
"Heusden";530;1185,40;47;105,10;26;58,20
"Hillegom";280;1261,70;8;36,00;2;9,00
"Hilvarenbeek";179;1152,10;11;70,80;8;51,50
"Hilversum";1058;1162,20;37;40,60;26;28,60
"Hoeksche Waard";1317;1504,60;82;93,70;23;26,30
"Hof van Twente";346;989,80;18;51,50;6;17,20
"Hollands Kroon";254;524,10;26;53,70;6;12,40
"Hoogeveen";344;618,20;26;46,70;10;18,00
"Hoorn";588;802,20;38;51,80;12;16,40
"Horst aan de Maas";417;982,10;41;96,60;28;65,90
"Houten";535;1065,00;31;61,70;16;31,90
"Huizen";583;1415,70;26;63,10;10;24,30
"Hulst";159;570,90;10;35,90;5;18,00
"IJsselstein";480;1411,10;39;114,70;35;102,90
"Kaag en Braassem";274;1000,80;8;29,20;3;11,00
"Kampen";551;1013,90;60;110,40;37;68,10
"Kapelle";64;504,10;3;23,60;1;7,90
"Katwijk";1000;1519,40;40;60,80;17;25,80
"Kerkrade";384;840,60;65;142,30;36;78,80
"Koggenland";185;812,30;7;30,70;7;30,70
"Krimpen aan den IJssel";544;1841,90;17;57,60;9;30,50
"Krimpenerwaard";874;1552,50;51;90,60;36;63,90
"Laarbeek";284;1256,40;41;181,40;26;115,00
"Landerd";306;1943,40;42;266,70;21;133,40
"Landgraaf";250;667,90;53;141,60;14;37,40
"Landsmeer";148;1281,90;5;43,30;3;26,00
"Langedijk";268;951,20;20;71,00;7;24,80
"Lansingerland";1078;1724,00;49;78,40;29;46,40
"Laren";146;1288,30;9;79,40;3;26,50
"Leeuwarden";1114;898,20;43;34,70;6;4,80
"Leiden";1931;1544,00;53;42,40;24;19,20
"Leiderdorp";343;1265,20;17;62,70;7;25,80
"Leidschendam-Voorburg";1091;1425,70;36;47,00;27;35,30
"Lelystad";703;890,80;79;100,10;31;39,30
"Leudal";332;926,30;54;150,70;33;92,10
"Leusden";323;1061,70;9;29,60;9;29,60
"Lingewaard";486;1041,90;36;77,20;11;23,60
"Lisse";207;899,10;9;39,10;2;8,70
"Lochem";304;901,00;16;47,40;15;44,50
"Loon op Zand";267;1140,40;28;119,60;15;64,10
"Lopik";213;1470,70;21;145,00;8;55,20
"Loppersum";30;315,60;0;0,00;0;0,00
"Losser";220;969,80;11;48,50;2;8,80
"Maasdriel";239;948,90;16;63,50;7;27,80
"Maasgouw";182;760,30;28;117,00;15;62,70
"Maassluis";600;1805,70;24;72,20;9;27,10
"Maastricht";1521;1251,70;193;158,80;140;115,20
"Medemblik";277;614,00;19;42,10;6;13,30
"Meerssen";182;967,30;23;122,20;13;69,10
"Meierijstad";1101;1354,20;211;259,50;131;161,10
"Meppel";192;565,00;11;32,40;5;14,70
"Middelburg";250;512,30;19;38,90;10;20,50
"Midden-Delfland";246;1274,50;5;25,90;0;0,00
"Midden-Drenthe";146;439,70;6;18,10;0;0,00
"Midden-Groningen";263;432,70;8;13,20;4;6,60
"Mill en Sint Hubert";166;1514,90;9;82,10;5;45,60
"Moerdijk";413;1111,70;18;48,50;9;24,20
"Molenlanden";461;1048,30;20;45,50;9;20,50
"Montferland";261;725,00;23;63,90;9;25,00
"Montfoort";175;1258,90;15;107,90;6;43,20
"Mook en Middelaar";116;1480,50;7;89,30;5;63,80
"Neder-Betuwe";311;1272,50;41;167,80;22;90,00
"Nederweert";150;879,10;32;187,50;7;41,00
"Nieuwegein";748;1177,90;50;78,70;14;22,00
"Nieuwkoop";282;976,50;12;41,60;6;20,80
"Nijkerk";540;1249,90;25;57,90;4;9,30
"Nijmegen";2766;1557,20;158;88,90;75;42,20
"Nissewaard";1211;1421,20;68;79,80;23;27,00
"Noardeast-Fryslân";191;422,00;7;15,50;4;8,80
"Noord-Beveland";42;568,60;1;13,50;0;0,00
"Noordenveld";199;637,40;6;19,20;14;44,80
"Noordoostpolder";303;638,70;17;35,80;11;23,20
"Noordwijk";483;1108,20;23;52,80;4;9,20
"Nuenen, Gerwen en Nederwetten";264;1128,90;18;77,00;9;38,50
"Nunspeet";356;1280,20;59;212,20;21;75,50
"Oegstgeest";297;1193,20;10;40,20;3;12,10
"Oirschot";284;1514,70;14;74,70;9;48,00
"Oisterwijk";233;886,40;26;98,90;12;45,70
"Oldambt";164;429,40;10;26,20;4;10,50
"Oldebroek";251;1061,30;40;169,10;19;80,30
"Oldenzaal";391;1227,90;17;53,40;8;25,10
"Olst-Wijhe";146;800,10;12;65,80;8;43,80
"Ommen";137;759,80;9;49,90;4;22,20
"Oost Gelre";337;1137,50;18;60,80;10;33,80
"Oosterhout";621;1107,90;52;92,80;17;30,30
"Ooststellingwerf";89;349,60;5;19,60;0;0,00
"Oostzaan";170;1749,00;12;123,50;2;20,60
"Opmeer";53;448,70;1;8,50;1;8,50
"Opsterland";124;418,00;8;27,00;0;0,00
"Oss";1473;1601,10;173;188,00;90;97,80
"Oude IJsselstreek";305;774,60;23;58,40;9;22,90
"Ouder-Amstel";292;2068,30;7;49,60;0;0,00
"Oudewater";159;1557,30;26;254,70;10;97,90
"Overbetuwe";490;1021,60;59;123,00;16;33,40
"Papendrecht";347;1079,60;9;28,00;8;24,90
"Peel en Maas";553;1267,60;145;332,40;65;149,00
"Pekela";48;394,60;5;41,10;0;0,00
"Pijnacker-Nootdorp";855;1543,00;30;54,10;18;32,50
"Purmerend";895;1098,70;79;97,00;36;44,20
"Putten";174;721,40;11;45,60;1;4,10
"Raalte";385;1021,70;25;66,30;22;58,40
"Reimerswaal";149;655,80;6;26,40;2;8,80
"Renkum";355;1130,20;14;44,60;9;28,70
"Renswoude";48;875,00;5;91,10;5;91,10
"Reusel-De Mierden";275;2100,80;13;99,30;2;15,30
"Rheden";362;828,90;35;80,10;14;32,10
"Rhenen";202;1004,50;12;59,70;6;29,80
"Ridderkerk";802;1730,60;42;90,60;19;41,00
"Rijssen-Holten";392;1025,70;29;75,90;25;65,40
"Rijswijk";938;1717,40;50;91,50;29;53,10
"Roerdalen";105;511,80;27;131,60;8;39,00
"Roermond";437;749,40;64;109,70;23;39,40
"Roosendaal";1065;1377,80;41;53,00;24;31,00
"Rotterdam";16856;2583,80;740;113,40;387;59,30
"Rozendaal";11;648,60;1;59,00;0;0,00
"Rucphen";336;1463,70;12;52,30;10;43,60
"s-Gravenhage";12262;2246,30;516;94,50;303;55,50
"Schagen";313;673,50;19;40,90;10;21,50
"Scherpenzeel";94;951,10;5;50,60;2;20,20
"Schiedam";1660;2105,50;67;85,00;24;30,40
"Schiermonnikoog";0;0,00;0;0,00;0;0,00
"Schouwen-Duiveland";248;731,70;12;35,40;13;38,40
"Simpelveld";68;644,90;19;180,20;5;47,40
"Sint Anthonis";147;1260,10;21;180,00;11;94,30
"Sint-Michielsgestel";376;1284,90;37;126,40;19;64,90
"Sittard-Geleen";758;821,00;122;132,10;65;70,40
"Sliedrecht";256;1016,40;9;35,70;5;19,90
"Sluis";50;215,50;9;38,80;4;17,20
"Smallingerland";260;462,90;10;17,80;6;10,70
"Soest";690;1478,90;30;64,30;14;30,00
"Someren";188;970,70;33;170,40;8;41,30
"Son en Breugel";189;1090,00;31;178,80;14;80,70
"Stadskanaal";145;458,30;3;9,50;2;6,30
"Staphorst";210;1224,50;8;46,60;4;23,30
"Stede Broec";138;635,50;19;87,50;5;23,00
"Steenbergen";309;1263,10;16;65,40;13;53,10
"Steenwijkerland";305;690,70;15;34,00;8;18,10
"Stein";192;769,60;45;180,40;15;60,10
"Stichtse Vecht";822;1264,10;43;66,10;14;21,50
"Súdwest-Fryslân";579;644,20;21;23,40;6;6,70
"Terneuzen";316;581,10;25;46,00;4;7,40
"Terschelling";43;887,30;1;20,60;0;0,00
"Texel";60;442,00;5;36,80;2;14,70
"Teylingen";460;1225,90;17;45,30;3;8,00
"Tholen";294;1140,20;43;166,80;17;65,90
"Tiel";504;1197,40;45;106,90;22;52,30
"Tilburg";2833;1286,90;262;119,00;169;76,80
"Tubbergen";387;1819,20;12;56,40;6;28,20
"Twenterand";208;616,30;12;35,60;2;5,90
"Tynaarlo";206;609,10;11;32,50;0;0,00
"Tytsjerksteradiel";178;554,30;7;21,80;1;3,10
"Uden";476;1129,80;115;273,00;63;149,50
"Uitgeest";145;1061,60;5;36,60;1;7,30
"Uithoorn";400;1351,30;19;64,20;2;6,80
"Urk";113;536,20;23;109,10;4;19,00
"Utrecht";7149;1994,40;325;90,70;123;34,30
"Utrechtse Heuvelrug";617;1240,20;29;58,30;15;30,10
"Vaals";52;514,60;10;99,00;2;19,80
"Valkenburg aan de Geul";158;966,80;19;116,30;7;42,80
"Valkenswaard";433;1386,80;20;64,10;37;118,50
"Veendam";126;460,20;2;7,30;1;3,70
"Veenendaal";859;1289,40;51;76,60;14;21,00
"Veere";98;447,30;8;36,50;2;9,10
"Veldhoven";565;1241,00;31;68,10;18;39,50
"Velsen";836;1216,30;42;61,10;44;64,00
"Venlo";1198;1176,50;138;135,50;67;65,80
"Venray";479;1098,00;38;87,10;19;43,60
"Vijfheerenlanden";891;1565,60;42;73,80;43;75,60
"Vlaardingen";1497;2035,70;51;69,40;31;42,20
"Vlieland";12;1033,60;0;0,00;0;0,00
"Vlissingen";223;502,90;9;20,30;5;11,30
"Voerendaal";81;648,50;17;136,10;8;64,00
"Voorschoten";288;1125,30;11;43,00;11;43,00
"Voorst";197;800,80;17;69,10;11;44,70
"Vught";305;1147,50;43;161,80;17;64,00
"Waadhoeke";301;653,20;13;28,20;16;34,70
"Waalre";191;1093,90;8;45,80;5;28,60
"Waalwijk";572;1176,30;40;82,30;38;78,10
"Waddinxveen";433;1474,50;24;81,70;7;23,80
"Wageningen";474;1188,50;22;55,20;13;32,60
"Wassenaar";328;1250,20;10;38,10;13;49,60
"Waterland";219;1257,60;18;103,40;4;23,00
"Weert";454;904,70;69;137,50;16;31,90
"Weesp";393;1974,30;10;50,20;14;70,30
"West Betuwe";544;1061,80;47;91,70;30;58,60
"West Maas en Waal";197;1017,70;22;113,60;9;46,50
"Westerkwartier";328;517,50;19;30,00;4;6,30
"Westerveld";85;436,80;9;46,30;4;20,60
"Westervoort";119;794,70;12;80,10;6;40,10
"Westerwolde";125;478,50;11;42,10;1;3,80
"Westland";1575;1424,00;68;61,50;30;27,10
"Weststellingwerf";120;462,90;3;11,60;4;15,40
"Westvoorne";206;1397,10;6;40,70;0;0,00
"Wierden";252;1031,80;7;28,70;6;24,60
"Wijchen";479;1165,60;48;116,80;13;31,60
"Wijdemeren";279;1145,90;10;41,10;0;0,00
"Wijk bij Duurstede";206;862,70;10;41,90;2;8,40
"Winterswijk";159;552,00;7;24,30;3;10,40
"Woensdrecht";262;1192,20;7;31,90;9;41,00
"Woerden";662;1264,30;59;112,70;21;40,10
"Wormerland";198;1217,40;21;129,10;8;49,20
"Woudenberg";139;1038,10;9;67,20;2;14,90
"Zaanstad";2130;1357,90;148;94,40;56;35,70
"Zaltbommel";303;1044,70;22;75,90;9;31,00
"Zandvoort";187;1091,30;12;70,00;9;52,50
"Zeewolde";185;819,00;13;57,60;6;26,60
"Zeist";913;1405,50;41;63,10;27;41,60
"Zevenaar";375;856,10;53;121,00;16;36,50
"Zoetermeer";1831;1461,70;65;51,90;14;11,20
"Zoeterwoude";99;1145,80;4;46,30;1;11,60
"Zuidplas";800;1816,40;30;68,10;21;47,70
"Zundert";291;1332,30;24;109,90;11;50,40
"Zutphen";325;676,90;32;66,70;13;27,10
"Zwartewaterland";265;1166,60;35;154,10;21;92,40
"Zwijndrecht";765;1711,60;27;60,40;30;67,10
"Zwolle";1003;777,10;53;41,10;49;38,00