"Category";"Meldingen";"Meldingen per 100000";"Zkh opname";"Zkh opname per 100000";"Overleden";"Overleden per 100000"
"'s-Hertogenbosch";683;439,60;129;83,00;78;50,20
"Aa en Hunze";15;59,10;1;3,90;0;0,00
"Aalsmeer";62;194,50;9;28,20;4;12,50
"Aalten";77;284,20;9;33,20;7;25,80
"Achtkarspelen";20;71,80;0;0,00;0;0,00
"Alblasserdam";55;273,00;11;54,60;4;19,90
"Albrandswaard";146;569,10;14;54,60;8;31,20
"Alkmaar";312;284,70;54;49,30;31;28,30
"Almelo";111;151,80;22;30,10;10;13,70
"Almere";740;348,40;131;61,70;33;15,50
"Alphen aan den Rijn";296;246,80;64;53,40;25;20,80
"Alphen-Chaam";67;654,70;18;175,90;5;48,90
"Altena";177;316,30;32;57,20;11;19,70
"Ameland";0;0,00;0;0,00;0;0,00
"Amersfoort";360;228,80;67;42,60;24;15,30
"Amstelveen";477;519,80;60;65,40;35;38,10
"Amsterdam";6117;699,70;668;76,40;291;33,30
"Apeldoorn";506;308,80;97;59,20;50;30,50
"Appingedam";6;51,60;3;25,80;0;0,00
"Arnhem";536;331,70;67;41,50;32;19,80
"Assen";62;90,20;12;17,50;2;2,90
"Asten";81;484,60;18;107,70;12;71,80
"Baarle-Nassau";33;479,70;9;130,80;2;29,10
"Baarn";71;285,50;12;48,30;9;36,20
"Barendrecht";220;451,80;40;82,20;12;24,60
"Barneveld";174;293,40;18;30,40;6;10,10
"Beek";48;302,50;17;107,10;6;37,80
"Beekdaelen";179;497,90;52;144,60;23;64,00
"Beemster";28;279,80;4;40,00;1;10,00
"Beesel";50;371,00;20;148,40;8;59,40
"Berg en Dal";190;542,60;29;82,80;16;45,70
"Bergeijk";70;375,30;19;101,90;5;26,80
"Bergen (L.)";26;198,80;7;53,50;2;15,30
"Bergen (NH.)";110;368,50;16;53,60;4;13,40
"Bergen op Zoom";416;615,50;26;38,50;13;19,20
"Berkelland";99;226,20;12;27,40;7;16,00
"Bernheze";302;964,80;95;303,50;65;207,70
"Best";106;353,10;31;103,30;10;33,30
"Beuningen";94;362,50;19;73,30;5;19,30
"Beverwijk";106;254,70;15;36,00;10;24,00
"Bladel";97;475,00;21;102,80;8;39,20
"Blaricum";46;397,20;8;69,10;2;17,30
"Bloemendaal";79;335,60;7;29,70;5;21,20
"Bodegraven-Reeuwijk";117;334,90;7;20,00;1;2,90
"Boekel";90;835,30;34;315,60;20;185,60
"Borger-Odoorn";10;39,10;4;15,70;3;11,70
"Borne";54;231,10;14;59,90;6;25,70
"Borsele";32;140,70;5;22,00;1;4,40
"Boxmeer";141;479,50;20;68,00;27;91,80
"Boxtel";152;493,20;24;77,90;26;84,40
"Breda";916;497,30;147;79,80;67;36,40
"Brielle";50;289,60;12;69,50;0;0,00
"Bronckhorst";85;236,10;17;47,20;7;19,40
"Brummen";44;211,70;18;86,60;6;28,90
"Brunssum";122;438,80;44;158,20;19;68,30
"Bunnik";51;335,20;9;59,10;1;6,60
"Bunschoten";86;392,90;10;45,70;7;32,00
"Buren";65;242,60;17;63,40;8;29,90
"Capelle aan den IJssel";474;705,20;57;84,80;58;86,30
"Castricum";92;255,40;15;41,60;9;25,00
"Coevorden";63;178,40;13;36,80;2;5,70
"Cranendonck";179;843,60;63;296,90;36;169,70
"Cuijk";89;353,80;12;47,70;10;39,80
"Culemborg";102;351,50;21;72,40;8;27,60
"Dalfsen";90;313,80;16;55,80;6;20,90
"Dantumadiel";15;79,30;2;10,60;0;0,00
"De Bilt";211;489,40;28;64,90;24;55,70
"De Fryske Marren";82;158,90;16;31,00;6;11,60
"De Ronde Venen";158;355,10;39;87,60;13;29,20
"De Wolden";48;197,10;11;45,20;5;20,50
"Delft";298;287,80;38;36,70;12;11,60
"Delfzijl";63;255,50;6;24,30;0;0,00
"Den Helder";56;99,40;12;21,30;2;3,50
"Deurne";223;687,50;56;172,60;25;77,10
"Deventer";394;390,50;48;47,60;33;32,70
"Diemen";189;605,40;17;54,50;14;44,80
"Dinkelland";85;321,30;20;75,60;10;37,80
"Doesburg";35;316,50;9;81,40;6;54,30
"Doetinchem";125;215,30;26;44,80;15;25,80
"Dongen";99;376,50;20;76,10;13;49,40
"Dordrecht";722;604,60;91;76,20;63;52,80
"Drechterland";48;243,30;5;25,30;8;40,50
"Drimmelen";87;319,50;19;69,80;8;29,40
"Dronten";129;309,70;30;72,00;12;28,80
"Druten";117;618,10;25;132,10;8;42,30
"Duiven";59;235,30;14;55,80;6;23,90
"Echt-Susteren";104;328,80;39;123,30;17;53,70
"Edam-Volendam";146;403,80;25;69,10;3;8,30
"Ede";292;249,50;55;47,00;22;18,80
"Eemnes";28;302,10;2;21,60;1;10,80
"Eersel";82;424,30;27;139,70;10;51,70
"Eijsden-Margraten";182;706,40;54;209,60;27;104,80
"Eindhoven";755;321,50;183;77,90;87;37,00
"Elburg";156;671,60;28;120,50;8;34,40
"Emmen";116;108,40;20;18,70;11;10,30
"Enkhuizen";33;176,90;18;96,50;4;21,40
"Enschede";340;213,00;57;35,70;26;16,30
"Epe";140;421,90;48;144,70;23;69,30
"Ermelo";168;622,40;33;122,30;23;85,20
"Etten-Leur";240;547,00;42;95,70;30;68,40
"Geertruidenberg";61;282,60;12;55,60;6;27,80
"Geldrop-Mierlo";132;331,70;33;82,90;16;40,20
"Gemert-Bakel";240;780,70;79;257,00;32;104,10
"Gennep";81;478,40;16;94,50;10;59,10
"Gilze en Rijen";123;462,40;20;75,20;15;56,40
"Goeree-Overflakkee";292;582,30;54;107,70;34;67,80
"Goes";176;460,50;12;31,40;13;34,00
"Goirle";100;418,10;32;133,80;17;71,10
"Gooise Meren";177;304,70;24;41,30;9;15,50
"Gorinchem";221;595,40;19;51,20;15;40,40
"Gouda";503;684,50;45;61,20;41;55,80
"Grave";76;609,40;21;168,40;11;88,20
"Groningen";306;131,30;18;7,70;3;1,30
"Gulpen-Wittem";82;579,50;21;148,40;14;98,90
"Haaksbergen";60;247,10;14;57,70;7;28,80
"Haaren";68;473,70;18;125,40;8;55,70
"Haarlem";494;302,90;62;38,00;59;36,20
"Haarlemmermeer";500;319,80;70;44,80;28;17,90
"Halderberge";99;327,10;14;46,30;7;23,10
"Hardenberg";186;305,10;23;37,70;8;13,10
"Harderwijk";217;445,90;43;88,40;20;41,10
"Hardinxveld-Giessendam";53;289,10;2;10,90;2;10,90
"Harlingen";20;127,40;4;25,50;1;6,40
"Hattem";45;368,10;16;130,90;5;40,90
"Heemskerk";106;270,40;30;76,50;10;25,50
"Heemstede";127;465,40;11;40,30;32;117,30
"Heerde";195;1049,50;55;296,00;28;150,70
"Heerenveen";105;208,00;13;25,80;21;41,60
"Heerhugowaard";196;339,40;27;46,80;9;15,60
"Heerlen";431;495,30;125;143,60;54;62,10
"Heeze-Leende";80;495,80;16;99,20;8;49,60
"Heiloo";55;229,70;10;41,80;8;33,40
"Hellendoorn";99;275,90;8;22,30;12;33,40
"Hellevoetsluis";115;286,20;16;39,80;4;10,00
"Helmond";524;567,60;118;127,80;43;46,60
"Hendrik-Ido-Ambacht";110;351,90;11;35,20;6;19,20
"Hengelo";155;190,90;23;28,30;19;23,40
"Het Hogeland";41;85,60;7;14,60;3;6,30
"Heumen";81;491,40;17;103,10;9;54,60
"Heusden";184;411,60;45;100,70;23;51,40
"Hillegom";96;432,60;8;36,00;2;9,00
"Hilvarenbeek";60;386,20;9;57,90;6;38,60
"Hilversum";330;362,50;35;38,40;24;26,40
"Hoeksche Waard";377;430,70;78;89,10;20;22,80
"Hof van Twente";68;194,50;15;42,90;5;14,30
"Hollands Kroon";79;163,00;26;53,70;6;12,40
"Hoogeveen";105;188,70;19;34,10;8;14,40
"Hoorn";154;210,10;35;47,80;12;16,40
"Horst aan de Maas";150;353,30;41;96,60;24;56,50
"Houten";175;348,40;25;49,80;15;29,90
"Huizen";219;531,80;23;55,80;10;24,30
"Hulst";47;168,70;9;32,30;5;18,00
"IJsselstein";194;570,30;36;105,80;35;102,90
"Kaag en Braassem";39;142,50;7;25,60;2;7,30
"Kampen";358;658,70;59;108,60;27;49,70
"Kapelle";32;252,00;3;23,60;1;7,90
"Katwijk";305;463,40;31;47,10;15;22,80
"Kerkrade";218;477,20;64;140,10;35;76,60
"Koggenland";50;219,50;6;26,30;6;26,30
"Krimpen aan den IJssel";109;369,10;11;37,20;8;27,10
"Krimpenerwaard";249;442,30;45;79,90;34;60,40
"Laarbeek";140;619,40;41;181,40;26;115,00
"Landerd";149;946,30;39;247,70;21;133,40
"Landgraaf";152;406,10;52;138,90;13;34,70
"Landsmeer";38;329,10;3;26,00;3;26,00
"Langedijk";64;227,20;16;56,80;4;14,20
"Lansingerland";269;430,20;43;68,80;25;40,00
"Laren";43;379,40;8;70,60;2;17,60
"Leeuwarden";121;97,60;34;27,40;6;4,80
"Leiden";305;243,90;41;32,80;22;17,60
"Leiderdorp";58;213,90;14;51,60;6;22,10
"Leidschendam-Voorburg";247;322,80;23;30,10;20;26,10
"Lelystad";236;299,00;66;83,60;30;38,00
"Leudal";202;563,60;54;150,70;33;92,10
"Leusden";75;246,50;9;29,60;5;16,40
"Lingewaard";141;302,30;31;66,50;10;21,40
"Lisse";50;217,20;8;34,70;2;8,70
"Lochem";102;302,30;15;44,50;15;44,50
"Loon op Zand";78;333,10;25;106,80;7;29,90
"Lopik";78;538,60;19;131,20;8;55,20
"Loppersum";2;21,00;0;0,00;0;0,00
"Losser";31;136,70;7;30,90;0;0,00
"Maasdriel";66;262,00;15;59,60;7;27,80
"Maasgouw";113;472,00;28;117,00;15;62,70
"Maassluis";167;502,60;21;63,20;9;27,10
"Maastricht";1006;827,90;189;155,50;140;115,20
"Medemblik";83;184,00;19;42,10;6;13,30
"Meerssen";126;669,70;22;116,90;13;69,10
"Meierijstad";599;736,80;211;259,50;131;161,10
"Meppel";56;164,80;11;32,40;5;14,70
"Middelburg";112;229,50;18;36,90;10;20,50
"Midden-Delfland";47;243,50;4;20,70;0;0,00
"Midden-Drenthe";27;81,30;6;18,10;0;0,00
"Midden-Groningen";45;74,00;6;9,90;4;6,60
"Mill en Sint Hubert";48;438,00;9;82,10;5;45,60
"Moerdijk";98;263,80;14;37,70;8;21,50
"Molenlanden";134;304,70;18;40,90;8;18,20
"Montferland";115;319,50;21;58,30;9;25,00
"Montfoort";70;503,60;14;100,70;5;36,00
"Mook en Middelaar";45;574,30;6;76,60;5;63,80
"Neder-Betuwe";150;613,70;37;151,40;21;85,90
"Nederweert";57;334,10;31;181,70;7;41,00
"Nieuwegein";226;355,90;45;70,90;14;22,00
"Nieuwkoop";63;218,20;9;31,20;5;17,30
"Nijkerk";88;203,70;22;50,90;3;6,90
"Nijmegen";799;449,80;130;73,20;70;39,40
"Nissewaard";281;329,80;57;66,90;17;20,00
"Noardeast-Fryslân";82;181,20;6;13,30;4;8,80
"Noord-Beveland";13;176,00;1;13,50;0;0,00
"Noordenveld";26;83,30;4;12,80;1;3,20
"Noordoostpolder";87;183,40;14;29,50;10;21,10
"Noordwijk";80;183,50;19;43,60;3;6,90
"Nuenen, Gerwen en Nederwetten";72;307,90;18;77,00;9;38,50
"Nunspeet";225;809,10;55;197,80;21;75,50
"Oegstgeest";67;269,20;8;32,10;3;12,10
"Oirschot";83;442,70;13;69,30;9;48,00
"Oisterwijk";88;334,80;23;87,50;11;41,80
"Oldambt";17;44,50;7;18,30;2;5,20
"Oldebroek";179;756,90;40;169,10;19;80,30
"Oldenzaal";66;207,30;13;40,80;7;22,00
"Olst-Wijhe";57;312,40;12;65,80;8;43,80
"Ommen";60;332,70;9;49,90;2;11,10
"Oost Gelre";81;273,40;18;60,80;6;20,30
"Oosterhout";210;374,70;48;85,60;17;30,30
"Ooststellingwerf";10;39,30;3;11,80;0;0,00
"Oostzaan";38;390,90;10;102,90;2;20,60
"Opmeer";13;110,10;1;8,50;1;8,50
"Opsterland";25;84,30;7;23,60;0;0,00
"Oss";566;615,20;166;180,40;88;95,70
"Oude IJsselstreek";105;266,70;21;53,30;9;22,90
"Ouder-Amstel";67;474,60;5;35,40;0;0,00
"Oudewater";68;666,00;26;254,70;9;88,10
"Overbetuwe";151;314,80;55;114,70;16;33,40
"Papendrecht";98;304,90;9;28,00;8;24,90
"Peel en Maas";291;667,00;144;330,10;65;149,00
"Pekela";7;57,60;4;32,90;0;0,00
"Pijnacker-Nootdorp";196;353,70;24;43,30;16;28,90
"Purmerend";290;356,00;69;84,70;35;43,00
"Putten";48;199,00;10;41,50;0;0,00
"Raalte";163;432,50;24;63,70;17;45,10
"Reimerswaal";44;193,70;4;17,60;2;8,80
"Renkum";93;296,10;14;44,60;7;22,30
"Renswoude";22;401,00;5;91,10;5;91,10
"Reusel-De Mierden";31;236,80;11;84,00;2;15,30
"Rheden";160;366,40;34;77,90;14;32,10
"Rhenen";51;253,60;11;54,70;6;29,80
"Ridderkerk";217;468,30;38;82,00;17;36,70
"Rijssen-Holten";206;539,00;29;75,90;24;62,80
"Rijswijk";251;459,50;38;69,60;25;45,80
"Roerdalen";61;297,30;27;131,60;8;39,00
"Roermond";183;313,80;59;101,20;23;39,40
"Roosendaal";334;432,10;29;37,50;22;28,50
"Rotterdam";5732;878,70;581;89,10;355;54,40
"Rozendaal";3;176,90;1;59,00;0;0,00
"Rucphen";76;331,10;10;43,60;10;43,60
"s-Gravenhage";3410;624,70;370;67,80;257;47,10
"Schagen";86;185,10;18;38,70;10;21,50
"Scherpenzeel";38;384,50;4;40,50;2;20,20
"Schiedam";500;634,20;60;76,10;23;29,20
"Schiermonnikoog";0;0,00;0;0,00;0;0,00
"Schouwen-Duiveland";104;306,90;11;32,50;9;26,60
"Simpelveld";49;464,70;19;180,20;5;47,40
"Sint Anthonis";74;634,30;20;171,40;11;94,30
"Sint-Michielsgestel";130;444,20;36;123,00;19;64,90
"Sittard-Geleen";468;506,90;119;128,90;64;69,30
"Sliedrecht";81;321,60;9;35,70;5;19,90
"Sluis";25;107,80;9;38,80;4;17,20
"Smallingerland";63;112,20;9;16,00;5;8,90
"Soest";121;259,30;24;51,40;13;27,90
"Someren";116;598,90;33;170,40;8;41,30
"Son en Breugel";79;455,60;31;178,80;14;80,70
"Stadskanaal";14;44,30;2;6,30;2;6,30
"Staphorst";62;361,50;8;46,60;4;23,30
"Stede Broec";54;248,70;18;82,90;5;23,00
"Steenbergen";105;429,20;13;53,10;13;53,10
"Steenwijkerland";111;251,40;14;31,70;5;11,30
"Stein";134;537,10;43;172,40;15;60,10
"Stichtse Vecht";192;295,30;36;55,40;14;21,50
"Súdwest-Fryslân";123;136,80;18;20,00;6;6,70
"Terneuzen";143;262,90;25;46,00;4;7,40
"Terschelling";2;41,30;0;0,00;0;0,00
"Texel";12;88,40;5;36,80;2;14,70
"Teylingen";88;234,50;15;40,00;2;5,30
"Tholen";182;705,90;40;155,10;16;62,10
"Tiel";164;389,60;42;99,80;19;45,10
"Tilburg";1129;512,80;253;114,90;164;74,50
"Tubbergen";82;385,50;12;56,40;5;23,50
"Twenterand";63;186,70;12;35,60;2;5,90
"Tynaarlo";44;130,10;9;26,60;0;0,00
"Tytsjerksteradiel";25;77,90;4;12,50;1;3,10
"Uden";276;655,10;115;273,00;63;149,50
"Uitgeest";28;205,00;5;36,60;1;7,30
"Uithoorn";83;280,40;16;54,10;2;6,80
"Urk";86;408,10;23;109,10;4;19,00
"Utrecht";2031;566,60;281;78,40;120;33,50
"Utrechtse Heuvelrug";145;291,40;28;56,30;14;28,10
"Vaals";32;316,70;10;99,00;2;19,80
"Valkenburg aan de Geul";90;550,70;19;116,30;7;42,80
"Valkenswaard";196;627,70;19;60,90;37;118,50
"Veendam";21;76,70;2;7,30;1;3,70
"Veenendaal";231;346,80;49;73,60;11;16,50
"Veere";46;210,00;6;27,40;2;9,10
"Veldhoven";158;347,00;31;68,10;16;35,10
"Velsen";327;475,80;32;46,60;39;56,70
"Venlo";395;387,90;129;126,70;63;61,90
"Venray";153;350,70;37;84,80;17;39,00
"Vijfheerenlanden";306;537,70;35;61,50;36;63,30
"Vlaardingen";481;654,10;45;61,20;30;40,80
"Vlieland";0;0,00;0;0,00;0;0,00
"Vlissingen";98;221,00;9;20,30;5;11,30
"Voerendaal";51;408,30;17;136,10;8;64,00
"Voorschoten";84;328,20;9;35,20;11;43,00
"Voorst";102;414,60;17;69,10;11;44,70
"Vught";125;470,30;43;161,80;17;64,00
"Waadhoeke";103;223,50;12;26,00;15;32,60
"Waalre";41;234,80;7;40,10;5;28,60
"Waalwijk";227;466,80;36;74,00;37;76,10
"Waddinxveen";147;500,60;18;61,30;7;23,80
"Wageningen";92;230,70;20;50,10;9;22,60
"Wassenaar";75;285,90;9;34,30;12;45,70
"Waterland";53;304,40;16;91,90;4;23,00
"Weert";162;322,80;67;133,50;14;27,90
"Weesp";98;492,30;9;45,20;13;65,30
"West Betuwe";233;454,80;44;85,90;27;52,70
"West Maas en Waal";87;449,40;20;103,30;9;46,50
"Westerkwartier";63;99,40;14;22,10;4;6,30
"Westerveld";38;195,30;9;46,30;4;20,60
"Westervoort";49;327,20;12;80,10;6;40,10
"Westerwolde";15;57,40;5;19,10;0;0,00
"Westland";470;424,90;58;52,40;30;27,10
"Weststellingwerf";29;111,90;3;11,60;4;15,40
"Westvoorne";38;257,70;6;40,70;0;0,00
"Wierden";54;221,10;5;20,50;6;24,60
"Wijchen";174;423,40;44;107,10;13;31,60
"Wijdemeren";48;197,10;8;32,90;0;0,00
"Wijk bij Duurstede";47;196,80;10;41,90;1;4,20
"Winterswijk";63;218,70;7;24,30;3;10,40
"Woensdrecht";89;405,00;6;27,30;7;31,90
"Woerden";217;414,40;50;95,50;20;38,20
"Wormerland";55;338,20;20;123,00;6;36,90
"Woudenberg";34;253,90;9;67,20;2;14,90
"Zaanstad";609;388,30;122;77,80;49;31,20
"Zaltbommel";114;393,10;21;72,40;9;31,00
"Zandvoort";77;449,30;10;58,40;8;46,70
"Zeewolde";53;234,60;12;53,10;6;26,60
"Zeist";276;424,90;37;57,00;24;36,90
"Zevenaar";127;289,90;45;102,70;15;34,20
"Zoetermeer";399;318,50;54;43,10;14;11,20
"Zoeterwoude";18;208,30;3;34,70;1;11,60
"Zuidplas";203;460,90;24;54,50;21;47,70
"Zundert";117;535,70;24;109,90;11;50,40
"Zutphen";129;268,70;30;62,50;13;27,10
"Zwartewaterland";148;651,50;35;154,10;19;83,60
"Zwijndrecht";218;487,80;23;51,50;26;58,20
"Zwolle";402;311,50;53;41,10;46;35,60