"Category";"Meldingen";"Meldingen per 100000";"Zkh opname";"Zkh opname per 100000";"Overleden";"Overleden per 100000"
"'s-Hertogenbosch";2011;1294,20;140;90,10;82;52,80
"Aa en Hunze";175;689,40;1;3,90;1;3,90
"Aalsmeer";434;1361,30;10;31,40;6;18,80
"Aalten";282;1040,90;13;48,00;7;25,80
"Achtkarspelen";140;502,70;0;0,00;0;0,00
"Alblasserdam";375;1861,00;11;54,60;5;24,80
"Albrandswaard";535;2085,40;17;66,30;8;31,20
"Alkmaar";1037;946,30;61;55,70;31;28,30
"Almelo";703;961,30;31;42,40;13;17,80
"Almere";2670;1257,00;159;74,90;38;17,90
"Alphen aan den Rijn";1561;1301,40;78;65,00;31;25,80
"Alphen-Chaam";132;1289,80;18;175,90;5;48,90
"Altena";657;1173,90;38;67,90;12;21,40
"Ameland";30;803,40;0;0,00;0;0,00
"Amersfoort";1904;1210,30;88;55,90;28;17,80
"Amstelveen";1689;1840,50;72;78,50;44;47,90
"Amsterdam";23627;2702,50;918;105,00;313;35,80
"Apeldoorn";1383;844,00;109;66,50;53;32,30
"Appingedam";42;361,00;7;60,20;0;0,00
"Arnhem";1720;1064,40;81;50,10;34;21,00
"Assen";446;648,80;13;18,90;3;4,40
"Asten";190;1136,80;18;107,70;12;71,80
"Baarle-Nassau";69;1003,10;9;130,80;2;29,10
"Baarn";289;1162,20;12;48,30;9;36,20
"Barendrecht";1066;2189,30;45;92,40;14;28,80
"Barneveld";557;939,20;23;38,80;10;16,90
"Beek";113;712,10;17;107,10;6;37,80
"Beekdaelen";317;881,70;52;144,60;25;69,50
"Beemster";91;909,40;4;40,00;1;10,00
"Beesel";128;949,80;20;148,40;8;59,40
"Berg en Dal";570;1627,70;34;97,10;21;60,00
"Bergeijk";313;1678,30;19;101,90;5;26,80
"Bergen (L.)";113;863,90;8;61,20;2;15,30
"Bergen (NH.)";412;1380,30;21;70,40;7;23,50
"Bergen op Zoom";1246;1843,50;41;60,70;15;22,20
"Berkelland";425;971,20;17;38,80;9;20,60
"Bernheze";554;1769,90;96;306,70;65;207,70
"Best";317;1056,10;32;106,60;12;40,00
"Beuningen";299;1153,00;20;77,10;5;19,30
"Beverwijk";510;1225,70;19;45,70;13;31,20
"Bladel";548;2683,40;22;107,70;9;44,10
"Blaricum";140;1208,90;8;69,10;2;17,30
"Bloemendaal";290;1232,10;8;34,00;6;25,50
"Bodegraven-Reeuwijk";479;1371,00;11;31,50;9;25,80
"Boekel";146;1355,10;36;334,10;20;185,60
"Borger-Odoorn";202;790,50;6;23,50;4;15,70
"Borne";246;1052,70;15;64,20;6;25,70
"Borsele";110;483,70;5;22,00;1;4,40
"Boxmeer";366;1244,80;20;68,00;28;95,20
"Boxtel";322;1044,80;24;77,90;26;84,40
"Breda";2625;1425,20;166;90,10;72;39,10
"Brielle";248;1436,30;14;81,10;0;0,00
"Bronckhorst";372;1033,20;18;50,00;7;19,40
"Brummen";141;678,40;18;86,60;6;28,90
"Brunssum";256;920,70;49;176,20;19;68,30
"Bunnik";179;1176,40;12;78,90;1;6,60
"Bunschoten";350;1598,80;13;59,40;7;32,00
"Buren";258;962,80;23;85,80;8;29,90
"Capelle aan den IJssel";1420;2112,60;66;98,20;63;93,70
"Castricum";312;866,20;18;50,00;10;27,80
"Coevorden";240;679,80;14;39,70;2;5,70
"Cranendonck";377;1776,70;63;296,90;36;169,70
"Cuijk";275;1093,20;13;51,70;10;39,80
"Culemborg";425;1464,50;24;82,70;9;31,00
"Dalfsen";316;1101,60;17;59,30;7;24,40
"Dantumadiel";106;560,60;2;10,60;0;0,00
"De Bilt";705;1635,20;31;71,90;24;55,70
"De Fryske Marren";363;703,40;22;42,60;6;11,60
"De Ronde Venen";627;1409,00;45;101,10;14;31,50
"De Wolden";172;706,40;14;57,50;5;20,50
"Delft";1917;1851,50;44;42,50;14;13,50
"Delfzijl";97;393,40;7;28,40;0;0,00
"Den Helder";251;445,40;15;26,60;2;3,50
"Deurne";498;1535,20;57;175,70;26;80,20
"Deventer";1059;1049,60;50;49,60;38;37,70
"Diemen";797;2552,90;22;70,50;14;44,80
"Dinkelland";373;1410,00;20;75,60;10;37,80
"Doesburg";146;1320,30;10;90,40;6;54,30
"Doetinchem";571;983,40;30;51,70;15;25,80
"Dongen";298;1133,20;23;87,50;13;49,40
"Dordrecht";2023;1694,10;97;81,20;75;62,80
"Drechterland";184;932,50;5;25,30;8;40,50
"Drimmelen";269;987,90;21;77,10;9;33,10
"Dronten";275;660,20;36;86,40;14;33,60
"Druten";236;1246,80;25;132,10;9;47,50
"Duiven";262;1045,00;16;63,80;6;23,90
"Echt-Susteren";194;613,30;41;129,60;19;60,10
"Edam-Volendam";700;1935,90;35;96,80;4;11,10
"Ede";1349;1152,60;70;59,80;26;22,20
"Eemnes";90;971,20;2;21,60;1;10,80
"Eersel";350;1811,10;28;144,90;10;51,70
"Eijsden-Margraten";326;1265,20;55;213,50;27;104,80
"Eindhoven";2865;1219,90;194;82,60;96;40,90
"Elburg";252;1084,90;28;120,50;8;34,40
"Emmen";1134;1060,00;43;40,20;19;17,80
"Enkhuizen";103;552,20;19;101,90;4;21,40
"Enschede";1578;988,70;64;40,10;28;17,50
"Epe";296;892,00;51;153,70;23;69,30
"Ermelo";276;1022,50;33;122,30;23;85,20
"Etten-Leur";663;1511,00;46;104,80;30;68,40
"Geertruidenberg";219;1014,50;13;60,20;6;27,80
"Geldrop-Mierlo";421;1057,80;34;85,40;16;40,20
"Gemert-Bakel";421;1369,50;79;257,00;32;104,10
"Gennep";166;980,30;17;100,40;10;59,10
"Gilze en Rijen";319;1199,30;20;75,20;15;56,40
"Goeree-Overflakkee";689;1374,00;57;113,70;35;69,80
"Goes";324;847,80;13;34,00;13;34,00
"Goirle";335;1400,70;32;133,80;20;83,60
"Gooise Meren";797;1372,20;27;46,50;15;25,80
"Gorinchem";552;1487,10;19;51,20;16;43,10
"Gouda";1413;1922,80;55;74,80;46;62,60
"Grave";192;1539,60;21;168,40;11;88,20
"Groningen";2894;1242,20;26;11,20;3;1,30
"Gulpen-Wittem";180;1272,00;23;162,50;15;106,00
"Haaksbergen";364;1499,10;16;65,90;10;41,20
"Haaren";162;1128,60;19;132,40;8;55,70
"Haarlem";2102;1288,70;93;57,00;69;42,30
"Haarlemmermeer";2348;1501,70;92;58,80;38;24,30
"Halderberge";406;1341,40;23;76,00;10;33,00
"Hardenberg";469;769,20;23;37,70;10;16,40
"Harderwijk";565;1161,00;46;94,50;20;41,10
"Hardinxveld-Giessendam";209;1140,00;2;10,90;2;10,90
"Harlingen";72;458,60;4;25,50;1;6,40
"Hattem";109;891,70;18;147,30;5;40,90
"Heemskerk";434;1107,20;34;86,70;13;33,20
"Heemstede";347;1271,70;15;55,00;35;128,30
"Heerde";281;1512,40;55;296,00;28;150,70
"Heerenveen";324;642,00;16;31,70;22;43,60
"Heerhugowaard";512;886,50;28;48,50;9;15,60
"Heerlen";729;837,70;127;145,90;54;62,10
"Heeze-Leende";224;1388,20;17;105,40;8;49,60
"Heiloo";184;768,50;12;50,10;8;33,40
"Hellendoorn";292;813,70;13;36,20;13;36,20
"Hellevoetsluis";495;1231,90;20;49,80;5;12,40
"Helmond";1601;1734,30;122;132,20;45;48,70
"Hendrik-Ido-Ambacht";521;1666,60;13;41,60;6;19,20
"Hengelo";977;1203,20;37;45,60;24;29,60
"Het Hogeland";293;612,00;7;14,60;4;8,40
"Heumen";294;1783,70;19;115,30;13;78,90
"Heusden";572;1279,40;48;107,40;26;58,20
"Hillegom";290;1306,70;8;36,00;2;9,00
"Hilvarenbeek";190;1222,90;12;77,20;8;51,50
"Hilversum";1130;1241,20;37;40,60;26;28,60
"Hoeksche Waard";1385;1582,30;82;93,70;23;26,30
"Hof van Twente";368;1052,70;18;51,50;6;17,20
"Hollands Kroon";277;571,60;26;53,70;6;12,40
"Hoogeveen";403;724,20;26;46,70;10;18,00
"Hoorn";645;880,00;38;51,80;12;16,40
"Horst aan de Maas";461;1085,70;41;96,60;28;65,90
"Houten";595;1184,50;32;63,70;16;31,90
"Huizen";623;1512,80;27;65,60;10;24,30
"Hulst";172;617,50;10;35,90;5;18,00
"IJsselstein";533;1567,00;39;114,70;35;102,90
"Kaag en Braassem";310;1132,30;8;29,20;3;11,00
"Kampen";580;1067,20;60;110,40;37;68,10
"Kapelle";69;543,40;3;23,60;1;7,90
"Katwijk";1099;1669,80;41;62,30;17;25,80
"Kerkrade";410;897,50;66;144,50;36;78,80
"Koggenland";190;834,30;7;30,70;7;30,70
"Krimpen aan den IJssel";582;1970,50;17;57,60;9;30,50
"Krimpenerwaard";934;1659,10;52;92,40;36;63,90
"Laarbeek";299;1322,80;41;181,40;26;115,00
"Landerd";323;2051,30;42;266,70;21;133,40
"Landgraaf";260;694,70;53;141,60;14;37,40
"Landsmeer";162;1403,20;5;43,30;3;26,00
"Langedijk";283;1004,40;20;71,00;7;24,80
"Lansingerland";1147;1834,30;49;78,40;32;51,20
"Laren";150;1323,60;9;79,40;3;26,50
"Leeuwarden";1166;940,10;44;35,50;8;6,50
"Leiden";2050;1639,10;54;43,20;25;20,00
"Leiderdorp";371;1368,50;18;66,40;7;25,80
"Leidschendam-Voorburg";1167;1525,00;36;47,00;28;36,60
"Lelystad";744;942,70;79;100,10;31;39,30
"Leudal";347;968,20;54;150,70;33;92,10
"Leusden";345;1134,00;10;32,90;9;29,60
"Lingewaard";540;1157,70;37;79,30;11;23,60
"Lisse";232;1007,60;10;43,40;2;8,70
"Lochem";318;942,50;16;47,40;15;44,50
"Loon op Zand";285;1217,30;28;119,60;15;64,10
"Lopik";227;1567,40;22;151,90;8;55,20
"Loppersum";31;326,10;0;0,00;0;0,00
"Losser";238;1049,20;11;48,50;2;8,80
"Maasdriel";264;1048,10;17;67,50;8;31,80
"Maasgouw";200;835,50;28;117,00;15;62,70
"Maassluis";641;1929,10;24;72,20;9;27,10
"Maastricht";1560;1283,80;193;158,80;140;115,20
"Medemblik";306;678,30;19;42,10;6;13,30
"Meerssen";185;983,30;23;122,20;13;69,10
"Meierijstad";1177;1447,70;212;260,80;131;161,10
"Meppel";205;603,30;11;32,40;5;14,70
"Middelburg";257;526,60;19;38,90;10;20,50
"Midden-Delfland";265;1372,90;5;25,90;0;0,00
"Midden-Drenthe";191;575,20;6;18,10;0;0,00
"Midden-Groningen";292;480,40;9;14,80;4;6,60
"Mill en Sint Hubert";176;1606,10;9;82,10;5;45,60
"Moerdijk";449;1208,60;18;48,50;9;24,20
"Molenlanden";493;1121,10;20;45,50;9;20,50
"Montferland";310;861,20;24;66,70;9;25,00
"Montfoort";184;1323,60;15;107,90;6;43,20
"Mook en Middelaar";125;1595,40;7;89,30;5;63,80
"Neder-Betuwe";345;1411,60;41;167,80;22;90,00
"Nederweert";163;955,30;33;193,40;7;41,00
"Nieuwegein";799;1258,20;53;83,50;14;22,00
"Nieuwkoop";305;1056,20;12;41,60;6;20,80
"Nijkerk";576;1333,30;26;60,20;4;9,30
"Nijmegen";2917;1642,20;164;92,30;75;42,20
"Nissewaard";1304;1530,40;68;79,80;23;27,00
"Noardeast-Fryslân";204;450,70;7;15,50;4;8,80
"Noord-Beveland";45;609,30;1;13,50;0;0,00
"Noordenveld";212;679,00;6;19,20;14;44,80
"Noordoostpolder";323;680,80;18;37,90;11;23,20
"Noordwijk";536;1229,80;25;57,40;4;9,20
"Nuenen, Gerwen en Nederwetten";288;1231,60;19;81,20;10;42,80
"Nunspeet";373;1341,30;60;215,80;21;75,50
"Oegstgeest";313;1257,50;11;44,20;3;12,10
"Oirschot";298;1589,40;16;85,30;9;48,00
"Oisterwijk";271;1031,00;26;98,90;12;45,70
"Oldambt";176;460,90;10;26,20;4;10,50
"Oldebroek";255;1078,20;40;169,10;19;80,30
"Oldenzaal";437;1372,40;18;56,50;11;34,50
"Olst-Wijhe";157;860,40;12;65,80;8;43,80
"Ommen";144;798,60;9;49,90;4;22,20
"Oost Gelre";374;1262,40;20;67,50;10;33,80
"Oosterhout";678;1209,60;52;92,80;17;30,30
"Ooststellingwerf";98;385,00;5;19,60;1;3,90
"Oostzaan";187;1923,90;12;123,50;2;20,60
"Opmeer";58;491,00;1;8,50;1;8,50
"Opsterland";147;495,50;8;27,00;0;0,00
"Oss";1597;1735,90;173;188,00;90;97,80
"Oude IJsselstreek";324;822,90;23;58,40;9;22,90
"Ouder-Amstel";308;2181,60;7;49,60;0;0,00
"Oudewater";163;1596,50;27;264,40;10;97,90
"Overbetuwe";518;1080,00;59;123,00;16;33,40
"Papendrecht";368;1145,00;9;28,00;9;28,00
"Peel en Maas";597;1368,40;145;332,40;65;149,00
"Pekela";52;427,50;5;41,10;0;0,00
"Pijnacker-Nootdorp";915;1651,30;30;54,10;18;32,50
"Purmerend";985;1209,20;79;97,00;36;44,20
"Putten";185;767,00;11;45,60;1;4,10
"Raalte";420;1114,50;25;66,30;22;58,40
"Reimerswaal";158;695,40;6;26,40;2;8,80
"Renkum";374;1190,70;14;44,60;10;31,80
"Renswoude";50;911,40;5;91,10;5;91,10
"Reusel-De Mierden";301;2299,50;14;107,00;2;15,30
"Rheden";385;881,60;35;80,10;14;32,10
"Rhenen";235;1168,60;12;59,70;6;29,80
"Ridderkerk";858;1851,50;42;90,60;19;41,00
"Rijssen-Holten";416;1088,50;29;75,90;26;68,00
"Rijswijk";1005;1840,00;51;93,40;30;54,90
"Roerdalen";111;541,00;27;131,60;8;39,00
"Roermond";464;795,70;64;109,70;24;41,20
"Roosendaal";1161;1502,00;43;55,60;25;32,30
"Rotterdam";17896;2743,30;749;114,80;395;60,50
"Rozendaal";11;648,60;1;59,00;0;0,00
"Rucphen";368;1603,10;12;52,30;10;43,60
"s-Gravenhage";12894;2362,10;523;95,80;307;56,20
"Schagen";346;744,60;19;40,90;10;21,50
"Scherpenzeel";104;1052,30;5;50,60;2;20,20
"Schiedam";1789;2269,10;68;86,20;24;30,40
"Schiermonnikoog";1;105,70;1;105,70;0;0,00
"Schouwen-Duiveland";257;758,30;12;35,40;13;38,40
"Simpelveld";72;682,90;19;180,20;5;47,40
"Sint Anthonis";162;1388,70;21;180,00;11;94,30
"Sint-Michielsgestel";406;1387,40;37;126,40;19;64,90
"Sittard-Geleen";788;853,50;122;132,10;65;70,40
"Sliedrecht";284;1127,50;9;35,70;5;19,90
"Sluis";53;228,50;9;38,80;4;17,20
"Smallingerland";288;512,70;12;21,40;6;10,70
"Soest";724;1551,80;32;68,60;14;30,00
"Someren";202;1043,00;34;175,50;8;41,30
"Son en Breugel";199;1147,60;31;178,80;14;80,70
"Stadskanaal";163;515,20;3;9,50;2;6,30
"Staphorst";232;1352,80;8;46,60;4;23,30
"Stede Broec";147;676,90;19;87,50;5;23,00
"Steenbergen";332;1357,10;17;69,50;13;53,10
"Steenwijkerland";319;722,40;15;34,00;8;18,10
"Stein";198;793,70;45;180,40;15;60,10
"Stichtse Vecht";895;1376,30;46;70,70;14;21,50
"Súdwest-Fryslân";634;705,40;21;23,40;6;6,70
"Terneuzen";338;621,50;25;46,00;4;7,40
"Terschelling";44;908,00;1;20,60;0;0,00
"Texel";66;486,20;5;36,80;2;14,70
"Teylingen";491;1308,50;17;45,30;4;10,70
"Tholen";310;1202,30;43;166,80;18;69,80
"Tiel";548;1301,90;46;109,30;22;52,30
"Tilburg";3020;1371,80;263;119,50;172;78,10
"Tubbergen";432;2030,70;12;56,40;6;28,20
"Twenterand";238;705,20;12;35,60;2;5,90
"Tynaarlo";222;656,50;11;32,50;0;0,00
"Tytsjerksteradiel";189;588,60;7;21,80;1;3,10
"Uden";514;1220,00;115;273,00;63;149,50
"Uitgeest";157;1149,50;5;36,60;1;7,30
"Uithoorn";432;1459,40;21;70,90;2;6,80
"Urk";123;583,70;23;109,10;4;19,00
"Utrecht";7679;2142,30;337;94,00;123;34,30
"Utrechtse Heuvelrug";676;1358,70;30;60,30;15;30,10
"Vaals";56;554,20;10;99,00;2;19,80
"Valkenburg aan de Geul";170;1040,30;19;116,30;7;42,80
"Valkenswaard";472;1511,70;20;64,10;37;118,50
"Veendam";135;493,00;2;7,30;1;3,70
"Veenendaal";952;1429,00;52;78,10;14;21,00
"Veere";100;456,50;8;36,50;2;9,10
"Veldhoven";621;1364,00;31;68,10;18;39,50
"Velsen";889;1293,40;45;65,50;44;64,00
"Venlo";1287;1263,90;138;135,50;68;66,80
"Venray";534;1224,10;38;87,10;19;43,60
"Vijfheerenlanden";934;1641,10;44;77,30;43;75,60
"Vlaardingen";1599;2174,40;53;72,10;31;42,20
"Vlieland";12;1033,60;0;0,00;0;0,00
"Vlissingen";234;527,80;9;20,30;5;11,30
"Voerendaal";85;680,50;17;136,10;8;64,00
"Voorschoten";311;1215,20;11;43,00;11;43,00
"Voorst";206;837,40;17;69,10;11;44,70
"Vught";323;1215,20;43;161,80;17;64,00
"Waadhoeke";330;716,20;13;28,20;16;34,70
"Waalre";201;1151,10;8;45,80;5;28,60
"Waalwijk";630;1295,60;42;86,40;38;78,10
"Waddinxveen";449;1529,00;25;85,10;7;23,80
"Wageningen";496;1243,70;22;55,20;16;40,10
"Wassenaar";362;1379,80;10;38,10;13;49,60
"Waterland";253;1452,90;18;103,40;4;23,00
"Weert";495;986,40;69;137,50;16;31,90
"Weesp";412;2069,70;10;50,20;14;70,30
"West Betuwe";590;1151,60;49;95,60;30;58,60
"West Maas en Waal";213;1100,30;23;118,80;9;46,50
"Westerkwartier";345;544,40;19;30,00;4;6,30
"Westerveld";88;452,30;9;46,30;4;20,60
"Westervoort";122;814,70;12;80,10;6;40,10
"Westerwolde";140;536,00;11;42,10;1;3,80
"Westland";1698;1535,20;68;61,50;30;27,10
"Weststellingwerf";140;540,10;3;11,60;4;15,40
"Westvoorne";231;1566,60;6;40,70;0;0,00
"Wierden";293;1199,60;7;28,70;6;24,60
"Wijchen";509;1238,60;49;119,20;14;34,10
"Wijdemeren";306;1256,80;10;41,10;0;0,00
"Wijk bij Duurstede";229;959,00;11;46,10;2;8,40
"Winterswijk";177;614,50;7;24,30;3;10,40
"Woensdrecht";291;1324,20;7;31,90;9;41,00
"Woerden";697;1331,20;61;116,50;21;40,10
"Wormerland";215;1321,90;21;129,10;10;61,50
"Woudenberg";144;1075,40;9;67,20;2;14,90
"Zaanstad";2403;1532,00;148;94,40;56;35,70
"Zaltbommel";331;1141,30;23;79,30;10;34,50
"Zandvoort";192;1120,40;12;70,00;9;52,50
"Zeewolde";195;863,30;13;57,60;6;26,60
"Zeist";966;1487,10;42;64,70;27;41,60
"Zevenaar";394;899,50;53;121,00;16;36,50
"Zoetermeer";1941;1549,50;65;51,90;14;11,20
"Zoeterwoude";103;1192,10;4;46,30;1;11,60
"Zuidplas";840;1907,20;30;68,10;21;47,70
"Zundert";319;1460,50;24;109,90;11;50,40
"Zutphen";349;726,90;32;66,70;13;27,10
"Zwartewaterland";281;1237,00;35;154,10;22;96,80
"Zwijndrecht";809;1810,00;27;60,40;30;67,10
"Zwolle";1095;848,40;54;41,80;49;38,00