"Category";"Meldingen";"Meldingen per 100000";"Zkh opname";"Zkh opname per 100000";"Overleden";"Overleden per 100000"
"'s-Hertogenbosch";736;473,70;130;83,70;79;50,80
"Aa en Hunze";15;59,10;1;3,90;0;0,00
"Aalsmeer";89;279,20;9;28,20;4;12,50
"Aalten";81;299,00;9;33,20;7;25,80
"Achtkarspelen";22;79,00;0;0,00;0;0,00
"Alblasserdam";70;347,40;11;54,60;4;19,90
"Albrandswaard";170;662,60;14;54,60;8;31,20
"Alkmaar";337;307,50;54;49,30;31;28,30
"Almelo";123;168,20;23;31,40;10;13,70
"Almere";901;424,20;132;62,10;34;16,00
"Alphen aan den Rijn";366;305,10;64;53,40;26;21,70
"Alphen-Chaam";72;703,50;18;175,90;5;48,90
"Altena";183;327,00;32;57,20;11;19,70
"Ameland";0;0,00;0;0,00;0;0,00
"Amersfoort";465;295,60;69;43,90;24;15,30
"Amstelveen";555;604,80;60;65,40;35;38,10
"Amsterdam";7619;871,50;686;78,50;293;33,50
"Apeldoorn";536;327,10;97;59,20;50;30,50
"Appingedam";7;60,20;3;25,80;0;0,00
"Arnhem";620;383,70;69;42,70;33;20,40
"Assen";71;103,30;12;17,50;2;2,90
"Asten";88;526,50;18;107,70;12;71,80
"Baarle-Nassau";33;479,70;9;130,80;2;29,10
"Baarn";81;325,70;12;48,30;9;36,20
"Barendrecht";274;562,70;40;82,20;12;24,60
"Barneveld";181;305,20;18;30,40;8;13,50
"Beek";50;315,10;17;107,10;6;37,80
"Beekdaelen";188;522,90;52;144,60;23;64,00
"Beemster";33;329,80;4;40,00;1;10,00
"Beesel";50;371,00;20;148,40;8;59,40
"Berg en Dal";203;579,70;29;82,80;16;45,70
"Bergeijk";96;514,70;19;101,90;5;26,80
"Bergen (L.)";30;229,40;7;53,50;2;15,30
"Bergen (NH.)";114;381,90;16;53,60;4;13,40
"Bergen op Zoom";433;640,60;26;38,50;13;19,20
"Berkelland";107;244,50;13;29,70;7;16,00
"Bernheze";310;990,40;95;303,50;65;207,70
"Best";120;399,80;31;103,30;10;33,30
"Beuningen";101;389,50;19;73,30;5;19,30
"Beverwijk";133;319,60;15;36,00;10;24,00
"Bladel";106;519,00;21;102,80;8;39,20
"Blaricum";55;474,90;8;69,10;2;17,30
"Bloemendaal";100;424,90;7;29,70;5;21,20
"Bodegraven-Reeuwijk";129;369,20;7;20,00;1;2,90
"Boekel";93;863,20;34;315,60;20;185,60
"Borger-Odoorn";11;43,00;4;15,70;3;11,70
"Borne";55;235,40;14;59,90;6;25,70
"Borsele";35;153,90;5;22,00;1;4,40
"Boxmeer";141;479,50;20;68,00;27;91,80
"Boxtel";157;509,40;24;77,90;26;84,40
"Breda";980;532,10;147;79,80;67;36,40
"Brielle";52;301,20;12;69,50;0;0,00
"Bronckhorst";95;263,80;17;47,20;7;19,40
"Brummen";50;240,60;18;86,60;6;28,90
"Brunssum";135;485,50;44;158,20;19;68,30
"Bunnik";65;427,20;9;59,10;1;6,60
"Bunschoten";105;479,60;10;45,70;7;32,00
"Buren";67;250,00;17;63,40;8;29,90
"Capelle aan den IJssel";524;779,60;57;84,80;59;87,80
"Castricum";102;283,20;15;41,60;9;25,00
"Coevorden";63;178,40;13;36,80;2;5,70
"Cranendonck";180;848,30;63;296,90;36;169,70
"Cuijk";96;381,60;12;47,70;10;39,80
"Culemborg";116;399,70;21;72,40;8;27,60
"Dalfsen";95;331,20;16;55,80;6;20,90
"Dantumadiel";17;89,90;2;10,60;0;0,00
"De Bilt";227;526,50;28;64,90;24;55,70
"De Fryske Marren";84;162,80;16;31,00;6;11,60
"De Ronde Venen";182;409,00;39;87,60;13;29,20
"De Wolden";54;221,80;11;45,20;5;20,50
"Delft";527;509,00;38;36,70;12;11,60
"Delfzijl";65;263,60;6;24,30;0;0,00
"Den Helder";62;110,00;12;21,30;2;3,50
"Deurne";242;746,00;56;172,60;25;77,10
"Deventer";414;410,30;48;47,60;33;32,70
"Diemen";232;743,10;17;54,50;14;44,80
"Dinkelland";85;321,30;20;75,60;10;37,80
"Doesburg";42;379,80;9;81,40;6;54,30
"Doetinchem";151;260,10;27;46,50;15;25,80
"Dongen";108;410,70;20;76,10;13;49,40
"Dordrecht";798;668,30;92;77,00;64;53,60
"Drechterland";55;278,70;5;25,30;8;40,50
"Drimmelen";92;337,90;19;69,80;8;29,40
"Dronten";132;316,90;30;72,00;12;28,80
"Druten";120;634,00;25;132,10;8;42,30
"Duiven";67;267,20;14;55,80;6;23,90
"Echt-Susteren";107;338,30;39;123,30;18;56,90
"Edam-Volendam";153;423,10;25;69,10;3;8,30
"Ede";350;299,00;56;47,80;22;18,80
"Eemnes";33;356,10;2;21,60;1;10,80
"Eersel";101;522,60;27;139,70;10;51,70
"Eijsden-Margraten";185;718,00;54;209,60;27;104,80
"Eindhoven";866;368,70;184;78,30;87;37,00
"Elburg";163;701,70;28;120,50;8;34,40
"Emmen";128;119,70;20;18,70;11;10,30
"Enkhuizen";33;176,90;18;96,50;4;21,40
"Enschede";382;239,30;57;35,70;26;16,30
"Epe";147;443,00;48;144,70;23;69,30
"Ermelo";174;644,60;33;122,30;23;85,20
"Etten-Leur";249;567,50;42;95,70;30;68,40
"Geertruidenberg";64;296,50;12;55,60;6;27,80
"Geldrop-Mierlo";136;341,70;33;82,90;16;40,20
"Gemert-Bakel";250;813,20;79;257,00;32;104,10
"Gennep";87;513,80;16;94,50;10;59,10
"Gilze en Rijen";128;481,20;20;75,20;15;56,40
"Goeree-Overflakkee";306;610,20;54;107,70;34;67,80
"Goes";185;484,10;12;31,40;13;34,00
"Goirle";121;505,90;32;133,80;17;71,10
"Gooise Meren";211;363,30;24;41,30;9;15,50
"Gorinchem";238;641,20;19;51,20;16;43,10
"Gouda";545;741,60;45;61,20;42;57,20
"Grave";79;633,50;21;168,40;11;88,20
"Groningen";415;178,10;18;7,70;3;1,30
"Gulpen-Wittem";82;579,50;21;148,40;14;98,90
"Haaksbergen";61;251,20;14;57,70;7;28,80
"Haaren";69;480,70;18;125,40;8;55,70
"Haarlem";593;363,60;66;40,50;59;36,20
"Haarlemmermeer";613;392,10;71;45,40;28;17,90
"Halderberge";111;366,70;14;46,30;8;26,40
"Hardenberg";187;306,70;23;37,70;8;13,10
"Harderwijk";237;487,00;43;88,40;20;41,10
"Hardinxveld-Giessendam";57;310,90;2;10,90;2;10,90
"Harlingen";21;133,80;4;25,50;1;6,40
"Hattem";48;392,70;16;130,90;5;40,90
"Heemskerk";117;298,50;30;76,50;10;25,50
"Heemstede";139;509,40;11;40,30;32;117,30
"Heerde";204;1098,00;55;296,00;28;150,70
"Heerenveen";113;223,90;13;25,80;21;41,60
"Heerhugowaard";226;391,30;27;46,80;9;15,60
"Heerlen";468;537,80;125;143,60;54;62,10
"Heeze-Leende";81;502,00;16;99,20;8;49,60
"Heiloo";59;246,40;10;41,80;8;33,40
"Hellendoorn";99;275,90;8;22,30;12;33,40
"Hellevoetsluis";126;313,60;16;39,80;4;10,00
"Helmond";560;606,60;118;127,80;44;47,70
"Hendrik-Ido-Ambacht";136;435,00;12;38,40;6;19,20
"Hengelo";173;213,10;24;29,60;19;23,40
"Het Hogeland";51;106,50;7;14,60;3;6,30
"Heumen";88;533,90;17;103,10;9;54,60
"Heusden";200;447,30;45;100,70;23;51,40
"Hillegom";105;473,10;8;36,00;2;9,00
"Hilvarenbeek";71;457,00;9;57,90;6;38,60
"Hilversum";390;428,40;36;39,50;24;26,40
"Hoeksche Waard";454;518,70;78;89,10;20;22,80
"Hof van Twente";71;203,10;15;42,90;5;14,30
"Hollands Kroon";89;183,70;26;53,70;6;12,40
"Hoogeveen";105;188,70;19;34,10;8;14,40
"Hoorn";191;260,60;35;47,80;12;16,40
"Horst aan de Maas";155;365,00;41;96,60;24;56,50
"Houten";199;396,10;25;49,80;15;29,90
"Huizen";245;594,90;23;55,80;10;24,30
"Hulst";50;179,50;9;32,30;5;18,00
"IJsselstein";199;585,00;36;105,80;35;102,90
"Kaag en Braassem";46;168,00;7;25,60;2;7,30
"Kampen";380;699,20;59;108,60;27;49,70
"Kapelle";32;252,00;3;23,60;1;7,90
"Katwijk";317;481,60;32;48,60;15;22,80
"Kerkrade";236;516,60;64;140,10;35;76,60
"Koggenland";60;263,50;6;26,30;6;26,30
"Krimpen aan den IJssel";125;423,20;11;37,20;8;27,10
"Krimpenerwaard";286;508,00;45;79,90;34;60,40
"Laarbeek";144;637,10;41;181,40;26;115,00
"Landerd";151;959,00;40;254,00;21;133,40
"Landgraaf";159;424,80;52;138,90;13;34,70
"Landsmeer";50;433,10;3;26,00;3;26,00
"Langedijk";73;259,10;16;56,80;4;14,20
"Lansingerland";306;489,40;43;68,80;25;40,00
"Laren";45;397,10;8;70,60;2;17,60
"Leeuwarden";138;111,30;34;27,40;6;4,80
"Leiden";425;339,80;42;33,60;20;16,00
"Leiderdorp";64;236,10;14;51,60;6;22,10
"Leidschendam-Voorburg";336;439,10;24;31,40;20;26,10
"Lelystad";260;329,40;66;83,60;30;38,00
"Leudal";205;572,00;54;150,70;33;92,10
"Leusden";93;305,70;9;29,60;5;16,40
"Lingewaard";152;325,90;31;66,50;10;21,40
"Lisse";57;247,60;8;34,70;2;8,70
"Lochem";104;308,20;15;44,50;15;44,50
"Loon op Zand";84;358,80;25;106,80;7;29,90
"Lopik";82;566,20;20;138,10;8;55,20
"Loppersum";3;31,60;0;0,00;0;0,00
"Losser";37;163,10;7;30,90;0;0,00
"Maasdriel";74;293,80;15;59,60;7;27,80
"Maasgouw";119;497,10;28;117,00;15;62,70
"Maassluis";194;583,80;22;66,20;9;27,10
"Maastricht";1048;862,50;189;155,50;140;115,20
"Medemblik";84;186,20;19;42,10;6;13,30
"Meerssen";128;680,30;22;116,90;13;69,10
"Meierijstad";612;752,80;211;259,50;131;161,10
"Meppel";56;164,80;11;32,40;5;14,70
"Middelburg";129;264,30;18;36,90;10;20,50
"Midden-Delfland";59;305,70;4;20,70;0;0,00
"Midden-Drenthe";27;81,30;6;18,10;0;0,00
"Midden-Groningen";55;90,50;7;11,50;4;6,60
"Mill en Sint Hubert";51;465,40;9;82,10;5;45,60
"Moerdijk";113;304,20;14;37,70;8;21,50
"Molenlanden";141;320,60;19;43,20;8;18,20
"Montferland";122;338,90;22;61,10;9;25,00
"Montfoort";84;604,30;14;100,70;6;43,20
"Mook en Middelaar";46;587,10;6;76,60;5;63,80
"Neder-Betuwe";150;613,70;37;151,40;21;85,90
"Nederweert";58;339,90;31;181,70;7;41,00
"Nieuwegein";250;393,70;45;70,90;14;22,00
"Nieuwkoop";65;225,10;9;31,20;5;17,30
"Nijkerk";104;240,70;22;50,90;3;6,90
"Nijmegen";997;561,30;130;73,20;71;40,00
"Nissewaard";316;370,90;58;68,10;17;20,00
"Noardeast-Fryslân";84;185,60;6;13,30;4;8,80
"Noord-Beveland";15;203,10;1;13,50;0;0,00
"Noordenveld";27;86,50;4;12,80;1;3,20
"Noordoostpolder";93;196,00;14;29,50;10;21,10
"Noordwijk";100;229,40;19;43,60;3;6,90
"Nuenen, Gerwen en Nederwetten";75;320,70;18;77,00;9;38,50
"Nunspeet";235;845,10;55;197,80;21;75,50
"Oegstgeest";79;317,40;8;32,10;3;12,10
"Oirschot";86;458,70;13;69,30;9;48,00
"Oisterwijk";94;357,60;23;87,50;11;41,80
"Oldambt";23;60,20;7;18,30;2;5,20
"Oldebroek";181;765,30;40;169,10;19;80,30
"Oldenzaal";69;216,70;13;40,80;7;22,00
"Olst-Wijhe";57;312,40;12;65,80;8;43,80
"Ommen";68;377,10;9;49,90;2;11,10
"Oost Gelre";86;290,30;18;60,80;6;20,30
"Oosterhout";230;410,30;48;85,60;17;30,30
"Ooststellingwerf";10;39,30;3;11,80;0;0,00
"Oostzaan";40;411,50;10;102,90;2;20,60
"Opmeer";13;110,10;1;8,50;1;8,50
"Opsterland";29;97,80;7;23,60;0;0,00
"Oss";627;681,50;166;180,40;88;95,70
"Oude IJsselstreek";118;299,70;21;53,30;9;22,90
"Ouder-Amstel";89;630,40;5;35,40;0;0,00
"Oudewater";73;715,00;26;254,70;9;88,10
"Overbetuwe";165;344,00;55;114,70;16;33,40
"Papendrecht";112;348,50;9;28,00;8;24,90
"Peel en Maas";302;692,20;144;330,10;65;149,00
"Pekela";7;57,60;4;32,90;0;0,00
"Pijnacker-Nootdorp";253;456,60;24;43,30;16;28,90
"Purmerend";319;391,60;70;85,90;35;43,00
"Putten";50;207,30;10;41,50;0;0,00
"Raalte";173;459,10;24;63,70;17;45,10
"Reimerswaal";45;198,10;4;17,60;2;8,80
"Renkum";108;343,90;14;44,60;7;22,30
"Renswoude";23;419,20;5;91,10;5;91,10
"Reusel-De Mierden";37;282,70;11;84,00;2;15,30
"Rheden";166;380,10;34;77,90;14;32,10
"Rhenen";55;273,50;11;54,70;6;29,80
"Ridderkerk";247;533,00;38;82,00;17;36,70
"Rijssen-Holten";212;554,70;29;75,90;24;62,80
"Rijswijk";314;574,90;39;71,40;25;45,80
"Roerdalen";61;297,30;27;131,60;8;39,00
"Roermond";201;344,70;59;101,20;23;39,40
"Roosendaal";361;467,00;29;37,50;22;28,50
"Rotterdam";6643;1018,30;594;91,10;357;54,70
"Rozendaal";3;176,90;1;59,00;0;0,00
"Rucphen";79;344,10;10;43,60;10;43,60
"s-Gravenhage";4347;796,40;377;69,10;260;47,60
"Schagen";92;198,00;18;38,70;10;21,50
"Scherpenzeel";37;374,40;4;40,50;2;20,20
"Schiedam";577;731,80;60;76,10;23;29,20
"Schiermonnikoog";0;0,00;0;0,00;0;0,00
"Schouwen-Duiveland";121;357,00;11;32,50;9;26,60
"Simpelveld";50;474,20;19;180,20;5;47,40
"Sint Anthonis";75;642,90;20;171,40;11;94,30
"Sint-Michielsgestel";142;485,20;36;123,00;19;64,90
"Sittard-Geleen";486;526,40;119;128,90;64;69,30
"Sliedrecht";89;353,30;9;35,70;5;19,90
"Sluis";26;112,10;9;38,80;4;17,20
"Smallingerland";67;119,30;9;16,00;5;8,90
"Soest";141;302,20;24;51,40;13;27,90
"Someren";117;604,10;33;170,40;8;41,30
"Son en Breugel";84;484,40;31;178,80;14;80,70
"Stadskanaal";14;44,30;2;6,30;2;6,30
"Staphorst";65;379,00;8;46,60;4;23,30
"Stede Broec";56;257,90;18;82,90;5;23,00
"Steenbergen";108;441,50;13;53,10;13;53,10
"Steenwijkerland";114;258,20;14;31,70;5;11,30
"Stein";136;545,20;43;172,40;15;60,10
"Stichtse Vecht";244;375,20;36;55,40;14;21,50
"Súdwest-Fryslân";131;145,70;19;21,10;6;6,70
"Terneuzen";148;272,10;25;46,00;4;7,40
"Terschelling";2;41,30;0;0,00;0;0,00
"Texel";12;88,40;5;36,80;2;14,70
"Teylingen";99;263,80;15;40,00;2;5,30
"Tholen";186;721,40;40;155,10;16;62,10
"Tiel";173;411,00;42;99,80;19;45,10
"Tilburg";1310;595,10;254;115,40;164;74,50
"Tubbergen";86;404,30;12;56,40;5;23,50
"Twenterand";64;189,60;12;35,60;2;5,90
"Tynaarlo";47;139,00;9;26,60;0;0,00
"Tytsjerksteradiel";25;77,90;4;12,50;1;3,10
"Uden";282;669,30;115;273,00;63;149,50
"Uitgeest";37;270,90;5;36,60;1;7,30
"Uithoorn";112;378,40;17;57,40;2;6,80
"Urk";86;408,10;23;109,10;4;19,00
"Utrecht";2368;660,60;282;78,70;120;33,50
"Utrechtse Heuvelrug";164;329,60;28;56,30;14;28,10
"Vaals";32;316,70;10;99,00;2;19,80
"Valkenburg aan de Geul";90;550,70;19;116,30;7;42,80
"Valkenswaard";209;669,40;19;60,90;37;118,50
"Veendam";30;109,60;2;7,30;1;3,70
"Veenendaal";250;375,30;49;73,60;11;16,50
"Veere";48;219,10;6;27,40;2;9,10
"Veldhoven";169;371,20;31;68,10;16;35,10
"Velsen";382;555,80;33;48,00;40;58,20
"Venlo";442;434,10;131;128,60;64;62,80
"Venray";168;385,10;37;84,80;17;39,00
"Vijfheerenlanden";334;586,90;36;63,30;36;63,30
"Vlaardingen";534;726,10;45;61,20;30;40,80
"Vlieland";0;0,00;0;0,00;0;0,00
"Vlissingen";105;236,80;9;20,30;5;11,30
"Voerendaal";51;408,30;17;136,10;8;64,00
"Voorschoten";103;402,50;9;35,20;11;43,00
"Voorst";103;418,70;17;69,10;11;44,70
"Vught";134;504,10;43;161,80;17;64,00
"Waadhoeke";107;232,20;12;26,00;15;32,60
"Waalre";50;286,40;7;40,10;5;28,60
"Waalwijk";250;514,10;37;76,10;37;76,10
"Waddinxveen";170;578,90;18;61,30;7;23,80
"Wageningen";123;308,40;20;50,10;9;22,60
"Wassenaar";95;362,10;9;34,30;12;45,70
"Waterland";66;379,00;16;91,90;4;23,00
"Weert";167;332,80;67;133,50;14;27,90
"Weesp";119;597,80;9;45,20;13;65,30
"West Betuwe";241;470,40;44;85,90;27;52,70
"West Maas en Waal";92;475,30;20;103,30;9;46,50
"Westerkwartier";66;104,10;14;22,10;4;6,30
"Westerveld";38;195,30;9;46,30;4;20,60
"Westervoort";52;347,30;12;80,10;6;40,10
"Westerwolde";17;65,10;5;19,10;0;0,00
"Westland";534;482,80;58;52,40;30;27,10
"Weststellingwerf";30;115,70;3;11,60;4;15,40
"Westvoorne";40;271,30;6;40,70;0;0,00
"Wierden";62;253,80;5;20,50;6;24,60
"Wijchen";182;442,90;44;107,10;13;31,60
"Wijdemeren";67;275,20;8;32,90;0;0,00
"Wijk bij Duurstede";53;222,00;10;41,90;1;4,20
"Winterswijk";65;225,70;7;24,30;3;10,40
"Woensdrecht";91;414,10;6;27,30;7;31,90
"Woerden";241;460,30;50;95,50;20;38,20
"Wormerland";56;344,30;20;123,00;6;36,90
"Woudenberg";39;291,30;9;67,20;2;14,90
"Zaanstad";712;453,90;124;79,10;50;31,90
"Zaltbommel";120;413,80;21;72,40;9;31,00
"Zandvoort";85;496,00;10;58,40;8;46,70
"Zeewolde";66;292,20;12;53,10;6;26,60
"Zeist";322;495,70;38;58,50;24;36,90
"Zevenaar";142;324,20;45;102,70;15;34,20
"Zoetermeer";520;415,10;54;43,10;14;11,20
"Zoeterwoude";22;254,60;3;34,70;1;11,60
"Zuidplas";245;556,30;24;54,50;21;47,70
"Zundert";121;554,00;24;109,90;11;50,40
"Zutphen";136;283,30;30;62,50;13;27,10
"Zwartewaterland";150;660,30;35;154,10;19;83,60
"Zwijndrecht";243;543,70;24;53,70;26;58,20
"Zwolle";436;337,80;53;41,10;46;35,60