"Category";"Meldingen";"Meldingen per 100000";"Zkh opname";"Zkh opname per 100000";"Overleden";"Overleden per 100000"
"'s-Hertogenbosch";528;339,80;128;82,40;78;50,20
"Aa en Hunze";14;55,20;1;3,90;0;0,00
"Aalsmeer";43;134,90;9;28,20;4;12,50
"Aalten";60;221,50;9;33,20;7;25,80
"Achtkarspelen";13;46,70;0;0,00;0;0,00
"Alblasserdam";45;223,30;10;49,60;4;19,90
"Albrandswaard";115;448,30;14;54,60;8;31,20
"Alkmaar";250;228,10;54;49,30;31;28,30
"Almelo";93;127,20;23;31,40;9;12,30
"Almere";460;216,60;123;57,90;31;14,60
"Alphen aan den Rijn";232;193,40;62;51,70;25;20,80
"Alphen-Chaam";55;537,40;18;175,90;5;48,90
"Altena";136;243,00;32;57,20;11;19,70
"Ameland";0;0,00;0;0,00;0;0,00
"Amersfoort";260;165,30;61;38,80;23;14,60
"Amstelveen";334;364,00;58;63,20;35;38,10
"Amsterdam";2945;336,90;626;71,60;282;32,30
"Apeldoorn";460;280,70;96;58,60;50;30,50
"Appingedam";5;43,00;3;25,80;0;0,00
"Arnhem";423;261,80;67;41,50;32;19,80
"Assen";51;74,20;12;17,50;2;2,90
"Asten";78;466,70;18;107,70;12;71,80
"Baarle-Nassau";25;363,40;9;130,80;2;29,10
"Baarn";64;257,40;11;44,20;9;36,20
"Barendrecht";147;301,90;40;82,20;12;24,60
"Barneveld";139;234,40;18;30,40;6;10,10
"Beek";44;277,30;16;100,80;6;37,80
"Beekdaelen";172;478,40;52;144,60;23;64,00
"Beemster";14;139,90;4;40,00;1;10,00
"Beesel";45;333,90;20;148,40;8;59,40
"Berg en Dal";182;519,70;29;82,80;16;45,70
"Bergeijk";58;311,00;19;101,90;5;26,80
"Bergen (L.)";25;191,10;7;53,50;2;15,30
"Bergen (NH.)";99;331,70;16;53,60;4;13,40
"Bergen op Zoom";186;275,20;24;35,50;13;19,20
"Berkelland";94;214,80;12;27,40;7;16,00
"Bernheze";281;897,70;95;303,50;65;207,70
"Best";82;273,20;31;103,30;10;33,30
"Beuningen";76;293,10;19;73,30;5;19,30
"Beverwijk";83;199,50;15;36,00;10;24,00
"Bladel";78;381,90;21;102,80;8;39,20
"Blaricum";33;284,90;8;69,10;2;17,30
"Bloemendaal";53;225,20;7;29,70;5;21,20
"Bodegraven-Reeuwijk";68;194,60;7;20,00;1;2,90
"Boekel";89;826,10;34;315,60;20;185,60
"Borger-Odoorn";10;39,10;4;15,70;3;11,70
"Borne";50;214,00;14;59,90;6;25,70
"Borsele";28;123,10;5;22,00;0;0,00
"Boxmeer";126;428,50;20;68,00;27;91,80
"Boxtel";134;434,80;24;77,90;26;84,40
"Breda";570;309,50;146;79,30;63;34,20
"Brielle";33;191,10;11;63,70;0;0,00
"Bronckhorst";75;208,30;17;47,20;7;19,40
"Brummen";37;178,00;18;86,60;6;28,90
"Brunssum";112;402,80;44;158,20;19;68,30
"Bunnik";47;308,90;9;59,10;1;6,60
"Bunschoten";69;315,20;9;41,10;7;32,00
"Buren";63;235,10;17;63,40;8;29,90
"Capelle aan den IJssel";332;493,90;54;80,30;54;80,30
"Castricum";81;224,90;15;41,60;9;25,00
"Coevorden";57;161,40;13;36,80;2;5,70
"Cranendonck";173;815,30;63;296,90;36;169,70
"Cuijk";79;314,10;12;47,70;10;39,80
"Culemborg";80;275,70;21;72,40;7;24,10
"Dalfsen";82;285,90;16;55,80;6;20,90
"Dantumadiel";5;26,40;2;10,60;0;0,00
"De Bilt";188;436,10;27;62,60;24;55,70
"De Fryske Marren";73;141,50;16;31,00;6;11,60
"De Ronde Venen";107;240,50;39;87,60;13;29,20
"De Wolden";48;197,10;11;45,20;5;20,50
"Delft";164;158,40;38;36,70;12;11,60
"Delfzijl";18;73,00;6;24,30;0;0,00
"Den Helder";46;81,60;12;21,30;2;3,50
"Deurne";191;588,80;55;169,60;24;74,00
"Deventer";343;340,00;47;46,60;33;32,70
"Diemen";109;349,10;17;54,50;13;41,60
"Dinkelland";74;279,70;20;75,60;10;37,80
"Doesburg";32;289,40;9;81,40;6;54,30
"Doetinchem";103;177,40;26;44,80;15;25,80
"Dongen";86;327,00;20;76,10;13;49,40
"Dordrecht";564;472,30;85;71,20;62;51,90
"Drechterland";46;233,10;5;25,30;8;40,50
"Drimmelen";70;257,10;18;66,10;8;29,40
"Dronten";124;297,70;30;72,00;12;28,80
"Druten";115;607,60;25;132,10;8;42,30
"Duiven";52;207,40;14;55,80;6;23,90
"Echt-Susteren";93;294,00;39;123,30;16;50,60
"Edam-Volendam";126;348,50;25;69,10;3;8,30
"Ede";224;191,40;53;45,30;20;17,10
"Eemnes";23;248,20;2;21,60;1;10,80
"Eersel";69;357,10;27;139,70;10;51,70
"Eijsden-Margraten";176;683,10;54;209,60;27;104,80
"Eindhoven";565;240,60;182;77,50;85;36,20
"Elburg";151;650,00;28;120,50;8;34,40
"Emmen";105;98,20;20;18,70;11;10,30
"Enkhuizen";30;160,80;18;96,50;4;21,40
"Enschede";258;161,70;54;33,80;25;15,70
"Epe";138;415,90;48;144,70;23;69,30
"Ermelo";149;552,00;33;122,30;23;85,20
"Etten-Leur";213;485,40;40;91,20;30;68,40
"Geertruidenberg";43;199,20;11;51,00;6;27,80
"Geldrop-Mierlo";110;276,40;33;82,90;16;40,20
"Gemert-Bakel";219;712,40;79;257,00;32;104,10
"Gennep";58;342,50;16;94,50;10;59,10
"Gilze en Rijen";86;323,30;20;75,20;15;56,40
"Goeree-Overflakkee";265;528,40;54;107,70;34;67,80
"Goes";128;334,90;11;28,80;11;28,80
"Goirle";84;351,20;32;133,80;17;71,10
"Gooise Meren";125;215,20;23;39,60;9;15,50
"Gorinchem";156;420,30;18;48,50;15;40,40
"Gouda";281;382,40;43;58,50;41;55,80
"Grave";71;569,30;21;168,40;11;88,20
"Groningen";181;77,70;18;7,70;3;1,30
"Gulpen-Wittem";79;558,30;21;148,40;14;98,90
"Haaksbergen";56;230,60;14;57,70;7;28,80
"Haaren";58;404,10;18;125,40;8;55,70
"Haarlem";315;193,10;61;37,40;58;35,60
"Haarlemmermeer";326;208,50;68;43,50;27;17,30
"Halderberge";61;201,50;14;46,30;7;23,10
"Hardenberg";171;280,50;23;37,70;8;13,10
"Harderwijk";180;369,90;42;86,30;20;41,10
"Hardinxveld-Giessendam";36;196,40;2;10,90;2;10,90
"Harlingen";17;108,30;4;25,50;1;6,40
"Hattem";42;343,60;16;130,90;5;40,90
"Heemskerk";94;239,80;28;71,40;10;25,50
"Heemstede";101;370,10;11;40,30;32;117,30
"Heerde";192;1033,40;55;296,00;28;150,70
"Heerenveen";95;188,20;13;25,80;21;41,60
"Heerhugowaard";153;264,90;27;46,80;9;15,60
"Heerlen";389;447,00;125;143,60;54;62,10
"Heeze-Leende";71;440,00;16;99,20;8;49,60
"Heiloo";49;204,70;9;37,60;8;33,40
"Hellendoorn";96;267,50;8;22,30;12;33,40
"Hellevoetsluis";78;194,10;16;39,80;3;7,50
"Helmond";432;468,00;115;124,60;43;46,60
"Hendrik-Ido-Ambacht";75;239,90;10;32,00;6;19,20
"Hengelo";129;158,90;21;25,90;19;23,40
"Het Hogeland";35;73,10;7;14,60;3;6,30
"Heumen";73;442,90;17;103,10;9;54,60
"Heusden";150;335,50;44;98,40;22;49,20
"Hillegom";70;315,40;8;36,00;2;9,00
"Hilvarenbeek";51;328,20;9;57,90;6;38,60
"Hilversum";227;249,30;33;36,20;24;26,40
"Hoeksche Waard";317;362,20;75;85,70;20;22,80
"Hof van Twente";63;180,20;15;42,90;5;14,30
"Hollands Kroon";64;132,10;26;53,70;6;12,40
"Hoogeveen";93;167,10;19;34,10;8;14,40
"Hoorn";104;141,90;35;47,80;12;16,40
"Horst aan de Maas";136;320,30;41;96,60;24;56,50
"Houten";146;290,60;24;47,80;14;27,90
"Huizen";163;395,80;22;53,40;10;24,30
"Hulst";32;114,90;9;32,30;5;18,00
"IJsselstein";154;452,70;36;105,80;34;100,00
"Kaag en Braassem";34;124,20;7;25,60;2;7,30
"Kampen";343;631,10;59;108,60;27;49,70
"Kapelle";26;204,80;3;23,60;1;7,90
"Katwijk";283;430,00;31;47,10;15;22,80
"Kerkrade";208;455,30;64;140,10;35;76,60
"Koggenland";36;158,10;6;26,30;6;26,30
"Krimpen aan den IJssel";82;277,60;10;33,90;8;27,10
"Krimpenerwaard";204;362,40;45;79,90;34;60,40
"Laarbeek";125;553,00;41;181,40;26;115,00
"Landerd";146;927,20;39;247,70;21;133,40
"Landgraaf";145;387,40;52;138,90;13;34,70
"Landsmeer";23;199,20;3;26,00;3;26,00
"Langedijk";47;166,80;16;56,80;4;14,20
"Lansingerland";200;319,80;43;68,80;25;40,00
"Laren";25;220,60;8;70,60;2;17,60
"Leeuwarden";71;57,20;33;26,60;6;4,80
"Leiden";183;146,30;40;32,00;18;14,40
"Leiderdorp";41;151,20;14;51,60;6;22,10
"Leidschendam-Voorburg";165;215,60;20;26,10;15;19,60
"Lelystad";191;242,00;63;79,80;29;36,70
"Leudal";191;532,90;53;147,90;33;92,10
"Leusden";54;177,50;9;29,60;5;16,40
"Lingewaard";131;280,80;31;66,50;10;21,40
"Lisse";34;147,70;8;34,70;2;8,70
"Lochem";97;287,50;15;44,50;15;44,50
"Loon op Zand";61;260,50;24;102,50;7;29,90
"Lopik";64;441,90;19;131,20;8;55,20
"Loppersum";2;21,00;0;0,00;0;0,00
"Losser";26;114,60;7;30,90;0;0,00
"Maasdriel";62;246,10;15;59,60;7;27,80
"Maasgouw";107;447,00;27;112,80;14;58,50
"Maassluis";95;285,90;20;60,20;9;27,10
"Maastricht";920;757,10;186;153,10;140;115,20
"Medemblik";74;164,00;19;42,10;6;13,30
"Meerssen";118;627,20;22;116,90;13;69,10
"Meierijstad";558;686,30;211;259,50;131;161,10
"Meppel";50;147,10;11;32,40;5;14,70
"Middelburg";71;145,50;18;36,90;10;20,50
"Midden-Delfland";32;165,80;4;20,70;0;0,00
"Midden-Drenthe";22;66,30;6;18,10;0;0,00
"Midden-Groningen";32;52,60;6;9,90;3;4,90
"Mill en Sint Hubert";41;374,20;9;82,10;5;45,60
"Moerdijk";84;226,10;14;37,70;8;21,50
"Molenlanden";123;279,70;18;40,90;8;18,20
"Montferland";103;286,10;21;58,30;9;25,00
"Montfoort";46;330,90;13;93,50;5;36,00
"Mook en Middelaar";40;510,50;6;76,60;5;63,80
"Neder-Betuwe";145;593,30;37;151,40;21;85,90
"Nederweert";53;310,60;31;181,70;7;41,00
"Nieuwegein";163;256,70;44;69,30;14;22,00
"Nieuwkoop";52;180,10;9;31,20;5;17,30
"Nijkerk";70;162,00;22;50,90;3;6,90
"Nijmegen";681;383,40;128;72,10;70;39,40
"Nissewaard";223;261,70;56;65,70;17;20,00
"Noardeast-Fryslân";30;66,30;6;13,30;4;8,80
"Noord-Beveland";11;148,90;1;13,50;0;0,00
"Noordenveld";21;67,30;4;12,80;1;3,20
"Noordoostpolder";81;170,70;14;29,50;10;21,10
"Noordwijk";56;128,50;19;43,60;3;6,90
"Nuenen, Gerwen en Nederwetten";55;235,20;18;77,00;9;38,50
"Nunspeet";222;798,30;55;197,80;21;75,50
"Oegstgeest";47;188,80;8;32,10;3;12,10
"Oirschot";67;357,40;13;69,30;9;48,00
"Oisterwijk";76;289,10;23;87,50;11;41,80
"Oldambt";13;34,00;7;18,30;2;5,20
"Oldebroek";171;723,00;40;169,10;19;80,30
"Oldenzaal";49;153,90;13;40,80;7;22,00
"Olst-Wijhe";51;279,50;12;65,80;8;43,80
"Ommen";54;299,50;9;49,90;2;11,10
"Oost Gelre";76;256,50;18;60,80;6;20,30
"Oosterhout";143;255,10;48;85,60;17;30,30
"Ooststellingwerf";8;31,40;3;11,80;0;0,00
"Oostzaan";26;267,50;10;102,90;2;20,60
"Opmeer";9;76,20;1;8,50;1;8,50
"Opsterland";24;80,90;7;23,60;0;0,00
"Oss";494;537,00;164;178,30;87;94,60
"Oude IJsselstreek";78;198,10;21;53,30;9;22,90
"Ouder-Amstel";40;283,30;5;35,40;0;0,00
"Oudewater";62;607,20;26;254,70;8;78,40
"Overbetuwe";138;287,70;55;114,70;16;33,40
"Papendrecht";83;258,20;9;28,00;7;21,80
"Peel en Maas";280;641,80;144;330,10;65;149,00
"Pekela";5;41,10;4;32,90;0;0,00
"Pijnacker-Nootdorp";139;250,80;24;43,30;16;28,90
"Purmerend";229;281,10;66;81,00;35;43,00
"Putten";35;145,10;10;41,50;0;0,00
"Raalte";155;411,30;24;63,70;17;45,10
"Reimerswaal";37;162,90;4;17,60;2;8,80
"Renkum";80;254,70;14;44,60;7;22,30
"Renswoude";19;346,30;5;91,10;5;91,10
"Reusel-De Mierden";24;183,30;11;84,00;2;15,30
"Rheden";146;334,30;34;77,90;14;32,10
"Rhenen";48;238,70;11;54,70;6;29,80
"Ridderkerk";157;338,80;37;79,80;16;34,50
"Rijssen-Holten";202;528,60;29;75,90;23;60,20
"Rijswijk";158;289,30;36;65,90;22;40,30
"Roerdalen";49;238,80;27;131,60;8;39,00
"Roermond";138;236,60;59;101,20;23;39,40
"Roosendaal";240;310,50;28;36,20;21;27,20
"Rotterdam";3108;476,40;527;80,80;347;53,20
"Rozendaal";3;176,90;1;59,00;0;0,00
"Rucphen";70;304,90;10;43,60;10;43,60
"s-Gravenhage";1961;359,20;344;63,00;246;45,10
"Schagen";76;163,50;18;38,70;10;21,50
"Scherpenzeel";34;344,00;4;40,50;2;20,20
"Schiedam";306;388,10;58;73,60;23;29,20
"Schiermonnikoog";0;0,00;0;0,00;0;0,00
"Schouwen-Duiveland";94;277,40;11;32,50;9;26,60
"Simpelveld";48;455,20;19;180,20;5;47,40
"Sint Anthonis";70;600,00;20;171,40;11;94,30
"Sint-Michielsgestel";119;406,60;36;123,00;19;64,90
"Sittard-Geleen";413;447,30;115;124,60;63;68,20
"Sliedrecht";67;266,00;9;35,70;5;19,90
"Sluis";18;77,60;9;38,80;4;17,20
"Smallingerland";58;103,30;9;16,00;5;8,90
"Soest";97;207,90;24;51,40;12;25,70
"Someren";107;552,50;33;170,40;8;41,30
"Son en Breugel";74;426,80;31;178,80;14;80,70
"Stadskanaal";9;28,40;2;6,30;2;6,30
"Staphorst";61;355,70;8;46,60;4;23,30
"Stede Broec";49;225,60;18;82,90;5;23,00
"Steenbergen";94;384,20;13;53,10;13;53,10
"Steenwijkerland";105;237,80;14;31,70;5;11,30
"Stein";122;489,00;43;172,40;15;60,10
"Stichtse Vecht";135;207,60;34;52,30;13;20,00
"Súdwest-Fryslân";106;117,90;18;20,00;6;6,70
"Terneuzen";119;218,80;25;46,00;4;7,40
"Terschelling";2;41,30;0;0,00;0;0,00
"Texel";11;81,00;5;36,80;2;14,70
"Teylingen";67;178,60;14;37,30;2;5,30
"Tholen";170;659,30;40;155,10;16;62,10
"Tiel";150;356,40;42;99,80;18;42,80
"Tilburg";851;386,60;250;113,60;162;73,60
"Tubbergen";81;380,80;12;56,40;5;23,50
"Twenterand";61;180,80;12;35,60;2;5,90
"Tynaarlo";40;118,30;9;26,60;0;0,00
"Tytsjerksteradiel";16;49,80;4;12,50;1;3,10
"Uden";263;624,20;115;273,00;63;149,50
"Uitgeest";25;183,00;5;36,60;1;7,30
"Uithoorn";58;195,90;16;54,10;2;6,80
"Urk";83;393,90;22;104,40;4;19,00
"Utrecht";1422;396,70;268;74,80;118;32,90
"Utrechtse Heuvelrug";126;253,30;28;56,30;14;28,10
"Vaals";31;306,80;10;99,00;2;19,80
"Valkenburg aan de Geul";88;538,50;19;116,30;7;42,80
"Valkenswaard";180;576,50;19;60,90;37;118,50
"Veendam";8;29,20;2;7,30;0;0,00
"Veenendaal";197;295,70;47;70,60;11;16,50
"Veere";30;136,90;6;27,40;2;9,10
"Veldhoven";131;287,70;31;68,10;16;35,10
"Velsen";287;417,60;32;46,60;39;56,70
"Venlo";310;304,40;129;126,70;63;61,90
"Venray";127;291,10;37;84,80;17;39,00
"Vijfheerenlanden";277;486,70;34;59,70;37;65,00
"Vlaardingen";320;435,10;43;58,50;30;40,80
"Vlieland";0;0,00;0;0,00;0;0,00
"Vlissingen";58;130,80;9;20,30;5;11,30
"Voerendaal";47;376,30;17;136,10;8;64,00
"Voorschoten";68;265,70;9;35,20;11;43,00
"Voorst";82;333,30;17;69,10;11;44,70
"Vught";106;398,80;42;158,00;17;64,00
"Waadhoeke";101;219,20;12;26,00;15;32,60
"Waalre";31;177,50;7;40,10;5;28,60
"Waalwijk";189;388,70;36;74,00;36;74,00
"Waddinxveen";105;357,60;17;57,90;7;23,80
"Wageningen";55;137,90;20;50,10;9;22,60
"Wassenaar";56;213,40;9;34,30;12;45,70
"Waterland";34;195,20;16;91,90;4;23,00
"Weert";142;283,00;67;133,50;14;27,90
"Weesp";82;411,90;9;45,20;13;65,30
"West Betuwe";214;417,70;43;83,90;27;52,70
"West Maas en Waal";85;439,10;20;103,30;9;46,50
"Westerkwartier";58;91,50;14;22,10;4;6,30
"Westerveld";37;190,20;9;46,30;4;20,60
"Westervoort";43;287,20;12;80,10;6;40,10
"Westerwolde";6;23,00;5;19,10;0;0,00
"Westland";304;274,80;57;51,50;30;27,10
"Weststellingwerf";28;108,00;3;11,60;4;15,40
"Westvoorne";27;183,10;6;40,70;0;0,00
"Wierden";51;208,80;5;20,50;6;24,60
"Wijchen";150;365,00;44;107,10;13;31,60
"Wijdemeren";35;143,70;8;32,90;0;0,00
"Wijk bij Duurstede";43;180,10;10;41,90;1;4,20
"Winterswijk";48;166,70;7;24,30;3;10,40
"Woensdrecht";74;336,70;5;22,80;7;31,90
"Woerden";181;345,70;49;93,60;20;38,20
"Wormerland";49;301,30;20;123,00;6;36,90
"Woudenberg";33;246,50;9;67,20;2;14,90
"Zaanstad";467;297,70;117;74,60;48;30,60
"Zaltbommel";100;344,80;20;69,00;9;31,00
"Zandvoort";36;210,10;10;58,40;8;46,70
"Zeewolde";50;221,40;12;53,10;6;26,60
"Zeist";223;343,30;37;57,00;24;36,90
"Zevenaar";120;273,90;44;100,40;15;34,20
"Zoetermeer";257;205,20;53;42,30;14;11,20
"Zoeterwoude";14;162,00;3;34,70;1;11,60
"Zuidplas";159;361,00;24;54,50;21;47,70
"Zundert";111;508,20;24;109,90;11;50,40
"Zutphen";106;220,80;30;62,50;13;27,10
"Zwartewaterland";146;642,70;35;154,10;19;83,60
"Zwijndrecht";164;366,90;23;51,50;26;58,20
"Zwolle";363;281,30;53;41,10;46;35,60