"Category";"Meldingen";"Meldingen per 100000";"Zkh opname";"Zkh opname per 100000";"Overleden";"Overleden per 100000"
"'s-Hertogenbosch";4607;2965,00;162;104,30;102;65,60
"Aa en Hunze";300;1181,80;1;3,90;1;3,90
"Aalsmeer";1016;3186,80;17;53,30;20;62,70
"Aalten";599;2210,90;14;51,70;12;44,30
"Achtkarspelen";280;1005,30;0;0,00;0;0,00
"Alblasserdam";898;4456,60;14;69,50;13;64,50
"Albrandswaard";1217;4743,70;28;109,10;16;62,40
"Alkmaar";2582;2356,10;79;72,10;42;38,30
"Almelo";2479;3389,80;40;54,70;24;32,80
"Almere";6133;2887,40;181;85,20;48;22,60
"Alphen aan den Rijn";3798;3166,30;107;89,20;52;43,40
"Alphen-Chaam";328;3205,00;20;195,40;5;48,90
"Altena";1875;3350,20;47;84,00;36;64,30
"Ameland";46;1231,90;0;0,00;0;0,00
"Amersfoort";4468;2840,20;120;76,30;55;35,00
"Amstelveen";2889;3148,20;84;91,50;62;67,60
"Amsterdam";38971;4457,50;1175;134,40;417;47,70
"Apeldoorn";3121;1904,80;131;79,90;66;40,30
"Appingedam";98;842,30;8;68,80;1;8,60
"Arnhem";3969;2456,20;113;69,90;68;42,10
"Assen";982;1428,50;20;29,10;7;10,20
"Asten";445;2662,40;20;119,70;14;83,80
"Baarle-Nassau";197;2863,80;11;159,90;3;43,60
"Baarn";628;2525,40;23;92,50;15;60,30
"Barendrecht";2045;4200,00;67;137,60;28;57,50
"Barneveld";1672;2819,20;30;50,60;17;28,70
"Beek";298;1878,00;18;113,40;8;50,40
"Beekdaelen";680;1891,40;55;153,00;27;75,10
"Beemster";210;2098,50;4;40,00;2;20,00
"Beesel";285;2114,70;23;170,70;9;66,80
"Berg en Dal";1191;3401,00;43;122,80;34;97,10
"Bergeijk";657;3522,80;21;112,60;6;32,20
"Bergen (L.)";302;2308,90;12;91,70;3;22,90
"Bergen (NH.)";775;2596,40;25;83,80;24;80,40
"Bergen op Zoom";2794;4133,80;56;82,90;28;41,40
"Berkelland";1172;2678,20;26;59,40;27;61,70
"Bernheze";1120;3578,20;101;322,70;67;214,10
"Best";749;2495,30;37;123,30;13;43,30
"Beuningen";633;2440,90;23;88,70;10;38,60
"Beverwijk";1161;2790,20;23;55,30;15;36,00
"Bladel";1007;4931,00;25;122,40;13;63,70
"Blaricum";311;2685,40;8;69,10;2;17,30
"Bloemendaal";512;2175,30;10;42,50;6;25,50
"Bodegraven-Reeuwijk";1119;3202,80;26;74,40;12;34,30
"Boekel";268;2487,50;36;334,10;20;185,60
"Borger-Odoorn";403;1577,10;9;35,20;8;31,30
"Borne";611;2614,70;16;68,50;6;25,70
"Borsele";262;1152,10;6;26,40;2;8,80
"Boxmeer";790;2686,80;25;85,00;32;108,80
"Boxtel";848;2751,50;30;97,30;28;90,90
"Breda";5819;3159,30;200;108,60;107;58,10
"Brielle";488;2826,20;20;115,80;3;17,40
"Bronckhorst";837;2324,60;20;55,50;7;19,40
"Brummen";365;1756,20;22;105,90;7;33,70
"Brunssum";473;1701,10;52;187,00;21;75,50
"Bunnik";410;2694,50;15;98,60;7;46,00
"Bunschoten";1116;5098,00;26;118,80;11;50,20
"Buren";647;2414,40;27;100,80;11;41,00
"Capelle aan den IJssel";2719;4045,10;93;138,40;83;123,50
"Castricum";746;2071,20;18;50,00;12;33,30
"Coevorden";578;1637,10;21;59,50;7;19,80
"Cranendonck";749;3529,90;65;306,30;37;174,40
"Cuijk";704;2798,60;19;75,50;15;59,60
"Culemborg";867;2987,50;32;110,30;11;37,90
"Dalfsen";666;2321,80;18;62,80;9;31,40
"Dantumadiel";201;1063,00;2;10,60;0;0,00
"De Bilt";1323;3068,70;38;88,10;29;67,30
"De Fryske Marren";678;1313,70;26;50,40;11;21,30
"De Ronde Venen";1303;2928,20;67;150,60;22;49,40
"De Wolden";380;1560,60;16;65,70;6;24,60
"Delft";3693;3566,90;61;58,90;32;30,90
"Delfzijl";226;916,50;9;36,50;0;0,00
"Den Helder";787;1396,40;19;33,70;6;10,60
"Deurne";1072;3304,80;61;188,10;30;92,50
"Deventer";2186;2166,70;54;53,50;50;49,60
"Diemen";1307;4186,40;28;89,70;20;64,10
"Dinkelland";982;3712,20;24;90,70;18;68,00
"Doesburg";240;2170,40;11;99,50;7;63,30
"Doetinchem";1207;2078,70;39;67,20;18;31,00
"Dongen";899;3418,60;36;136,90;19;72,30
"Dordrecht";4810;4028,00;102;85,40;100;83,70
"Drechterland";455;2305,90;7;35,50;8;40,50
"Drimmelen";723;2655,30;28;102,80;12;44,10
"Dronten";654;1570,00;43;103,20;16;38,40
"Druten";471;2488,40;29;153,20;15;79,20
"Duiven";639;2548,70;18;71,80;8;31,90
"Echt-Susteren";453;1432,10;44;139,10;20;63,20
"Edam-Volendam";1328;3672,80;54;149,30;9;24,90
"Ede";3074;2626,40;86;73,50;42;35,90
"Eemnes";258;2784,10;4;43,20;1;10,80
"Eersel";763;3948,30;36;186,30;18;93,10
"Eijsden-Margraten";602;2336,40;61;236,70;30;116,40
"Eindhoven";6369;2712,00;241;102,60;129;54,90
"Elburg";506;2178,30;30;129,10;11;47,40
"Emmen";2169;2027,50;54;50,50;29;27,10
"Enkhuizen";399;2139,00;20;107,20;5;26,80
"Enschede";4720;2957,30;95;59,50;63;39,50
"Epe";631;1901,60;54;162,70;25;75,30
"Ermelo";604;2237,70;33;122,30;25;92,60
"Etten-Leur";1378;3140,60;56;127,60;31;70,70
"Geertruidenberg";533;2469,20;18;83,40;6;27,80
"Geldrop-Mierlo";1169;2937,30;43;108,00;18;45,20
"Gemert-Bakel";803;2612,10;80;260,20;34;110,60
"Gennep";423;2498,10;18;106,30;15;88,60
"Gilze en Rijen";809;3041,60;28;105,30;18;67,70
"Goeree-Overflakkee";1469;2929,40;71;141,60;46;91,70
"Goes";617;1614,50;22;57,60;14;36,60
"Goirle";780;3261,30;37;154,70;23;96,20
"Gooise Meren";1563;2690,90;34;58,50;20;34,40
"Gorinchem";1282;3453,80;20;53,90;22;59,30
"Gouda";2850;3878,30;97;132,00;84;114,30
"Grave";460;3688,60;28;224,50;21;168,40
"Groningen";4306;1848,20;35;15,00;5;2,10
"Gulpen-Wittem";326;2303,70;26;183,70;16;113,10
"Haaksbergen";821;3381,10;21;86,50;19;78,20
"Haaren";468;3260,40;20;139,30;9;62,70
"Haarlem";4136;2535,70;121;74,20;89;54,60
"Haarlemmermeer";4640;2967,60;113;72,30;46;29,40
"Halderberge";1019;3366,60;32;105,70;16;52,90
"Hardenberg";1149;1884,50;30;49,20;13;21,30
"Harderwijk";1065;2188,40;54;111,00;22;45,20
"Hardinxveld-Giessendam";647;3529,00;2;10,90;7;38,20
"Harlingen";138;879,00;5;31,80;2;12,70
"Hattem";228;1865,20;18;147,30;5;40,90
"Heemskerk";1091;2783,20;40;102,00;21;53,60
"Heemstede";624;2286,80;18;66,00;36;131,90
"Heerde";394;2120,60;55;296,00;29;156,10
"Heerenveen";581;1151,20;17;33,70;23;45,60
"Heerhugowaard";1259;2180,00;33;57,10;10;17,30
"Heerlen";1593;1830,50;137;157,40;59;67,80
"Heeze-Leende";486;3011,90;19;117,70;11;68,20
"Heiloo";470;1963,10;14;58,50;10;41,80
"Hellendoorn";948;2641,80;15;41,80;15;41,80
"Hellevoetsluis";1091;2715,10;27;67,20;10;24,90
"Helmond";3261;3532,60;139;150,60;53;57,40
"Hendrik-Ido-Ambacht";1220;3902,50;13;41,60;10;32,00
"Hengelo";2327;2865,80;45;55,40;31;38,20
"Het Hogeland";613;1280,50;10;20,90;6;12,50
"Heumen";495;3003,10;20;121,30;13;78,90
"Heusden";1512;3381,90;57;127,50;32;71,60
"Hillegom";536;2415,20;9;40,60;2;9,00
"Hilvarenbeek";513;3301,80;17;109,40;15;96,50
"Hilversum";2257;2479,20;48;52,70;42;46,10
"Hoeksche Waard";2651;3028,60;86;98,30;33;37,70
"Hof van Twente";1032;2952,10;24;68,70;11;31,50
"Hollands Kroon";745;1537,40;32;66,00;6;12,40
"Hoogeveen";919;1651,50;32;57,50;15;27,00
"Hoorn";1685;2299,00;47;64,10;18;24,60
"Horst aan de Maas";1245;2932,10;47;110,70;34;80,10
"Houten";1318;2623,70;41;81,60;45;89,60
"Huizen";1360;3302,40;36;87,40;19;46,10
"Hulst";607;2179,30;19;68,20;9;32,30
"IJsselstein";1057;3107,50;50;147,00;43;126,40
"Kaag en Braassem";707;2582,50;11;40,20;3;11,00
"Kampen";1014;1865,80;66;121,40;38;69,90
"Kapelle";130;1023,90;4;31,50;1;7,90
"Katwijk";2549;3872,90;57;86,60;29;44,10
"Kerkrade";752;1646,10;77;168,50;41;89,70
"Koggenland";552;2423,80;12;52,70;12;52,70
"Krimpen aan den IJssel";1167;3951,20;26;88,00;31;105,00
"Krimpenerwaard";1934;3435,40;70;124,30;50;88,80
"Laarbeek";677;2995,00;42;185,80;27;119,40
"Landerd";608;3861,30;44;279,40;22;139,70
"Landgraaf";573;1530,90;56;149,60;17;45,40
"Landsmeer";361;3126,90;6;52,00;3;26,00
"Langedijk";699;2480,90;22;78,10;7;24,80
"Lansingerland";2260;3614,30;58;92,80;44;70,40
"Laren";340;3000,10;10;88,20;8;70,60
"Leeuwarden";1845;1487,60;50;40,30;16;12,90
"Leiden";4132;3303,90;81;64,80;38;30,40
"Leiderdorp";801;2954,60;29;107,00;10;36,90
"Leidschendam-Voorburg";2263;2957,20;56;73,20;42;54,90
"Lelystad";1742;2207,30;95;120,40;40;50,70
"Leudal";803;2240,50;57;159,00;40;111,60
"Leusden";752;2471,80;16;52,60;12;39,40
"Lingewaard";1206;2585,50;45;96,50;17;36,40
"Lisse";556;2414,90;13;56,50;5;21,70
"Lochem";623;1846,50;22;65,20;19;56,30
"Loon op Zand";816;3485,20;35;149,50;28;119,60
"Lopik";484;3341,80;25;172,60;8;55,20
"Loppersum";82;862,60;1;10,50;0;0,00
"Losser";729;3213,60;13;57,30;4;17,60
"Maasdriel";786;3120,50;26;103,20;16;63,50
"Maasgouw";421;1758,60;28;117,00;16;66,80
"Maassluis";1342;4038,80;44;132,40;16;48,20
"Maastricht";2892;2380,00;210;172,80;143;117,70
"Medemblik";878;1946,20;22;48,80;6;13,30
"Meerssen";325;1727,30;24;127,60;13;69,10
"Meierijstad";2330;2865,90;223;274,30;138;169,70
"Meppel";474;1394,90;13;38,30;5;14,70
"Middelburg";579;1186,40;28;57,40;15;30,70
"Midden-Delfland";620;3212,10;12;62,20;5;25,90
"Midden-Drenthe";485;1460,50;8;24,10;1;3,00
"Midden-Groningen";654;1075,90;17;28,00;9;14,80
"Mill en Sint Hubert";348;3175,80;14;127,80;6;54,80
"Moerdijk";1109;2985,20;24;64,60;21;56,50
"Molenlanden";1490;3388,20;19;43,20;16;36,40
"Montferland";756;2100,10;27;75,00;12;33,30
"Montfoort";431;3100,50;16;115,10;7;50,40
"Mook en Middelaar";232;2961,10;9;114,90;8;102,10
"Neder-Betuwe";803;3285,50;46;188,20;23;94,10
"Nederweert";479;2807,20;37;216,80;9;52,70
"Nieuwegein";1694;2667,50;65;102,40;17;26,80
"Nieuwkoop";789;2732,20;16;55,40;10;34,60
"Nijkerk";1162;2689,70;32;74,10;7;16,20
"Nijmegen";5015;2823,30;197;110,90;118;66,40
"Nissewaard";3265;3831,80;89;104,50;42;49,30
"Noardeast-Fryslân";468;1034,00;10;22,10;6;13,30
"Noord-Beveland";102;1381,00;3;40,60;1;13,50
"Noordenveld";301;964,10;7;22,40;14;44,80
"Noordoostpolder";856;1804,30;23;48,50;17;35,80
"Noordwijk";1230;2822,00;39;89,50;8;18,40
"Nuenen, Gerwen en Nederwetten";623;2664,10;22;94,10;13;55,60
"Nunspeet";650;2337,40;64;230,10;23;82,70
"Oegstgeest";666;2675,70;16;64,30;5;20,10
"Oirschot";630;3360,20;19;101,30;18;96,00
"Oisterwijk";733;2788,60;29;110,30;14;53,30
"Oldambt";331;866,70;11;28,80;6;15,70
"Oldebroek";439;1856,20;40;169,10;20;84,60
"Oldenzaal";1060;3328,90;25;78,50;29;91,10
"Olst-Wijhe";286;1567,30;12;65,80;8;43,80
"Ommen";306;1697,00;9;49,90;5;27,70
"Oost Gelre";828;2794,80;23;77,60;26;87,80
"Oosterhout";1808;3225,60;55;98,10;22;39,20
"Ooststellingwerf";318;1249,30;7;27,50;1;3,90
"Oostzaan";335;3446,50;13;133,70;3;30,90
"Opmeer";233;1972,60;3;25,40;2;16,90
"Opsterland";266;896,60;11;37,10;0;0,00
"Oss";3234;3515,30;192;208,70;106;115,20
"Oude IJsselstreek";822;2087,60;27;68,60;15;38,10
"Ouder-Amstel";506;3584,10;8;56,70;0;0,00
"Oudewater";308;3016,70;32;313,40;12;117,50
"Overbetuwe";1012;2109,90;62;129,30;20;41,70
"Papendrecht";1059;3294,90;10;31,10;17;52,90
"Peel en Maas";1152;2640,60;148;339,20;65;149,00
"Pekela";108;887,90;7;57,60;2;16,40
"Pijnacker-Nootdorp";1873;3380,10;37;66,80;21;37,90
"Purmerend";1992;2445,30;94;115,40;47;57,70
"Putten";557;2309,30;13;53,90;3;12,40
"Raalte";874;2319,30;27;71,60;25;66,30
"Reimerswaal";349;1536,10;9;39,60;5;22,00
"Renkum";692;2203,20;20;63,70;11;35,00
"Renswoude";121;2205,60;5;91,10;5;91,10
"Reusel-De Mierden";581;4438,50;15;114,60;4;30,60
"Rheden";944;2161,60;39;89,30;19;43,50
"Rhenen";558;2774,90;14;69,60;6;29,80
"Ridderkerk";1872;4039,60;52;112,20;37;79,80
"Rijssen-Holten";1207;3158,30;32;83,70;33;86,30
"Rijswijk";1920;3515,30;74;135,50;58;106,20
"Roerdalen";305;1486,60;28;136,50;9;43,90
"Roermond";1143;1960,00;66;113,20;25;42,90
"Roosendaal";2870;3713,00;59;76,30;40;51,70
"Rotterdam";33485;5132,90;1095;167,90;595;91,20
"Rozendaal";25;1474,10;1;59,00;0;0,00
"Rucphen";809;3524,10;20;87,10;11;47,90
"s-Gravenhage";21759;3986,20;766;140,30;370;67,80
"Schagen";1069;2300,40;24;51,60;15;32,30
"Scherpenzeel";241;2438,50;5;50,60;2;20,20
"Schiedam";3911;4960,60;121;153,50;38;48,20
"Schiermonnikoog";4;422,80;1;105,70;0;0,00
"Schouwen-Duiveland";526;1552,00;16;47,20;16;47,20
"Simpelveld";174;1650,20;20;189,70;5;47,40
"Sint Anthonis";301;2580,10;21;180,00;11;94,30
"Sint-Michielsgestel";872;2979,80;39;133,30;23;78,60
"Sittard-Geleen";1598;1730,70;135;146,20;71;76,90
"Sliedrecht";875;3473,90;11;43,70;12;47,60
"Sluis";391;1685,50;15;64,70;5;21,60
"Smallingerland";572;1018,30;13;23,10;9;16,00
"Soest";1409;3020,00;43;92,20;33;70,70
"Someren";529;2731,30;36;185,90;9;46,50
"Son en Breugel";457;2635,50;32;184,50;17;98,00
"Stadskanaal";599;1893,40;9;28,40;7;22,10
"Staphorst";453;2641,40;11;64,10;5;29,20
"Stede Broec";411;1892,60;20;92,10;5;23,00
"Steenbergen";756;3090,30;20;81,80;14;57,20
"Steenwijkerland";605;1370,10;18;40,80;10;22,60
"Stein";416;1667,50;50;200,40;16;64,10
"Stichtse Vecht";1944;2989,40;62;95,30;23;35,40
"Súdwest-Fryslân";1602;1782,40;26;28,90;26;28,90
"Terneuzen";1021;1877,40;35;64,40;5;9,20
"Terschelling";71;1465,10;1;20,60;1;20,60
"Texel";117;861,90;6;44,20;2;14,70
"Teylingen";1124;2995,40;24;64,00;6;16,00
"Tholen";778;3017,40;49;190,00;19;73,70
"Tiel";1338;3178,80;58;137,80;32;76,00
"Tilburg";7070;3211,50;308;139,90;206;93,60
"Tubbergen";1051;4940,50;13;61,10;8;37,60
"Twenterand";979;2900,90;16;47,40;5;14,80
"Tynaarlo";388;1147,30;12;35,50;11;32,50
"Tytsjerksteradiel";332;1033,90;8;24,90;3;9,30
"Uden";992;2354,50;119;282,40;68;161,40
"Uitgeest";370;2709,00;7;51,30;3;22,00
"Uithoorn";884;2986,30;26;87,80;4;13,50
"Urk";953;4522,40;30;142,40;10;47,50
"Utrecht";13647;3807,20;432;120,50;155;43,20
"Utrechtse Heuvelrug";1262;2536,60;35;70,30;21;42,20
"Vaals";110;1088,70;10;99,00;2;19,80
"Valkenburg aan de Geul";327;2001,00;23;140,70;11;67,30
"Valkenswaard";988;3164,30;24;76,90;43;137,70
"Veendam";262;956,80;4;14,60;1;3,70
"Veenendaal";2361;3544,10;69;103,60;19;28,50
"Veere";192;876,40;10;45,60;2;9,10
"Veldhoven";1432;3145,30;41;90,10;23;50,50
"Velsen";1904;2770,20;55;80,00;50;72,70
"Venlo";2859;2807,60;152;149,30;83;81,50
"Venray";1316;3016,70;44;100,90;23;52,70
"Vijfheerenlanden";1936;3401,70;56;98,40;51;89,60
"Vlaardingen";3569;4853,20;86;116,90;56;76,20
"Vlieland";19;1636,50;0;0,00;0;0,00
"Vlissingen";523;1179,50;16;36,10;7;15,80
"Voerendaal";201;1609,20;18;144,10;8;64,00
"Voorschoten";628;2453,80;12;46,90;13;50,80
"Voorst";442;1796,70;18;73,20;11;44,70
"Vught";763;2870,60;45;169,30;22;82,80
"Waadhoeke";590;1280,40;18;39,10;22;47,70
"Waalre";475;2720,30;9;51,50;10;57,30
"Waalwijk";1639;3370,60;56;115,20;50;102,80
"Waddinxveen";954;3248,80;37;126,00;9;30,60
"Wageningen";957;2399,60;30;75,20;25;62,70
"Wassenaar";652;2485,10;17;64,80;14;53,40
"Waterland";535;3072,20;24;137,80;14;80,40
"Weert";1429;2847,50;84;167,40;23;45,80
"Weesp";813;4084,20;11;55,30;16;80,40
"West Betuwe";1463;2855,60;65;126,90;36;70,30
"West Maas en Waal";456;2355,60;24;124,00;15;77,50
"Westerkwartier";595;938,80;20;31,60;8;12,60
"Westerveld";212;1089,50;10;51,40;5;25,70
"Westervoort";337;2250,60;13;86,80;7;46,70
"Westerwolde";359;1374,40;12;45,90;3;11,50
"Westland";4041;3653,50;100;90,40;48;43,40
"Weststellingwerf";355;1369,50;5;19,30;10;38,60
"Westvoorne";391;2651,70;9;61,00;1;6,80
"Wierden";964;3946,90;8;32,80;11;45,00
"Wijchen";1067;2596,50;57;138,70;23;56,00
"Wijdemeren";616;2530,00;14;57,50;5;20,50
"Wijk bij Duurstede";578;2420,50;14;58,60;7;29,30
"Winterswijk";572;1986,00;11;38,20;8;27,80
"Woensdrecht";664;3021,50;11;50,10;20;91,00
"Woerden";1546;2952,70;73;139,40;25;47,70
"Wormerland";454;2791,40;24;147,60;13;79,90
"Woudenberg";332;2479,50;11;82,20;4;29,90
"Zaanstad";5411;3449,70;192;122,40;88;56,10
"Zaltbommel";905;3120,40;25;86,20;10;34,50
"Zandvoort";378;2205,90;15;87,50;9;52,50
"Zeewolde";391;1731,00;14;62,00;6;26,60
"Zeist";1734;2669,40;49;75,40;34;52,30
"Zevenaar";840;1917,60;60;137,00;21;47,90
"Zoetermeer";3998;3191,60;80;63,90;26;20,80
"Zoeterwoude";248;2870,40;4;46,30;1;11,60
"Zuidplas";1579;3585,10;45;102,20;25;56,80
"Zundert";625;2861,50;30;137,40;13;59,50
"Zutphen";945;1968,30;38;79,20;16;33,30
"Zwartewaterland";549;2416,80;36;158,50;24;105,70
"Zwijndrecht";1849;4136,90;31;69,40;53;118,60
"Zwolle";2303;1784,40;62;48,00;63;48,80