"Category";"Meldingen";"Meldingen per 100000";"Zkh opname";"Zkh opname per 100000";"Overleden";"Overleden per 100000"
"'s-Hertogenbosch";2303;1482,20;145;93,30;85;54,70
"Aa en Hunze";201;791,80;1;3,90;1;3,90
"Aalsmeer";517;1621,60;11;34,50;6;18,80
"Aalten";319;1177,40;13;48,00;7;25,80
"Achtkarspelen";165;592,40;0;0,00;0;0,00
"Alblasserdam";468;2322,60;11;54,60;7;34,70
"Albrandswaard";635;2475,20;17;66,30;9;35,10
"Alkmaar";1200;1095,00;64;58,40;31;28,30
"Almelo";918;1255,30;32;43,80;14;19,10
"Almere";3154;1484,90;165;77,70;39;18,40
"Alphen aan den Rijn";1880;1567,30;79;65,90;32;26,70
"Alphen-Chaam";150;1465,70;18;175,90;5;48,90
"Altena";737;1316,90;38;67,90;12;21,40
"Ameland";33;883,80;0;0,00;0;0,00
"Amersfoort";2297;1460,20;90;57,20;28;17,80
"Amstelveen";1906;2077,00;74;80,60;45;49,00
"Amsterdam";26442;3024,50;966;110,50;319;36,50
"Apeldoorn";1583;966,10;113;69,00;54;33,00
"Appingedam";45;386,80;7;60,20;0;0,00
"Arnhem";1978;1224,10;83;51,40;35;21,70
"Assen";524;762,30;14;20,40;3;4,40
"Asten";218;1304,30;18;107,70;12;71,80
"Baarle-Nassau";82;1192,00;9;130,80;2;29,10
"Baarn";346;1391,40;15;60,30;9;36,20
"Barendrecht";1214;2493,30;47;96,50;16;32,90
"Barneveld";684;1153,30;24;40,50;11;18,50
"Beek";136;857,10;17;107,10;7;44,10
"Beekdaelen";354;984,60;52;144,60;25;69,50
"Beemster";104;1039,30;4;40,00;1;10,00
"Beesel";155;1150,10;20;148,40;8;59,40
"Berg en Dal";644;1839,00;36;102,80;22;62,80
"Bergeijk";352;1887,40;19;101,90;5;26,80
"Bergen (L.)";140;1070,30;9;68,80;2;15,30
"Bergen (NH.)";480;1608,10;22;73,70;10;33,50
"Bergen op Zoom";1414;2092,10;42;62,10;15;22,20
"Berkelland";513;1172,30;18;41,10;9;20,60
"Bernheze";619;1977,60;96;306,70;66;210,90
"Best";380;1266,00;33;109,90;12;40,00
"Beuningen";322;1241,70;20;77,10;6;23,10
"Beverwijk";601;1444,40;20;48,10;13;31,20
"Bladel";597;2923,30;23;112,60;9;44,10
"Blaricum";163;1407,50;8;69,10;2;17,30
"Bloemendaal";335;1423,30;10;42,50;6;25,50
"Bodegraven-Reeuwijk";556;1591,40;12;34,30;9;25,80
"Boekel";167;1550,00;36;334,10;20;185,60
"Borger-Odoorn";232;907,90;8;31,30;5;19,60
"Borne";309;1322,30;15;64,20;6;25,70
"Borsele";126;554,10;5;22,00;1;4,40
"Boxmeer";413;1404,60;20;68,00;28;95,20
"Boxtel";395;1281,60;24;77,90;26;84,40
"Breda";2998;1627,70;172;93,40;74;40,20
"Brielle";283;1639,00;15;86,90;0;0,00
"Bronckhorst";440;1222,00;18;50,00;7;19,40
"Brummen";156;750,60;19;91,40;6;28,90
"Brunssum";283;1017,80;50;179,80;21;75,50
"Bunnik";204;1340,70;12;78,90;1;6,60
"Bunschoten";441;2014,50;15;68,50;8;36,50
"Buren";298;1112,10;23;85,80;8;29,90
"Capelle aan den IJssel";1596;2374,40;67;99,70;65;96,70
"Castricum";358;993,90;18;50,00;10;27,80
"Coevorden";277;784,60;14;39,70;2;5,70
"Cranendonck";416;1960,50;63;296,90;36;169,70
"Cuijk";342;1359,60;13;51,70;10;39,80
"Culemborg";475;1636,70;25;86,10;9;31,00
"Dalfsen";369;1286,40;17;59,30;7;24,40
"Dantumadiel";111;587,10;2;10,60;0;0,00
"De Bilt";801;1857,90;32;74,20;24;55,70
"De Fryske Marren";421;815,80;22;42,60;8;15,50
"De Ronde Venen";737;1656,20;47;105,60;14;31,50
"De Wolden";198;813,10;14;57,50;5;20,50
"Delft";2252;2175,10;46;44,40;15;14,50
"Delfzijl";119;482,60;7;28,40;0;0,00
"Den Helder";318;564,20;15;26,60;2;3,50
"Deurne";579;1784,90;58;178,80;26;80,20
"Deventer";1184;1173,50;50;49,60;38;37,70
"Diemen";894;2863,50;23;73,70;14;44,80
"Dinkelland";493;1863,70;21;79,40;10;37,80
"Doesburg";157;1419,80;11;99,50;7;63,30
"Doetinchem";640;1102,20;31;53,40;16;27,60
"Dongen";355;1350,00;24;91,30;13;49,40
"Dordrecht";2424;2029,90;97;81,20;76;63,60
"Drechterland";230;1165,60;5;25,30;8;40,50
"Drimmelen";314;1153,20;21;77,10;9;33,10
"Dronten";320;768,20;39;93,60;14;33,60
"Druten";261;1378,90;28;147,90;9;47,50
"Duiven";298;1188,60;16;63,80;6;23,90
"Echt-Susteren";224;708,20;43;135,90;19;60,10
"Edam-Volendam";807;2231,90;38;105,10;4;11,10
"Ede";1589;1357,60;72;61,50;28;23,90
"Eemnes";109;1176,20;2;21,60;1;10,80
"Eersel";394;2038,80;29;150,10;10;51,70
"Eijsden-Margraten";370;1436,00;57;221,20;28;108,70
"Eindhoven";3324;1415,40;205;87,30;99;42,20
"Elburg";275;1183,90;28;120,50;8;34,40
"Emmen";1253;1171,30;46;43,00;21;19,60
"Enkhuizen";145;777,30;20;107,20;4;21,40
"Enschede";2060;1290,70;68;42,60;33;20,70
"Epe";359;1081,90;52;156,70;23;69,30
"Ermelo";318;1178,10;33;122,30;23;85,20
"Etten-Leur";768;1750,30;47;107,10;30;68,40
"Geertruidenberg";254;1176,70;13;60,20;6;27,80
"Geldrop-Mierlo";506;1271,40;35;87,90;16;40,20
"Gemert-Bakel";470;1528,90;79;257,00;32;104,10
"Gennep";182;1074,80;17;100,40;10;59,10
"Gilze en Rijen";377;1417,40;21;79,00;16;60,20
"Goeree-Overflakkee";788;1571,40;58;115,70;35;69,80
"Goes";349;913,20;14;36,60;13;34,00
"Goirle";373;1559,60;33;138,00;20;83,60
"Gooise Meren";908;1563,30;27;46,50;15;25,80
"Gorinchem";657;1770,00;19;51,20;16;43,10
"Gouda";1613;2195,00;57;77,60;46;62,60
"Grave";219;1756,10;21;168,40;11;88,20
"Groningen";3117;1337,90;32;13,70;4;1,70
"Gulpen-Wittem";209;1476,90;24;169,60;15;106,00
"Haaksbergen";427;1758,50;17;70,00;10;41,20
"Haaren";204;1421,20;20;139,30;8;55,70
"Haarlem";2433;1491,60;100;61,30;74;45,40
"Haarlemmermeer";2654;1697,40;94;60,10;38;24,30
"Halderberge";484;1599,00;23;76,00;12;39,60
"Hardenberg";553;907,00;24;39,40;10;16,40
"Harderwijk";609;1251,40;47;96,60;21;43,20
"Hardinxveld-Giessendam";269;1467,20;2;10,90;2;10,90
"Harlingen";80;509,60;4;25,50;1;6,40
"Hattem";125;1022,60;18;147,30;5;40,90
"Heemskerk";538;1372,50;34;86,70;14;35,70
"Heemstede";388;1421,90;15;55,00;35;128,30
"Heerde";294;1582,30;55;296,00;28;150,70
"Heerenveen";358;709,30;16;31,70;22;43,60
"Heerhugowaard";602;1042,40;29;50,20;9;15,60
"Heerlen";804;923,90;129;148,20;55;63,20
"Heeze-Leende";261;1617,50;17;105,40;8;49,60
"Heiloo";226;943,90;12;50,10;9;37,60
"Hellendoorn";390;1086,80;13;36,20;13;36,20
"Hellevoetsluis";577;1436,00;21;52,30;6;14,90
"Helmond";1858;2012,70;124;134,30;46;49,80
"Hendrik-Ido-Ambacht";631;2018,40;13;41,60;6;19,20
"Hengelo";1197;1474,20;38;46,80;24;29,60
"Het Hogeland";330;689,30;7;14,60;5;10,40
"Heumen";319;1935,30;19;115,30;13;78,90
"Heusden";675;1509,80;49;109,60;26;58,20
"Hillegom";328;1477,90;8;36,00;2;9,00
"Hilvarenbeek";244;1570,40;12;77,20;8;51,50
"Hilversum";1324;1454,30;39;42,80;26;28,60
"Hoeksche Waard";1611;1840,50;82;93,70;28;32,00
"Hof van Twente";457;1307,30;18;51,50;6;17,20
"Hollands Kroon";333;687,20;26;53,70;6;12,40
"Hoogeveen";511;918,30;27;48,50;12;21,60
"Hoorn";772;1053,30;38;51,80;13;17,70
"Horst aan de Maas";554;1304,70;41;96,60;28;65,90
"Houten";732;1457,20;33;65,70;17;33,80
"Huizen";730;1772,60;27;65,60;10;24,30
"Hulst";197;707,30;10;35,90;5;18,00
"IJsselstein";602;1769,80;41;120,50;35;102,90
"Kaag en Braassem";381;1391,70;8;29,20;3;11,00
"Kampen";620;1140,80;60;110,40;37;68,10
"Kapelle";76;598,60;3;23,60;1;7,90
"Katwijk";1330;2020,80;42;63,80;18;27,30
"Kerkrade";457;1000,40;68;148,80;37;81,00
"Koggenland";232;1018,70;8;35,10;8;35,10
"Krimpen aan den IJssel";667;2258,30;18;60,90;10;33,90
"Krimpenerwaard";1060;1882,90;52;92,40;37;65,70
"Laarbeek";346;1530,70;42;185,80;26;115,00
"Landerd";362;2299,00;42;266,70;21;133,40
"Landgraaf";290;774,80;54;144,30;14;37,40
"Landsmeer";190;1645,70;5;43,30;3;26,00
"Langedijk";332;1178,30;21;74,50;7;24,80
"Lansingerland";1349;2157,40;49;78,40;32;51,20
"Laren";171;1508,90;9;79,40;3;26,50
"Leeuwarden";1260;1015,90;45;36,30;8;6,50
"Leiden";2410;1927,00;59;47,20;25;20,00
"Leiderdorp";450;1659,90;22;81,20;7;25,80
"Leidschendam-Voorburg";1348;1761,50;36;47,00;28;36,60
"Lelystad";870;1102,40;80;101,40;32;40,50
"Leudal";377;1051,90;54;150,70;33;92,10
"Leusden";395;1298,40;11;36,20;9;29,60
"Lingewaard";635;1361,30;38;81,50;12;25,70
"Lisse";287;1246,50;11;47,80;4;17,40
"Lochem";356;1055,10;17;50,40;15;44,50
"Loon op Zand";342;1460,70;29;123,90;16;68,30
"Lopik";260;1795,20;22;151,90;8;55,20
"Loppersum";36;378,70;0;0,00;0;0,00
"Losser";305;1344,50;11;48,50;2;8,80
"Maasdriel";305;1210,90;17;67,50;8;31,80
"Maasgouw";220;919,00;28;117,00;15;62,70
"Maassluis";765;2302,30;28;84,30;10;30,10
"Maastricht";1748;1438,60;198;162,90;140;115,20
"Medemblik";378;837,90;19;42,10;6;13,30
"Meerssen";204;1084,20;23;122,20;13;69,10
"Meierijstad";1358;1670,30;213;262,00;134;164,80
"Meppel";236;694,50;11;32,40;5;14,70
"Middelburg";277;567,60;20;41,00;10;20,50
"Midden-Delfland";332;1720,00;5;25,90;1;5,20
"Midden-Drenthe";240;722,70;6;18,10;0;0,00
"Midden-Groningen";325;534,60;10;16,50;5;8,20
"Mill en Sint Hubert";198;1806,90;9;82,10;5;45,60
"Moerdijk";530;1426,60;19;51,10;10;26,90
"Molenlanden";621;1412,10;20;45,50;10;22,70
"Montferland";366;1016,70;25;69,40;9;25,00
"Montfoort";204;1467,50;15;107,90;7;50,40
"Mook en Middelaar";138;1761,30;7;89,30;5;63,80
"Neder-Betuwe";381;1558,90;42;171,80;22;90,00
"Nederweert";196;1148,70;33;193,40;7;41,00
"Nieuwegein";941;1481,80;54;85,00;14;22,00
"Nieuwkoop";367;1270,90;12;41,60;6;20,80
"Nijkerk";636;1472,20;26;60,20;4;9,30
"Nijmegen";3215;1809,90;172;96,80;78;43,90
"Nissewaard";1531;1796,80;69;81,00;24;28,20
"Noardeast-Fryslân";243;536,90;7;15,50;4;8,80
"Noord-Beveland";51;690,50;1;13,50;0;0,00
"Noordenveld";227;727,10;6;19,20;14;44,80
"Noordoostpolder";378;796,70;19;40,00;11;23,20
"Noordwijk";658;1509,70;28;64,20;4;9,20
"Nuenen, Gerwen en Nederwetten";321;1372,70;19;81,20;10;42,80
"Nunspeet";392;1409,60;61;219,40;22;79,10
"Oegstgeest";376;1510,60;11;44,20;3;12,10
"Oirschot";345;1840,10;17;90,70;9;48,00
"Oisterwijk";328;1247,80;27;102,70;12;45,70
"Oldambt";194;508,00;10;26,20;4;10,50
"Oldebroek";266;1124,70;40;169,10;19;80,30
"Oldenzaal";549;1724,10;16;50,20;14;44,00
"Olst-Wijhe";173;948,00;12;65,80;8;43,80
"Ommen";158;876,20;9;49,90;4;22,20
"Oost Gelre";419;1414,30;21;70,90;11;37,10
"Oosterhout";782;1395,10;52;92,80;17;30,30
"Ooststellingwerf";133;522,50;5;19,60;1;3,90
"Oostzaan";218;2242,80;12;123,50;2;20,60
"Opmeer";80;677,30;1;8,50;1;8,50
"Opsterland";161;542,70;8;27,00;0;0,00
"Oss";1828;1987,00;175;190,20;93;101,10
"Oude IJsselstreek";353;896,50;23;58,40;9;22,90
"Ouder-Amstel";345;2443,70;8;56,70;0;0,00
"Oudewater";184;1802,20;29;284,00;10;97,90
"Overbetuwe";583;1215,50;60;125,10;17;35,40
"Papendrecht";501;1558,80;9;28,00;9;28,00
"Peel en Maas";674;1544,90;145;332,40;65;149,00
"Pekela";61;501,50;5;41,10;0;0,00
"Pijnacker-Nootdorp";1076;1941,80;31;55,90;18;32,50
"Purmerend";1128;1384,70;81;99,40;38;46,60
"Putten";212;878,90;11;45,60;1;4,10
"Raalte";463;1228,60;25;66,30;23;61,00
"Reimerswaal";171;752,60;6;26,40;2;8,80
"Renkum";420;1337,20;16;50,90;10;31,80
"Renswoude";61;1111,90;5;91,10;5;91,10
"Reusel-De Mierden";341;2605,00;15;114,60;2;15,30
"Rheden";439;1005,20;35;80,10;15;34,30
"Rhenen";287;1427,20;13;64,60;6;29,80
"Ridderkerk";1008;2175,20;43;92,80;19;41,00
"Rijssen-Holten";518;1355,40;30;78,50;26;68,00
"Rijswijk";1188;2175,10;60;109,90;35;64,10
"Roerdalen";126;614,20;27;131,60;8;39,00
"Roermond";526;902,00;65;111,50;24;41,20
"Roosendaal";1331;1721,90;45;58,20;26;33,60
"Rotterdam";20083;3078,50;781;119,70;417;63,90
"Rozendaal";11;648,60;1;59,00;0;0,00
"Rucphen";401;1746,80;14;61,00;10;43,60
"s-Gravenhage";14389;2636,00;552;101,10;318;58,30
"Schagen";423;910,20;20;43,00;10;21,50
"Scherpenzeel";129;1305,30;5;50,60;2;20,20
"Schiedam";2049;2598,90;73;92,60;25;31,70
"Schiermonnikoog";2;211,40;1;105,70;0;0,00
"Schouwen-Duiveland";293;864,50;12;35,40;13;38,40
"Simpelveld";81;768,20;19;180,20;5;47,40
"Sint Anthonis";187;1602,90;21;180,00;11;94,30
"Sint-Michielsgestel";486;1660,70;37;126,40;19;64,90
"Sittard-Geleen";864;935,80;124;134,30;65;70,40
"Sliedrecht";359;1425,30;9;35,70;5;19,90
"Sluis";70;301,80;9;38,80;4;17,20
"Smallingerland";341;607,10;12;21,40;7;12,50
"Soest";862;1847,60;33;70,70;15;32,20
"Someren";237;1223,70;34;175,50;8;41,30
"Son en Breugel";234;1349,50;31;178,80;14;80,70
"Stadskanaal";199;629,00;5;15,80;2;6,30
"Staphorst";264;1539,40;8;46,60;4;23,30
"Stede Broec";189;870,30;19;87,50;5;23,00
"Steenbergen";397;1622,80;18;73,60;13;53,10
"Steenwijkerland";344;779,00;15;34,00;8;18,10
"Stein";222;889,90;46;184,40;15;60,10
"Stichtse Vecht";1026;1577,80;46;70,70;14;21,50
"Súdwest-Fryslân";730;812,20;21;23,40;6;6,70
"Terneuzen";372;684,00;25;46,00;4;7,40
"Terschelling";55;1135,00;1;20,60;0;0,00
"Texel";69;508,30;6;44,20;2;14,70
"Teylingen";584;1556,30;18;48,00;4;10,70
"Tholen";347;1345,80;43;166,80;18;69,80
"Tiel";646;1534,70;48;114,00;22;52,30
"Tilburg";3506;1592,60;265;120,40;172;78,10
"Tubbergen";555;2608,90;12;56,40;6;28,20
"Twenterand";330;977,80;12;35,60;2;5,90
"Tynaarlo";243;718,60;11;32,50;0;0,00
"Tytsjerksteradiel";206;641,50;7;21,80;2;6,20
"Uden";580;1376,60;115;273,00;63;149,50
"Uitgeest";185;1354,50;6;43,90;1;7,30
"Uithoorn";505;1706,00;21;70,90;3;10,10
"Urk";133;631,10;23;109,10;4;19,00
"Utrecht";8659;2415,70;348;97,10;124;34,60
"Utrechtse Heuvelrug";800;1608,00;31;62,30;17;34,20
"Vaals";59;583,90;10;99,00;2;19,80
"Valkenburg aan de Geul";190;1162,60;20;122,40;8;49,00
"Valkenswaard";562;1800,00;23;73,70;37;118,50
"Veendam";155;566,10;2;7,30;1;3,70
"Veenendaal";1204;1807,30;53;79,60;16;24,00
"Veere";108;493,00;8;36,50;2;9,10
"Veldhoven";720;1581,40;36;79,10;19;41,70
"Velsen";1032;1501,50;46;66,90;44;64,00
"Venlo";1490;1463,20;139;136,50;69;67,80
"Venray";651;1492,30;38;87,10;20;45,80
"Vijfheerenlanden";1046;1837,90;46;80,80;44;77,30
"Vlaardingen";1889;2568,70;55;74,80;32;43,50
"Vlieland";16;1378,10;0;0,00;0;0,00
"Vlissingen";262;590,90;10;22,60;5;11,30
"Voerendaal";100;800,60;17;136,10;8;64,00
"Voorschoten";344;1344,10;11;43,00;11;43,00
"Voorst";230;934,90;17;69,10;11;44,70
"Vught";384;1444,70;43;161,80;17;64,00
"Waadhoeke";373;809,50;14;30,40;17;36,90
"Waalre";238;1363,00;8;45,80;8;45,80
"Waalwijk";737;1515,70;42;86,40;39;80,20
"Waddinxveen";530;1804,90;25;85,10;7;23,80
"Wageningen";549;1376,60;22;55,20;19;47,60
"Wassenaar";416;1585,60;10;38,10;13;49,60
"Waterland";305;1751,50;20;114,90;6;34,50
"Weert";572;1139,80;69;137,50;16;31,90
"Weesp";494;2481,70;10;50,20;14;70,30
"West Betuwe";673;1313,60;49;95,60;30;58,60
"West Maas en Waal";245;1265,60;23;118,80;10;51,70
"Westerkwartier";372;587,00;19;30,00;4;6,30
"Westerveld";99;508,80;9;46,30;4;20,60
"Westervoort";138;921,60;12;80,10;6;40,10
"Westerwolde";160;612,50;11;42,10;2;7,70
"Westland";2034;1839,00;69;62,40;30;27,10
"Weststellingwerf";178;686,70;3;11,60;5;19,30
"Westvoorne";254;1722,60;6;40,70;0;0,00
"Wierden";404;1654,10;7;28,70;6;24,60
"Wijchen";570;1387,10;50;121,70;15;36,50
"Wijdemeren";373;1532,00;11;45,20;1;4,10
"Wijk bij Duurstede";285;1193,50;13;54,40;4;16,80
"Winterswijk";225;781,20;8;27,80;4;13,90
"Woensdrecht";342;1556,20;8;36,40;9;41,00
"Woerden";791;1510,70;61;116,50;22;42,00
"Wormerland";243;1494,10;21;129,10;12;73,80
"Woudenberg";172;1284,50;9;67,20;2;14,90
"Zaanstad";2825;1801,00;152;96,90;59;37,60
"Zaltbommel";370;1275,70;23;79,30;10;34,50
"Zandvoort";218;1272,20;12;70,00;9;52,50
"Zeewolde";223;987,20;13;57,60;6;26,60
"Zeist";1084;1668,70;43;66,20;27;41,60
"Zevenaar";447;1020,50;54;123,30;17;38,80
"Zoetermeer";2217;1769,80;66;52,70;18;14,40
"Zoeterwoude";121;1400,50;4;46,30;1;11,60
"Zuidplas";922;2093,40;31;70,40;23;52,20
"Zundert";363;1661,90;24;109,90;11;50,40
"Zutphen";404;841,50;33;68,70;13;27,10
"Zwartewaterland";311;1369,10;35;154,10;22;96,80
"Zwijndrecht";982;2197,10;29;64,90;30;67,10
"Zwolle";1254;971,60;54;41,80;50;38,70