0014,17376,93,45
0034,20509,340,96
0037,2559,24,20
0047,1985,12,11
0050,1821,22,14
0059,2366,26,39
0060,252,3,1
0072,854,13,3
0074,2952,37,39
0080,7838,103,74
0085,1525,17,6
0086,1821,27,7
0088,45,1,2
0090,3627,44,34
0093,256,3,2
0096,69,0,0
0098,1881,20,29
0106,3977,68,15
0109,2983,57,31
0114,9292,165,79
0118,4737,77,41
0119,2412,34,27
0141,7861,107,59
0147,2597,30,38
0148,2378,26,20
0150,8871,106,88
0153,15169,243,175
0158,2759,34,32
0160,5973,60,37
0163,4421,44,51
0164,7576,78,68
0166,3825,80,44
0168,2773,50,33
0171,3586,36,28
0173,3522,55,45
0175,1510,15,15
0177,3510,42,41
0180,2418,18,21
0183,3183,26,19
0184,2634,54,19
0189,3227,21,27
0193,8655,105,113
0197,2537,32,22
0200,13166,205,147
0202,13498,203,126
0203,8013,65,64
0209,2478,41,22
0213,1574,33,18
0214,2585,40,20
0216,2865,47,22
0221,813,19,9
0222,5002,65,29
0225,1960,40,27
0226,2149,28,14
0228,12330,144,86
0230,2154,39,14
0232,2796,78,52
0233,2508,49,34
0243,4478,87,48
0244,923,21,7
0246,1302,57,32
0252,1471,27,19
0262,2302,37,29
0263,3667,43,42
0267,4671,52,29
0268,16652,274,190
0269,2294,50,30
0273,2606,21,18
0274,2170,37,26
0275,3683,62,58
0277,113,1,0
0279,1111,5,12
0281,4686,88,73
0285,1993,31,28
0289,3267,42,42
0293,1209,21,9
0294,2160,18,17
0296,4209,81,60
0297,3963,41,42
0299,3441,82,48
0301,3311,54,29
0302,2459,80,32
0303,3204,63,25
0307,15086,260,139
0308,2313,34,28
0310,3930,75,78
0312,1241,22,12
0313,4309,62,39
0317,983,19,5
0321,4436,75,51
0327,2519,41,24
0331,1662,39,12
0335,1492,29,8
0339,650,7,5
0340,2489,42,21
0342,4207,77,47
0344,37142,727,250
0345,8149,135,75
0351,1495,22,8
0352,2012,34,17
0353,3442,87,55
0355,5393,88,73
0356,5646,134,30
0358,3479,38,26
0361,9915,142,85
0362,8182,136,90
0363,97784,1967,817
0370,954,9,3
0373,2608,39,38
0375,4398,45,42
0376,1079,14,6
0377,1865,16,17
0383,3278,27,24
0384,3376,53,35
0385,5258,96,23
0388,1967,30,11
0392,14004,218,149
0394,15018,184,110
0396,4151,63,32
0397,2153,26,60
0398,5882,60,37
0399,1903,23,15
0400,5458,67,39
0402,7414,91,86
0405,8744,94,55
0406,4233,63,53
0415,1246,12,6
0416,2690,35,16
0417,1094,16,26
0420,5516,58,26
0431,991,16,8
0432,1313,11,6
0437,1403,16,5
0439,8536,192,84
0441,4655,56,58
0448,623,6,4
0450,1366,12,7
0451,2771,34,15
0453,7350,104,90
0457,2162,20,20
0473,1503,21,43
0479,16245,314,176
0482,2756,44,22
0484,11767,191,115
0489,5756,104,48
0498,2237,24,13
0501,1712,31,10
0502,8227,185,145
0503,10480,104,75
0505,14767,265,181
0512,4351,48,42
0513,8082,278,160
0518,56864,1694,555
0523,2816,17,25
0530,3647,69,43
0531,3713,41,32
0532,2678,29,15
0534,1897,21,17
0537,8933,113,59
0542,3830,49,71
0546,12018,138,70
0547,2430,36,23
0553,2204,28,17
0556,3653,69,34
0569,3436,46,22
0575,4517,66,22
0579,2096,23,31
0589,1084,38,12
0590,3657,47,46
0597,6035,113,89
0599,84093,1973,973
0603,5154,133,76
0606,9565,237,115
0610,3450,33,41
0613,3167,50,23
0614,1179,22,18
0622,9054,175,91
0626,1997,23,24
0627,3121,71,16
0629,2207,40,31
0632,5455,143,39
0637,11846,173,70
0638,892,10,1
0642,5495,90,102
0654,1607,41,6
0664,2911,95,31
0668,2052,25,19
0677,1851,41,13
0678,1103,16,6
0687,3672,78,25
0703,3095,59,17
0715,4207,119,29
0716,2945,71,30
0717,1421,31,7
0718,3437,130,32
0736,4289,118,35
0737,2044,22,28
0743,1732,33,18
0744,613,13,4
0748,7034,93,44
0753,3185,56,30
0755,1089,42,23
0756,3384,40,45
0757,3641,51,69
0758,18093,252,147
0762,3827,91,42
0765,1046,25,13
0766,3095,46,25
0770,2482,49,26
0772,24104,453,355
0777,3992,69,38
0779,2424,31,25
0784,2725,41,19
0785,2574,42,36
0786,1480,31,24
0794,11530,205,85
0796,17674,259,171
0797,5453,90,50
0798,1666,20,20
0809,2790,52,37
0815,1258,17,10
0820,2253,34,22
0823,2427,32,27
0824,3222,55,22
0826,5439,84,36
0828,11044,243,129
0840,2373,46,16
0845,3370,52,34
0847,2304,48,13
0848,1583,42,28
0851,2353,33,19
0852,1912,33,15
0855,25124,413,277
0856,4381,139,86
0858,3484,59,63
0861,5198,85,50
0865,3366,75,53
0866,1669,19,17
0867,5628,80,77
0873,2020,23,26
0879,1770,36,17
0880,1647,35,33
0882,3644,99,70
0888,1556,32,12
0889,1514,30,13
0893,1637,25,15
0899,2856,89,52
0907,1823,28,19
0917,7649,244,126
0928,4096,142,96
0935,10772,342,198
0938,1511,50,23
0944,633,11,11
0946,2311,47,20
0957,6501,107,61
0965,906,27,9
0971,2417,78,24
0981,720,24,14
0983,13988,229,170
0984,5814,64,49
0986,1067,25,11
0988,6337,113,69
0994,1331,37,23
0995,6104,139,62
1507,5985,61,66
1509,4211,49,45
1525,4144,39,25
1581,4285,92,73
1586,3037,35,41
1598,2725,24,24
1621,6844,95,63
1640,4152,76,52
1641,2582,43,36
1652,3005,101,38
1655,3213,57,27
1658,1607,23,13
1659,2657,62,36
1667,1665,23,10
1669,2124,47,35
1674,8042,103,75
1676,2229,55,25
1680,1506,7,20
1681,1640,32,15
1684,2705,37,27
1685,1928,51,28
1690,2075,33,24
1695,571,18,9
1696,2084,25,18
1699,1789,31,25
1700,4683,41,30
1701,1005,17,22
1702,1241,27,11
1705,3938,63,35
1706,2656,79,52
1708,3299,33,27
1709,3628,46,41
1711,3181,65,36
1714,1498,45,18
1719,2693,49,30
1721,3908,111,78
1723,954,24,5
1724,2321,28,11
1728,2863,39,27
1729,1173,31,19
1730,1687,22,24
1731,2107,35,30
1734,3974,74,30
1735,3787,34,29
1740,2981,63,34
1742,4919,55,54
1771,4488,75,28
1773,1406,21,10
1774,3363,37,35
1783,14340,188,86
1842,2113,19,14
1859,4050,42,42
1876,3192,37,21
1883,8639,217,145
1884,2720,25,10
1891,1504,18,17
1892,4997,120,47
1894,5042,165,85
1895,2890,44,37
1896,2495,52,30
1900,8067,76,90
1901,4183,75,37
1903,2194,87,47
1904,6148,146,69
1911,4531,49,34
1916,6939,157,84
1924,4907,130,89
1926,5653,72,38
1930,9136,185,99
1931,6570,153,64
1940,3825,55,33
1942,5467,61,35
1945,3317,56,51
1948,9203,263,167
1949,2999,40,37
1950,2389,36,21
1952,3889,54,39
1954,3551,99,49
1955,3182,42,24
1959,7024,87,68
1960,6141,87,61
1961,6452,124,76
1963,8912,155,66
1966,3707,33,20
1969,3609,38,25
1970,3350,48,38
1978,5891,54,35
1979,2906,49,23