0014,26334,126,55
0034,32628,415,115
0037,3709,36,21
0047,2878,14,16
0050,2958,23,15
0059,4212,39,40
0060,325,3,1
0072,1484,13,7
0074,6401,50,42
0080,14205,135,82
0085,2659,22,6
0086,3644,33,9
0088,65,1,2
0090,7132,64,36
0093,542,3,2
0096,116,1,1
0098,3262,22,29
0106,6488,79,20
0109,4544,66,34
0114,14084,217,88
0118,7329,90,43
0119,3763,38,36
0141,11499,137,68
0147,3797,36,40
0148,3843,35,23
0150,13484,133,91
0153,23543,295,184
0158,3991,36,33
0160,9439,77,42
0163,6305,57,53
0164,12021,97,72
0166,7352,94,51
0168,3963,53,38
0171,6646,43,31
0173,5242,61,49
0175,2448,16,16
0177,5702,49,48
0180,4276,27,29
0183,4299,27,21
0184,4348,69,22
0189,4743,26,30
0193,16314,138,135
0197,3695,34,30
0200,22495,248,181
0202,22434,239,140
0203,13601,87,77
0209,3851,47,27
0213,2600,38,23
0214,4004,48,24
0216,4492,53,24
0221,1272,22,9
0222,8603,74,41
0225,3072,49,30
0226,3252,32,17
0228,20740,183,115
0230,3703,48,22
0232,4550,84,55
0233,4205,53,42
0243,7092,97,54
0244,1657,24,7
0246,2212,58,32
0252,2254,31,21
0262,3920,42,36
0263,4880,48,43
0267,7160,57,31
0268,26920,337,213
0269,4077,62,39
0273,4144,23,21
0274,3375,43,37
0275,5754,74,72
0277,187,1,0
0279,2116,7,12
0281,6987,100,78
0285,3216,33,31
0289,5364,53,55
0293,1939,30,9
0294,3553,25,22
0296,6240,92,66
0297,5750,53,48
0299,5562,94,50
0301,5887,65,39
0302,4789,92,41
0303,5028,75,28
0307,24255,284,145
0308,3955,36,28
0310,6028,87,79
0312,1918,27,14
0313,5588,63,39
0317,1562,21,6
0321,7684,81,53
0327,4043,43,26
0331,2593,41,12
0335,2384,34,9
0339,1154,10,5
0340,4125,47,21
0342,7001,85,50
0344,56099,822,270
0345,13517,154,84
0351,2685,24,9
0352,3135,38,17
0353,5332,93,58
0355,8871,105,78
0356,8752,153,32
0358,5635,47,29
0361,16091,161,87
0362,12954,157,107
0363,146316,2315,909
0370,1532,9,3
0373,3898,43,40
0375,6561,57,43
0376,1662,16,7
0377,3226,20,18
0383,5183,38,26
0384,5165,61,40
0385,7158,105,26
0388,2902,32,16
0392,23660,260,166
0394,23699,229,125
0396,6493,71,37
0397,3883,34,65
0398,9000,74,40
0399,3116,26,17
0400,8259,85,44
0402,12218,118,99
0405,12582,104,55
0406,6484,72,60
0415,1916,16,7
0416,4188,39,18
0417,1679,20,31
0420,7851,65,29
0431,1596,17,8
0432,2041,13,6
0437,2338,19,5
0439,12575,221,87
0441,6811,64,67
0448,1060,6,4
0450,2100,13,12
0451,4746,40,16
0453,10494,122,95
0457,3089,22,23
0473,2330,30,44
0479,24956,373,186
0482,4485,51,24
0484,18425,213,144
0489,8882,117,50
0498,3206,29,13
0501,2551,34,11
0502,12139,209,153
0503,15322,125,82
0505,21928,295,202
0512,6713,55,45
0513,12490,314,165
0518,84452,2026,602
0523,4541,22,30
0530,5769,84,47
0531,6058,46,37
0532,3497,34,16
0534,2952,24,21
0537,13234,130,69
0542,5643,53,76
0546,18624,159,81
0547,3741,39,28
0553,3563,35,22
0556,5511,76,37
0569,5427,50,25
0575,6845,74,25
0579,3330,23,32
0589,1523,40,12
0590,5628,49,49
0597,8699,130,99
0599,121781,2237,1015
0603,8255,153,77
0606,13852,269,123
0610,5687,37,47
0613,4822,54,23
0614,1846,27,19
0622,12986,204,104
0626,3230,28,24
0627,5425,82,18
0629,3300,45,34
0632,8489,154,44
0637,18483,205,72
0638,1388,11,1
0642,8071,94,114
0654,3186,49,9
0664,5561,124,33
0668,3089,25,19
0677,3671,54,13
0678,1865,20,6
0687,6832,96,32
0703,4992,69,18
0715,7341,158,32
0716,4987,79,32
0717,2760,39,9
0718,5775,155,35
0736,7095,128,43
0737,3882,36,32
0743,2836,37,18
0744,1004,15,4
0748,10707,111,49
0753,4727,60,33
0755,1765,46,23
0756,5746,50,53
0757,5571,57,71
0758,29258,294,173
0762,5878,100,50
0765,1435,26,13
0766,4474,49,26
0770,3360,53,32
0772,35724,504,375
0777,6432,78,40
0779,3548,36,26
0784,3926,45,20
0785,3977,47,41
0786,2222,34,24
0794,16163,215,87
0796,26599,290,186
0797,7938,96,51
0798,2391,21,20
0809,4162,55,41
0815,1942,17,11
0820,3205,35,24
0823,3241,33,27
0824,5120,61,24
0826,8842,107,42
0828,15578,259,134
0840,3406,53,18
0845,4983,55,43
0847,3542,50,15
0848,2327,43,29
0851,3526,42,21
0852,2698,35,18
0855,38528,466,292
0856,6597,146,90
0858,5011,65,68
0861,7126,92,52
0865,5161,82,53
0866,2583,27,17
0867,8313,86,78
0873,2889,26,26
0879,3084,45,17
0880,2452,40,35
0882,6869,123,84
0888,2812,39,15
0889,2554,37,14
0893,2599,28,19
0899,5260,115,61
0907,3269,32,31
0917,14897,289,147
0928,7565,163,103
0935,19485,402,233
0938,3084,65,40
0944,985,13,13
0946,3614,52,25
0957,10779,132,74
0965,1602,32,9
0971,4424,84,24
0981,1184,27,16
0983,22208,262,188
0984,9001,77,55
0986,2141,27,12
0988,9981,137,86
0994,2638,43,29
0995,11188,173,71
1507,9655,70,75
1509,6353,55,55
1525,6212,44,26
1581,6891,104,77
1586,4541,41,46
1598,3861,27,24
1621,11099,107,70
1640,6409,86,58
1641,4373,52,40
1652,4725,108,41
1655,4541,62,31
1658,2327,25,13
1659,3781,68,43
1667,2460,26,10
1669,3451,53,38
1674,12391,121,82
1676,4096,72,31
1680,2237,9,21
1681,2504,36,20
1684,4710,43,33
1685,2761,51,29
1690,3130,42,27
1695,895,23,10
1696,3554,30,23
1699,2931,36,26
1700,6301,50,33
1701,1751,19,23
1702,2057,29,11
1705,6699,77,43
1706,3900,83,57
1708,5363,37,30
1709,5545,61,52
1711,5529,77,43
1714,2579,55,22
1719,4201,57,31
1721,5685,118,81
1723,1490,25,5
1724,3216,30,13
1728,4003,43,29
1729,2177,38,21
1730,2762,29,26
1731,3280,43,32
1734,6373,87,36
1735,5952,40,35
1740,5924,81,49
1742,8401,64,64
1771,6458,85,31
1773,2149,21,10
1774,4698,39,37
1783,21419,216,93
1842,3274,19,14
1859,6234,50,50
1876,5159,46,27
1883,15432,259,154
1884,3987,27,11
1891,3040,32,18
1892,7747,135,48
1894,8186,175,89
1895,3869,51,39
1896,4267,64,32
1900,12643,101,95
1901,6813,90,39
1903,4178,104,55
1904,9838,160,72
1911,6494,56,36
1916,10559,188,99
1924,7408,141,93
1926,8844,85,41
1930,13757,210,102
1931,10105,163,66
1940,6860,70,37
1942,9005,68,43
1945,5348,64,57
1948,13366,276,177
1949,5158,53,39
1950,3628,42,24
1952,5933,66,41
1954,6360,111,65
1955,4905,54,29
1959,11297,110,73
1960,9466,102,65
1961,10923,147,78
1963,14222,171,74
1966,6181,46,30
1969,6317,42,32
1970,6823,80,48
1978,9508,62,42
1979,4328,55,27