0003,281,9,1
0010,658,11,3
0014,6157,51,14
0024,190,2,0
0034,10195,212,52
0037,1173,14,8
0047,630,4,2
0050,779,17,9
0059,576,2,0
0060,112,0,0
0072,207,5,2
0074,864,17,24
0080,2766,55,18
0085,488,10,1
0086,482,15,1
0088,7,1,0
0090,978,16,13
0093,84,1,1
0096,21,0,0
0098,566,6,12
0106,1445,30,9
0109,1014,27,8
0114,3471,64,34
0118,1863,38,19
0119,906,14,9
0141,3952,53,32
0147,1167,21,15
0148,1025,18,11
0150,4069,66,59
0153,7048,126,91
0158,1459,24,23
0160,2064,37,18
0163,1928,17,21
0164,3803,54,39
0166,1716,68,41
0168,1288,23,13
0171,1763,26,21
0173,1703,34,33
0175,519,10,8
0177,1714,27,25
0180,937,11,5
0183,1440,16,11
0184,1595,40,11
0189,1752,11,17
0193,3577,66,68
0197,992,17,13
0200,5436,145,78
0202,6511,129,81
0203,3764,32,23
0209,990,25,11
0213,679,25,7
0214,1094,29,13
0216,1282,35,12
0221,370,14,8
0222,1998,45,23
0225,774,32,18
0226,1070,22,8
0228,5912,101,55
0230,918,32,12
0232,1131,59,28
0233,1258,34,28
0243,1888,59,27
0244,366,19,5
0246,575,55,29
0252,730,24,13
0262,1030,26,24
0263,1176,28,22
0267,2155,37,7
0268,7174,211,130
0269,899,43,25
0273,1209,14,6
0274,1061,22,19
0275,1630,43,29
0277,55,1,0
0279,599,5,6
0281,1904,66,39
0285,808,22,12
0289,1461,30,29
0293,591,17,7
0294,903,13,8
0296,1860,62,32
0297,1706,28,30
0299,1315,64,23
0301,1425,43,20
0302,1066,69,26
0303,1481,50,17
0307,7349,151,72
0308,1075,26,20
0310,1899,41,42
0312,592,16,11
0313,2228,38,25
0317,407,7,1
0321,2111,44,48
0327,1181,20,17
0331,712,25,9
0335,696,16,7
0339,304,5,5
0340,1223,20,9
0342,2152,50,36
0344,17484,483,183
0345,4490,85,41
0351,783,12,5
0352,857,15,8
0353,1483,56,46
0355,2682,55,36
0356,2419,75,18
0358,1418,19,21
0361,4054,88,47
0362,3880,93,78
0363,50266,1322,489
0370,317,5,2
0373,1180,27,28
0375,1654,25,17
0376,465,8,4
0377,750,11,8
0383,1304,18,13
0384,1780,32,24
0385,1644,61,8
0388,953,24,5
0392,6306,146,111
0394,6857,125,74
0396,1681,43,23
0397,980,21,49
0398,2199,37,13
0399,778,15,10
0400,1588,26,8
0402,3292,52,52
0405,2915,54,20
0406,2129,41,28
0415,505,7,4
0416,1140,23,7
0417,508,12,9
0420,1904,25,10
0431,516,13,3
0432,438,3,2
0437,740,8,1
0439,2887,105,50
0441,1738,27,23
0448,238,6,2
0450,656,8,6
0451,1202,27,6
0453,2995,66,64
0457,1158,12,16
0473,644,15,19
0479,7910,222,117
0482,1240,16,15
0484,5851,124,66
0489,2671,73,34
0498,827,7,9
0501,731,23,5
0502,3676,102,98
0503,4872,72,53
0505,6754,120,108
0512,1989,23,26
0513,3996,117,106
0518,27874,888,403
0523,1099,2,8
0530,1485,35,15
0531,1703,15,20
0532,915,20,6
0534,822,11,2
0537,3932,68,33
0542,1808,26,38
0546,5447,90,41
0547,1187,30,14
0553,977,20,8
0556,1862,47,20
0569,1347,22,16
0575,1884,46,10
0579,1097,17,17
0589,507,32,12
0590,1603,13,25
0597,2541,62,57
0599,41279,1241,659
0603,2615,86,64
0606,4921,150,49
0610,1533,12,21
0613,1612,33,17
0614,518,10,3
0622,4506,104,59
0626,947,13,15
0627,1441,46,10
0629,1005,21,19
0632,2438,79,26
0637,5962,97,32
0638,369,6,1
0642,2496,40,56
0654,485,9,3
0664,874,33,15
0668,683,24,15
0677,834,22,11
0678,304,5,2
0687,1008,31,15
0703,756,10,5
0715,1807,47,9
0716,1070,51,22
0717,443,10,2
0718,819,23,7
0736,1978,75,28
0737,525,9,3
0743,717,23,14
0744,260,12,4
0748,3531,68,32
0753,1325,41,17
0755,474,38,21
0756,1495,29,35
0757,1382,35,43
0758,8482,216,120
0762,1505,68,35
0765,223,11,2
0766,1481,39,22
0770,1092,40,19
0772,9369,284,163
0777,2037,61,31
0779,996,22,19
0784,1262,30,18
0785,1133,37,24
0786,725,28,23
0788,698,25,13
0794,4410,152,54
0796,7071,182,123
0797,2165,68,41
0798,807,18,17
0809,1265,39,30
0815,519,14,7
0820,906,24,14
0823,977,21,20
0824,1212,32,15
0826,2683,64,32
0828,4299,201,106
0840,1106,25,12
0845,1407,42,27
0847,876,37,10
0848,642,35,22
0851,1002,22,15
0852,826,27,14
0855,10692,337,235
0856,1647,121,70
0858,1597,30,45
0861,2157,51,28
0865,1461,51,38
0866,736,9,10
0867,2600,61,61
0873,834,12,21
0879,882,32,13
0880,686,25,14
0882,1260,60,28
0888,611,19,11
0889,489,24,10
0893,619,12,5
0899,1034,59,25
0907,882,23,16
0917,2863,148,66
0928,1318,90,45
0935,4664,226,149
0938,652,26,17
0944,335,10,9
0946,983,38,12
0957,2208,68,29
0965,389,22,5
0971,893,55,16
0981,239,13,5
0983,4979,170,105
0984,2628,48,26
0986,384,18,8
0988,3145,91,38
0994,600,26,12
0995,2925,102,46
1507,2377,51,46
1509,1449,29,25
1525,1891,27,7
1581,2200,50,34
1586,1276,25,28
1598,836,13,12
1621,3333,68,53
1640,1597,61,42
1641,851,30,16
1652,1245,84,34
1655,1366,37,17
1658,772,20,13
1659,1094,45,29
1667,801,19,6
1669,693,29,13
1674,3840,65,56
1676,785,19,16
1680,529,3,1
1681,671,13,10
1684,1119,22,17
1685,900,45,22
1690,679,18,7
1695,123,3,1
1696,911,17,8
1699,458,11,16
1700,2025,23,9
1701,351,10,6
1702,533,21,11
1705,1941,49,19
1706,1191,68,42
1708,1151,19,11
1709,1506,31,24
1711,983,46,20
1714,776,24,10
1719,1168,34,21
1721,1547,102,68
1723,444,21,5
1724,1159,23,6
1728,1404,27,18
1729,547,28,16
1730,585,13,13
1731,761,13,3
1734,1603,63,21
1735,1616,28,15
1740,1361,51,25
1742,2248,36,34
1771,1819,51,21
1773,505,12,8
1774,1564,24,19
1783,6555,120,66
1842,996,13,8
1859,1747,30,35
1876,1393,22,12
1883,3121,149,78
1884,1127,16,3
1891,456,3,0
1892,2226,52,31
1894,1894,150,67
1895,798,15,11
1896,840,39,24
1900,2855,30,39
1901,1842,35,16
1903,1037,62,32
1904,2845,74,40
1911,1442,34,9
1916,3383,83,55
1924,2184,80,57
1926,2830,41,22
1930,4257,105,58
1931,2776,82,55
1940,1119,31,13
1942,2381,40,22
1945,1590,45,36
1948,3623,229,146
1949,1016,19,22
1950,758,14,3
1952,1266,22,16
1954,1282,63,30
1955,1261,30,12
1959,3552,60,59
1960,2563,73,42
1961,2867,65,55
1963,3643,92,36
1966,1222,15,8
1969,1130,21,10
1970,983,18,10
1978,2249,25,19