0014,29459,137,60
0034,36966,431,121
0037,4325,41,23
0047,3264,19,18
0050,3463,27,17
0059,4950,46,41
0060,355,3,1
0072,1788,13,8
0074,7401,58,44
0080,16767,145,95
0085,3275,25,7
0086,4390,38,11
0088,67,1,2
0090,8426,72,41
0093,578,3,2
0096,125,1,1
0098,3663,26,31
0106,7500,82,25
0109,5022,67,35
0114,15437,226,91
0118,8561,95,47
0119,4335,40,37
0141,12730,145,71
0147,4156,38,41
0148,4348,37,24
0150,14843,139,96
0153,26436,305,198
0158,4372,37,33
0160,10403,82,48
0163,6910,57,54
0164,13297,101,73
0166,8750,97,55
0168,4298,55,38
0171,7670,44,32
0173,5723,65,52
0175,2732,16,19
0177,6453,51,51
0180,4438,29,29
0183,4581,27,21
0184,4511,70,24
0189,5212,29,31
0193,18651,148,144
0197,4047,36,33
0200,25928,265,191
0202,25416,254,153
0203,14650,91,79
0209,4294,49,28
0213,2987,43,24
0214,4420,54,26
0216,5090,54,24
0221,1437,25,9
0222,9337,79,49
0225,3425,50,31
0226,3654,35,17
0228,22561,187,117
0230,4180,50,23
0232,5101,88,55
0233,4778,55,44
0243,7910,101,62
0244,1791,24,7
0246,2444,60,32
0252,2555,31,21
0262,4627,45,42
0263,5420,49,45
0267,8160,58,34
0268,29942,350,232
0269,4382,63,40
0273,4642,26,21
0274,3880,44,38
0275,6501,77,84
0277,214,1,0
0279,2259,7,12
0281,7684,104,80
0285,3838,33,31
0289,5865,54,71
0293,2180,32,11
0294,3991,27,23
0296,6961,92,68
0297,6266,57,49
0299,6237,102,50
0301,7120,71,45
0302,5278,94,42
0303,5910,78,32
0307,28066,291,150
0308,4368,36,29
0310,6901,89,81
0312,2177,27,14
0313,6188,64,41
0317,1754,21,6
0321,8451,83,53
0327,4704,44,32
0331,2880,42,12
0335,2629,34,10
0339,1230,11,5
0340,4516,50,26
0342,7992,87,54
0344,63305,837,293
0345,14476,156,88
0351,3005,25,9
0352,3530,39,19
0353,6017,95,59
0355,10231,108,81
0356,10021,156,36
0358,6318,47,30
0361,18524,173,91
0362,14434,160,116
0363,161608,2389,951
0370,1714,9,4
0373,4571,44,41
0375,7340,63,45
0376,2008,16,7
0377,3671,20,20
0383,5805,41,33
0384,5819,62,42
0385,8097,107,27
0388,3221,35,17
0392,27086,274,186
0394,26738,244,134
0396,7196,80,46
0397,4410,36,67
0398,10225,78,47
0399,3629,26,18
0400,9626,96,50
0402,14125,128,106
0405,13970,109,57
0406,7676,75,60
0415,2154,16,13
0416,4828,39,19
0417,1921,20,31
0420,8675,66,29
0431,1760,18,8
0432,2284,13,7
0437,2652,20,6
0439,14073,223,92
0441,7686,69,73
0448,1279,7,4
0450,2294,14,14
0451,5248,44,19
0453,11782,130,98
0457,3488,24,23
0473,2648,33,46
0479,27857,391,190
0482,4825,53,27
0484,20308,216,146
0489,9837,118,50
0498,3614,29,13
0501,2946,34,11
0502,13336,218,158
0503,17114,127,85
0505,24162,307,217
0512,7515,56,46
0513,13572,322,165
0518,94108,2135,636
0523,4919,23,30
0530,6723,89,48
0531,6677,49,41
0532,3937,36,16
0534,3344,25,23
0537,14558,132,71
0542,6370,57,78
0546,20727,163,83
0547,4150,40,28
0553,3989,35,23
0556,6078,78,45
0569,6019,51,26
0575,7603,75,31
0579,3677,24,32
0589,1683,40,12
0590,6243,50,52
0597,9687,134,107
0599,134200,2324,1061
0603,9262,154,78
0606,15438,275,125
0610,6201,40,51
0613,5353,54,23
0614,2144,28,20
0622,14631,214,108
0626,3704,29,24
0627,6101,90,19
0629,3741,48,36
0632,9561,154,46
0637,20568,213,77
0638,1562,11,1
0642,8918,95,118
0654,3740,58,11
0664,6600,142,42
0668,3430,25,19
0677,4250,67,18
0678,2151,21,8
0687,8079,108,41
0703,5650,76,23
0715,8582,172,41
0716,5578,82,35
0717,3226,43,16
0718,6790,175,41
0736,8107,130,54
0737,4634,40,34
0743,3174,36,19
0744,1146,16,4
0748,12182,119,50
0753,5388,63,35
0755,1942,46,23
0756,6203,50,53
0757,6178,60,72
0758,32793,310,181
0762,6607,100,50
0765,1605,26,13
0766,4879,53,31
0770,3658,58,33
0772,40370,536,402
0777,7257,80,40
0779,4024,38,30
0784,4526,48,20
0785,4341,48,43
0786,2348,35,27
0794,17785,219,92
0796,29740,297,190
0797,8978,97,56
0798,2591,21,20
0809,4715,57,46
0815,2121,17,12
0820,3611,38,27
0823,3658,33,27
0824,5736,64,26
0826,10142,114,43
0828,16996,265,140
0840,3941,53,18
0845,5604,57,44
0847,4001,51,21
0848,2691,45,30
0851,3904,44,22
0852,2915,36,18
0855,43472,486,299
0856,7370,150,92
0858,5635,69,71
0861,7929,92,52
0865,5810,85,55
0866,2950,27,17
0867,9245,90,82
0873,3409,27,26
0879,3428,48,18
0880,2686,41,36
0882,7732,129,90
0888,3123,41,16
0889,2911,42,15
0893,2899,31,19
0899,5903,120,67
0907,3538,32,31
0917,16959,304,156
0928,8606,174,105
0935,22073,429,249
0938,3556,68,43
0944,1069,13,13
0946,3929,54,28
0957,12060,137,78
0965,1876,36,11
0971,4994,87,27
0981,1415,29,18
0983,25145,279,199
0984,9950,78,58
0986,2397,29,12
0988,10832,145,91
0994,3026,46,32
0995,12945,182,78
1507,10506,73,78
1509,6868,58,57
1525,6778,45,27
1581,7757,110,86
1586,4941,44,47
1598,4403,29,24
1621,12463,110,71
1640,7135,90,59
1641,4988,52,43
1652,5348,108,44
1655,5109,62,31
1658,2633,25,13
1659,4041,69,45
1667,2715,26,12
1669,3832,55,40
1674,14213,129,84
1676,4697,78,39
1680,2703,10,22
1681,2870,37,21
1684,5163,44,33
1685,2948,51,29
1690,3578,43,28
1695,1064,29,11
1696,4001,37,24
1699,3429,39,26
1700,6832,53,35
1701,2046,21,24
1702,2162,29,11
1705,7440,79,53
1706,4240,84,58
1708,6068,39,30
1709,6271,62,54
1711,6236,80,44
1714,2938,64,25
1719,4647,58,31
1721,6189,121,82
1723,1720,26,5
1724,3566,31,15
1728,4391,47,33
1729,2468,39,21
1730,3195,30,26
1731,3883,45,32
1734,7187,89,38
1735,6503,41,38
1740,6245,81,51
1742,9190,65,66
1771,7121,90,33
1773,2474,23,10
1774,5024,39,37
1783,23615,226,98
1842,3677,19,14
1859,6876,54,58
1876,5763,49,27
1883,17391,275,167
1884,4510,27,11
1891,3483,34,25
1892,8680,139,50
1894,9187,177,93
1895,4429,55,39
1896,4585,66,34
1900,14413,105,98
1901,7415,92,39
1903,4792,107,59
1904,11082,163,76
1911,7503,58,36
1916,11786,196,101
1924,8488,143,93
1926,9974,85,43
1930,15386,217,106
1931,11097,171,68
1940,8056,72,38
1942,10254,75,44
1945,5870,70,66
1948,14784,279,179
1949,6105,56,43
1950,4109,44,25
1952,6689,71,43
1954,7087,115,70
1955,5524,54,31
1959,12399,110,76
1960,10576,104,67
1961,12129,150,82
1963,16164,172,75
1966,7098,49,35
1969,7347,45,34
1970,7710,85,56
1978,10312,64,44
1979,4822,56,29