0014,6950,58,20
0034,11753,223,57
0037,1336,15,9
0047,802,5,6
0050,949,18,9
0059,745,2,2
0060,128,0,0
0072,256,5,2
0074,1083,19,24
0080,3254,58,24
0085,549,10,1
0086,627,17,1
0088,7,1,0
0090,1222,18,15
0093,142,1,1
0096,26,0,0
0098,654,6,12
0106,1671,33,10
0109,1312,31,12
0114,4077,70,43
0118,2423,46,26
0119,1126,18,15
0141,4532,58,39
0147,1445,25,19
0148,1230,20,16
0150,4660,70,69
0153,8263,153,117
0158,1793,27,28
0160,2941,41,26
0163,2330,22,29
0164,4535,56,47
0166,1964,68,41
0168,1638,29,20
0171,2020,27,21
0173,2021,37,39
0175,710,13,13
0177,2029,28,28
0180,1211,13,11
0183,1698,17,12
0184,1755,40,11
0189,2009,11,20
0193,4113,67,74
0197,1158,18,16
0200,6374,154,111
0202,7409,139,90
0203,4556,34,32
0209,1130,28,16
0213,778,25,10
0214,1283,30,14
0216,1462,36,14
0221,432,15,8
0222,2385,50,24
0225,891,33,20
0226,1213,23,8
0228,7034,106,62
0230,1081,33,12
0232,1365,62,31
0233,1513,35,29
0243,2365,62,31
0244,453,19,5
0246,664,55,29
0252,812,24,14
0262,1186,27,23
0263,1338,28,23
0267,2688,40,10
0268,8145,213,150
0269,1109,44,28
0273,1477,16,7
0274,1206,26,21
0275,1952,48,31
0277,67,1,0
0279,649,5,8
0281,2127,68,40
0285,962,24,12
0289,1655,32,31
0293,656,18,8
0294,1065,13,9
0296,2139,66,41
0297,1919,29,33
0299,1567,66,29
0301,1632,44,22
0302,1229,71,26
0303,1722,51,18
0307,8218,169,88
0308,1205,26,22
0310,2099,42,55
0312,666,16,11
0313,2609,41,32
0317,484,8,2
0321,2318,48,50
0327,1338,21,19
0331,765,25,9
0335,760,18,7
0339,355,6,5
0340,1406,24,13
0342,2411,54,40
0344,18901,501,192
0345,5024,93,58
0351,910,14,6
0352,976,17,9
0353,1616,60,46
0355,2969,57,41
0356,2704,75,19
0358,1590,21,22
0361,4568,92,52
0362,4180,96,84
0363,53931,1376,546
0370,358,5,2
0373,1308,28,29
0375,1891,27,17
0376,533,9,4
0377,875,11,8
0383,1467,19,14
0384,1911,35,25
0385,1930,65,10
0388,1137,25,9
0392,7030,153,126
0394,7591,133,84
0396,1894,44,23
0397,1085,20,51
0398,2529,41,17
0399,902,17,11
0400,1979,29,13
0402,3740,56,67
0405,3595,56,30
0406,2422,43,41
0415,593,9,5
0416,1333,23,7
0417,570,14,23
0420,2420,28,13
0431,571,14,4
0432,541,3,2
0437,790,8,2
0439,3464,114,52
0441,2099,32,25
0448,287,6,2
0450,755,8,7
0451,1328,28,9
0453,3401,71,68
0457,1258,14,17
0473,724,15,34
0479,8731,231,135
0482,1414,22,16
0484,6493,133,76
0489,2931,75,36
0498,1061,9,9
0501,781,26,8
0502,4045,113,102
0503,5283,74,54
0505,7439,131,116
0512,2263,25,26
0513,4429,134,118
0518,30220,941,438
0523,1310,5,10
0530,1736,39,17
0531,1912,16,21
0532,1177,23,8
0534,964,13,4
0537,4599,80,37
0542,2049,31,47
0546,5930,95,45
0547,1303,31,18
0553,1162,20,11
0556,2022,52,25
0569,1523,24,17
0575,2188,53,13
0579,1185,18,24
0589,561,32,12
0590,1772,14,27
0597,2784,63,58
0599,43798,1294,696
0603,2848,91,67
0606,5217,157,56
0610,1796,13,24
0613,1777,33,17
0614,572,11,8
0622,4811,110,62
0626,1037,14,17
0627,1613,51,11
0629,1135,23,24
0632,2726,86,28
0637,6513,102,41
0638,409,6,1
0642,2781,43,63
0654,602,17,3
0664,1060,35,15
0668,834,24,15
0677,929,23,11
0678,355,7,3
0687,1222,36,16
0703,997,12,5
0715,2056,58,18
0716,1195,51,22
0717,548,10,2
0718,1081,29,8
0736,2185,80,31
0737,732,11,4
0743,810,24,15
0744,274,12,4
0748,3734,72,33
0753,1549,44,24
0755,577,39,21
0756,1836,32,37
0757,1707,43,53
0758,9260,219,132
0762,1722,72,36
0765,296,12,2
0766,1636,40,22
0770,1214,40,19
0772,10524,298,193
0777,2240,62,33
0779,1173,24,19
0784,1380,30,18
0785,1278,37,24
0786,825,29,23
0794,4934,156,55
0796,7985,192,132
0797,2442,69,43
0798,946,18,20
0809,1483,39,30
0815,640,14,7
0820,1034,25,14
0823,1103,24,20
0824,1633,44,21
0826,2966,69,32
0828,4791,205,108
0840,1242,28,12
0845,1611,42,28
0847,1082,38,11
0848,710,38,23
0851,1136,24,15
0852,947,27,14
0855,11933,348,253
0856,1859,121,74
0858,1833,32,45
0861,2439,53,32
0865,1912,63,46
0866,815,9,10
0867,2869,62,71
0873,938,12,21
0879,975,32,14
0880,754,26,14
0882,1653,67,38
0888,712,22,12
0889,585,24,10
0893,813,13,6
0899,1245,63,32
0907,1027,24,16
0917,3435,160,89
0928,1717,97,52
0935,5174,236,168
0938,737,28,22
0944,405,11,10
0946,1198,38,15
0957,2543,71,29
0965,487,24,5
0971,1017,55,18
0981,309,16,9
0983,5685,173,112
0984,3010,50,28
0986,467,19,10
0988,3659,97,52
0994,657,28,13
0995,3297,110,49
1507,2740,52,52
1509,1732,31,27
1525,2106,28,9
1581,2451,52,38
1586,1546,27,31
1598,1020,15,13
1621,3753,74,55
1640,1850,63,43
1641,1070,31,17
1652,1423,87,34
1655,1538,38,17
1658,846,20,13
1659,1232,47,30
1667,908,20,6
1669,807,31,16
1674,4148,66,58
1676,905,25,18
1680,681,3,5
1681,796,16,11
1684,1344,25,19
1685,1039,47,22
1690,862,21,10
1695,143,3,1
1696,1058,17,8
1699,565,11,17
1700,2544,27,16
1701,401,11,6
1702,627,22,11
1705,2213,53,20
1706,1344,69,43
1708,1437,21,14
1709,1655,32,26
1711,1287,46,23
1714,893,28,15
1719,1302,35,23
1721,1783,102,68
1723,471,21,5
1724,1295,25,6
1728,1577,27,19
1729,634,29,18
1730,739,13,16
1731,1005,14,4
1734,1873,66,25
1735,1971,28,16
1740,1574,52,28
1742,2773,41,40
1771,2080,56,21
1773,585,13,8
1774,1921,27,23
1783,7385,131,71
1842,1109,16,11
1859,2127,30,35
1876,1600,23,12
1883,3731,161,95
1884,1292,18,3
1891,628,4,10
1892,2549,62,35
1894,2094,151,70
1895,1070,17,15
1896,989,40,25
1900,3417,31,45
1901,2107,41,20
1903,1214,64,35
1904,3198,79,44
1911,1920,36,11
1916,3768,90,62
1924,2375,88,58
1926,3095,43,26
1930,4592,111,65
1931,3205,95,56
1940,1283,34,13
1942,2623,45,25
1945,1754,45,37
1948,4136,234,151
1949,1229,20,23
1950,952,19,6
1952,1592,27,23
1954,1519,69,35
1955,1480,31,12
1959,3999,64,61
1960,2877,75,42
1961,3198,72,55
1963,4075,98,41
1966,1540,17,17
1969,1376,24,12
1970,1253,21,17
1978,2604,29,21
1979,1440,29,10