0014,20219,104,46
0034,23170,366,99
0037,2704,25,21
0047,2147,13,11
0050,2029,22,14
0059,2587,29,39
0060,277,3,1
0072,959,13,6
0074,3359,40,40
0080,8672,109,74
0085,1683,18,6
0086,2089,30,8
0088,48,1,2
0090,4060,46,34
0093,296,3,2
0096,80,0,0
0098,2006,20,29
0106,4400,69,15
0109,3135,57,31
0114,9729,171,79
0118,5152,77,41
0119,2596,34,27
0141,8554,113,59
0147,2810,31,39
0148,2590,26,20
0150,9876,112,89
0153,16779,256,175
0158,2888,34,32
0160,6268,61,37
0163,4738,47,51
0164,8379,84,68
0166,4236,81,44
0168,3023,50,38
0171,3862,39,29
0173,3853,56,45
0175,1636,15,16
0177,3944,43,41
0180,2495,18,21
0183,3496,27,19
0184,2672,55,19
0189,3439,21,27
0193,9720,109,114
0197,2686,32,22
0200,14879,211,153
0202,15236,214,127
0203,8397,68,64
0209,2750,41,22
0213,1798,33,19
0214,2768,40,20
0216,3120,49,22
0221,876,19,9
0222,5533,65,31
0225,2160,41,27
0226,2354,29,15
0228,13269,149,91
0230,2283,39,14
0232,3033,78,52
0233,2675,49,34
0243,4837,88,48
0244,1021,22,7
0246,1380,57,32
0252,1616,28,19
0262,2578,40,29
0263,3888,43,42
0267,5009,53,29
0268,18779,284,197
0269,2414,50,30
0273,2748,21,18
0274,2393,37,31
0275,3980,64,59
0277,124,1,0
0279,1173,5,12
0281,4989,89,73
0285,2153,31,30
0289,3635,43,42
0293,1384,22,9
0294,2364,19,17
0296,4625,84,60
0297,4150,42,42
0299,3731,84,48
0301,3655,56,29
0302,2629,81,32
0303,3480,65,25
0307,16559,273,139
0308,2518,35,28
0310,4297,76,78
0312,1317,22,12
0313,4429,62,39
0317,1079,20,6
0321,4833,76,51
0327,2735,42,25
0331,1805,39,12
0335,1601,29,8
0339,674,7,5
0340,2611,42,21
0342,4617,81,47
0344,40805,765,255
0345,8667,136,75
0351,1604,24,8
0352,2134,34,17
0353,3731,89,55
0355,5962,98,75
0356,6155,142,30
0358,3868,41,26
0361,11322,144,86
0362,9175,141,94
0363,112016,2097,839
0370,1044,9,3
0373,2884,39,38
0375,4777,46,42
0376,1227,14,6
0377,2146,18,17
0383,3646,29,24
0384,3877,56,36
0385,5591,98,23
0388,2088,31,11
0392,15932,229,153
0394,16731,196,111
0396,4460,63,32
0397,2446,26,60
0398,6558,63,38
0399,2166,24,15
0400,5845,68,40
0402,8341,97,87
0405,9364,96,55
0406,4619,63,54
0415,1360,14,6
0416,3035,36,17
0417,1228,17,28
0420,5832,59,26
0431,1082,17,8
0432,1436,11,6
0437,1572,18,5
0439,9443,199,86
0441,5108,57,60
0448,712,6,4
0450,1505,12,7
0451,3066,34,15
0453,7964,106,90
0457,2320,20,23
0473,1677,25,43
0479,17804,326,177
0482,2941,46,22
0484,12566,192,117
0489,6315,107,48
0498,2372,25,13
0501,1842,31,10
0502,8980,189,145
0503,11567,107,75
0505,15634,270,181
0512,4672,48,43
0513,8621,281,160
0518,62244,1761,566
0523,2934,18,25
0530,4057,72,44
0531,3970,41,32
0532,2794,30,15
0534,2093,22,18
0537,9452,115,60
0542,4079,50,71
0546,13314,142,74
0547,2628,37,23
0553,2461,29,17
0556,3926,71,34
0569,3640,46,22
0575,5033,69,24
0579,2285,23,31
0589,1145,38,12
0590,3899,47,46
0597,6512,118,90
0599,93575,2046,977
0603,5639,137,76
0606,10324,243,115
0610,3628,33,41
0613,3491,51,23
0614,1307,24,19
0622,9723,181,94
0626,2175,23,24
0627,3355,74,16
0629,2415,42,31
0632,5895,147,40
0637,12871,181,70
0638,952,10,1
0642,5884,91,102
0654,1742,42,9
0664,3115,100,31
0668,2234,25,19
0677,2002,41,13
0678,1173,16,6
0687,4036,78,25
0703,3243,59,17
0715,4496,122,29
0716,3267,72,30
0717,1610,32,7
0718,3693,131,32
0736,4760,120,35
0737,2256,23,28
0743,1967,34,18
0744,664,13,4
0748,7862,98,46
0753,3457,57,31
0755,1215,42,23
0756,3658,41,45
0757,3900,53,69
0758,20457,264,147
0762,4202,92,42
0765,1113,25,13
0766,3324,47,25
0770,2625,49,26
0772,26371,459,357
0777,4320,71,38
0779,2598,31,25
0784,2950,41,19
0785,2775,42,36
0786,1605,31,24
0794,12443,208,85
0796,19487,266,172
0797,5829,91,50
0798,1789,20,20
0809,2952,52,37
0815,1338,17,10
0820,2390,34,22
0823,2553,32,27
0824,3482,55,22
0826,6029,87,37
0828,11782,246,129
0840,2536,46,16
0845,3663,53,34
0847,2484,48,13
0848,1713,43,28
0851,2574,35,19
0852,2032,33,15
0855,27765,423,277
0856,4719,139,86
0858,3695,59,63
0861,5489,86,50
0865,3658,76,53
0866,1843,23,17
0867,5978,81,77
0873,2138,23,26
0879,1935,37,17
0880,1799,38,33
0882,3812,102,70
0888,1711,35,12
0889,1626,30,13
0893,1726,25,15
0899,3045,91,52
0907,1955,29,20
0917,8346,247,126
0928,4396,143,96
0935,12184,353,202
0938,1703,54,23
0944,686,11,11
0946,2475,47,20
0957,7073,113,63
0965,1003,28,9
0971,2646,78,24
0981,766,24,14
0983,14889,237,173
0984,6196,66,49
0986,1194,26,11
0988,6864,117,69
0994,1522,38,23
0995,6860,145,63
1507,6377,61,66
1509,4535,50,45
1525,4486,41,25
1581,4585,96,73
1586,3361,35,41
1598,2949,24,24
1621,7491,99,65
1640,4367,77,52
1641,2737,43,37
1652,3271,102,38
1655,3397,57,28
1658,1745,23,13
1659,2813,63,36
1667,1780,23,10
1669,2257,48,35
1674,8687,108,75
1676,2504,57,25
1680,1600,7,20
1681,1706,32,15
1684,2946,37,27
1685,2053,51,28
1690,2190,33,24
1695,604,20,9
1696,2265,26,18
1699,2030,31,25
1700,4864,42,30
1701,1062,17,22
1702,1300,28,11
1705,4314,64,35
1706,2786,79,52
1708,3524,33,27
1709,3945,49,43
1711,3417,65,36
1714,1580,46,18
1719,2936,49,30
1721,4307,113,78
1723,1021,24,5
1724,2456,28,11
1728,3004,40,28
1729,1313,34,20
1730,1910,25,24
1731,2267,38,30
1734,4372,74,30
1735,4080,34,29
1740,3101,65,34
1742,5282,55,54
1771,4850,78,28
1773,1550,21,10
1774,3674,37,35
1783,15762,196,86
1842,2314,19,14
1859,4326,44,43
1876,3417,37,21
1883,9435,221,145
1884,2903,26,10
1891,1601,20,17
1892,5412,123,47
1894,5439,165,85
1895,3037,45,37
1896,2623,52,30
1900,8713,80,91
1901,4440,80,37
1903,2449,89,47
1904,6700,148,69
1911,4835,53,34
1916,7599,163,87
1924,5257,133,90
1926,6262,75,39
1930,9954,186,99
1931,6934,153,64
1940,4322,57,34
1942,6171,63,35
1945,3607,56,51
1948,9842,265,168
1949,3269,43,37
1950,2536,36,21
1952,4252,56,40
1954,3825,102,52
1955,3436,43,25
1959,7429,88,68
1960,6600,87,60
1961,6848,125,77
1963,9702,157,67
1966,4255,36,20
1969,4118,39,26
1970,3611,48,38
1978,6207,54,35
1979,3099,51,23