0014,21496,114,47
0034,24990,379,102
0037,2850,28,21
0047,2257,13,11
0050,2131,22,14
0059,2893,30,39
0060,280,3,1
0072,994,13,6
0074,3898,45,40
0080,9514,115,74
0085,1770,19,6
0086,2326,31,8
0088,49,1,2
0090,4506,53,34
0093,348,3,2
0096,84,0,0
0098,2126,21,29
0106,4615,72,15
0109,3424,60,32
0114,10505,187,80
0118,5558,82,42
0119,2732,34,27
0141,9033,119,60
0147,2925,32,39
0148,2685,29,21
0150,10403,119,89
0153,18105,271,175
0158,3006,35,32
0160,6656,62,37
0163,4840,48,51
0164,8945,90,71
0166,4546,82,45
0168,3131,51,38
0171,4134,39,29
0173,4068,59,45
0175,1749,16,16
0177,4209,45,42
0180,3000,20,21
0183,3552,27,19
0184,2726,55,19
0189,3573,22,28
0193,10566,116,120
0197,2763,33,22
0200,16027,218,160
0202,16377,220,128
0203,9141,73,64
0209,2844,41,23
0213,1855,35,22
0214,2881,41,20
0216,3288,50,22
0221,935,22,9
0222,5770,65,31
0225,2240,43,28
0226,2448,30,15
0228,14573,157,94
0230,2524,39,15
0232,3209,80,53
0233,2837,49,34
0243,5143,92,48
0244,1063,23,7
0246,1413,57,32
0252,1665,29,19
0262,2714,40,29
0263,3975,43,42
0267,5248,55,29
0268,19688,295,202
0269,2574,51,31
0273,2891,22,19
0274,2475,38,31
0275,4175,65,64
0277,129,1,0
0279,1285,5,12
0281,5319,91,73
0285,2245,33,30
0289,3954,45,42
0293,1440,26,9
0294,2522,19,17
0296,4793,86,61
0297,4342,46,46
0299,3955,87,48
0301,3851,56,29
0302,3158,86,39
0303,3655,70,25
0307,17875,282,143
0308,2617,35,28
0310,4530,79,78
0312,1384,22,12
0313,4529,62,39
0317,1133,21,6
0321,5124,78,51
0327,2875,42,25
0331,1902,41,12
0335,1699,31,8
0339,754,8,5
0340,2847,44,21
0342,4863,83,48
0344,43526,798,259
0345,9369,141,76
0351,1789,24,8
0352,2244,34,17
0353,3896,90,55
0355,6332,102,76
0356,6596,145,31
0358,4033,43,26
0361,11787,145,86
0362,9657,145,99
0363,118846,2179,861
0370,1085,9,3
0373,2987,39,39
0375,5010,47,42
0376,1289,14,6
0377,2214,19,17
0383,3795,30,24
0384,4105,57,39
0385,5815,99,24
0388,2202,31,11
0392,17048,241,157
0394,17781,202,112
0396,4653,64,32
0397,2686,29,63
0398,6776,66,38
0399,2246,24,16
0400,6133,74,41
0402,8856,104,89
0405,9755,98,55
0406,4960,64,56
0415,1439,14,6
0416,3159,37,17
0417,1282,18,29
0420,6084,60,26
0431,1122,17,8
0432,1519,11,6
0437,1669,18,5
0439,9870,204,87
0441,5287,59,60
0448,735,6,4
0450,1548,12,7
0451,3264,34,15
0453,8225,107,91
0457,2392,20,23
0473,1728,26,43
0479,19113,343,180
0482,3090,47,22
0484,13285,195,117
0489,6744,112,48
0498,2425,26,13
0501,1918,32,10
0502,9543,194,146
0503,12343,114,76
0505,16505,278,186
0512,4956,50,44
0513,9246,289,160
0518,67216,1863,573
0523,3085,20,25
0530,4315,76,44
0531,4249,42,32
0532,2853,30,15
0534,2189,23,18
0537,9870,117,61
0542,4223,50,73
0546,14282,149,75
0547,2785,37,23
0553,2546,29,17
0556,4199,73,35
0569,3883,46,23
0575,5198,70,24
0579,2397,23,31
0589,1208,38,12
0590,4089,48,46
0597,6837,122,91
0599,99974,2130,988
0603,6084,142,77
0606,11139,256,117
0610,3799,33,41
0613,3632,52,23
0614,1361,25,19
0622,10355,187,98
0626,2262,23,24
0627,3572,75,17
0629,2517,43,31
0632,6179,148,40
0637,13846,190,70
0638,995,10,1
0642,6175,94,102
0654,1872,44,9
0664,3333,102,31
0668,2333,25,19
0677,2060,42,13
0678,1226,16,6
0687,4280,82,27
0703,3404,61,17
0715,4789,129,31
0716,3416,74,30
0717,1669,32,7
0718,3946,136,33
0736,5087,123,36
0737,2521,23,29
0743,2013,34,18
0744,712,13,4
0748,8152,100,48
0753,3618,58,32
0755,1262,43,23
0756,3932,42,45
0757,4097,54,70
0758,21374,270,151
0762,4300,95,42
0765,1134,25,13
0766,3439,48,25
0770,2691,49,26
0772,27599,470,361
0777,4506,71,38
0779,2663,32,25
0784,3026,41,20
0785,2853,42,36
0786,1648,31,24
0794,12864,210,86
0796,20215,270,173
0797,5995,93,50
0798,1822,21,20
0809,3017,52,37
0815,1374,17,10
0820,2463,35,23
0823,2628,32,27
0824,3560,56,22
0826,6289,90,39
0828,12226,250,131
0840,2591,46,17
0845,3751,53,34
0847,2558,48,13
0848,1740,43,28
0851,2660,39,19
0852,2100,33,16
0855,29232,436,280
0856,4860,142,86
0858,3767,60,64
0861,5628,89,50
0865,3781,77,53
0866,1903,23,17
0867,6202,82,77
0873,2179,23,26
0879,2037,38,17
0880,1867,38,34
0882,4105,107,74
0888,1793,35,13
0889,1738,32,13
0893,1810,25,15
0899,3284,100,54
0907,2060,29,20
0917,9094,260,131
0928,4683,149,97
0935,12762,367,204
0938,1835,56,25
0944,715,11,11
0946,2584,50,21
0957,7557,123,65
0965,1056,29,9
0971,2803,78,24
0981,805,25,14
0983,15671,242,179
0984,6428,67,50
0986,1266,26,11
0988,7176,118,70
0994,1609,38,23
0995,7710,155,63
1507,6677,61,67
1509,4638,50,45
1525,4648,41,25
1581,4874,99,74
1586,3478,36,41
1598,3025,25,24
1621,8012,102,69
1640,4510,77,52
1641,2852,46,37
1652,3398,102,38
1655,3517,57,28
1658,1784,25,13
1659,2883,64,36
1667,1883,23,10
1669,2353,49,35
1674,9035,108,75
1676,2644,60,27
1680,1662,8,20
1681,1846,32,15
1684,3095,38,27
1685,2111,51,29
1690,2265,34,26
1695,619,20,9
1696,2375,28,20
1699,2113,33,25
1700,4954,44,31
1701,1138,18,22
1702,1429,28,11
1705,4445,65,36
1706,2859,79,52
1708,3788,33,27
1709,4051,50,44
1711,3611,66,37
1714,1665,46,18
1719,3036,50,30
1721,4431,115,78
1723,1065,24,5
1724,2513,28,11
1728,3066,40,28
1729,1377,34,20
1730,2001,25,25
1731,2358,38,30
1734,4563,76,30
1735,4308,34,29
1740,3596,66,35
1742,5635,57,55
1771,4993,81,29
1773,1614,21,10
1774,3771,39,36
1783,16567,199,87
1842,2440,19,14
1859,4480,45,43
1876,3595,39,21
1883,9944,234,147
1884,3033,26,10
1891,1915,21,17
1892,5785,124,47
1894,5819,168,86
1895,3116,45,38
1896,2781,53,30
1900,9344,87,92
1901,4863,82,37
1903,2552,92,47
1904,7063,152,69
1911,4958,54,34
1916,8052,170,90
1924,5462,133,91
1926,6598,81,39
1930,10635,189,99
1931,7288,153,64
1940,4622,60,34
1942,6526,64,38
1945,3713,57,51
1948,10088,268,169
1949,3556,44,37
1950,2787,37,21
1952,4577,57,40
1954,4097,103,54
1955,3571,46,25
1959,7796,89,68
1960,6881,89,61
1961,7367,133,77
1963,10180,160,67
1966,4531,39,20
1969,4370,39,26
1970,4333,57,39
1978,6489,56,36
1979,3237,52,23