0014,25279,124,54
0034,31008,405,114
0037,3538,36,21
0047,2762,14,14
0050,2719,22,15
0059,3914,36,40
0060,315,3,1
0072,1359,13,6
0074,5998,49,41
0080,12970,125,76
0085,2435,21,6
0086,3406,33,9
0088,57,1,2
0090,6528,62,36
0093,494,3,2
0096,111,1,0
0098,3047,21,29
0106,6057,76,19
0109,4298,64,33
0114,13455,212,87
0118,6819,89,43
0119,3520,36,36
0141,10915,134,65
0147,3604,36,40
0148,3643,34,22
0150,12901,131,91
0153,22187,287,181
0158,3796,36,33
0160,8946,74,42
0163,5975,55,53
0164,11372,96,72
0166,6826,90,50
0168,3834,53,38
0171,6041,41,30
0173,5005,60,48
0175,2306,16,16
0177,5411,48,47
0180,4172,25,29
0183,4145,27,21
0184,4209,68,22
0189,4462,26,30
0193,15222,136,133
0197,3490,34,29
0200,21176,236,173
0202,20973,236,138
0203,13023,87,75
0209,3644,45,26
0213,2434,38,22
0214,3811,46,23
0216,4251,53,23
0221,1215,22,9
0222,8186,73,36
0225,2904,49,30
0226,3067,32,17
0228,19903,181,114
0230,3528,45,22
0232,4296,84,54
0233,3925,53,40
0243,6697,97,53
0244,1561,24,7
0246,2113,58,32
0252,2129,31,20
0262,3641,41,32
0263,4699,46,42
0267,6777,57,30
0268,25146,325,212
0269,3942,62,38
0273,3934,23,21
0274,3214,43,37
0275,5376,73,69
0277,173,1,0
0279,1991,7,12
0281,6628,97,76
0285,3003,33,31
0289,5180,51,49
0293,1809,30,9
0294,3328,21,21
0296,5886,90,65
0297,5473,51,47
0299,5275,92,50
0301,5409,63,35
0302,4536,92,40
0303,4696,75,28
0307,22666,284,144
0308,3691,36,28
0310,5668,86,79
0312,1762,27,14
0313,5296,63,39
0317,1490,21,6
0321,7129,81,53
0327,3685,42,25
0331,2495,41,12
0335,2249,33,9
0339,1112,10,5
0340,3932,47,21
0342,6516,85,49
0344,53224,818,268
0345,12932,152,84
0351,2533,24,9
0352,2963,38,17
0353,5063,93,58
0355,8270,105,77
0356,8239,152,32
0358,5362,46,27
0361,15071,156,87
0362,12280,153,104
0363,141024,2293,897
0370,1417,9,3
0373,3677,41,40
0375,6124,54,43
0376,1589,15,7
0377,2988,20,18
0383,4857,36,26
0384,4928,61,39
0385,6787,105,26
0388,2760,32,14
0392,22222,256,162
0394,22492,221,124
0396,6053,70,37
0397,3669,34,65
0398,8486,72,39
0399,2927,26,17
0400,7600,81,43
0402,11483,115,96
0405,11913,102,55
0406,6159,72,59
0415,1819,15,7
0416,3915,39,17
0417,1575,19,30
0420,7509,63,28
0431,1526,17,8
0432,1949,13,6
0437,2249,19,5
0439,12011,218,87
0441,6452,62,62
0448,999,6,4
0450,1981,12,11
0451,4482,38,16
0453,9946,117,94
0457,2958,21,23
0473,2209,31,44
0479,23763,364,185
0482,4279,49,24
0484,17467,207,138
0489,8440,116,49
0498,3030,28,13
0501,2419,34,11
0502,11512,207,150
0503,14590,121,81
0505,20566,290,198
0512,6287,54,45
0513,11823,310,165
0518,80709,2005,592
0523,4304,22,29
0530,5458,84,47
0531,5675,46,36
0532,3338,31,15
0534,2773,24,21
0537,12622,128,67
0542,5343,53,74
0546,17884,158,81
0547,3570,39,28
0553,3404,34,22
0556,5224,75,35
0569,5137,49,25
0575,6540,74,25
0579,3160,23,32
0589,1480,39,12
0590,5266,48,49
0597,8311,126,99
0599,116814,2224,1014
0603,7736,152,77
0606,13188,264,123
0610,5302,35,45
0613,4579,53,23
0614,1762,27,19
0622,12383,203,102
0626,3042,28,24
0627,5050,82,18
0629,3118,45,34
0632,8020,154,44
0637,17417,203,71
0638,1290,11,1
0642,7552,94,112
0654,2873,47,9
0664,5134,112,31
0668,2948,25,19
0677,3315,51,13
0678,1770,20,6
0687,6194,90,31
0703,4726,65,17
0715,6706,154,32
0716,4711,77,31
0717,2562,37,8
0718,5304,148,35
0736,6674,128,42
0737,3637,33,32
0743,2598,34,18
0744,932,14,4
0748,10132,107,49
0753,4397,59,32
0755,1703,46,23
0756,5407,50,51
0757,5157,57,71
0758,27612,292,166
0762,5521,100,47
0765,1363,26,13
0766,4213,49,26
0770,3210,53,32
0772,33752,495,370
0777,6043,77,40
0779,3341,34,26
0784,3678,45,20
0785,3724,45,40
0786,2096,33,24
0794,15365,215,87
0796,24894,283,182
0797,7514,95,51
0798,2300,21,20
0809,3883,53,41
0815,1824,17,10
0820,2985,35,24
0823,3081,33,27
0824,4746,61,24
0826,8226,104,42
0828,14729,259,133
0840,3193,50,18
0845,4695,55,38
0847,3301,49,14
0848,2155,43,28
0851,3362,42,20
0852,2587,35,18
0855,36232,463,284
0856,6164,144,87
0858,4655,63,67
0861,6771,92,52
0865,4776,81,53
0866,2399,26,17
0867,7842,86,78
0873,2724,24,26
0879,2892,44,17
0880,2344,38,35
0882,6290,120,83
0888,2613,39,14
0889,2395,36,14
0893,2478,28,19
0899,4842,112,59
0907,3150,31,30
0917,13692,279,144
0928,6983,160,103
0935,17824,397,228
0938,2843,64,38
0944,935,13,13
0946,3405,52,24
0957,10055,131,69
0965,1471,31,9
0971,4056,83,24
0981,1092,27,16
0983,20743,257,185
0984,8550,76,53
0986,1997,27,12
0988,9474,135,80
0994,2346,42,28
0995,10510,168,68
1507,9079,68,72
1509,6106,55,50
1525,5924,44,26
1581,6499,104,76
1586,4361,40,43
1598,3681,26,24
1621,10420,107,70
1640,6059,85,55
1641,4012,52,39
1652,4487,108,41
1655,4304,60,31
1658,2214,25,13
1659,3619,67,41
1667,2326,26,10
1669,3232,52,38
1674,11542,119,80
1676,3761,67,28
1680,2117,9,21
1681,2379,35,18
1684,4351,43,32
1685,2635,51,29
1690,2976,40,27
1695,835,23,10
1696,3333,30,21
1699,2690,36,25
1700,6015,48,33
1701,1636,19,23
1702,1957,29,11
1705,6193,73,42
1706,3718,80,56
1708,5123,37,29
1709,5269,57,50
1711,5052,74,43
1714,2365,53,22
1719,3905,54,30
1721,5396,118,80
1723,1379,25,5
1724,3026,30,13
1728,3754,42,29
1729,2016,38,21
1730,2567,29,26
1731,3006,41,32
1734,6032,83,33
1735,5637,40,34
1740,5686,79,47
1742,8000,61,60
1771,6139,84,30
1773,2056,21,10
1774,4560,39,37
1783,20284,215,93
1842,3077,19,14
1859,5811,48,47
1876,4914,45,27
1883,14357,255,152
1884,3812,27,10
1891,2844,30,18
1892,7345,132,47
1894,7614,174,87
1895,3676,49,39
1896,4128,64,32
1900,11875,95,94
1901,6552,90,39
1903,3762,101,54
1904,9297,159,71
1911,6085,55,34
1916,9982,186,96
1924,7057,140,93
1926,8290,84,40
1930,12993,204,100
1931,9639,163,65
1940,6409,68,37
1942,8469,67,43
1945,5057,64,54
1948,12712,276,174
1949,4764,52,38
1950,3466,39,24
1952,5632,64,40
1954,5934,110,63
1955,4668,54,28
1959,10707,105,73
1960,9024,99,64
1961,10195,145,78
1963,13553,171,73
1966,5757,44,22
1969,5955,41,32
1970,6362,78,48
1978,9000,61,42
1979,4078,54,27