0014,63616,9999,65
0034,71348,9999,126
0037,8588,9999,24
0047,6687,9999,19
0050,7122,9999,18
0059,9321,9999,41
0060,530,9999,1
0072,3565,9999,8
0074,13671,9999,44
0080,33562,9999,97
0085,5975,9999,7
0086,7964,9999,11
0088,131,9999,2
0090,15011,9999,42
0093,1016,9999,2
0096,285,9999,1
0098,6560,9999,31
0106,15700,9999,26
0109,9461,9999,35
0114,29102,9999,96
0118,15826,9999,48
0119,9186,9999,37
0141,24009,9999,72
0147,8374,9999,41
0148,8958,9999,24
0150,30904,9999,102
0153,52066,9999,201
0158,8131,9999,34
0160,19551,9999,51
0163,12128,9999,54
0164,25800,9999,74
0166,18007,9999,59
0168,7601,9999,38
0171,15006,9999,34
0173,10902,9999,53
0175,5377,9999,19
0177,12403,9999,52
0180,7447,9999,29
0183,8327,9999,22
0184,7896,9999,24
0189,9314,9999,31
0193,40348,9999,149
0197,7264,9999,33
0200,50385,9999,197
0202,50987,9999,162
0203,23950,9999,83
0209,8382,9999,28
0213,5417,9999,25
0214,8239,9999,26
0216,9273,9999,25
0221,2788,9999,10
0222,17560,9999,54
0225,6351,9999,31
0226,7328,9999,18
0228,41618,9999,118
0230,8160,9999,26
0232,9818,9999,55
0233,8907,9999,46
0243,16528,9999,63
0244,3872,9999,7
0246,5145,9999,33
0252,5021,9999,21
0262,9033,9999,43
0263,9479,9999,45
0267,15922,9999,34
0268,58613,9999,238
0269,8112,9999,43
0273,9001,9999,21
0274,7798,9999,38
0275,12051,9999,87
0277,567,9999,0
0279,4036,9999,12
0281,14308,9999,81
0285,7374,9999,34
0289,11355,9999,72
0293,4270,9999,11
0294,7970,9999,26
0296,12966,9999,73
0297,11219,9999,50
0299,12363,9999,51
0301,12998,9999,49
0302,9315,9999,44
0303,12588,9999,32
0307,56388,9999,154
0308,8167,9999,30
0310,13485,9999,84
0312,4550,9999,15
0313,10564,9999,43
0317,3204,9999,7
0321,16590,9999,53
0327,9632,9999,32
0331,5185,9999,12
0335,5256,9999,10
0339,2222,9999,5
0340,7494,9999,26
0342,15579,9999,55
0344,129663,9999,307
0345,25569,9999,90
0351,5175,9999,9
0352,6982,9999,19
0353,11851,9999,59
0355,20481,9999,84
0356,19854,9999,37
0358,11765,9999,30
0361,36297,9999,97
0362,29648,9999,119
0363,308115,9999,999
0373,8574,9999,41
0375,14045,9999,46
0376,3906,9999,8
0377,7785,9999,23
0383,11696,9999,33
0384,11078,9999,43
0385,15490,9999,27
0388,5789,9999,17
0392,54623,9999,196
0394,52649,9999,141
0396,13246,9999,46
0397,8958,9999,68
0399,7145,9999,18
0400,18075,9999,51
0402,29424,9999,107
0405,26248,9999,59
0406,13676,9999,64
0415,4101,9999,13
0417,3388,9999,31
0420,15326,9999,29
0431,3430,9999,8
0432,4165,9999,7
0437,4871,9999,6
0439,30166,9999,108
0441,15016,9999,78
0448,2821,9999,4
0450,4696,9999,17
0451,10147,9999,21
0453,22864,9999,99
0457,6660,9999,23
0473,5105,9999,47
0479,54415,9999,196
0482,7973,9999,30
0484,37480,9999,148
0489,17805,9999,50
0498,6685,9999,13
0501,5243,9999,12
0502,22971,9999,159
0503,33261,9999,92
0505,43068,9999,220
0512,13441,9999,48
0513,25780,9999,166
0518,177539,9999,652
0523,7891,9999,32
0530,11628,9999,50
0531,12203,9999,41
0532,7351,9999,17
0534,6758,9999,23
0537,26435,9999,71
0542,10554,9999,78
0546,40666,9999,84
0547,8302,9999,28
0553,7461,9999,24
0556,10974,9999,46
0569,10153,9999,26
0575,14482,9999,32
0579,8007,9999,32
0589,3422,9999,12
0590,10983,9999,51
0597,16395,9999,110
0599,239658,9999,1078
0603,17734,9999,78
0606,27060,9999,128
0610,10228,9999,52
0613,9434,9999,23
0614,4049,9999,20
0622,25780,9999,113
0626,7747,9999,24
0627,10862,9999,19
0629,7952,9999,37
0632,18069,9999,46
0637,40711,9999,79
0638,3048,9999,1
0642,15332,9999,121
0654,7838,9999,13
0664,12210,9999,44
0668,6312,9999,20
0677,8166,9999,18
0678,4255,9999,8
0687,15114,9999,41
0703,10003,9999,25
0715,15455,9999,41
0716,10100,9999,37
0717,6656,9999,18
0718,13035,9999,42
0736,15016,9999,55
0737,9255,9999,37
0743,5570,9999,20
0744,2120,9999,4
0748,23553,9999,51
0753,9779,9999,38
0755,3799,9999,23
0757,11298,9999,73
0758,63137,9999,186
0762,11553,9999,51
0765,3194,9999,14
0766,9006,9999,32
0770,7103,9999,35
0772,74942,9999,414
0777,14215,9999,41
0779,7561,9999,30
0784,8665,9999,21
0785,8615,9999,43
0794,32339,9999,93
0796,56108,9999,195
0797,16412,9999,56
0798,5477,9999,20
0809,8360,9999,47
0820,7216,9999,27
0823,6422,9999,27
0824,10418,9999,27
0826,18741,9999,44
0828,31396,9999,143
0840,7517,9999,19
0845,10337,9999,47
0847,6683,9999,21
0848,5544,9999,30
0851,7665,9999,22
0852,5717,9999,18
0855,81118,9999,301
0858,10219,9999,72
0861,14566,9999,55
0865,11052,9999,56
0866,5572,9999,18
0867,16649,9999,83
0873,6354,9999,26
0879,6514,9999,19
0880,5350,9999,37
0882,12313,9999,97
0888,5111,9999,16
0889,4478,9999,15
0893,4605,9999,20
0899,9258,9999,71
0907,5900,9999,31
0917,27166,9999,161
0928,13463,9999,108
0935,36989,9999,255
0938,5918,9999,43
0944,2196,9999,13
0946,5889,9999,28
0957,19398,9999,79
0965,3078,9999,12
0971,8159,9999,28
0981,2319,9999,23
0983,38270,9999,201
0984,15960,9999,58
0986,3929,9999,14
0988,17182,9999,101
0994,4660,9999,36
0995,24320,9999,86
1507,16381,9999,78
1509,11695,9999,58
1525,12655,9999,28
1581,14739,9999,88
1586,9531,9999,49
1598,8071,9999,25
1621,22995,9999,72
1640,11325,9999,59
1641,7572,9999,44
1652,9855,9999,44
1655,9868,9999,31
1658,4653,9999,13
1659,7241,9999,45
1667,4724,9999,14
1669,6112,9999,40
1674,25729,9999,88
1676,9248,9999,40
1680,5477,9999,23
1681,5827,9999,27
1690,6932,9999,32
1695,1818,9999,12
1696,7929,9999,24
1699,6709,9999,27
1700,12634,9999,36
1701,3997,9999,25
1705,14475,9999,55
1706,7117,9999,60
1708,11617,9999,30
1709,11443,9999,54
1711,10039,9999,45
1714,5345,9999,26
1719,8693,9999,32
1721,11670,9999,82
1723,3182,9999,5
1724,6787,9999,15
1728,7442,9999,33
1729,3960,9999,22
1730,7315,9999,26
1731,7477,9999,32
1734,15182,9999,40
1735,11685,9999,39
1740,10145,9999,51
1742,15614,9999,68
1771,13019,9999,33
1773,4973,9999,10
1774,9586,9999,38
1783,42713,9999,101
1842,6896,9999,15
1859,13215,9999,58
1876,9978,9999,28
1883,29201,9999,171
1884,8750,9999,11
1891,6418,9999,27
1892,16205,9999,51
1894,14667,9999,93
1895,9208,9999,40
1896,8850,9999,35
1900,26536,9999,98
1901,13253,9999,39
1903,7771,9999,60
1904,22044,9999,77
1911,14448,9999,38
1916,23168,9999,107
1924,15757,9999,94
1926,20081,9999,43
1930,27183,9999,108
1931,19507,9999,69
1940,15574,9999,39
1942,20428,9999,46
1945,10760,9999,69
1948,27404,9999,180
1949,11944,9999,45
1950,7496,9999,25
1952,14620,9999,48
1954,11506,9999,72
1955,10297,9999,31
1959,21018,9999,76
1960,18293,9999,69
1961,20848,9999,82
1963,29553,9999,76
1966,13880,9999,38
1969,15669,9999,36
1970,14490,9999,57
1978,17261,9999,45
1979,9869,9999,29
1980,29515,9999,72
1982,30471,9999,138
1991,19599,9999,123