0014,19083,95,45
0034,21316,342,96
0037,2620,24,20
0047,2057,12,11
0050,1908,22,14
0059,2441,27,39
0060,270,3,1
0072,903,13,3
0074,3149,37,39
0080,8169,104,74
0085,1594,17,6
0086,1947,28,8
0088,48,1,2
0090,3850,44,34
0093,274,3,2
0096,74,0,0
0098,1923,20,29
0106,4180,68,15
0109,3032,57,31
0114,9422,167,79
0118,4915,77,41
0119,2475,34,27
0141,8113,109,59
0147,2693,30,38
0148,2475,26,20
0150,9365,107,88
0153,15799,244,175
0158,2834,34,32
0160,6067,60,37
0163,4574,44,51
0164,7908,78,68
0166,3994,80,44
0168,2907,50,34
0171,3718,36,28
0173,3679,55,45
0175,1560,15,16
0177,3741,42,41
0180,2430,18,21
0183,3383,26,19
0184,2639,54,19
0189,3318,21,27
0193,9117,108,113
0197,2615,32,22
0200,14021,207,148
0202,14420,206,126
0203,8159,65,64
0209,2635,41,22
0213,1664,33,18
0214,2679,40,20
0216,2971,47,22
0221,843,19,9
0222,5282,65,29
0225,2061,40,27
0226,2244,28,14
0228,12697,144,86
0230,2214,39,14
0232,2908,78,52
0233,2579,49,34
0243,4635,87,48
0244,966,21,7
0246,1327,57,32
0252,1544,27,19
0262,2451,38,29
0263,3798,43,42
0267,4800,52,29
0268,17961,276,190
0269,2347,50,30
0273,2646,21,18
0274,2260,37,26
0275,3840,63,58
0277,121,1,0
0279,1143,5,12
0281,4807,88,73
0285,2085,31,29
0289,3455,43,42
0293,1274,21,9
0294,2251,18,17
0296,4422,82,60
0297,4021,41,42
0299,3607,82,48
0301,3456,55,29
0302,2543,80,32
0303,3315,63,25
0307,15839,261,139
0308,2417,35,28
0310,4115,75,78
0312,1278,22,12
0313,4355,62,39
0317,1049,19,5
0321,4655,75,51
0327,2637,41,24
0331,1717,39,12
0335,1531,29,8
0339,664,7,5
0340,2544,42,21
0342,4452,77,47
0344,39088,737,251
0345,8353,135,75
0351,1543,22,8
0352,2070,34,17
0353,3593,88,55
0355,5662,91,73
0356,5853,136,30
0358,3690,40,26
0361,10711,143,85
0362,8662,136,92
0363,104988,1985,818
0370,1004,9,3
0373,2753,39,38
0375,4573,45,42
0376,1143,14,6
0377,2034,16,17
0383,3455,27,24
0384,3629,54,36
0385,5411,97,23
0388,2035,31,11
0392,15076,221,150
0394,15793,188,110
0396,4327,63,32
0397,2325,26,60
0398,6262,61,38
0399,2058,23,15
0400,5605,67,39
0402,7904,92,86
0405,9019,95,55
0406,4407,63,53
0415,1293,12,6
0416,2892,35,16
0417,1152,16,26
0420,5633,58,26
0431,1037,16,8
0432,1371,11,6
0437,1483,16,5
0439,9000,193,84
0441,4899,56,58
0448,683,6,4
0450,1442,12,7
0451,2898,34,15
0453,7679,104,90
0457,2237,20,20
0473,1607,23,43
0479,16940,315,176
0482,2821,45,22
0484,12113,191,116
0489,6051,105,48
0498,2326,25,13
0501,1774,31,10
0502,8607,185,145
0503,11062,104,75
0505,15132,266,181
0512,4518,48,42
0513,8284,278,160
0518,59075,1702,556
0523,2873,17,25
0530,3822,69,43
0531,3824,41,32
0532,2739,30,15
0534,2006,21,18
0537,9141,113,59
0542,3973,49,71
0546,12687,138,70
0547,2508,36,23
0553,2364,28,17
0556,3730,69,34
0569,3544,46,22
0575,4795,65,23
0579,2201,23,31
0589,1116,38,12
0590,3756,47,46
0597,6248,114,89
0599,88951,1985,973
0603,5354,134,76
0606,9859,239,115
0610,3533,33,41
0613,3337,50,23
0614,1220,23,19
0622,9296,176,91
0626,2085,23,24
0627,3191,72,16
0629,2317,41,31
0632,5684,143,39
0637,12279,173,70
0638,925,10,1
0642,5655,90,102
0654,1675,42,6
0664,2990,99,31
0668,2148,25,19
0677,1947,41,13
0678,1122,16,6
0687,3797,78,25
0703,3141,59,17
0715,4301,119,29
0716,3045,71,30
0717,1551,31,7
0718,3505,130,32
0736,4548,118,35
0737,2104,22,28
0743,1831,34,18
0744,641,13,4
0748,7444,94,44
0753,3285,56,30
0755,1118,42,23
0756,3503,40,45
0757,3767,51,69
0758,19513,254,147
0762,3990,91,42
0765,1065,25,13
0766,3223,46,25
0770,2553,49,26
0772,25297,453,356
0777,4147,69,38
0779,2533,31,25
0784,2848,41,19
0785,2688,42,36
0786,1552,31,24
0794,11958,206,85
0796,18633,262,171
0797,5635,91,50
0798,1739,20,20
0809,2857,52,37
0815,1285,17,10
0820,2314,34,22
0823,2484,32,27
0824,3346,55,22
0826,5723,85,37
0828,11382,244,129
0840,2457,46,16
0845,3534,52,34
0847,2359,48,13
0848,1647,42,28
0851,2504,33,19
0852,1983,33,15
0855,26496,416,277
0856,4508,139,86
0858,3610,59,63
0861,5312,85,50
0865,3531,76,53
0866,1756,19,17
0867,5771,80,77
0873,2083,23,26
0879,1865,36,17
0880,1718,35,33
0882,3699,99,70
0888,1604,32,12
0889,1549,30,13
0893,1670,25,15
0899,2900,89,52
0907,1885,28,19
0917,7866,246,126
0928,4190,142,96
0935,11480,347,198
0938,1595,50,23
0944,668,11,11
0946,2392,47,20
0957,6668,107,61
0965,948,27,9
0971,2499,78,24
0981,740,24,14
0983,14377,230,170
0984,5953,64,49
0986,1135,25,11
0988,6567,114,69
0994,1440,37,23
0995,6287,139,62
1507,6165,61,66
1509,4358,49,45
1525,4350,39,25
1581,4411,92,73
1586,3207,35,41
1598,2851,24,24
1621,7188,96,63
1640,4245,76,52
1641,2655,43,36
1652,3127,101,38
1655,3308,57,27
1658,1658,23,13
1659,2742,62,36
1667,1732,23,10
1669,2170,48,35
1674,8360,104,75
1676,2314,55,25
1680,1568,7,20
1681,1661,32,15
1684,2843,37,27
1685,1975,51,28
1690,2127,33,24
1695,587,20,9
1696,2185,25,18
1699,1917,31,25
1700,4760,41,30
1701,1032,17,22
1702,1276,27,11
1705,4155,63,35
1706,2732,79,52
1708,3399,33,27
1709,3805,46,41
1711,3249,65,36
1714,1546,46,18
1719,2841,49,30
1721,4044,111,78
1723,998,24,5
1724,2387,28,11
1728,2940,39,27
1729,1232,31,19
1730,1799,24,24
1731,2177,35,30
1734,4146,74,30
1735,3920,34,29
1740,3015,63,34
1742,5135,55,54
1771,4663,77,28
1773,1491,21,10
1774,3518,37,35
1783,14841,190,86
1842,2182,19,14
1859,4182,42,42
1876,3288,37,21
1883,8882,217,145
1884,2786,25,10
1891,1518,18,17
1892,5176,121,47
1894,5202,165,85
1895,2964,44,37
1896,2542,52,30
1900,8334,76,90
1901,4274,77,37
1903,2332,87,47
1904,6411,146,69
1911,4659,50,34
1916,7230,160,84
1924,5048,131,90
1926,5931,72,38
1930,9473,185,99
1931,6735,153,64
1940,4035,56,33
1942,5870,62,35
1945,3487,56,51
1948,9455,263,167
1949,3089,40,37
1950,2428,36,21
1952,4081,55,40
1954,3647,99,49
1955,3307,42,24
1959,7220,87,68
1960,6377,87,61
1961,6624,124,76
1963,9250,155,67
1966,3930,33,20
1969,3895,38,25
1970,3400,48,38
1978,6038,54,35
1979,2986,50,23