0014,12520,85,45
0034,18641,319,95
0037,2398,23,19
0047,1714,11,10
0050,1607,21,14
0059,2153,24,37
0060,187,3,1
0072,764,11,3
0074,2556,33,39
0080,6867,90,72
0085,1352,15,6
0086,1511,25,7
0088,45,1,2
0090,3123,34,33
0093,243,3,2
0096,55,0,0
0098,1587,17,28
0106,3484,59,14
0109,2705,56,31
0114,8558,149,75
0118,4228,71,40
0119,2191,31,26
0141,6912,97,56
0147,2289,30,38
0148,2143,26,20
0150,7529,93,84
0153,12777,217,169
0158,2478,32,32
0160,5404,58,37
0163,4031,42,50
0164,6604,72,66
0166,3328,77,43
0168,2400,49,32
0171,3210,32,28
0173,2962,52,45
0175,1356,15,15
0177,3223,39,41
0180,2081,16,19
0183,2748,23,18
0184,2409,50,15
0189,2908,19,27
0193,7600,96,110
0197,2274,27,21
0200,11585,196,144
0202,11661,181,122
0203,7274,57,61
0209,2173,39,21
0213,1331,32,17
0214,2257,40,20
0216,2519,46,22
0221,728,18,9
0222,4481,63,28
0225,1746,40,27
0226,1876,27,13
0228,10960,137,83
0230,1859,38,14
0232,2566,77,52
0233,2302,40,34
0243,4090,82,49
0244,834,20,7
0246,1197,56,32
0252,1279,27,17
0262,1950,35,29
0263,3329,41,42
0267,4216,49,28
0268,14198,263,186
0269,2096,49,30
0273,2306,20,16
0274,1915,33,26
0275,3328,59,57
0277,98,1,0
0279,1014,5,12
0281,4056,86,73
0285,1727,30,28
0289,2788,40,41
0293,1064,19,9
0294,1816,15,15
0296,3609,76,53
0297,3675,40,41
0299,2986,76,47
0301,2902,51,29
0302,2198,80,32
0303,2850,62,24
0307,13247,242,136
0308,2037,34,28
0310,3423,75,78
0312,1075,21,12
0313,4084,60,39
0317,875,19,5
0321,3844,70,51
0327,2211,40,23
0331,1510,38,12
0335,1341,24,8
0339,562,7,5
0340,2276,41,21
0342,3718,74,46
0344,30130,691,239
0345,7556,131,72
0351,1382,22,8
0352,1757,34,17
0353,3032,83,55
0355,4655,87,73
0356,5005,124,30
0358,2886,36,26
0361,8901,129,77
0362,6801,127,89
0363,82415,1873,768
0370,844,8,3
0373,2354,38,36
0375,3939,44,41
0376,927,12,6
0377,1542,15,17
0383,2969,25,22
0384,2855,47,31
0385,4764,90,21
0388,1858,30,11
0392,12079,206,148
0394,13011,175,107
0396,3739,60,32
0397,1819,26,60
0398,5315,56,34
0399,1630,23,15
0400,4977,58,36
0402,6324,85,83
0405,8209,93,55
0406,3806,59,53
0415,1083,12,6
0416,2409,32,13
0417,931,16,26
0420,5201,57,25
0431,908,16,8
0432,1225,9,5
0437,1177,14,5
0439,7617,183,83
0441,4255,50,55
0448,504,6,4
0450,1225,12,7
0451,2400,34,15
0453,6570,100,89
0457,1948,18,20
0473,1326,20,42
0479,14682,298,173
0482,2501,38,21
0484,10654,183,114
0489,5028,99,47
0498,2046,21,12
0501,1507,31,9
0502,7318,175,139
0503,8593,100,74
0505,13498,247,171
0512,3779,45,37
0513,7379,252,157
0518,49434,1541,546
0523,2597,16,25
0530,3303,61,43
0531,3381,37,30
0532,2543,29,15
0534,1682,20,17
0537,8293,110,57
0542,3506,48,69
0546,9653,124,70
0547,2064,36,22
0553,1943,28,17
0556,3216,68,35
0569,3075,42,22
0575,3866,67,21
0579,1840,22,30
0589,952,38,12
0590,3257,44,45
0597,5386,109,87
0599,71352,1817,931
0603,4606,127,76
0606,8752,224,112
0610,3152,29,41
0613,2747,46,22
0614,1067,22,16
0622,7897,166,89
0626,1750,23,24
0627,2823,67,15
0629,1905,39,30
0632,4673,133,39
0637,10593,161,68
0638,775,10,1
0642,4999,85,95
0654,1376,36,6
0664,2425,77,26
0668,1770,25,19
0677,1712,39,13
0678,938,13,6
0687,3233,75,25
0703,2635,51,16
0715,3823,114,28
0716,2496,65,25
0717,1295,29,7
0718,3098,120,32
0736,3745,113,34
0737,1861,22,28
0743,1557,33,17
0744,496,13,4
0748,6264,91,42
0753,2823,54,30
0755,909,40,23
0756,3054,39,45
0757,3240,50,68
0758,14800,241,146
0762,3346,87,41
0765,958,23,12
0766,2790,45,25
0770,2285,46,25
0772,20769,421,348
0777,3431,68,38
0779,2076,30,25
0784,2416,35,19
0785,2211,40,36
0786,1348,30,24
0794,10167,200,84
0796,15278,245,165
0797,4701,84,50
0798,1533,20,20
0809,2497,50,35
0815,1138,17,10
0820,1996,34,21
0823,2171,29,26
0824,2871,54,22
0826,4683,82,35
0828,9795,238,128
0840,2119,45,16
0845,2981,50,34
0847,2093,46,13
0848,1433,42,28
0851,2117,31,19
0852,1698,33,15
0855,21914,393,272
0856,3881,138,85
0858,3143,54,61
0861,4712,79,49
0865,2996,73,53
0866,1460,19,16
0867,4854,75,76
0873,1816,20,25
0879,1518,36,17
0880,1468,35,33
0882,3311,91,66
0888,1353,29,12
0889,1355,30,12
0893,1410,20,13
0899,2563,81,49
0907,1650,28,19
0917,6823,230,125
0928,3666,132,96
0935,9038,314,194
0938,1359,43,23
0944,580,11,11
0946,2148,44,20
0957,5743,98,54
0965,837,26,7
0971,2209,72,22
0981,671,22,14
0983,12084,212,161
0984,5296,62,45
0986,959,25,11
0988,5686,106,68
0994,1208,34,22
0995,5514,133,59
1507,5366,60,64
1509,3715,43,44
1525,3634,37,24
1581,3792,89,73
1586,2594,33,39
1598,2482,24,21
1621,6062,86,63
1640,3757,75,51
1641,2352,42,36
1652,2641,99,38
1655,2750,55,27
1658,1507,23,13
1659,2327,59,36
1667,1523,23,9
1669,1921,45,34
1674,7252,101,72
1676,1865,47,24
1680,1307,6,20
1681,1452,28,15
1684,2452,36,26
1685,1787,51,28
1690,1771,31,24
1695,503,16,9
1696,1827,24,18
1699,1539,28,25
1700,4066,38,30
1701,892,16,22
1702,1092,27,11
1705,3522,62,31
1706,2406,78,51
1708,2957,28,26
1709,3148,44,39
1711,2883,64,34
1714,1336,42,18
1719,2284,46,27
1721,3482,109,78
1723,834,24,5
1724,2150,28,10
1728,2619,38,26
1729,1073,30,19
1730,1449,22,24
1731,1916,33,30
1734,3344,71,30
1735,3338,32,29
1740,2579,62,32
1742,4327,53,52
1771,4050,75,27
1773,1197,19,9
1774,2898,36,35
1783,12858,181,86
1842,1851,17,14
1859,3613,40,43
1876,2855,36,21
1883,7661,198,139
1884,2387,25,10
1891,1340,15,17
1892,4413,113,46
1894,4541,164,82
1895,2633,42,37
1896,2305,50,30
1900,7300,67,88
1901,3743,73,36
1903,1948,77,46
1904,5404,136,67
1911,4182,48,33
1916,5970,147,82
1924,4201,126,86
1926,4957,65,35
1930,8256,171,97
1931,5922,139,62
1940,3291,51,31
1942,4664,54,32
1945,2983,56,51
1948,8143,257,165
1949,2773,38,36
1950,2175,35,21
1952,3485,52,38
1954,3182,88,48
1955,2841,41,24
1959,6395,84,68
1960,5405,85,60
1961,5789,116,71
1963,7931,147,62
1966,3205,30,20
1969,3044,36,23
1970,3015,42,37
1978,5236,49,34
1979,2674,45,20