0014,20879,107,46
0034,24050,370,100
0037,2750,26,21
0047,2197,13,11
0050,2087,22,14
0059,2697,30,39
0060,278,3,1
0072,970,13,6
0074,3630,42,40
0080,9134,112,74
0085,1735,19,6
0086,2189,30,8
0088,48,1,2
0090,4269,50,34
0093,322,3,2
0096,82,0,0
0098,2082,21,29
0106,4512,70,15
0109,3229,57,31
0114,10100,179,79
0118,5357,79,41
0119,2685,34,27
0141,8787,116,59
0147,2864,31,39
0148,2614,28,20
0150,10181,118,89
0153,17476,265,175
0158,2963,35,32
0160,6456,62,37
0163,4767,47,51
0164,8666,87,69
0166,4405,81,44
0168,3093,50,38
0171,3996,39,29
0173,3942,56,45
0175,1677,15,16
0177,4011,45,42
0180,2561,18,21
0183,3523,27,19
0184,2688,55,19
0189,3485,22,28
0193,10095,114,116
0197,2722,33,22
0200,15351,216,159
0202,15694,216,128
0203,8622,72,64
0209,2782,41,23
0213,1822,34,21
0214,2801,40,20
0216,3187,49,22
0221,916,20,9
0222,5642,65,31
0225,2180,41,27
0226,2401,30,15
0228,13680,150,91
0230,2361,39,15
0232,3096,79,53
0233,2735,49,34
0243,4976,90,48
0244,1041,22,7
0246,1399,57,32
0252,1639,29,19
0262,2640,40,29
0263,3925,43,42
0267,5099,54,29
0268,19213,290,199
0269,2472,50,30
0273,2795,22,18
0274,2432,38,31
0275,4049,64,59
0277,128,1,0
0279,1190,5,12
0281,5091,90,73
0285,2194,32,30
0289,3803,45,42
0293,1399,24,9
0294,2448,19,17
0296,4673,84,61
0297,4236,43,43
0299,3805,86,48
0301,3754,56,29
0302,2941,84,32
0303,3544,67,25
0307,16987,279,143
0308,2558,35,28
0310,4395,78,78
0312,1330,22,12
0313,4487,62,39
0317,1089,20,6
0321,4958,77,51
0327,2778,42,25
0331,1838,40,12
0335,1624,30,8
0339,702,7,5
0340,2667,43,21
0342,4719,81,47
0344,42034,780,256
0345,8856,139,75
0351,1627,24,8
0352,2166,34,17
0353,3782,90,55
0355,6152,100,76
0356,6306,144,31
0358,3965,42,26
0361,11577,144,86
0362,9411,143,99
0363,115715,2159,853
0370,1074,9,3
0373,2943,39,38
0375,4922,47,42
0376,1260,14,6
0377,2173,19,17
0383,3720,29,24
0384,3989,57,38
0385,5698,98,23
0388,2111,31,11
0392,16479,232,154
0394,17322,201,111
0396,4568,64,32
0397,2596,27,61
0398,6684,65,38
0399,2205,24,15
0400,6002,71,40
0402,8577,103,89
0405,9581,97,55
0406,4805,64,55
0415,1402,14,6
0416,3089,36,17
0417,1241,17,29
0420,5952,60,26
0431,1098,17,8
0432,1458,11,6
0437,1614,18,5
0439,9676,200,86
0441,5180,58,60
0448,724,6,4
0450,1524,12,7
0451,3122,34,15
0453,8084,107,91
0457,2346,20,23
0473,1705,26,43
0479,18451,336,179
0482,3012,46,22
0484,12800,193,117
0489,6510,107,48
0498,2397,25,13
0501,1868,31,10
0502,9244,191,145
0503,11898,107,76
0505,16001,274,181
0512,4752,49,43
0513,8822,285,160
0518,64522,1795,568
0523,2972,18,25
0530,4177,73,44
0531,4061,41,32
0532,2823,30,15
0534,2123,22,18
0537,9603,116,61
0542,4141,50,71
0546,13687,144,75
0547,2670,37,23
0553,2502,29,17
0556,4042,72,34
0569,3694,46,22
0575,5113,69,24
0579,2325,23,31
0589,1158,38,12
0590,3981,48,46
0597,6652,121,90
0599,96490,2084,981
0603,5853,140,76
0606,10691,253,117
0610,3675,33,41
0613,3554,51,23
0614,1332,25,19
0622,9998,183,96
0626,2205,23,24
0627,3433,75,16
0629,2467,42,31
0632,5998,148,40
0637,13334,184,70
0638,960,10,1
0642,6002,93,102
0654,1777,43,9
0664,3187,102,31
0668,2248,25,19
0677,2008,41,13
0678,1196,16,6
0687,4092,80,26
0703,3329,60,17
0715,4573,125,29
0716,3341,73,30
0717,1620,32,7
0718,3810,135,32
0736,4915,122,36
0737,2324,23,28
0743,1990,34,18
0744,670,13,4
0748,7999,98,47
0753,3537,58,32
0755,1246,43,23
0756,3714,41,45
0757,3989,54,69
0758,20765,266,148
0762,4253,93,42
0765,1124,25,13
0766,3367,48,25
0770,2653,49,26
0772,26920,462,358
0777,4385,71,38
0779,2627,31,25
0784,2992,41,19
0785,2803,42,36
0786,1623,31,24
0794,12657,208,86
0796,19798,268,173
0797,5882,91,50
0798,1802,20,20
0809,2980,52,37
0815,1359,17,10
0820,2426,34,22
0823,2581,32,27
0824,3515,56,22
0826,6137,89,37
0828,11959,248,130
0840,2568,46,16
0845,3689,53,34
0847,2517,48,13
0848,1728,43,28
0851,2617,37,19
0852,2058,33,15
0855,28380,429,279
0856,4777,140,86
0858,3739,60,63
0861,5539,89,50
0865,3712,76,53
0866,1866,23,17
0867,6094,81,77
0873,2150,23,26
0879,1959,38,17
0880,1836,38,34
0882,3907,102,70
0888,1741,35,13
0889,1651,30,13
0893,1753,25,15
0899,3117,93,53
0907,1980,29,20
0917,8580,251,129
0928,4496,145,97
0935,12421,358,203
0938,1734,54,23
0944,701,11,11
0946,2503,47,20
0957,7257,118,65
0965,1020,28,9
0971,2712,78,24
0981,781,24,14
0983,15127,239,174
0984,6275,67,50
0986,1203,26,11
0988,7027,118,70
0994,1548,38,23
0995,7256,150,63
1507,6438,61,67
1509,4577,50,45
1525,4564,41,25
1581,4675,97,73
1586,3400,36,41
1598,2983,24,24
1621,7742,101,66
1640,4422,77,52
1641,2772,44,37
1652,3331,102,38
1655,3445,57,28
1658,1757,23,13
1659,2840,63,36
1667,1798,23,10
1669,2288,48,35
1674,8855,108,75
1676,2551,57,26
1680,1626,7,20
1681,1766,32,15
1684,3002,38,27
1685,2081,51,29
1690,2217,33,24
1695,607,20,9
1696,2296,27,18
1699,2076,33,25
1700,4889,42,30
1701,1087,17,22
1702,1338,28,11
1705,4360,65,35
1706,2814,79,52
1708,3651,33,27
1709,3987,50,44
1711,3489,65,36
1714,1621,46,18
1719,2977,50,30
1721,4354,115,78
1723,1024,24,5
1724,2482,28,11
1728,3034,40,28
1729,1329,34,20
1730,1951,25,24
1731,2321,38,30
1734,4445,75,30
1735,4188,34,29
1740,3184,65,35
1742,5450,57,54
1771,4912,80,28
1773,1576,21,10
1774,3724,38,36
1783,16057,197,86
1842,2369,19,14
1859,4389,45,43
1876,3469,37,21
1883,9615,227,145
1884,2962,26,10
1891,1718,20,17
1892,5539,124,47
1894,5547,165,85
1895,3076,45,38
1896,2652,53,30
1900,9046,87,91
1901,4521,80,37
1903,2483,90,47
1904,6835,149,69
1911,4883,54,34
1916,7821,167,88
1924,5343,133,90
1926,6412,78,39
1930,10206,186,99
1931,7052,153,64
1940,4485,58,34
1942,6334,64,38
1945,3660,56,51
1948,9947,266,168
1949,3400,43,37
1950,2639,36,21
1952,4346,56,40
1954,3892,102,54
1955,3476,45,25
1959,7523,89,68
1960,6696,87,61
1961,7031,128,77
1963,9873,159,67
1966,4405,39,20
1969,4228,39,26
1970,3815,53,39
1978,6300,56,35
1979,3155,52,23