0014,25562,124,54
0034,31512,410,114
0037,3578,36,21
0047,2791,14,14
0050,2777,22,15
0059,4002,37,40
0060,317,3,1
0072,1393,13,6
0074,6134,49,41
0080,13405,127,76
0085,2514,21,6
0086,3500,33,9
0088,57,1,2
0090,6778,62,36
0093,501,3,2
0096,111,1,1
0098,3118,21,29
0106,6164,76,19
0109,4374,64,33
0114,13650,213,87
0118,6956,90,43
0119,3577,36,36
0141,11094,136,67
0147,3662,36,40
0148,3692,34,22
0150,13071,131,91
0153,22573,291,181
0158,3850,36,33
0160,9070,74,42
0163,6087,57,53
0164,11574,97,72
0166,6965,92,50
0168,3871,53,38
0171,6206,42,30
0173,5080,60,49
0175,2354,16,16
0177,5496,48,47
0180,4190,25,29
0183,4200,27,21
0184,4253,69,22
0189,4547,26,30
0193,15557,136,133
0197,3560,34,29
0200,21565,237,174
0202,21390,236,140
0203,13186,87,76
0209,3707,45,26
0213,2492,38,22
0214,3858,46,23
0216,4334,53,24
0221,1231,22,9
0222,8343,74,38
0225,2968,49,30
0226,3114,32,17
0228,20183,181,115
0230,3572,45,22
0232,4355,84,54
0233,4018,53,40
0243,6839,97,53
0244,1598,24,7
0246,2151,58,32
0252,2162,31,20
0262,3726,41,32
0263,4753,46,43
0267,6859,57,31
0268,25524,325,212
0269,3976,62,39
0273,3996,23,21
0274,3270,43,37
0275,5483,73,70
0277,178,1,0
0279,2019,7,12
0281,6728,97,76
0285,3061,33,31
0289,5224,51,52
0293,1837,30,9
0294,3392,21,22
0296,5991,90,65
0297,5557,51,48
0299,5368,92,50
0301,5566,63,35
0302,4620,92,40
0303,4790,75,28
0307,23108,284,145
0308,3786,36,28
0310,5776,86,79
0312,1812,27,14
0313,5375,63,39
0317,1512,21,6
0321,7297,81,53
0327,3758,42,26
0331,2520,41,12
0335,2289,33,9
0339,1118,10,5
0340,3996,47,21
0342,6660,85,49
0344,54027,818,269
0345,13122,153,84
0351,2573,24,9
0352,3023,38,17
0353,5147,93,58
0355,8441,105,78
0356,8396,152,32
0358,5423,47,29
0361,15363,156,87
0362,12479,154,105
0363,142245,2300,898
0370,1446,9,3
0373,3741,41,40
0375,6233,55,43
0376,1613,15,7
0377,3048,20,18
0383,4960,38,25
0384,4979,61,39
0385,6869,105,26
0388,2799,32,14
0392,22603,257,164
0394,22826,224,124
0396,6182,70,37
0397,3721,34,65
0398,8624,72,39
0399,2983,26,17
0400,7783,82,43
0402,11645,116,98
0405,12099,102,55
0406,6247,72,59
0415,1849,16,7
0416,3998,39,17
0417,1608,19,31
0420,7594,64,28
0431,1548,17,8
0432,1969,13,6
0437,2271,19,5
0439,12144,220,87
0441,6557,62,62
0448,1022,6,4
0450,2008,12,11
0451,4534,39,16
0453,10072,119,94
0457,2979,21,23
0473,2254,31,44
0479,24070,370,186
0482,4332,50,24
0484,17776,207,143
0489,8542,117,49
0498,3086,28,13
0501,2462,34,11
0502,11684,207,150
0503,14817,124,81
0505,20948,290,198
0512,6395,54,45
0513,12049,310,165
0518,81828,2009,592
0523,4373,22,30
0530,5542,84,47
0531,5800,46,36
0532,3373,32,15
0534,2809,24,21
0537,12805,129,68
0542,5429,53,74
0546,18112,158,81
0547,3620,39,28
0553,3460,34,22
0556,5300,75,35
0569,5207,49,25
0575,6648,74,25
0579,3207,23,32
0589,1491,40,12
0590,5365,49,49
0597,8390,127,99
0599,117981,2227,1014
0603,7909,153,77
0606,13313,266,123
0610,5415,35,45
0613,4644,53,23
0614,1782,27,19
0622,12475,203,102
0626,3099,28,24
0627,5185,82,18
0629,3187,45,34
0632,8161,154,44
0637,17823,203,71
0638,1309,11,1
0642,7676,94,114
0654,2946,49,9
0664,5274,113,31
0668,2995,25,19
0677,3410,51,13
0678,1797,20,6
0687,6405,91,31
0703,4814,65,17
0715,6926,154,32
0716,4790,79,31
0717,2639,37,8
0718,5448,149,35
0736,6814,128,43
0737,3720,34,32
0743,2665,35,18
0744,954,14,4
0748,10296,108,49
0753,4483,60,32
0755,1714,46,23
0756,5508,50,52
0757,5291,57,71
0758,28108,292,167
0762,5609,100,47
0765,1390,26,13
0766,4281,49,26
0770,3254,53,32
0772,34289,498,371
0777,6173,77,40
0779,3403,34,26
0784,3737,45,20
0785,3804,45,40
0786,2135,33,24
0794,15566,215,87
0796,25363,283,184
0797,7630,96,51
0798,2323,21,20
0809,3949,53,41
0815,1879,17,10
0820,3037,35,24
0823,3116,33,27
0824,4856,61,24
0826,8426,105,42
0828,14982,259,134
0840,3260,51,18
0845,4762,55,42
0847,3353,49,14
0848,2192,43,28
0851,3405,42,20
0852,2625,35,18
0855,36813,464,290
0856,6288,145,87
0858,4751,63,68
0861,6880,92,52
0865,4895,82,53
0866,2436,27,17
0867,7970,86,78
0873,2762,24,26
0879,2945,45,17
0880,2374,38,35
0882,6447,121,84
0888,2673,39,14
0889,2460,37,14
0893,2523,28,19
0899,4949,112,61
0907,3184,31,30
0917,14027,281,144
0928,7165,161,103
0935,18300,396,230
0938,2922,64,38
0944,951,13,13
0946,3476,52,24
0957,10280,131,72
0965,1504,31,9
0971,4155,83,24
0981,1122,27,16
0983,21276,258,185
0984,8710,76,53
0986,2029,27,12
0988,9642,135,81
0994,2426,42,28
0995,10690,168,68
1507,9285,68,74
1509,6200,55,52
1525,6005,44,26
1581,6609,104,76
1586,4407,40,43
1598,3720,26,24
1621,10613,107,70
1640,6180,85,55
1641,4134,52,39
1652,4557,108,41
1655,4365,62,31
1658,2239,25,13
1659,3672,67,41
1667,2371,26,10
1669,3289,52,38
1674,11775,120,80
1676,3871,67,28
1680,2154,9,21
1681,2408,35,18
1684,4471,43,32
1685,2671,51,29
1690,3020,41,27
1695,853,23,10
1696,3384,30,22
1699,2758,36,25
1700,6100,49,33
1701,1676,19,23
1702,1998,29,11
1705,6348,74,43
1706,3751,81,56
1708,5188,37,29
1709,5348,59,51
1711,5198,76,43
1714,2418,53,22
1719,4016,54,31
1721,5511,118,80
1723,1407,25,5
1724,3066,30,13
1728,3814,42,29
1729,2055,38,21
1730,2635,29,26
1731,3081,41,32
1734,6135,85,33
1735,5730,40,34
1740,5741,79,47
1742,8116,61,62
1771,6234,85,31
1773,2075,21,10
1774,4610,39,37
1783,20620,214,93
1842,3130,19,14
1859,5902,48,47
1876,4996,45,27
1883,14672,256,152
1884,3864,27,11
1891,2908,30,18
1892,7466,132,47
1894,7815,174,88
1895,3731,49,39
1896,4172,64,32
1900,12154,96,95
1901,6627,90,39
1903,3869,101,54
1904,9460,160,72
1911,6217,55,34
1916,10155,188,96
1924,7131,140,93
1926,8454,84,40
1930,13189,204,100
1931,9804,163,66
1940,6555,69,37
1942,8641,68,43
1945,5161,64,56
1948,12930,276,176
1949,4899,53,38
1950,3524,39,24
1952,5700,64,40
1954,6052,110,65
1955,4740,54,29
1959,10896,108,73
1960,9135,99,65
1961,10409,145,78
1963,13728,171,74
1966,5863,44,24
1969,6037,42,32
1970,6520,78,48
1978,9158,61,42
1979,4137,54,27