0014,13275,89,45
0034,19454,328,95
0037,2472,23,19
0047,1810,12,11
0050,1712,22,14
0059,2265,25,39
0060,194,3,1
0072,802,11,3
0074,2688,34,39
0080,7336,95,73
0085,1440,16,6
0086,1663,27,7
0088,45,1,2
0090,3282,39,33
0093,247,3,2
0096,68,0,0
0098,1732,18,28
0106,3646,66,15
0109,2819,57,31
0114,8956,160,78
0118,4443,73,41
0119,2295,32,27
0141,7416,102,57
0147,2459,30,38
0148,2280,26,20
0150,8035,102,87
0153,13607,225,170
0158,2613,33,32
0160,5688,59,37
0163,4218,43,51
0164,7018,74,66
0166,3552,79,44
0168,2574,49,32
0171,3425,33,28
0173,3271,53,45
0175,1434,15,15
0177,3359,40,41
0180,2244,16,20
0183,2919,25,18
0184,2558,53,18
0189,3049,19,27
0193,8001,102,112
0197,2387,29,21
0200,12238,198,144
0202,12490,189,124
0203,7603,61,62
0209,2305,40,22
0213,1431,33,18
0214,2438,40,20
0216,2625,47,22
0221,770,19,9
0222,4734,64,28
0225,1838,40,27
0226,2000,27,14
0228,11563,140,86
0230,1975,39,14
0232,2695,78,52
0233,2373,44,34
0243,4277,85,49
0244,890,21,7
0246,1259,56,32
0252,1379,27,18
0262,2096,36,29
0263,3481,42,42
0267,4361,50,29
0268,14974,271,189
0269,2196,49,30
0273,2440,21,18
0274,2055,35,26
0275,3476,60,57
0277,105,1,0
0279,1053,5,12
0281,4369,87,73
0285,1832,31,28
0289,2955,40,42
0293,1131,19,9
0294,2072,16,16
0296,3897,79,56
0297,3835,40,42
0299,3245,79,48
0301,3104,54,29
0302,2308,80,32
0303,2993,63,25
0307,13805,249,137
0308,2149,34,28
0310,3535,75,78
0312,1141,22,12
0313,4172,61,39
0317,906,19,5
0321,4061,71,51
0327,2324,41,24
0331,1599,39,12
0335,1390,28,8
0339,587,7,5
0340,2415,41,21
0342,3920,76,46
0344,31856,708,247
0345,7847,133,73
0351,1449,22,8
0352,1831,34,17
0353,3244,86,55
0355,4961,88,73
0356,5285,134,30
0358,3043,36,26
0361,9337,137,82
0362,7127,130,90
0363,86345,1921,793
0370,883,8,3
0373,2440,38,38
0375,4097,44,41
0376,981,13,6
0377,1590,16,17
0383,3098,26,23
0384,2985,50,32
0385,5016,93,22
0388,1895,30,11
0392,12630,214,149
0394,13715,178,107
0396,3902,61,32
0397,1894,26,60
0398,5628,57,36
0399,1687,23,15
0400,5151,64,39
0402,6637,87,84
0405,8445,94,55
0406,3938,61,53
0415,1129,12,6
0416,2522,35,15
0417,976,16,26
0420,5349,57,25
0431,941,16,8
0432,1269,11,6
0437,1232,15,5
0439,7908,187,84
0441,4450,55,57
0448,563,6,4
0450,1285,12,7
0451,2499,34,15
0453,6823,103,90
0457,2008,20,20
0473,1396,21,43
0479,15305,304,174
0482,2601,42,22
0484,11089,187,114
0489,5303,102,48
0498,2149,24,13
0501,1617,31,9
0502,7682,183,142
0503,9181,101,74
0505,14101,251,176
0512,4036,46,39
0513,7707,268,160
0518,52404,1638,549
0523,2699,17,25
0530,3429,64,43
0531,3574,39,32
0532,2616,29,15
0534,1746,21,17
0537,8651,112,58
0542,3638,49,70
0546,10310,131,70
0547,2205,36,22
0553,2016,28,17
0556,3444,68,35
0569,3238,44,22
0575,3985,66,22
0579,1888,23,31
0589,1024,38,12
0590,3506,45,46
0597,5670,112,89
0599,76092,1904,949
0603,4804,129,76
0606,9183,233,114
0610,3297,30,41
0613,2911,46,22
0614,1142,22,18
0622,8474,171,90
0626,1812,23,24
0627,2986,69,15
0629,2001,41,30
0632,5069,140,39
0637,11158,168,69
0638,826,10,1
0642,5265,87,101
0654,1466,38,6
0664,2617,84,30
0668,1896,25,19
0677,1799,40,13
0678,1003,14,6
0687,3473,77,25
0703,2947,56,16
0715,4061,115,28
0716,2804,69,29
0717,1341,31,7
0718,3298,127,32
0736,3934,116,35
0737,1979,22,28
0743,1652,33,18
0744,538,13,4
0748,6523,92,44
0753,2964,55,30
0755,1041,41,23
0756,3236,39,45
0757,3438,51,68
0758,15833,250,146
0762,3656,91,41
0765,1007,25,13
0766,2934,46,25
0770,2383,47,25
0772,22136,436,353
0777,3648,69,38
0779,2210,31,25
0784,2576,38,19
0785,2380,42,36
0786,1425,30,24
0794,10812,205,84
0796,16465,254,170
0797,5050,88,50
0798,1581,20,20
0809,2682,52,37
0815,1200,17,10
0820,2102,34,21
0823,2327,31,27
0824,3041,55,22
0826,4947,84,36
0828,10524,240,128
0840,2219,46,16
0845,3206,52,34
0847,2224,48,13
0848,1511,42,28
0851,2231,31,19
0852,1752,33,15
0855,23350,402,275
0856,4211,139,86
0858,3302,55,61
0861,4981,83,49
0865,3167,74,53
0866,1560,19,17
0867,5334,77,77
0873,1927,21,26
0879,1639,36,17
0880,1535,35,33
0882,3529,99,69
0888,1457,29,12
0889,1447,30,12
0893,1527,22,14
0899,2733,87,51
0907,1734,28,19
0917,7311,238,125
0928,3952,137,96
0935,9769,327,195
0938,1429,49,23
0944,593,11,11
0946,2246,47,20
0957,6135,101,58
0965,879,27,9
0971,2347,76,24
0981,706,23,14
0983,13138,222,165
0984,5609,64,48
0986,1023,25,11
0988,5989,110,68
0994,1257,37,23
0995,5825,136,61
1507,5666,61,64
1509,3910,48,46
1525,3735,38,24
1581,3981,91,73
1586,2772,35,41
1598,2572,24,21
1621,6379,90,63
1640,3926,75,52
1641,2504,42,36
1652,2873,100,38
1655,2956,57,27
1658,1565,23,13
1659,2532,62,36
1667,1611,23,9
1669,2039,47,35
1674,7574,102,73
1676,2053,50,25
1680,1371,7,20
1681,1533,30,15
1684,2572,36,26
1685,1872,51,28
1690,1939,31,24
1695,545,16,9
1696,1918,25,18
1699,1630,31,25
1700,4397,39,30
1701,946,16,22
1702,1178,27,11
1705,3697,62,33
1706,2522,79,51
1708,3142,31,26
1709,3352,45,40
1711,3044,64,34
1714,1413,43,18
1719,2439,48,30
1721,3732,111,78
1723,899,24,5
1724,2229,28,11
1728,2745,38,27
1729,1133,31,19
1730,1489,22,24
1731,1994,35,30
1734,3597,73,30
1735,3541,34,29
1740,2826,63,33
1742,4646,54,54
1771,4266,75,27
1773,1266,19,9
1774,3082,36,35
1783,13559,185,86
1842,1952,18,14
1859,3773,41,42
1876,3019,37,21
1883,8249,209,143
1884,2520,25,10
1891,1407,17,17
1892,4646,117,46
1894,4815,165,84
1895,2744,43,37
1896,2382,51,30
1900,7647,72,90
1901,3937,74,36
1903,2075,85,46
1904,5694,145,68
1911,4347,49,33
1916,6288,151,83
1924,4507,127,87
1926,5220,66,38
1930,8683,178,98
1931,6191,150,62
1940,3528,53,33
1942,4902,58,33
1945,3119,56,51
1948,8769,260,166
1949,2909,39,36
1950,2256,36,21
1952,3636,53,39
1954,3400,95,48
1955,3019,42,24
1959,6726,87,68
1960,5733,87,61
1961,6060,122,75
1963,8336,150,64
1966,3403,31,20
1969,3233,37,25
1970,3156,44,37
1978,5570,50,34
1979,2800,47,21