0014,31324,141,63
0034,39064,438,122
0037,4557,41,23
0047,3453,19,18
0050,3626,27,17
0059,5118,46,41
0060,362,3,1
0072,1896,13,8
0074,7689,58,44
0080,17669,149,96
0085,3366,25,7
0086,4559,38,11
0088,68,1,2
0090,8767,76,41
0093,621,3,2
0096,127,1,1
0098,3764,26,31
0106,7858,82,25
0109,5381,67,35
0114,16273,228,93
0118,8897,99,47
0119,4549,40,37
0141,13228,146,71
0147,4337,38,41
0148,4550,37,24
0150,15417,143,100
0153,27530,307,198
0158,4583,37,34
0160,10738,84,49
0163,7178,57,54
0164,13868,102,73
0166,9047,98,56
0168,4526,55,38
0171,7978,44,34
0173,5920,66,52
0175,2803,16,19
0177,6708,51,52
0180,4536,29,29
0183,4825,27,21
0184,4575,70,24
0189,5455,29,31
0193,19436,149,144
0197,4162,36,33
0200,27069,268,193
0202,26662,257,154
0203,15051,91,80
0209,4497,49,28
0213,3079,43,25
0214,4584,54,26
0216,5307,54,24
0221,1486,25,9
0222,9732,82,51
0225,3539,50,31
0226,3847,35,17
0228,23200,187,118
0230,4337,50,23
0232,5345,88,55
0233,4919,55,45
0243,8220,101,62
0244,1830,25,7
0246,2547,60,33
0252,2681,31,21
0262,4791,46,43
0263,5641,50,45
0267,8535,58,34
0268,31487,352,234
0269,4500,63,41
0273,4879,26,21
0274,4024,44,38
0275,6766,78,85
0277,225,1,0
0279,2319,7,12
0281,7946,105,80
0285,4002,34,34
0289,6182,56,71
0293,2308,33,11
0294,4146,27,25
0296,7319,92,69
0297,6431,57,50
0299,6490,102,50
0301,7496,74,46
0302,5437,95,42
0303,6196,79,32
0307,29306,291,152
0308,4555,36,30
0310,7194,89,83
0312,2335,29,15
0313,6387,66,42
0317,1831,21,7
0321,8809,83,53
0327,4946,44,32
0331,3022,42,12
0335,2726,34,10
0339,1262,11,5
0340,4595,50,26
0342,8280,87,55
0344,66915,841,300
0345,14855,157,88
0351,3143,25,9
0352,3711,39,19
0353,6270,95,59
0355,10714,110,82
0356,10498,158,37
0358,6699,49,30
0361,19308,175,93
0362,15327,162,117
0363,172352,2413,962
0370,1816,10,4
0373,4884,44,41
0375,7785,63,46
0376,2104,17,8
0377,3916,20,20
0383,6020,41,33
0384,6191,63,43
0385,8557,107,27
0388,3330,35,17
0392,28685,279,187
0394,28511,247,135
0396,7483,80,46
0397,4668,36,67
0398,10586,81,50
0399,3759,26,18
0400,9943,97,51
0402,14855,130,106
0405,14434,110,57
0406,8030,75,61
0415,2260,16,13
0416,4999,39,21
0417,2021,20,31
0420,8955,68,29
0431,1866,19,8
0432,2351,14,7
0437,2823,20,6
0439,14726,224,97
0441,7994,69,78
0448,1414,7,4
0450,2454,15,16
0451,5522,44,21
0453,12312,131,98
0457,3648,24,23
0473,2822,33,46
0479,29212,392,191
0482,4927,54,27
0484,21222,218,146
0489,10215,118,50
0498,3807,29,13
0501,3083,34,11
0502,13908,220,159
0503,17964,127,86
0505,25103,308,217
0512,7732,56,47
0513,14070,323,165
0518,98165,2173,641
0523,5071,24,31
0530,7039,91,49
0531,6908,49,41
0532,4022,36,16
0534,3520,25,23
0537,15065,134,71
0542,6603,59,78
0546,21913,165,83
0547,4328,40,28
0553,4130,35,23
0556,6328,79,45
0569,6224,51,26
0575,7966,76,31
0579,3884,24,32
0589,1792,40,12
0590,6439,51,52
0597,10071,134,107
0599,140713,2333,1071
0603,9614,154,78
0606,16069,279,127
0610,6374,40,51
0613,5556,54,23
0614,2252,28,20
0622,15227,216,108
0626,3887,29,24
0627,6308,90,19
0629,3972,50,36
0632,10008,154,46
0637,21626,216,77
0638,1639,11,1
0642,9209,95,119
0654,3918,62,12
0664,6922,148,42
0668,3601,26,20
0677,4512,68,18
0678,2223,21,8
0687,8423,114,41
0703,5887,78,24
0715,8901,173,41
0716,5771,83,35
0717,3370,44,17
0718,7105,180,41
0736,8488,130,55
0737,4797,41,34
0743,3372,36,20
0744,1196,16,4
0748,12703,120,50
0753,5666,63,37
0755,2087,46,23
0756,6342,51,53
0757,6399,61,73
0758,34415,311,181
0762,6835,100,50
0765,1707,27,13
0766,5070,53,32
0770,3831,58,34
0772,42190,537,408
0777,7554,84,40
0779,4155,38,30
0784,4733,48,21
0785,4547,49,43
0786,2416,35,27
0794,18356,220,92
0796,31165,300,192
0797,9288,97,56
0798,2793,21,20
0809,4913,57,47
0815,2183,17,12
0820,3771,38,27
0823,3866,33,27
0824,5970,64,26
0826,10557,116,43
0828,17655,265,141
0840,4089,54,18
0845,5875,57,44
0847,4182,51,21
0848,2802,46,30
0851,4065,44,22
0852,3013,36,18
0855,45398,488,299
0856,7708,150,93
0858,5851,69,71
0861,8282,94,54
0865,6088,86,56
0866,3075,28,17
0867,9635,90,82
0873,3588,28,26
0879,3569,48,18
0880,2836,41,37
0882,7982,130,92
0888,3223,41,16
0889,2955,42,15
0893,2970,31,19
0899,6049,121,71
0907,3644,32,31
0917,17476,306,160
0928,8867,174,107
0935,23084,439,250
0938,3703,70,43
0944,1093,13,13
0946,4014,54,28
0957,12434,139,79
0965,1937,38,12
0971,5162,89,27
0981,1450,29,23
0983,25701,282,201
0984,10254,78,58
0986,2490,30,12
0988,11157,147,93
0994,3144,46,35
0995,13588,184,80
1507,10866,73,78
1509,7050,58,58
1525,7080,45,28
1581,8087,111,87
1586,5173,44,49
1598,4541,29,24
1621,12963,110,72
1640,7305,90,59
1641,5158,53,44
1652,5651,108,44
1655,5369,62,31
1658,2721,25,13
1659,4159,69,45
1667,2793,26,13
1669,3936,55,40
1674,14726,129,85
1676,4888,80,39
1680,2863,10,22
1681,3013,37,23
1684,5329,44,33
1685,3066,51,29
1690,3733,44,29
1695,1105,29,11
1696,4164,38,24
1699,3596,39,26
1700,7090,53,35
1701,2135,21,24
1702,2233,29,11
1705,7819,80,54
1706,4368,84,59
1708,6327,39,30
1709,6564,62,54
1711,6386,80,45
1714,3078,65,25
1719,4859,58,32
1721,6463,121,82
1723,1787,26,5
1724,3720,31,15
1728,4563,48,33
1729,2557,39,21
1730,3435,30,26
1731,4069,45,32
1734,7480,89,38
1735,6841,43,38
1740,6372,81,51
1742,9438,66,68
1771,7355,89,33
1773,2604,23,10
1774,5334,39,38
1783,24541,230,101
1842,3817,19,14
1859,7155,54,58
1876,5961,52,28
1883,17969,276,168
1884,4710,27,11
1891,3628,34,26
1892,8995,140,50
1894,9445,177,93
1895,4769,55,40
1896,4757,67,34
1900,15079,106,98
1901,7761,92,39
1903,4979,109,59
1904,11685,164,77
1911,7852,58,38
1916,12370,198,106
1924,8838,143,95
1926,10417,86,43
1930,16056,220,106
1931,11483,171,68
1940,8370,77,38
1942,10743,75,44
1945,6097,71,67
1948,15495,280,180
1949,6323,56,43
1950,4302,44,25
1952,7081,73,46
1954,7322,116,71
1955,5837,55,31
1959,12762,112,76
1960,10905,106,68
1961,12647,151,82
1963,16806,172,75
1966,7381,50,37
1969,7660,46,35
1970,7981,86,57
1978,10576,65,44
1979,5022,56,29