0003,261,9,1
0010,558,9,2
0014,5787,49,11
0024,164,2,0
0034,9387,206,51
0037,1063,12,8
0047,541,4,2
0050,701,16,8
0059,492,1,0
0060,102,0,0
0072,192,5,2
0074,782,17,24
0080,2543,54,17
0085,458,10,1
0086,444,14,1
0088,6,1,0
0090,868,16,13
0093,81,1,1
0096,21,0,0
0098,523,6,12
0106,1365,30,9
0109,907,26,8
0114,3227,62,32
0118,1653,37,16
0119,762,14,5
0141,3661,52,31
0147,1039,20,12
0148,951,18,11
0150,3759,64,54
0153,6560,123,84
0158,1320,23,23
0160,1787,34,17
0163,1711,17,20
0164,3492,52,35
0166,1584,68,41
0168,1190,22,12
0171,1640,26,21
0173,1565,33,33
0175,463,10,7
0177,1575,27,25
0180,806,11,5
0183,1359,15,9
0184,1526,38,11
0189,1602,11,16
0193,3333,64,67
0197,899,16,12
0200,5015,142,73
0202,5950,124,79
0203,3290,32,22
0209,930,24,11
0213,598,23,7
0214,989,29,13
0216,1213,35,12
0221,336,14,8
0222,1848,43,21
0225,699,31,18
0226,970,20,8
0228,5274,101,54
0230,831,31,11
0232,1014,58,27
0233,1110,33,26
0243,1690,58,25
0244,332,19,5
0246,533,55,29
0252,673,23,13
0262,961,23,22
0263,1102,28,22
0267,1949,35,7
0268,6731,205,125
0269,796,43,21
0273,1040,13,6
0274,1002,22,19
0275,1490,43,26
0277,50,1,0
0279,541,5,5
0281,1828,65,39
0285,747,20,11
0289,1387,30,29
0293,543,16,7
0294,833,13,8
0296,1701,61,32
0297,1558,26,24
0299,1216,62,23
0301,1324,42,19
0302,979,69,24
0303,1285,50,16
0307,6854,149,71
0308,983,25,19
0310,1799,41,39
0312,549,16,11
0313,2026,38,18
0317,367,7,1
0321,2007,44,48
0327,1086,18,16
0331,688,25,9
0335,646,16,7
0339,269,5,5
0340,1119,17,9
0342,2018,48,35
0344,16860,477,181
0345,4156,84,40
0351,719,12,5
0352,798,15,8
0353,1423,53,46
0355,2541,55,35
0356,2313,73,18
0358,1345,19,21
0361,3736,87,47
0362,3725,92,78
0363,48509,1295,475
0370,288,5,2
0373,1081,27,26
0375,1560,25,16
0376,435,8,4
0377,693,10,8
0383,1206,18,13
0384,1682,30,23
0385,1577,57,8
0388,837,22,5
0392,5879,143,110
0394,6433,123,72
0396,1576,42,23
0397,917,21,49
0398,2039,36,13
0399,693,15,10
0400,1348,23,8
0402,3096,51,50
0405,2622,52,18
0406,1983,40,27
0415,471,7,4
0416,1041,23,7
0417,445,12,9
0420,1667,24,9
0431,486,13,3
0432,385,3,2
0437,700,8,1
0439,2681,103,49
0441,1580,26,22
0448,194,6,2
0450,616,8,5
0451,1130,27,6
0453,2791,64,63
0457,1122,12,16
0473,594,15,11
0479,7504,216,114
0482,1167,16,15
0484,5517,120,66
0489,2537,73,34
0498,727,7,9
0501,702,23,5
0502,3479,99,97
0503,4672,71,52
0505,6422,119,107
0512,1878,23,26
0513,3830,113,101
0518,26879,860,398
0523,990,2,8
0530,1395,35,13
0531,1604,15,14
0532,769,20,5
0534,775,11,2
0537,3610,67,33
0542,1685,25,38
0546,5193,90,41
0547,1137,30,12
0553,908,20,7
0556,1744,45,20
0569,1250,22,15
0575,1724,43,10
0579,1010,17,16
0589,468,32,12
0590,1506,11,24
0597,2423,62,57
0599,40018,1217,655
0603,2476,83,62
0606,4777,147,47
0610,1435,12,20
0613,1526,33,17
0614,498,10,1
0622,4364,104,59
0626,891,13,15
0627,1372,45,10
0629,962,21,17
0632,2298,79,25
0637,5671,94,30
0638,339,5,1
0642,2357,40,57
0654,444,7,2
0664,811,31,15
0668,629,24,15
0677,799,22,11
0678,250,5,2
0687,904,29,15
0703,666,10,5
0715,1679,41,8
0716,1015,51,22
0717,375,10,2
0718,752,21,7
0736,1857,75,28
0737,489,9,3
0743,656,22,14
0744,259,12,4
0748,3449,68,32
0753,1230,40,16
0755,432,37,20
0756,1333,28,35
0757,1279,35,39
0758,8060,212,116
0762,1420,65,35
0765,183,10,2
0766,1408,39,22
0770,1041,38,19
0772,8847,278,162
0777,1930,61,31
0779,932,21,19
0784,1186,30,18
0785,1079,36,24
0786,675,28,23
0788,661,25,13
0794,4157,150,54
0796,6674,183,121
0797,2017,68,41
0798,742,18,16
0809,1190,39,30
0815,467,14,7
0820,836,23,14
0823,915,21,20
0824,1138,32,15
0826,2520,62,32
0828,4128,200,106
0840,1065,25,12
0845,1326,42,23
0847,799,37,9
0848,610,35,22
0851,937,20,15
0852,785,27,14
0855,10154,332,234
0856,1541,121,70
0858,1472,29,44
0861,2031,49,28
0865,1390,51,36
0866,685,9,10
0867,2432,59,59
0873,808,12,21
0879,830,31,13
0880,627,25,14
0882,1096,58,26
0888,568,18,10
0889,443,24,10
0893,522,12,3
0899,917,59,25
0907,786,22,15
0917,2579,147,66
0928,1190,86,43
0935,4361,224,148
0938,592,26,17
0944,310,10,9
0946,909,38,11
0957,1984,68,29
0965,353,22,5
0971,815,55,16
0981,219,13,5
0983,4613,164,98
0984,2396,47,25
0986,341,18,8
0988,2811,87,34
0994,557,26,12
0995,2752,100,46
1507,2169,51,40
1509,1285,29,24
1525,1751,27,7
1581,2028,48,29
1586,1171,24,28
1598,760,13,12
1621,3140,66,53
1640,1461,60,42
1641,747,29,16
1652,1139,84,34
1655,1300,37,17
1658,715,20,13
1659,1039,44,29
1667,755,19,6
1669,627,29,11
1674,3711,64,55
1676,731,18,16
1680,470,2,1
1681,610,11,10
1684,1047,22,17
1685,834,45,22
1690,608,18,6
1695,117,3,1
1696,850,17,6
1699,423,11,16
1700,1771,22,8
1701,319,10,5
1702,477,21,11
1705,1792,47,19
1706,1124,68,39
1708,1048,19,11
1709,1446,30,24
1711,862,45,20
1714,720,20,10
1719,1085,32,21
1721,1476,102,67
1723,430,21,5
1724,1079,22,6
1728,1339,27,18
1729,496,27,16
1730,540,13,13
1731,704,13,3
1734,1462,63,21
1735,1439,26,14
1740,1295,51,25
1742,2047,35,33
1771,1657,50,19
1773,465,12,8
1774,1448,24,18
1783,6139,113,62
1842,936,13,8
1859,1612,30,32
1876,1298,22,11
1883,2845,146,78
1884,1062,16,3
1891,411,3,0
1892,2113,51,30
1894,1766,149,66
1895,666,14,11
1896,790,39,24
1900,2650,29,33
1901,1712,32,16
1903,984,62,32
1904,2684,72,40
1911,1259,34,9
1916,3205,78,55
1924,2061,78,55
1926,2694,41,22
1930,4049,105,55
1931,2602,78,53
1940,1033,31,13
1942,2238,38,22
1945,1522,45,36
1948,3380,228,143
1949,904,19,22
1950,685,14,3
1952,1126,19,14
1954,1150,59,30
1955,1128,30,12
1959,3255,57,55
1960,2385,73,42
1961,2708,63,54
1963,3431,92,35
1966,1073,14,7
1969,999,21,10
1970,863,16,9
1978,2074,24,19