0014,19806,100,45
0034,22345,357,97
0037,2671,24,21
0047,2113,12,11
0050,1980,22,14
0059,2500,28,39
0060,276,3,1
0072,942,13,6
0074,3309,39,40
0080,8473,105,74
0085,1653,18,6
0086,2037,29,8
0088,48,1,2
0090,3966,45,34
0093,291,3,2
0096,80,0,0
0098,1967,20,29
0106,4331,69,15
0109,3078,57,31
0114,9568,169,79
0118,5045,77,41
0119,2545,34,27
0141,8385,109,59
0147,2774,31,38
0148,2558,26,20
0150,9645,110,88
0153,16381,251,175
0158,2863,34,32
0160,6183,61,37
0163,4695,44,51
0164,8207,83,68
0166,4122,81,44
0168,2986,50,36
0171,3808,39,29
0173,3801,56,45
0175,1595,15,16
0177,3901,43,41
0180,2454,18,21
0183,3469,26,19
0184,2653,55,19
0189,3383,21,27
0193,9446,109,114
0197,2657,32,22
0200,14555,210,148
0202,14968,211,126
0203,8298,65,64
0209,2711,41,22
0213,1740,33,18
0214,2746,40,20
0216,3062,48,22
0221,865,19,9
0222,5466,65,31
0225,2116,41,27
0226,2328,29,14
0228,13043,146,88
0230,2258,39,14
0232,2985,78,52
0233,2636,49,34
0243,4763,87,48
0244,1007,21,7
0246,1352,57,32
0252,1594,28,19
0262,2527,40,29
0263,3851,43,42
0267,4920,53,29
0268,18483,280,192
0269,2391,50,30
0273,2715,21,18
0274,2361,37,27
0275,3921,64,59
0277,122,1,0
0279,1167,5,12
0281,4917,89,73
0285,2129,31,30
0289,3566,43,42
0293,1369,21,9
0294,2313,18,17
0296,4576,82,60
0297,4089,41,42
0299,3698,84,48
0301,3586,55,29
0302,2592,80,32
0303,3397,64,25
0307,16239,270,139
0308,2479,35,28
0310,4241,76,78
0312,1307,22,12
0313,4402,62,39
0317,1070,20,6
0321,4774,75,51
0327,2703,42,25
0331,1771,39,12
0335,1582,29,8
0339,667,7,5
0340,2579,43,21
0342,4545,81,47
0344,40158,751,254
0345,8527,135,75
0351,1591,23,8
0352,2120,34,17
0353,3673,89,55
0355,5847,97,75
0356,6034,139,30
0358,3822,40,26
0361,11123,143,86
0362,8978,139,92
0363,109238,2054,829
0370,1023,9,3
0373,2833,39,38
0375,4691,46,42
0376,1194,14,6
0377,2102,18,17
0383,3589,28,24
0384,3773,56,36
0385,5489,98,23
0388,2077,31,11
0392,15646,225,153
0394,16404,192,110
0396,4409,63,32
0397,2408,26,60
0398,6470,63,38
0399,2130,24,15
0400,5750,68,40
0402,8187,93,86
0405,9230,96,55
0406,4547,63,54
0415,1327,14,6
0416,2993,35,17
0417,1204,17,26
0420,5764,59,26
0431,1065,16,8
0432,1413,11,6
0437,1535,18,5
0439,9305,198,84
0441,5046,57,59
0448,705,6,4
0450,1487,12,7
0451,3001,34,15
0453,7894,105,90
0457,2295,20,22
0473,1662,25,43
0479,17446,321,176
0482,2888,46,22
0484,12407,192,117
0489,6213,106,48
0498,2356,25,13
0501,1822,31,10
0502,8847,187,145
0503,11370,105,75
0505,15423,269,181
0512,4626,48,43
0513,8513,281,160
0518,61009,1737,561
0523,2900,17,25
0530,3998,71,43
0531,3910,41,32
0532,2776,30,15
0534,2076,21,18
0537,9354,114,60
0542,4041,49,71
0546,13112,141,73
0547,2591,36,23
0553,2440,29,17
0556,3865,71,34
0569,3619,46,22
0575,4962,67,23
0579,2258,23,31
0589,1138,38,12
0590,3842,47,46
0597,6427,114,90
0599,91861,2014,975
0603,5536,137,76
0606,10132,242,115
0610,3596,33,41
0613,3444,50,23
0614,1272,23,19
0622,9554,180,91
0626,2142,23,24
0627,3269,74,16
0629,2380,41,31
0632,5826,146,39
0637,12662,177,70
0638,945,10,1
0642,5790,90,102
0654,1724,42,8
0664,3057,100,31
0668,2195,25,19
0677,1988,41,13
0678,1152,16,6
0687,3926,78,25
0703,3196,59,17
0715,4437,122,29
0716,3202,72,30
0717,1594,32,7
0718,3606,130,32
0736,4685,119,35
0737,2199,23,28
0743,1940,33,18
0744,657,13,4
0748,7768,97,44
0753,3419,57,31
0755,1170,42,23
0756,3597,40,45
0757,3851,51,69
0758,20190,261,147
0762,4135,91,42
0765,1095,25,13
0766,3279,47,25
0770,2611,49,26
0772,26020,457,357
0777,4259,71,38
0779,2586,31,25
0784,2914,41,19
0785,2748,42,36
0786,1592,31,24
0794,12314,207,85
0796,19240,264,172
0797,5764,91,50
0798,1774,20,20
0809,2920,52,37
0815,1320,17,10
0820,2374,34,22
0823,2530,32,27
0824,3445,55,22
0826,5941,86,37
0828,11655,246,129
0840,2521,46,16
0845,3631,53,34
0847,2457,48,13
0848,1691,43,28
0851,2558,34,19
0852,2021,33,15
0855,27364,418,277
0856,4646,139,86
0858,3662,59,63
0861,5433,85,50
0865,3604,76,53
0866,1824,23,17
0867,5912,80,77
0873,2126,23,26
0879,1914,37,17
0880,1770,37,33
0882,3766,100,70
0888,1677,32,12
0889,1608,30,13
0893,1707,25,15
0899,2980,91,52
0907,1932,29,20
0917,8185,246,126
0928,4343,143,96
0935,12015,350,201
0938,1678,54,23
0944,681,11,11
0946,2458,47,20
0957,6935,107,62
0965,990,28,9
0971,2603,78,24
0981,757,24,14
0983,14708,235,170
0984,6117,65,49
0986,1184,26,11
0988,6776,116,69
0994,1502,38,23
0995,6611,143,63
1507,6309,61,66
1509,4489,50,45
1525,4441,40,25
1581,4528,96,73
1586,3306,35,41
1598,2914,24,24
1621,7374,97,64
1640,4326,77,52
1641,2708,43,37
1652,3218,102,38
1655,3375,57,27
1658,1724,23,13
1659,2795,63,36
1667,1766,23,10
1669,2227,49,35
1674,8575,106,75
1676,2446,56,25
1680,1590,7,20
1681,1685,32,15
1684,2916,37,27
1685,2034,51,28
1690,2157,33,24
1695,599,20,9
1696,2248,25,18
1699,1997,31,25
1700,4826,43,30
1701,1050,17,22
1702,1292,28,11
1705,4276,63,35
1706,2773,79,52
1708,3489,33,27
1709,3905,48,43
1711,3354,65,36
1714,1565,46,18
1719,2917,49,30
1721,4241,113,78
1723,1013,24,5
1724,2438,28,11
1728,2987,40,28
1729,1300,34,20
1730,1873,25,24
1731,2224,35,30
1734,4305,74,30
1735,4011,34,29
1740,3052,64,34
1742,5223,55,54
1771,4785,78,28
1773,1526,21,10
1774,3636,37,35
1783,15568,192,86
1842,2283,19,14
1859,4273,43,42
1876,3389,37,21
1883,9247,221,145
1884,2868,26,10
1891,1552,18,17
1892,5330,122,47
1894,5366,165,85
1895,3007,45,37
1896,2600,52,30
1900,8594,79,91
1901,4363,80,37
1903,2428,89,47
1904,6623,147,69
1911,4783,50,34
1916,7485,163,85
1924,5203,133,90
1926,6165,74,38
1930,9811,185,99
1931,6862,153,64
1940,4185,57,33
1942,6045,62,35
1945,3575,56,51
1948,9733,265,168
1949,3221,43,37
1950,2483,36,21
1952,4181,56,40
1954,3789,102,52
1955,3402,42,25
1959,7336,87,68
1960,6515,87,61
1961,6772,124,76
1963,9526,156,67
1966,4143,36,20
1969,4041,39,26
1970,3496,48,38
1978,6145,54,35
1979,3062,51,23