0014,23076,119,50
0034,27471,393,113
0037,3106,32,21
0047,2411,13,11
0050,2364,22,14
0059,3380,32,39
0060,302,3,1
0072,1137,13,6
0074,4825,47,41
0080,10808,118,75
0085,1999,20,6
0086,2754,31,8
0088,49,1,2
0090,5264,57,34
0093,440,3,2
0096,97,0,0
0098,2496,21,29
0106,5113,74,15
0109,3816,63,32
0114,11844,197,84
0118,6111,87,42
0119,3066,35,32
0141,9762,128,62
0147,3174,33,39
0148,3084,31,22
0150,11549,126,91
0153,19636,283,179
0158,3263,35,33
0160,7527,67,38
0163,5207,52,51
0164,9762,92,71
0166,5756,85,47
0168,3390,51,38
0171,4888,40,29
0173,4395,59,45
0175,1958,16,16
0177,4778,47,45
0180,3887,24,26
0183,3747,27,21
0184,3554,62,19
0189,3957,26,28
0193,12680,126,127
0197,3035,33,27
0200,18588,227,164
0202,18214,225,128
0203,11108,82,66
0209,3143,44,24
0213,2065,37,22
0214,3322,43,21
0216,3744,52,23
0221,1050,22,9
0222,6880,68,32
0225,2501,48,29
0226,2688,31,16
0228,17294,175,102
0230,3010,42,18
0232,3750,82,54
0233,3415,51,38
0243,5722,93,50
0244,1230,23,7
0246,1703,57,32
0252,1843,31,19
0262,3044,40,30
0263,4239,44,42
0267,5933,57,30
0268,21644,311,207
0269,3339,55,34
0273,3371,23,21
0274,2788,41,32
0275,4603,70,65
0277,147,1,0
0279,1727,7,12
0281,5903,91,74
0285,2553,33,31
0289,4593,50,46
0293,1610,28,9
0294,2865,20,18
0296,5207,89,62
0297,4850,47,46
0299,4677,91,49
0301,4450,59,30
0302,3861,88,39
0303,4101,72,26
0307,19627,284,143
0308,2961,36,28
0310,5009,85,79
0312,1518,26,12
0313,4773,62,39
0317,1292,21,6
0321,5834,80,52
0327,3200,42,25
0331,2189,41,12
0335,1935,32,8
0339,996,10,5
0340,3453,47,21
0342,5392,84,48
0344,47227,815,263
0345,11172,149,81
0351,2147,24,8
0352,2513,37,17
0353,4293,92,57
0355,7004,103,76
0356,7327,150,31
0358,4592,45,26
0361,12907,150,86
0362,10683,151,103
0363,127910,2240,879
0370,1230,9,3
0373,3217,41,40
0375,5406,49,42
0376,1396,14,6
0377,2448,19,17
0383,4219,34,24
0384,4450,61,39
0385,6098,100,24
0388,2386,32,14
0392,18969,248,158
0394,19778,211,117
0396,5160,67,32
0397,3023,33,65
0398,7383,70,38
0399,2462,24,16
0400,6557,79,42
0402,9869,109,92
0405,10607,100,55
0406,5494,70,57
0415,1606,14,7
0416,3425,37,17
0417,1381,19,29
0420,6565,62,27
0431,1302,17,8
0432,1686,12,6
0437,1859,19,5
0439,10777,210,87
0441,5787,61,61
0448,836,6,4
0450,1691,12,7
0451,3776,35,15
0453,8887,112,92
0457,2559,21,23
0473,1858,28,43
0479,21026,353,182
0482,3796,47,23
0484,15081,202,132
0489,7452,114,48
0498,2610,28,13
0501,2118,33,11
0502,10246,198,148
0503,13311,119,80
0505,17987,285,190
0512,5484,52,45
0513,10525,303,165
0518,73075,1929,585
0523,3741,21,27
0530,4831,80,45
0531,4951,45,35
0532,3026,30,15
0534,2416,23,19
0537,10992,121,65
0542,4654,52,74
0546,16017,154,78
0547,3137,39,25
0553,2986,31,18
0556,4718,74,35
0569,4518,48,24
0575,5752,73,25
0579,2775,23,31
0589,1354,39,12
0590,4561,48,47
0597,7529,124,92
0599,107264,2186,1003
0603,6736,146,77
0606,11938,259,121
0610,4621,33,44
0613,3962,53,23
0614,1510,26,19
0622,11140,194,99
0626,2667,25,24
0627,4271,77,17
0629,2752,43,32
0632,6919,152,44
0637,15511,199,70
0638,1114,11,1
0642,6756,94,102
0654,2290,45,9
0664,4066,108,31
0668,2595,25,19
0677,2506,46,13
0678,1437,17,6
0687,5053,88,30
0703,4128,64,17
0715,5448,141,31
0716,3883,76,30
0717,2035,35,7
0718,4368,140,34
0736,5714,128,39
0737,3066,30,31
0743,2152,34,18
0744,791,13,4
0748,8903,103,48
0753,3902,58,32
0755,1453,44,23
0756,4808,46,50
0757,4470,54,71
0758,23729,277,158
0762,4759,100,44
0765,1198,26,13
0766,3720,49,25
0770,2913,51,32
0772,29897,476,363
0777,5087,73,39
0779,2906,33,26
0784,3236,43,20
0785,3141,43,36
0786,1826,31,24
0794,13776,213,87
0796,21822,275,178
0797,6612,93,51
0798,2051,21,20
0809,3330,52,38
0815,1587,17,10
0820,2650,35,23
0823,2787,32,27
0824,3992,57,22
0826,6858,98,41
0828,13231,255,132
0840,2812,49,17
0845,4169,54,35
0847,2845,48,13
0848,1848,43,28
0851,2900,39,20
0852,2307,33,17
0855,31805,450,282
0856,5364,143,86
0858,4066,60,64
0861,6088,90,50
0865,4071,80,53
0866,2104,24,17
0867,6832,84,77
0873,2397,24,26
0879,2409,40,17
0880,2053,38,35
0882,4933,115,77
0888,2067,36,13
0889,2065,35,14
0893,2108,26,18
0899,3900,105,56
0907,2810,30,30
0917,10884,267,136
0928,5628,155,99
0935,14509,380,207
0938,2221,63,34
0944,813,12,12
0946,2921,51,22
0957,8682,128,67
0965,1199,30,9
0971,3264,80,24
0981,908,26,14
0983,17625,250,184
0984,7404,74,52
0986,1511,27,11
0988,8381,132,76
0994,1877,42,24
0995,8997,163,65
1507,7828,67,71
1509,5292,53,45
1525,5087,42,25
1581,5560,102,75
1586,3996,39,42
1598,3230,25,24
1621,9044,105,69
1640,5285,80,52
1641,3300,49,38
1652,3886,104,38
1655,3849,60,29
1658,1931,25,13
1659,3201,66,39
1667,2033,24,10
1669,2713,51,35
1674,10089,116,76
1676,3064,63,28
1680,1822,8,21
1681,2060,34,16
1684,3684,40,29
1685,2347,51,29
1690,2634,39,26
1695,688,21,9
1696,2721,28,21
1699,2300,34,25
1700,5261,44,32
1701,1372,18,23
1702,1652,29,11
1705,5096,70,37
1706,3266,80,54
1708,4257,33,27
1709,4501,50,47
1711,4190,69,40
1714,1874,51,20
1719,3303,51,30
1721,4782,115,78
1723,1174,25,5
1724,2660,29,12
1728,3355,40,28
1729,1653,38,20
1730,2195,27,25
1731,2635,41,32
1734,5150,80,30
1735,4846,38,31
1740,4844,72,44
1742,6795,59,59
1771,5385,82,29
1773,1823,21,10
1774,4107,39,36
1783,18031,203,89
1842,2756,19,14
1859,4982,45,47
1876,4127,42,22
1883,12030,244,150
1884,3387,26,10
1891,2347,25,17
1892,6476,128,47
1894,6632,171,87
1895,3307,47,38
1896,3769,61,31
1900,10354,92,93
1901,5693,85,38
1903,3002,99,48
1904,7945,159,71
1911,5393,54,34
1916,8833,178,90
1924,6346,137,92
1926,7344,82,40
1930,11545,195,99
1931,8490,158,65
1940,5323,64,36
1942,7258,65,39
1945,4302,61,53
1948,11303,271,171
1949,4051,46,37
1950,3064,38,22
1952,5026,60,40
1954,4934,108,55
1955,4023,50,26
1959,9374,97,70
1960,7819,96,61
1961,8682,142,77
1963,11760,165,68
1966,5052,41,21
1969,5008,40,26
1970,5416,70,43
1978,7915,60,39
1979,3630,54,24