0014,50046,9999,64
0034,58409,9999,125
0037,6784,9999,24
0047,5270,9999,19
0050,4977,9999,18
0059,6745,9999,41
0060,393,9999,1
0072,2617,9999,8
0074,10004,9999,44
0080,25026,9999,97
0085,4244,9999,7
0086,5968,9999,11
0088,105,9999,2
0090,11230,9999,42
0093,829,9999,2
0096,215,9999,1
0098,4828,9999,31
0106,11700,9999,26
0109,7284,9999,35
0114,22358,9999,96
0118,12295,9999,48
0119,6964,9999,37
0141,19823,9999,72
0147,6639,9999,41
0148,7035,9999,24
0150,24212,9999,101
0153,42211,9999,200
0158,6651,9999,34
0160,15198,9999,51
0163,9900,9999,54
0164,21032,9999,74
0166,14133,9999,58
0168,6231,9999,38
0171,10964,9999,34
0173,8886,9999,53
0175,4263,9999,19
0177,9657,9999,52
0180,6305,9999,29
0183,7042,9999,21
0184,6239,9999,24
0189,7775,9999,31
0193,31774,9999,148
0197,5862,9999,33
0200,40397,9999,197
0202,36586,9999,160
0203,17939,9999,83
0209,6714,9999,28
0213,4419,9999,25
0214,6723,9999,26
0216,7777,9999,24
0221,1930,9999,9
0222,14159,9999,54
0225,5344,9999,31
0226,5031,9999,18
0228,29372,9999,118
0230,6472,9999,26
0232,7562,9999,55
0233,7102,9999,45
0243,12680,9999,62
0244,3029,9999,7
0246,3857,9999,33
0252,3954,9999,21
0262,7323,9999,43
0263,8181,9999,45
0267,11420,9999,34
0268,46811,9999,235
0269,6405,9999,43
0273,7392,9999,21
0274,5190,9999,38
0275,8842,9999,87
0277,362,9999,0
0279,3058,9999,12
0281,11819,9999,80
0285,5891,9999,34
0289,8221,9999,72
0293,3006,9999,11
0294,6500,9999,25
0296,10240,9999,71
0297,9355,9999,50
0299,8347,9999,51
0301,10532,9999,48
0302,7326,9999,44
0303,9090,9999,32
0307,47457,9999,153
0308,7016,9999,30
0310,11007,9999,84
0312,3503,9999,15
0313,9328,9999,43
0317,2736,9999,7
0321,13484,9999,53
0327,7801,9999,32
0331,4467,9999,12
0335,4473,9999,10
0339,1825,9999,5
0340,6343,9999,26
0342,13469,9999,55
0344,107734,9999,306
0345,21306,9999,91
0351,4319,9999,9
0352,5827,9999,19
0353,10031,9999,59
0355,16792,9999,82
0356,16883,9999,37
0358,9956,9999,30
0361,30115,9999,94
0362,25349,9999,119
0363,270131,9999,986
0373,7269,9999,41
0375,11447,9999,46
0376,3346,9999,8
0377,6383,9999,22
0383,9439,9999,33
0384,9703,9999,43
0385,13160,9999,27
0388,4600,9999,17
0392,44813,9999,192
0394,44242,9999,140
0396,10901,9999,46
0397,7184,9999,68
0399,5726,9999,18
0400,14511,9999,51
0402,24446,9999,107
0405,21698,9999,59
0406,11750,9999,64
0415,3536,9999,13
0417,2934,9999,31
0420,12649,9999,29
0431,2884,9999,8
0432,3388,9999,7
0437,4261,9999,6
0439,24877,9999,107
0441,12311,9999,78
0448,2047,9999,4
0450,3800,9999,16
0451,8705,9999,21
0453,18536,9999,98
0457,5774,9999,23
0473,4308,9999,47
0479,45487,9999,194
0482,6706,9999,30
0484,31241,9999,148
0489,14795,9999,50
0498,5384,9999,13
0501,4336,9999,12
0502,19877,9999,159
0503,27471,9999,90
0505,36052,9999,220
0512,11332,9999,48
0513,21188,9999,166
0518,153684,9999,652
0523,6688,9999,31
0530,9592,9999,50
0531,10173,9999,41
0532,5959,9999,17
0534,5562,9999,23
0537,22354,9999,71
0542,9147,9999,78
0546,33142,9999,84
0547,6726,9999,29
0553,6178,9999,24
0556,9135,9999,46
0569,8672,9999,26
0575,11948,9999,32
0579,6303,9999,32
0589,2960,9999,12
0590,9006,9999,51
0597,13979,9999,109
0599,209813,9999,1077
0603,15256,9999,78
0606,23510,9999,127
0610,8658,9999,52
0613,8105,9999,23
0614,3377,9999,20
0622,22094,9999,112
0626,6286,9999,24
0627,9163,9999,19
0629,6662,9999,37
0632,15368,9999,46
0637,34505,9999,78
0638,2511,9999,1
0642,12908,9999,119
0654,6434,9999,13
0664,10012,9999,44
0668,5303,9999,20
0677,7365,9999,18
0678,3402,9999,8
0687,12379,9999,41
0703,8115,9999,25
0715,13587,9999,41
0716,8383,9999,36
0717,5406,9999,18
0718,10926,9999,42
0736,13006,9999,55
0737,7020,9999,36
0743,4563,9999,20
0744,1837,9999,4
0748,19954,9999,51
0753,8031,9999,38
0755,2787,9999,23
0757,9086,9999,73
0758,52655,9999,184
0762,9530,9999,51
0765,2632,9999,14
0766,7208,9999,32
0770,5769,9999,35
0772,62390,9999,413
0777,11676,9999,40
0779,6221,9999,30
0784,6737,9999,21
0785,6838,9999,43
0794,26400,9999,93
0796,45041,9999,194
0797,13064,9999,56
0798,4252,9999,20
0809,6701,9999,47
0820,5729,9999,27
0823,5394,9999,27
0824,8477,9999,27
0826,15885,9999,44
0828,24363,9999,143
0840,6396,9999,18
0845,8357,9999,45
0847,5558,9999,21
0848,4342,9999,30
0851,6304,9999,22
0852,4635,9999,18
0855,65102,9999,301
0858,8592,9999,72
0861,11792,9999,55
0865,8944,9999,56
0866,4648,9999,18
0867,13259,9999,83
0873,5419,9999,26
0879,5313,9999,19
0880,4380,9999,37
0882,10604,9999,94
0888,4403,9999,16
0889,3867,9999,15
0893,3882,9999,20
0899,7963,9999,71
0907,4894,9999,31
0917,23434,9999,161
0928,11732,9999,108
0935,31808,9999,254
0938,5187,9999,43
0944,1767,9999,13
0946,5073,9999,28
0957,16619,9999,79
0965,2557,9999,12
0971,7025,9999,28
0981,2003,9999,23
0983,33592,9999,201
0984,13640,9999,58
0986,3301,9999,14
0988,14578,9999,99
0994,4027,9999,36
0995,19102,9999,83
1507,14067,9999,78
1509,9290,9999,58
1525,10436,9999,28
1581,11819,9999,88
1586,7725,9999,49
1598,6546,9999,24
1621,19302,9999,72
1640,9838,9999,59
1641,6545,9999,44
1652,7856,9999,44
1655,8283,9999,31
1658,3836,9999,13
1659,5846,9999,45
1667,3800,9999,14
1669,5186,9999,40
1674,21922,9999,88
1676,7671,9999,40
1680,4148,9999,23
1681,4390,9999,27
1690,5342,9999,32
1695,1523,9999,12
1696,6519,9999,24
1699,5086,9999,27
1700,10377,9999,36
1701,3048,9999,24
1705,10586,9999,54
1706,6038,9999,60
1708,8885,9999,30
1709,9624,9999,54
1711,8597,9999,45
1714,4775,9999,26
1719,7383,9999,32
1721,9103,9999,82
1723,2599,9999,5
1724,5571,9999,15
1728,6256,9999,33
1729,3388,9999,22
1730,5285,9999,26
1731,5599,9999,32
1734,10155,9999,40
1735,9571,9999,39
1740,8671,9999,51
1742,12452,9999,68
1771,10818,9999,33
1773,3784,9999,10
1774,8188,9999,38
1783,36236,9999,101
1842,5734,9999,15
1859,10545,9999,58
1876,8251,9999,28
1883,24777,9999,171
1884,7271,9999,11
1891,5066,9999,27
1892,13463,9999,51
1894,12550,9999,93
1895,7340,9999,40
1896,7082,9999,35
1900,20923,9999,98
1901,11103,9999,39
1903,6681,9999,60
1904,18489,9999,77
1911,11351,9999,38
1916,19570,9999,107
1924,12922,9999,94
1926,16712,9999,43
1930,23166,9999,108
1931,16136,9999,69
1940,11810,9999,39
1942,17451,9999,45
1945,8617,9999,69
1948,21419,9999,180
1949,9172,9999,45
1950,6142,9999,25
1952,11655,9999,47
1954,9763,9999,72
1955,8339,9999,31
1959,17259,9999,76
1960,15641,9999,69
1961,17881,9999,82
1963,24553,9999,76
1966,11521,9999,38
1969,11721,9999,36
1970,10838,9999,57
1978,14553,9999,45
1979,7720,9999,29
1980,23940,9999,71
1982,23939,9999,137
1991,15026,9999,123