0014,7907,61,25
0034,13328,247,68
0037,1537,15,9
0047,1082,7,7
0050,1108,18,12
0059,1287,10,17
0060,135,0,0
0072,316,5,2
0074,1442,21,26
0080,3901,63,39
0085,701,13,5
0086,891,19,4
0088,10,1,0
0090,1718,23,24
0093,159,1,1
0096,36,0,0
0098,822,9,13
0106,1958,37,11
0109,1728,40,20
0114,4787,81,50
0118,2966,51,35
0119,1372,20,23
0141,5122,76,48
0147,1691,28,33
0148,1444,20,18
0150,5170,75,78
0153,9381,173,151
0158,2064,30,30
0160,3700,44,36
0163,2761,29,44
0164,5207,61,63
0166,2195,69,41
0168,1946,40,29
0171,2303,28,26
0173,2293,43,40
0175,886,13,15
0177,2386,31,33
0180,1544,14,18
0183,1979,18,16
0184,1882,43,12
0189,2251,17,23
0193,4610,69,81
0197,1339,19,18
0200,7082,159,138
0202,8242,153,106
0203,5397,40,50
0209,1304,31,16
0213,850,28,15
0214,1490,32,15
0216,1686,40,17
0221,498,16,9
0222,2722,52,26
0225,1179,36,24
0226,1344,24,10
0228,8084,119,64
0230,1226,34,13
0232,1598,64,38
0233,1728,35,31
0243,2716,64,39
0244,498,19,6
0246,756,55,30
0252,911,25,16
0262,1281,30,26
0263,1646,31,26
0267,3210,45,24
0268,9001,225,165
0269,1326,44,29
0273,1722,17,13
0274,1345,28,23
0275,2285,57,48
0277,73,1,0
0279,754,5,12
0281,2530,74,57
0285,1137,26,25
0289,1913,35,35
0293,740,18,8
0294,1249,13,13
0296,2467,70,49
0297,2301,35,36
0299,1958,69,37
0301,1771,45,23
0302,1372,74,30
0303,1908,52,22
0307,9131,187,100
0308,1345,28,23
0310,2399,48,64
0312,733,18,11
0313,2848,44,38
0317,569,13,2
0321,2554,52,50
0327,1541,23,20
0331,884,26,9
0335,836,18,7
0339,385,6,5
0340,1575,26,17
0342,2658,64,43
0344,20554,537,208
0345,5476,101,67
0351,1051,18,7
0352,1109,24,10
0353,1791,63,48
0355,3324,63,47
0356,3119,83,22
0358,1730,26,22
0361,5391,100,57
0362,4599,100,84
0363,59124,1504,631
0370,437,6,2
0373,1462,31,29
0375,2230,30,19
0376,580,9,5
0377,1026,12,11
0383,1634,19,17
0384,2070,37,29
0385,2438,69,11
0388,1287,26,10
0392,7849,162,136
0394,8457,148,95
0396,2198,47,24
0397,1188,21,55
0398,3040,45,23
0399,1012,18,11
0400,2497,30,14
0402,4220,61,72
0405,4651,61,41
0406,2734,48,51
0415,678,9,5
0416,1534,24,7
0417,626,15,25
0420,3188,32,17
0431,683,15,6
0432,741,3,3
0437,842,10,3
0439,4332,127,62
0441,2508,33,34
0448,306,6,3
0450,843,9,7
0451,1501,30,11
0453,3911,76,74
0457,1369,16,18
0473,804,16,41
0479,9823,247,148
0482,1510,24,18
0484,7102,145,94
0489,3187,77,38
0498,1362,13,11
0501,866,28,9
0502,4460,123,110
0503,5860,79,66
0505,8211,164,130
0512,2534,36,30
0513,4896,157,137
0518,33044,1061,487
0523,1591,6,16
0530,1933,43,35
0531,2115,22,25
0532,1541,26,14
0534,1095,14,14
0537,5314,86,43
0542,2345,36,60
0546,6473,103,51
0547,1415,34,21
0553,1279,23,17
0556,2147,55,29
0569,1719,31,19
0575,2427,56,17
0579,1270,18,29
0589,619,34,12
0590,2035,25,33
0597,3192,75,65
0599,47588,1401,759
0603,3069,96,70
0606,5762,165,92
0610,2044,23,34
0613,1926,36,19
0614,639,14,14
0622,5205,118,79
0626,1150,17,20
0627,1842,56,13
0629,1265,30,28
0632,2992,90,29
0637,7063,112,53
0638,493,6,1
0642,3053,54,72
0654,787,23,5
0664,1307,46,18
0668,1168,24,15
0677,1144,25,11
0678,439,8,5
0687,1611,47,17
0703,1287,21,7
0715,2430,74,24
0716,1368,53,22
0717,659,16,2
0718,1440,39,8
0736,2435,89,32
0737,1090,14,13
0743,938,25,15
0744,303,12,4
0748,4124,78,35
0753,1886,49,26
0755,656,40,23
0756,2133,34,40
0757,1938,44,61
0758,10024,223,134
0762,2074,76,37
0765,482,14,7
0766,1840,42,23
0770,1378,42,21
0772,12653,333,251
0777,2386,63,34
0779,1378,25,23
0784,1513,30,19
0785,1418,38,33
0786,914,29,24
0794,5984,168,69
0796,9086,199,138
0797,2797,69,44
0798,1031,18,20
0809,1652,40,33
0815,742,16,8
0820,1237,29,16
0823,1270,24,23
0824,1885,47,21
0826,3234,70,32
0828,5813,211,115
0840,1404,33,12
0845,1855,44,28
0847,1221,41,11
0848,819,39,26
0851,1273,28,15
0852,1110,28,14
0855,13444,355,268
0856,2093,123,75
0858,2132,37,47
0861,2938,57,39
0865,2068,63,50
0866,951,12,10
0867,3201,64,74
0873,1156,14,23
0879,1050,32,17
0880,873,28,14
0882,2109,77,48
0888,839,25,12
0889,736,24,10
0893,1030,15,10
0899,1473,68,36
0907,1191,26,16
0917,4245,183,108
0928,2281,110,82
0935,5918,251,176
0938,854,29,22
0944,444,11,11
0946,1485,40,16
0957,3244,73,38
0965,571,26,6
0971,1279,61,20
0981,422,18,11
0983,6856,182,124
0984,3710,54,40
0986,579,21,10
0988,4307,103,66
0994,764,29,14
0995,3662,112,56
1507,3328,52,58
1509,2203,35,39
1525,2313,31,10
1581,2768,58,50
1586,1801,27,35
1598,1380,16,18
1621,4163,77,58
1640,2285,63,44
1641,1393,33,19
1652,1677,87,36
1655,1776,44,22
1658,975,21,13
1659,1493,52,33
1667,1050,21,7
1669,1034,35,23
1674,4668,79,61
1676,1032,28,21
1680,843,5,10
1681,944,17,12
1684,1535,28,20
1685,1191,47,22
1690,1081,23,18
1695,234,7,1
1696,1225,18,11
1699,773,14,20
1700,3024,33,27
1701,509,12,11
1702,742,22,11
1705,2438,54,24
1706,1628,71,47
1708,1618,21,17
1709,1875,35,28
1711,1710,53,28
1714,1007,32,18
1719,1444,36,24
1721,2109,105,73
1723,500,21,5
1724,1480,27,7
1728,1849,33,22
1729,735,30,18
1730,910,14,19
1731,1172,19,23
1734,2106,69,26
1735,2354,30,22
1740,1767,56,29
1742,3294,42,45
1771,2502,62,22
1773,702,15,9
1774,2241,33,31
1783,8286,146,80
1842,1234,16,13
1859,2500,32,39
1876,1871,27,14
1883,4569,170,105
1884,1434,18,9
1891,817,5,12
1892,2877,89,40
1894,2511,152,71
1895,1523,24,25
1896,1142,41,25
1900,4229,37,60
1901,2522,48,31
1903,1439,67,36
1904,3580,87,58
1911,2371,36,16
1916,4145,103,71
1924,2656,97,63
1926,3387,45,29
1930,5051,116,82
1931,3738,105,59
1940,1627,35,20
1942,2961,46,28
1945,1950,47,41
1948,4620,240,160
1949,1444,20,30
1950,1423,25,15
1952,1983,31,26
1954,1829,71,39
1955,1722,33,18
1959,4632,76,65
1960,3467,75,43
1961,3771,84,58
1963,4660,107,48
1966,1977,22,19
1969,1685,28,14
1970,1625,27,23
1978,3015,35,24
1979,1756,34,10