0014,59946,9999,65
0034,69802,9999,126
0037,8117,9999,24
0047,6297,9999,19
0050,6729,9999,18
0059,8730,9999,41
0060,499,9999,1
0072,3354,9999,8
0074,12820,9999,44
0080,31549,9999,97
0085,5507,9999,7
0086,7525,9999,11
0088,126,9999,2
0090,14133,9999,42
0093,971,9999,2
0096,278,9999,1
0098,6177,9999,31
0106,14568,9999,26
0109,8987,9999,35
0114,27656,9999,96
0118,15028,9999,48
0119,8736,9999,37
0141,23179,9999,72
0147,8033,9999,41
0148,8554,9999,24
0150,29499,9999,102
0153,49969,9999,201
0158,7798,9999,34
0160,18602,9999,51
0163,11567,9999,54
0164,24812,9999,74
0166,17234,9999,59
0168,7310,9999,38
0171,14455,9999,34
0173,10441,9999,53
0175,5162,9999,19
0177,11782,9999,52
0180,7255,9999,29
0183,8051,9999,22
0184,7789,9999,24
0189,9009,9999,31
0193,38621,9999,149
0197,6914,9999,33
0200,48184,9999,197
0202,48786,9999,162
0203,23072,9999,83
0209,7970,9999,28
0213,5192,9999,25
0214,7948,9999,26
0216,8985,9999,24
0221,2664,9999,9
0222,16804,9999,54
0225,6150,9999,31
0226,7017,9999,18
0228,40109,9999,118
0230,7882,9999,26
0232,9252,9999,55
0233,8513,9999,45
0243,15636,9999,63
0244,3703,9999,7
0246,4809,9999,33
0252,4802,9999,21
0262,8572,9999,43
0263,9288,9999,45
0267,15340,9999,34
0268,56120,9999,238
0269,7747,9999,43
0273,8688,9999,21
0274,7435,9999,38
0275,11556,9999,87
0277,529,9999,0
0279,3911,9999,12
0281,13881,9999,80
0285,7024,9999,34
0289,10886,9999,72
0293,4080,9999,11
0294,7615,9999,25
0296,12273,9999,73
0297,10924,9999,50
0299,11796,9999,51
0301,12407,9999,49
0302,8887,9999,44
0303,12120,9999,32
0307,54519,9999,153
0308,7930,9999,30
0310,12917,9999,84
0312,4346,9999,15
0313,10338,9999,43
0317,3114,9999,7
0321,15994,9999,53
0327,9248,9999,32
0331,5062,9999,12
0335,5085,9999,10
0339,2122,9999,5
0340,7218,9999,26
0342,15106,9999,55
0344,125025,9999,306
0345,24488,9999,90
0351,4997,9999,9
0352,6770,9999,19
0353,11490,9999,59
0355,19646,9999,84
0356,19238,9999,37
0358,11456,9999,30
0361,35179,9999,96
0362,28882,9999,119
0363,301652,9999,998
0373,8296,9999,41
0375,13631,9999,46
0376,3834,9999,8
0377,7568,9999,23
0383,11322,9999,33
0384,10860,9999,43
0385,15069,9999,27
0388,5590,9999,17
0392,52937,9999,196
0394,51336,9999,140
0396,12870,9999,46
0397,8644,9999,68
0399,6936,9999,18
0400,17524,9999,51
0402,28651,9999,107
0405,25561,9999,59
0406,13379,9999,64
0415,4024,9999,13
0417,3304,9999,31
0420,14885,9999,29
0431,3344,9999,8
0432,4062,9999,7
0437,4765,9999,6
0439,29238,9999,108
0441,14515,9999,78
0448,2677,9999,4
0450,4545,9999,17
0451,9890,9999,21
0453,22179,9999,99
0457,6438,9999,23
0473,4987,9999,47
0479,52939,9999,195
0482,7735,9999,30
0484,36082,9999,148
0489,17286,9999,50
0498,6496,9999,13
0501,5099,9999,12
0502,22520,9999,159
0503,32193,9999,92
0505,41893,9999,220
0512,13032,9999,48
0513,25155,9999,166
0518,173301,9999,652
0523,7646,9999,32
0530,11291,9999,50
0531,11814,9999,41
0532,7156,9999,17
0534,6556,9999,23
0537,25797,9999,71
0542,10352,9999,78
0546,39307,9999,84
0547,8008,9999,28
0553,7210,9999,24
0556,10675,9999,46
0569,9869,9999,26
0575,14096,9999,32
0579,7709,9999,32
0589,3342,9999,12
0590,10580,9999,51
0597,16034,9999,109
0599,235231,9999,1077
0603,17285,9999,78
0606,26479,9999,128
0610,9947,9999,52
0613,9209,9999,23
0614,3914,9999,20
0622,25194,9999,112
0626,7503,9999,24
0627,10643,9999,19
0629,7720,9999,37
0632,17429,9999,46
0637,39682,9999,79
0638,2937,9999,1
0642,14911,9999,121
0654,7617,9999,13
0664,11790,9999,44
0668,6096,9999,20
0677,8042,9999,18
0678,4102,9999,8
0687,14658,9999,41
0703,9720,9999,25
0715,15191,9999,41
0716,9830,9999,36
0717,6454,9999,18
0718,12672,9999,42
0736,14624,9999,55
0737,8657,9999,36
0743,5320,9999,20
0744,2071,9999,4
0748,22921,9999,51
0753,9520,9999,38
0755,3658,9999,23
0757,10998,9999,73
0758,61402,9999,186
0762,11133,9999,51
0765,3048,9999,14
0766,8779,9999,32
0770,6889,9999,35
0772,72993,9999,413
0777,13911,9999,41
0779,7329,9999,30
0784,8447,9999,21
0785,8406,9999,43
0794,31295,9999,93
0796,54561,9999,195
0797,15968,9999,56
0798,5293,9999,20
0809,8155,9999,47
0820,6991,9999,27
0823,6243,9999,27
0824,10191,9999,27
0826,18296,9999,44
0828,30452,9999,143
0840,7382,9999,19
0845,10074,9999,46
0847,6457,9999,21
0848,5368,9999,30
0851,7475,9999,22
0852,5537,9999,18
0855,79347,9999,301
0858,9978,9999,72
0861,14181,9999,55
0865,10776,9999,56
0866,5421,9999,18
0867,16247,9999,83
0873,6170,9999,26
0879,6339,9999,19
0880,5201,9999,37
0882,12005,9999,96
0888,5002,9999,16
0889,4380,9999,15
0893,4447,9999,20
0899,9016,9999,71
0907,5721,9999,31
0917,26464,9999,161
0928,13155,9999,108
0935,36109,9999,255
0938,5781,9999,43
0944,2105,9999,13
0946,5727,9999,28
0957,18953,9999,79
0965,2984,9999,12
0971,7993,9999,28
0981,2242,9999,23
0983,37379,9999,201
0984,15476,9999,58
0986,3806,9999,14
0988,16744,9999,99
0994,4542,9999,36
0995,23672,9999,85
1507,15944,9999,78
1509,11177,9999,58
1525,12264,9999,28
1581,14104,9999,88
1586,9133,9999,49
1598,7795,9999,24
1621,22417,9999,72
1640,11046,9999,59
1641,7421,9999,44
1652,9455,9999,44
1655,9663,9999,31
1658,4506,9999,13
1659,6962,9999,45
1667,4590,9999,14
1669,5970,9999,40
1674,25201,9999,88
1676,8948,9999,40
1680,5090,9999,23
1681,5493,9999,27
1690,6652,9999,32
1695,1772,9999,12
1696,7730,9999,24
1699,6269,9999,27
1700,12143,9999,36
1701,3791,9999,25
1705,13912,9999,55
1706,6976,9999,60
1708,11008,9999,30
1709,11152,9999,54
1711,9855,9999,45
1714,5225,9999,26
1719,8459,9999,32
1721,11279,9999,82
1723,3086,9999,5
1724,6597,9999,15
1728,7250,9999,33
1729,3846,9999,22
1730,6816,9999,26
1731,6945,9999,32
1734,14499,9999,40
1735,11141,9999,39
1740,9879,9999,51
1742,14892,9999,68
1771,12682,9999,33
1773,4729,9999,10
1774,9275,9999,38
1783,41554,9999,101
1842,6636,9999,15
1859,12641,9999,58
1876,9567,9999,28
1883,28462,9999,171
1884,8444,9999,11
1891,6107,9999,27
1892,15816,9999,51
1894,14228,9999,93
1895,8748,9999,40
1896,8502,9999,35
1900,25434,9999,98
1901,12957,9999,39
1903,7535,9999,60
1904,21305,9999,77
1911,13894,9999,38
1916,22496,9999,107
1924,15311,9999,94
1926,19450,9999,43
1930,26511,9999,108
1931,19026,9999,69
1940,14915,9999,39
1942,19972,9999,45
1945,10310,9999,69
1948,26526,9999,180
1949,11211,9999,45
1950,7172,9999,25
1952,13914,9999,48
1954,11177,9999,72
1955,9857,9999,31
1959,20396,9999,76
1960,17894,9999,69
1961,20226,9999,82
1963,28591,9999,76
1966,13227,9999,38
1969,14533,9999,36
1970,13692,9999,57
1978,16779,9999,45
1979,9304,9999,29
1980,28579,9999,72
1982,29514,9999,137
1991,18969,9999,123