0014,14726,93,45
0034,20063,340,96
0037,2533,24,20
0047,1924,12,11
0050,1788,22,14
0059,2321,26,39
0060,207,3,1
0072,835,13,3
0074,2820,37,39
0080,7666,103,74
0085,1485,17,6
0086,1742,27,7
0088,45,1,2
0090,3465,44,34
0093,250,3,2
0096,68,0,0
0098,1863,20,29
0106,3841,68,15
0109,2925,57,31
0114,9215,165,79
0118,4630,77,41
0119,2375,34,27
0141,7721,107,59
0147,2531,30,38
0148,2351,26,20
0150,8415,106,88
0153,14644,242,175
0158,2708,34,32
0160,5933,60,37
0163,4330,44,51
0164,7376,78,68
0166,3773,80,44
0168,2686,49,33
0171,3540,36,28
0173,3434,54,45
0175,1495,15,15
0177,3438,42,41
0180,2411,18,21
0183,3005,26,19
0184,2632,54,19
0189,3137,21,27
0193,8358,105,113
0197,2472,32,22
0200,12773,203,147
0202,13171,202,126
0203,7922,65,64
0209,2405,41,22
0213,1530,33,18
0214,2553,40,20
0216,2793,47,22
0221,796,19,9
0222,4916,65,29
0225,1893,40,27
0226,2104,28,14
0228,12044,144,86
0230,2115,39,14
0232,2756,78,52
0233,2485,49,34
0243,4401,87,48
0244,910,21,7
0246,1288,57,32
0252,1432,27,19
0262,2214,37,29
0263,3611,43,42
0267,4569,51,29
0268,15831,273,190
0269,2270,50,30
0273,2571,21,18
0274,2126,37,26
0275,3629,62,58
0277,110,1,0
0279,1080,5,12
0281,4635,88,73
0285,1916,31,28
0289,3143,41,42
0293,1188,21,9
0294,2120,18,17
0296,4150,81,60
0297,3929,41,42
0299,3391,82,48
0301,3245,54,29
0302,2411,80,32
0303,3133,63,25
0307,14570,260,139
0308,2250,34,28
0310,3715,75,78
0312,1180,22,12
0313,4277,62,39
0317,942,19,5
0321,4242,75,51
0327,2404,41,24
0331,1645,39,12
0335,1456,29,8
0339,627,7,5
0340,2472,42,21
0342,4055,77,47
0344,33983,724,249
0345,8062,135,75
0351,1482,22,8
0352,1954,34,17
0353,3352,87,55
0355,5170,88,73
0356,5496,134,30
0358,3283,37,26
0361,9638,142,85
0362,7647,135,90
0363,91368,1960,817
0370,916,9,3
0373,2523,39,38
0375,4255,44,42
0376,1032,13,6
0377,1735,16,17
0383,3188,27,24
0384,3159,52,34
0385,5184,96,23
0388,1936,30,11
0392,13252,218,149
0394,14443,184,110
0396,4015,63,32
0397,2016,26,60
0398,5796,59,37
0399,1744,23,15
0400,5392,67,39
0402,6956,90,86
0405,8630,94,55
0406,4113,63,53
0415,1191,12,6
0416,2640,35,16
0417,1023,16,26
0420,5473,58,26
0431,960,16,8
0432,1297,11,6
0437,1297,16,5
0439,8245,192,84
0441,4606,56,58
0448,604,6,4
0450,1322,12,7
0451,2620,34,15
0453,7119,104,90
0457,2075,20,20
0473,1439,21,43
0479,15810,314,176
0482,2712,44,22
0484,11480,191,115
0489,5576,104,48
0498,2203,24,13
0501,1689,31,10
0502,7993,184,145
0503,9739,104,75
0505,14547,265,181
0512,4245,48,42
0513,7948,278,160
0518,55289,1694,554
0523,2791,17,25
0530,3598,69,43
0531,3663,41,32
0532,2656,29,15
0534,1807,21,17
0537,8844,113,59
0542,3752,49,71
0546,11127,138,70
0547,2333,36,23
0553,2113,28,17
0556,3620,69,34
0569,3364,46,22
0575,4222,66,22
0579,2011,23,31
0589,1062,38,12
0590,3599,47,46
0597,5938,113,89
0599,80774,1969,972
0603,5038,133,76
0606,9428,237,115
0610,3420,33,41
0613,3088,49,22
0614,1162,22,18
0622,8947,175,91
0626,1922,23,24
0627,3073,71,16
0629,2151,40,31
0632,5281,143,39
0637,11621,173,70
0638,871,10,1
0642,5434,90,101
0654,1580,41,6
0664,2839,94,31
0668,2007,25,19
0677,1821,41,13
0678,1084,16,6
0687,3599,78,25
0703,3079,59,17
0715,4177,119,29
0716,2892,71,30
0717,1397,31,7
0718,3407,130,32
0736,4095,118,35
0737,2022,22,28
0743,1700,33,18
0744,580,13,4
0748,6797,93,44
0753,3132,56,30
0755,1072,42,23
0756,3354,40,45
0757,3605,51,69
0758,16926,252,147
0762,3793,91,42
0765,1042,25,13
0766,3032,46,25
0770,2446,49,26
0772,23394,453,355
0777,3854,69,38
0779,2382,31,25
0784,2679,41,19
0785,2502,42,36
0786,1458,31,24
0794,11281,205,85
0796,17231,259,171
0797,5390,90,50
0798,1643,20,20
0809,2766,52,37
0815,1253,17,10
0820,2195,34,22
0823,2405,32,27
0824,3171,55,22
0826,5288,84,36
0828,10970,243,129
0840,2322,46,16
0845,3309,52,34
0847,2277,48,13
0848,1550,42,28
0851,2318,33,19
0852,1826,33,15
0855,24457,413,277
0856,4350,139,86
0858,3405,59,63
0861,5131,85,50
0865,3294,74,53
0866,1621,19,17
0867,5579,80,77
0873,1983,23,26
0879,1710,36,17
0880,1586,35,33
0882,3619,99,70
0888,1542,32,12
0889,1502,30,13
0893,1623,25,15
0899,2840,89,52
0907,1801,28,19
0917,7596,243,126
0928,4079,142,96
0935,10287,342,198
0938,1476,50,23
0944,625,11,11
0946,2291,47,20
0957,6438,107,61
0965,902,27,9
0971,2395,78,24
0981,716,24,14
0983,13787,229,170
0984,5777,64,49
0986,1058,25,11
0988,6194,113,69
0994,1310,37,23
0995,6022,138,62
1507,5915,61,66
1509,4089,49,45
1525,3974,39,25
1581,4171,92,73
1586,2925,35,41
1598,2675,24,24
1621,6681,95,63
1640,4116,76,52
1641,2564,42,36
1652,2973,101,38
1655,3126,57,27
1658,1587,23,13
1659,2610,62,36
1667,1643,23,10
1669,2109,47,35
1674,7905,103,75
1676,2198,55,25
1680,1446,7,20
1681,1620,32,15
1684,2677,37,27
1685,1915,51,28
1690,2048,32,24
1695,568,18,9
1696,1977,25,18
1699,1702,31,25
1700,4623,41,30
1701,992,16,22
1702,1231,27,11
1705,3861,63,35
1706,2604,79,52
1708,3257,33,27
1709,3563,46,41
1711,3158,65,36
1714,1476,45,18
1719,2603,49,30
1721,3876,111,78
1723,934,24,5
1724,2300,28,11
1728,2841,39,27
1729,1161,31,19
1730,1588,22,24
1731,2078,35,30
1734,3886,74,30
1735,3700,34,29
1740,2968,63,34
1742,4795,55,54
1771,4413,75,28
1773,1349,21,10
1774,3201,37,35
1783,14096,188,86
1842,2056,19,14
1859,3968,42,42
1876,3131,37,21
1883,8568,217,145
1884,2661,25,10
1891,1487,18,17
1892,4880,120,47
1894,4987,165,85
1895,2858,44,37
1896,2453,52,30
1900,7846,75,90
1901,4089,75,36
1903,2144,87,47
1904,5906,146,69
1911,4495,49,34
1916,6728,156,84
1924,4822,130,89
1926,5465,71,38
1930,9018,185,99
1931,6468,153,64
1940,3658,55,33
1942,5174,60,35
1945,3264,56,51
1948,9107,263,167
1949,2969,40,36
1950,2370,36,21
1952,3769,54,39
1954,3523,99,49
1955,3127,42,24
1959,6963,87,68
1960,6020,87,61
1961,6338,124,76
1963,8770,155,66
1966,3590,33,20
1969,3399,38,25
1970,3315,48,38
1978,5791,54,35
1979,2856,49,23