0014,7663,61,24
0034,12846,243,68
0037,1485,15,9
0047,1023,6,7
0050,1054,18,12
0059,1156,6,9
0060,133,0,0
0072,302,5,2
0074,1372,21,25
0080,3698,62,33
0085,664,10,5
0086,821,17,3
0088,10,1,0
0090,1598,22,19
0093,157,1,1
0096,30,0,0
0098,756,9,13
0106,1871,36,11
0109,1604,36,20
0114,4551,77,48
0118,2770,49,33
0119,1331,20,22
0141,4934,71,46
0147,1632,27,28
0148,1416,20,17
0150,5061,74,77
0153,9092,168,141
0158,2013,29,30
0160,3540,43,34
0163,2599,28,39
0164,5052,60,58
0166,2141,69,41
0168,1878,37,27
0171,2232,27,25
0173,2235,40,40
0175,845,13,14
0177,2300,31,30
0180,1475,14,16
0183,1942,18,15
0184,1859,43,12
0189,2178,15,23
0193,4481,67,80
0197,1289,19,18
0200,6908,158,135
0202,8049,148,103
0203,5241,38,49
0209,1268,29,16
0213,826,27,15
0214,1422,32,15
0216,1638,38,17
0221,485,16,8
0222,2597,51,25
0225,1087,34,22
0226,1313,24,10
0228,7777,113,64
0230,1200,33,12
0232,1522,62,35
0233,1669,35,30
0243,2614,64,37
0244,483,19,5
0246,728,55,30
0252,883,24,15
0262,1260,30,26
0263,1533,30,26
0267,3121,44,19
0268,8791,221,163
0269,1286,44,29
0273,1667,16,12
0274,1304,27,23
0275,2209,55,41
0277,70,1,0
0279,719,5,12
0281,2390,72,53
0285,1099,25,18
0289,1840,33,33
0293,715,18,8
0294,1212,13,13
0296,2384,69,48
0297,2168,33,34
0299,1879,67,34
0301,1715,44,22
0302,1338,74,29
0303,1861,52,21
0307,8877,181,94
0308,1298,28,23
0310,2292,46,64
0312,715,16,11
0313,2807,44,36
0317,548,12,2
0321,2483,52,50
0327,1461,22,19
0331,857,25,9
0335,812,18,7
0339,379,6,5
0340,1535,25,16
0342,2600,59,43
0344,20097,530,203
0345,5344,97,66
0351,1015,17,7
0352,1075,21,9
0353,1739,61,47
0355,3184,60,42
0356,2971,80,21
0358,1674,24,22
0361,5095,95,56
0362,4487,99,84
0363,57549,1460,602
0370,413,6,2
0373,1409,30,29
0375,2110,28,18
0376,573,9,5
0377,982,11,11
0383,1585,19,17
0384,2022,36,27
0385,2262,65,10
0388,1242,26,9
0392,7582,157,135
0394,8197,144,91
0396,2098,46,24
0397,1158,20,54
0398,2900,43,22
0399,985,18,11
0400,2355,30,14
0402,4056,59,72
0405,4333,59,35
0406,2641,46,51
0415,644,9,5
0416,1455,23,7
0417,614,15,25
0420,2973,32,15
0431,649,15,6
0432,691,3,3
0437,826,9,3
0439,4032,124,59
0441,2395,33,27
0448,305,6,2
0450,820,9,7
0451,1436,28,11
0453,3771,76,72
0457,1335,16,17
0473,787,16,40
0479,9489,240,144
0482,1497,23,17
0484,6921,143,89
0489,3102,76,38
0498,1289,11,11
0501,843,28,9
0502,4315,120,109
0503,5662,79,64
0505,7945,150,123
0512,2474,33,29
0513,4748,146,132
0518,32257,1028,469
0523,1524,6,14
0530,1895,43,35
0531,2052,22,25
0532,1458,25,10
0534,1054,13,13
0537,5079,86,41
0542,2263,35,56
0546,6306,103,49
0547,1387,33,21
0553,1249,23,16
0556,2111,55,28
0569,1643,29,18
0575,2361,55,17
0579,1247,18,29
0589,608,33,12
0590,1954,21,31
0597,3026,69,62
0599,46388,1373,743
0603,3008,95,70
0606,5620,163,67
0610,1966,22,30
0613,1888,34,19
0614,620,13,14
0622,5080,116,72
0626,1123,18,20
0627,1749,55,13
0629,1235,27,27
0632,2927,88,29
0637,6876,112,51
0638,465,6,1
0642,2957,52,70
0654,763,23,5
0664,1244,44,18
0668,1095,24,15
0677,1090,25,11
0678,421,7,5
0687,1485,41,16
0703,1247,20,7
0715,2308,64,23
0716,1310,53,22
0717,636,12,2
0718,1310,36,8
0736,2352,86,32
0737,937,13,9
0743,896,25,15
0744,296,12,4
0748,3973,77,34
0753,1792,49,26
0755,631,39,22
0756,2061,33,39
0757,1865,43,57
0758,9784,222,134
0762,1961,73,37
0765,434,13,3
0766,1778,42,23
0770,1333,41,21
0772,11959,322,237
0777,2344,63,34
0779,1314,25,21
0784,1473,30,18
0785,1381,38,30
0786,877,29,23
0794,5636,165,62
0796,8705,198,135
0797,2672,69,44
0798,1002,18,20
0809,1607,40,33
0815,717,16,8
0820,1184,26,15
0823,1212,24,23
0824,1781,45,21
0826,3149,70,32
0828,5520,207,112
0840,1350,31,12
0845,1782,42,28
0847,1186,39,11
0848,787,38,26
0851,1203,25,15
0852,1064,28,14
0855,12883,354,265
0856,2022,123,75
0858,2033,34,45
0861,2802,56,38
0865,2005,63,50
0866,909,12,10
0867,3094,63,73
0873,1103,14,21
0879,1033,32,15
0880,824,28,14
0882,1984,74,46
0888,807,24,12
0889,695,24,10
0893,990,15,10
0899,1376,68,35
0907,1148,26,16
0917,4041,179,103
0928,2148,107,74
0935,5697,244,174
0938,817,28,22
0944,434,11,11
0946,1398,39,15
0957,2999,73,36
0965,551,26,6
0971,1211,58,18
0981,395,18,11
0983,6517,179,120
0984,3502,52,34
0986,552,21,10
0988,4164,102,64
0994,727,29,14
0995,3561,111,54
1507,3196,52,57
1509,2050,34,36
1525,2245,31,10
1581,2663,55,43
1586,1757,27,34
1598,1271,15,15
1621,4095,76,58
1640,2157,63,44
1641,1300,32,18
1652,1614,87,35
1655,1678,42,21
1658,929,20,13
1659,1429,49,31
1667,1005,21,7
1669,943,32,22
1674,4486,74,60
1676,979,26,20
1680,777,4,10
1681,904,17,11
1684,1483,28,20
1685,1147,47,22
1690,1037,22,14
1695,199,4,1
1696,1176,18,11
1699,725,14,19
1700,2900,32,26
1701,464,11,7
1702,717,22,11
1705,2403,54,22
1706,1546,70,47
1708,1571,21,17
1709,1790,34,26
1711,1547,51,25
1714,972,30,17
1719,1408,36,24
1721,1962,105,68
1723,491,21,5
1724,1440,27,7
1728,1770,32,20
1729,690,30,18
1730,878,14,17
1731,1128,18,23
1734,2042,68,26
1735,2267,30,19
1740,1704,55,29
1742,3151,42,43
1771,2387,58,21
1773,681,14,9
1774,2173,32,31
1783,8044,143,76
1842,1198,16,12
1859,2407,32,39
1876,1801,26,12
1883,4344,167,101
1884,1402,18,9
1891,743,4,12
1892,2787,81,39
1894,2380,151,71
1895,1423,22,19
1896,1107,41,25
1900,3948,32,55
1901,2410,48,27
1903,1383,66,36
1904,3492,84,54
1911,2235,36,15
1916,4062,100,68
1924,2562,94,63
1926,3299,44,28
1930,4921,115,76
1931,3583,102,59
1940,1506,35,16
1942,2864,46,28
1945,1900,47,41
1948,4469,240,159
1949,1389,20,30
1950,1327,22,13
1952,1880,29,24
1954,1763,71,39
1955,1676,33,15
1959,4483,72,65
1960,3302,75,42
1961,3578,78,58
1963,4508,104,45
1966,1853,20,19
1969,1565,25,13
1970,1518,27,21
1978,2925,34,22
1979,1688,33,10