0014,18700,93,45
0034,20999,342,96
0037,2596,24,20
0047,2034,12,11
0050,1865,22,14
0059,2416,27,39
0060,267,3,1
0072,884,13,3
0074,3101,37,39
0080,8064,104,74
0085,1577,17,6
0086,1903,28,7
0088,46,1,2
0090,3799,44,34
0093,263,3,2
0096,71,0,0
0098,1911,20,29
0106,4126,68,15
0109,3015,57,31
0114,9371,166,79
0118,4874,77,41
0119,2451,34,27
0141,8028,108,59
0147,2654,30,38
0148,2443,26,20
0150,9219,106,88
0153,15568,243,175
0158,2812,34,32
0160,6035,60,37
0163,4515,44,51
0164,7789,78,68
0166,3941,80,44
0168,2855,50,33
0171,3662,36,28
0173,3621,55,45
0175,1546,15,15
0177,3682,42,41
0180,2423,18,21
0183,3338,26,19
0184,2637,54,19
0189,3294,21,27
0193,8991,107,113
0197,2595,32,22
0200,13763,205,147
0202,14128,205,126
0203,8112,65,64
0209,2597,41,22
0213,1635,33,18
0214,2640,40,20
0216,2930,47,22
0221,838,19,9
0222,5193,65,29
0225,2030,40,27
0226,2216,28,14
0228,12597,144,86
0230,2199,39,14
0232,2873,78,52
0233,2556,49,34
0243,4587,87,48
0244,961,21,7
0246,1318,57,32
0252,1518,27,19
0262,2408,37,29
0263,3749,43,42
0267,4740,52,29
0268,17630,275,190
0269,2333,50,30
0273,2632,21,18
0274,2221,37,26
0275,3795,63,58
0277,119,1,0
0279,1140,5,12
0281,4764,88,73
0285,2056,31,28
0289,3405,43,42
0293,1249,21,9
0294,2224,18,17
0296,4340,81,60
0297,4001,41,42
0299,3566,82,48
0301,3409,55,29
0302,2508,80,32
0303,3283,63,25
0307,15578,260,139
0308,2389,34,28
0310,4055,75,78
0312,1268,22,12
0313,4337,62,39
0317,1031,19,5
0321,4579,75,51
0327,2603,41,24
0331,1698,39,12
0335,1522,29,8
0339,660,7,5
0340,2525,42,21
0342,4363,77,47
0344,38548,733,250
0345,8283,135,75
0351,1527,22,8
0352,2051,34,17
0353,3545,87,55
0355,5565,89,73
0356,5769,134,30
0358,3632,38,26
0361,10470,143,85
0362,8515,136,92
0363,102917,1977,818
0370,991,9,3
0373,2704,39,38
0375,4519,45,42
0376,1118,14,6
0377,1973,16,17
0383,3389,27,24
0384,3545,53,36
0385,5364,96,23
0388,2008,30,11
0392,14723,221,150
0394,15542,186,110
0396,4262,63,32
0397,2271,26,60
0398,6117,61,37
0399,2016,23,15
0400,5544,67,39
0402,7711,91,86
0405,8904,94,55
0406,4349,63,53
0415,1278,12,6
0416,2811,35,16
0417,1131,16,26
0420,5587,58,26
0431,1022,16,8
0432,1352,11,6
0437,1464,16,5
0439,8857,192,84
0441,4801,56,58
0448,660,6,4
0450,1415,12,7
0451,2859,34,15
0453,7573,104,90
0457,2210,20,20
0473,1565,22,43
0479,16704,314,176
0482,2789,45,22
0484,12008,191,115
0489,5925,105,48
0498,2292,25,13
0501,1748,31,10
0502,8465,185,145
0503,10909,104,75
0505,14997,266,181
0512,4473,48,42
0513,8213,278,160
0518,58371,1698,555
0523,2857,17,25
0530,3747,69,43
0531,3777,41,32
0532,2720,29,15
0534,1959,21,17
0537,9049,113,59
0542,3926,49,71
0546,12500,138,70
0547,2486,36,23
0553,2313,28,17
0556,3694,69,34
0569,3509,46,22
0575,4673,66,22
0579,2160,23,31
0589,1109,38,12
0590,3715,47,46
0597,6189,114,89
0599,87427,1978,973
0603,5292,133,76
0606,9751,237,115
0610,3497,33,41
0613,3269,50,23
0614,1202,23,19
0622,9190,175,91
0626,2056,23,24
0627,3168,72,16
0629,2279,41,31
0632,5609,143,39
0637,12136,173,70
0638,910,10,1
0642,5591,90,102
0654,1649,42,6
0664,2950,99,31
0668,2125,25,19
0677,1917,41,13
0678,1117,16,6
0687,3759,78,25
0703,3122,59,17
0715,4247,119,29
0716,3003,71,30
0717,1515,31,7
0718,3479,130,32
0736,4484,118,35
0737,2083,22,28
0743,1793,33,18
0744,630,13,4
0748,7271,94,44
0753,3252,56,30
0755,1103,42,23
0756,3469,40,45
0757,3736,51,69
0758,18968,254,147
0762,3939,91,42
0765,1059,25,13
0766,3184,46,25
0770,2515,49,26
0772,24914,453,355
0777,4082,69,38
0779,2477,31,25
0784,2809,41,19
0785,2644,42,36
0786,1518,31,24
0794,11785,205,85
0796,18303,260,171
0797,5564,90,50
0798,1720,20,20
0809,2836,52,37
0815,1276,17,10
0820,2296,34,22
0823,2468,32,27
0824,3288,55,22
0826,5616,84,37
0828,11238,244,129
0840,2427,46,16
0845,3466,52,34
0847,2333,48,13
0848,1628,42,28
0851,2451,33,19
0852,1963,33,15
0855,26040,414,277
0856,4454,139,86
0858,3568,59,63
0861,5267,85,50
0865,3480,75,53
0866,1729,19,17
0867,5717,80,77
0873,2058,23,26
0879,1825,36,17
0880,1692,35,33
0882,3683,99,70
0888,1583,32,12
0889,1535,30,13
0893,1649,25,15
0899,2884,89,52
0907,1870,28,19
0917,7754,244,126
0928,4128,142,96
0935,11212,344,198
0938,1553,50,23
0944,654,11,11
0946,2359,47,20
0957,6607,107,61
0965,931,27,9
0971,2455,78,24
0981,727,24,14
0983,14225,230,170
0984,5904,64,49
0986,1097,25,11
0988,6480,114,69
0994,1389,37,23
0995,6205,139,62
1507,6086,61,66
1509,4314,49,45
1525,4289,39,25
1581,4378,92,73
1586,3143,35,41
1598,2810,24,24
1621,7068,96,63
1640,4212,76,52
1641,2629,43,36
1652,3079,101,38
1655,3274,57,27
1658,1637,23,13
1659,2713,62,36
1667,1711,23,10
1669,2154,48,35
1674,8221,103,75
1676,2284,55,25
1680,1553,7,20
1681,1651,32,15
1684,2790,37,27
1685,1956,51,28
1690,2111,33,24
1695,581,18,9
1696,2146,25,18
1699,1886,31,25
1700,4728,41,30
1701,1026,17,22
1702,1269,27,11
1705,4077,63,35
1706,2706,79,52
1708,3356,33,27
1709,3723,46,41
1711,3221,65,36
1714,1519,45,18
1719,2784,49,30
1721,3982,111,78
1723,980,24,5
1724,2365,28,11
1728,2912,39,27
1729,1208,31,19
1730,1762,23,24
1731,2147,35,30
1734,4075,74,30
1735,3884,34,29
1740,3003,63,34
1742,5060,55,54
1771,4602,77,28
1773,1476,21,10
1774,3456,37,35
1783,14666,188,86
1842,2151,19,14
1859,4158,42,42
1876,3261,37,21
1883,8772,217,145
1884,2764,25,10
1891,1512,18,17
1892,5116,121,47
1894,5141,165,85
1895,2928,44,37
1896,2532,52,30
1900,8255,76,90
1901,4243,75,37
1903,2281,87,47
1904,6319,146,69
1911,4613,49,34
1916,7152,157,84
1924,4977,130,89
1926,5848,72,38
1930,9352,185,99
1931,6688,153,64
1940,3961,55,33
1942,5699,61,35
1945,3427,56,51
1948,9358,263,167
1949,3040,40,37
1950,2414,36,21
1952,4022,55,39
1954,3596,99,49
1955,3269,42,24
1959,7148,87,68
1960,6298,87,61
1961,6562,124,76
1963,9109,155,67
1966,3858,33,20
1969,3826,38,25
1970,3380,48,38
1978,5998,54,35
1979,2954,49,23