0003,289,9,1
0010,673,12,2
0014,6265,51,14
0024,191,2,0
0034,10478,214,52
0037,1195,14,8
0047,638,4,4
0050,808,17,9
0059,591,2,0
0060,112,0,0
0072,216,5,2
0074,899,18,24
0080,2835,57,22
0085,495,10,1
0086,496,15,1
0088,7,1,0
0090,1009,16,14
0093,84,1,1
0096,21,0,0
0098,583,6,12
0106,1481,30,9
0109,1065,27,8
0114,3579,65,34
0118,1953,41,20
0119,930,15,9
0141,4068,54,35
0147,1230,22,15
0148,1051,19,15
0150,4182,68,63
0153,7263,131,97
0158,1524,24,25
0160,2228,37,18
0163,2005,17,21
0164,3924,55,40
0166,1767,68,41
0168,1357,24,14
0171,1806,26,21
0173,1751,34,34
0175,555,11,8
0177,1759,27,25
0180,970,12,6
0183,1472,16,11
0184,1628,40,11
0189,1814,11,18
0193,3683,66,68
0197,1015,17,14
0200,5649,148,92
0202,6643,132,85
0203,3896,32,25
0209,1013,25,12
0213,705,25,9
0214,1128,29,13
0216,1311,35,13
0221,378,15,8
0222,2052,45,23
0225,808,32,18
0226,1101,22,8
0228,6089,101,57
0230,948,32,12
0232,1171,61,29
0233,1310,34,28
0243,1971,60,27
0244,385,19,5
0246,588,55,29
0252,742,24,13
0262,1061,26,24
0263,1195,28,22
0267,2207,37,9
0268,7351,211,130
0269,925,43,26
0273,1256,14,6
0274,1079,23,21
0275,1677,43,29
0277,61,1,0
0279,610,5,8
0281,1932,66,39
0285,831,23,12
0289,1486,30,30
0293,602,17,7
0294,930,13,8
0296,1913,62,33
0297,1750,28,31
0299,1354,65,23
0301,1474,44,20
0302,1092,69,26
0303,1542,50,17
0307,7511,154,77
0308,1099,27,21
0310,1941,42,47
0312,610,16,11
0313,2301,39,27
0317,427,7,1
0321,2152,45,48
0327,1209,20,17
0331,715,25,9
0335,706,17,7
0339,313,5,5
0340,1255,20,9
0342,2202,50,37
0344,17723,486,186
0345,4588,85,42
0351,803,12,5
0352,865,15,9
0353,1498,56,46
0355,2726,56,36
0356,2466,75,18
0358,1449,19,21
0361,4128,88,47
0362,3926,94,78
0363,50925,1331,495
0370,320,5,2
0373,1190,27,28
0375,1690,25,17
0376,482,8,4
0377,769,11,8
0383,1333,18,13
0384,1806,33,25
0385,1668,62,8
0388,978,24,5
0392,6461,147,114
0394,7002,127,78
0396,1719,45,23
0397,997,21,49
0398,2247,37,14
0399,798,15,10
0400,1641,26,8
0402,3351,52,59
0405,3005,54,20
0406,2180,41,30
0415,518,8,4
0416,1169,23,7
0417,517,12,14
0420,1987,27,10
0431,528,13,3
0432,450,3,2
0437,743,8,1
0439,2974,107,51
0441,1787,27,23
0448,245,6,2
0450,664,8,6
0451,1235,27,6
0453,3070,67,67
0457,1181,12,16
0473,671,15,19
0479,8053,223,124
0482,1265,17,16
0484,5982,127,68
0489,2725,75,34
0498,860,8,9
0501,735,23,7
0502,3743,106,98
0503,4952,72,53
0505,6864,122,111
0512,2036,23,26
0513,4071,119,111
0518,28296,903,417
0523,1132,2,8
0530,1524,35,15
0531,1741,15,20
0532,951,20,6
0534,847,12,2
0537,4076,69,33
0542,1845,27,40
0546,5530,91,43
0547,1206,30,15
0553,1017,20,9
0556,1893,47,21
0569,1384,23,16
0575,1941,49,10
0579,1116,17,19
0589,516,32,12
0590,1627,13,26
0597,2585,62,57
0599,41698,1247,672
0603,2658,87,66
0606,4977,151,50
0610,1570,12,23
0613,1647,33,17
0614,530,10,4
0622,4572,104,59
0626,962,14,16
0627,1476,50,11
0629,1021,21,19
0632,2474,79,26
0637,6071,98,33
0638,378,6,1
0642,2554,40,56
0654,496,9,3
0664,887,33,15
0668,696,24,15
0677,844,22,11
0678,316,6,3
0687,1033,31,15
0703,791,10,5
0715,1845,48,9
0716,1078,51,22
0717,463,10,2
0718,842,23,7
0736,2000,75,29
0737,540,9,3
0743,738,23,14
0744,261,12,4
0748,3555,69,33
0753,1373,41,17
0755,487,39,21
0756,1541,30,35
0757,1419,37,46
0758,8601,217,122
0762,1528,69,35
0765,229,11,2
0766,1503,39,22
0770,1120,40,19
0772,9545,286,171
0777,2077,61,31
0779,1018,22,19
0784,1288,30,18
0785,1152,37,24
0786,740,28,23
0788,716,25,13
0794,4491,152,54
0796,7211,182,127
0797,2214,68,41
0798,833,18,17
0809,1308,39,30
0815,532,14,7
0820,925,24,14
0823,1003,21,20
0824,1228,32,15
0826,2732,66,32
0828,4359,202,106
0840,1119,25,12
0845,1446,42,28
0847,911,37,10
0848,650,35,22
0851,1027,24,15
0852,845,27,14
0855,10895,338,244
0856,1675,121,70
0858,1629,31,45
0861,2192,51,28
0865,1493,51,39
0866,748,9,10
0867,2654,61,61
0873,853,12,21
0879,898,32,13
0880,700,25,14
0882,1303,61,28
0888,625,19,11
0889,509,24,10
0893,646,12,5
0899,1061,59,25
0907,905,23,16
0917,2950,148,66
0928,1363,92,45
0935,4769,227,155
0938,670,26,17
0944,345,10,9
0946,1002,38,14
0957,2258,70,29
0965,406,22,5
0971,915,55,16
0981,248,14,5
0983,5104,171,107
0984,2694,49,27
0986,392,18,8
0988,3227,91,39
0994,610,27,12
0995,3006,104,46
1507,2444,53,47
1509,1487,29,26
1525,1923,27,9
1581,2235,51,35
1586,1327,25,29
1598,866,13,12
1621,3410,68,53
1640,1640,61,42
1641,884,31,16
1652,1273,84,34
1655,1390,38,17
1658,786,20,13
1659,1119,45,29
1667,813,19,6
1669,719,30,14
1674,3892,65,57
1676,804,19,17
1680,551,3,1
1681,691,13,10
1684,1144,22,17
1685,909,45,22
1690,704,18,7
1695,126,3,1
1696,931,17,8
1699,476,11,16
1700,2150,25,11
1701,358,11,6
1702,557,21,11
1705,1988,52,19
1706,1210,68,43
1708,1195,21,13
1709,1540,32,24
1711,1026,46,20
1714,791,25,14
1719,1192,35,22
1721,1567,102,68
1723,446,21,5
1724,1178,24,6
1728,1424,27,18
1729,554,28,16
1730,613,13,13
1731,784,13,3
1734,1646,64,23
1735,1682,28,15
1740,1394,52,26
1742,2327,36,35
1771,1853,53,21
1773,520,12,8
1774,1652,24,19
1783,6688,122,66
1842,1013,13,9
1859,1804,30,35
1876,1426,22,12
1883,3213,153,78
1884,1153,16,3
1891,478,3,2
1892,2282,54,31
1894,1917,150,68
1895,813,15,13
1896,860,40,24
1900,2935,30,39
1901,1898,36,18
1903,1056,62,32
1904,2904,74,42
1911,1518,35,9
1916,3465,84,56
1924,2231,80,57
1926,2886,41,24
1930,4317,105,58
1931,2853,86,55
1940,1144,31,13
1942,2425,41,22
1945,1614,45,36
1948,3712,229,148
1949,1053,20,22
1950,773,14,3
1952,1309,23,17
1954,1318,65,31
1955,1291,31,12
1959,3641,60,60
1960,2605,74,42
1961,2913,65,55
1963,3711,94,36
1966,1280,15,11
1969,1163,22,10
1970,1022,18,13
1978,2314,26,21