0014,30252,139,62
0034,37940,436,122
0037,4442,41,23
0047,3370,19,18
0050,3540,27,17
0059,5037,46,41
0060,359,3,1
0072,1847,13,8
0074,7554,58,44
0080,17246,149,96
0085,3316,25,7
0086,4478,38,11
0088,67,1,2
0090,8600,75,41
0093,599,3,2
0096,126,1,1
0098,3699,26,31
0106,7668,82,25
0109,5142,67,35
0114,15760,227,93
0118,8717,96,47
0119,4418,40,37
0141,12954,145,71
0147,4234,38,41
0148,4471,37,24
0150,15155,140,100
0153,26938,306,198
0158,4441,37,34
0160,10585,84,49
0163,7048,57,54
0164,13558,102,73
0166,8891,97,56
0168,4379,55,38
0171,7807,44,34
0173,5804,65,52
0175,2769,16,19
0177,6564,51,51
0180,4476,29,29
0183,4655,27,21
0184,4538,70,24
0189,5318,29,31
0193,19020,149,144
0197,4108,36,33
0200,26498,267,192
0202,25974,256,153
0203,14843,91,79
0209,4381,49,28
0213,3035,43,25
0214,4489,54,26
0216,5192,54,24
0221,1462,25,9
0222,9526,80,49
0225,3465,50,31
0226,3738,35,17
0228,22881,187,118
0230,4262,50,23
0232,5191,88,55
0233,4829,55,44
0243,8035,101,62
0244,1814,24,7
0246,2490,60,33
0252,2597,31,21
0262,4702,46,43
0263,5531,49,45
0267,8340,58,34
0268,30547,350,233
0269,4441,63,41
0273,4760,26,21
0274,3955,44,38
0275,6628,78,85
0277,215,1,0
0279,2290,7,12
0281,7827,104,80
0285,3925,34,32
0289,6001,56,71
0293,2268,33,11
0294,4044,27,25
0296,7081,92,69
0297,6341,57,50
0299,6353,102,50
0301,7337,73,45
0302,5349,95,42
0303,6037,78,32
0307,28672,291,151
0308,4470,36,30
0310,7042,89,81
0312,2267,29,14
0313,6284,66,41
0317,1789,21,6
0321,8648,83,53
0327,4829,44,32
0331,2941,42,12
0335,2656,34,10
0339,1242,11,5
0340,4561,50,26
0342,8151,87,55
0344,64745,840,298
0345,14657,157,88
0351,3078,25,9
0352,3633,39,19
0353,6150,95,59
0355,10442,108,81
0356,10252,157,36
0358,6490,49,30
0361,18802,173,92
0362,14879,161,117
0363,166361,2404,960
0370,1771,9,4
0373,4697,44,41
0375,7545,63,46
0376,2063,17,8
0377,3748,20,20
0383,5889,41,33
0384,6014,63,43
0385,8343,107,27
0388,3269,35,17
0392,27772,277,187
0394,27557,245,135
0396,7319,80,46
0397,4507,36,67
0398,10363,81,49
0399,3677,26,18
0400,9777,97,51
0402,14447,130,106
0405,14195,109,57
0406,7864,75,60
0415,2190,16,13
0416,4897,39,21
0417,1968,20,31
0420,8793,66,29
0431,1787,19,8
0432,2318,13,7
0437,2735,20,6
0439,14424,223,92
0441,7784,69,77
0448,1338,7,4
0450,2358,15,16
0451,5373,44,20
0453,12005,130,98
0457,3576,24,23
0473,2729,33,46
0479,28484,392,190
0482,4860,54,27
0484,20729,217,146
0489,9988,118,50
0498,3700,29,13
0501,3004,34,11
0502,13608,220,159
0503,17458,127,85
0505,24592,308,217
0512,7611,56,47
0513,13748,323,165
0518,95860,2161,639
0523,4993,24,31
0530,6884,91,49
0531,6782,49,41
0532,3970,36,16
0534,3430,25,23
0537,14824,133,71
0542,6482,59,78
0546,21221,164,83
0547,4222,40,28
0553,4056,35,23
0556,6191,79,45
0569,6096,51,26
0575,7782,76,31
0579,3773,24,32
0589,1745,40,12
0590,6329,50,52
0597,9886,134,107
0599,137033,2331,1066
0603,9440,154,78
0606,15762,278,126
0610,6279,40,51
0613,5445,54,23
0614,2198,28,20
0622,14952,216,108
0626,3794,29,24
0627,6181,90,19
0629,3845,50,36
0632,9779,154,46
0637,21086,213,77
0638,1594,11,1
0642,9059,95,119
0654,3829,62,12
0664,6753,147,42
0668,3492,25,19
0677,4385,68,18
0678,2194,21,8
0687,8256,113,41
0703,5751,78,24
0715,8728,173,41
0716,5689,83,35
0717,3306,44,17
0718,6958,180,41
0736,8283,130,54
0737,4707,40,34
0743,3240,36,20
0744,1169,16,4
0748,12444,119,50
0753,5529,63,37
0755,2007,46,23
0756,6272,51,53
0757,6257,61,73
0758,33469,311,181
0762,6706,100,50
0765,1664,27,13
0766,4952,53,32
0770,3737,58,33
0772,41202,537,406
0777,7410,81,40
0779,4093,38,30
0784,4625,48,21
0785,4421,48,43
0786,2376,35,27
0794,18063,219,92
0796,30419,299,191
0797,9112,97,56
0798,2662,21,20
0809,4807,57,46
0815,2151,17,12
0820,3672,38,27
0823,3734,33,27
0824,5842,64,26
0826,10329,116,43
0828,17327,265,141
0840,4000,54,18
0845,5727,57,44
0847,4074,51,21
0848,2737,45,30
0851,3976,44,22
0852,2958,36,18
0855,44420,488,299
0856,7552,150,93
0858,5731,69,71
0861,8110,93,53
0865,5940,86,56
0866,2998,27,17
0867,9449,90,82
0873,3484,28,26
0879,3491,48,18
0880,2762,41,36
0882,7856,129,92
0888,3166,41,16
0889,2929,42,15
0893,2931,31,19
0899,5975,121,70
0907,3572,32,31
0917,17226,305,160
0928,8750,174,107
0935,22517,433,249
0938,3622,70,43
0944,1078,13,13
0946,3966,54,28
0957,12208,138,79
0965,1912,37,12
0971,5081,89,27
0981,1436,29,23
0983,25393,281,201
0984,10071,78,58
0986,2443,29,12
0988,10988,146,93
0994,3093,46,34
0995,13245,184,80
1507,10674,73,78
1509,6964,58,58
1525,6917,45,27
1581,7927,110,86
1586,5056,44,47
1598,4460,29,24
1621,12698,110,72
1640,7203,90,59
1641,5059,52,44
1652,5467,108,44
1655,5235,62,31
1658,2665,25,13
1659,4090,69,45
1667,2745,26,12
1669,3876,55,40
1674,14409,129,84
1676,4783,80,39
1680,2776,10,22
1681,2935,37,23
1684,5257,44,33
1685,3005,51,29
1690,3642,44,28
1695,1088,29,11
1696,4073,38,24
1699,3495,39,26
1700,6955,53,35
1701,2074,21,24
1702,2193,29,11
1705,7601,80,54
1706,4305,84,59
1708,6194,39,30
1709,6385,62,54
1711,6296,80,45
1714,3003,65,25
1719,4745,58,32
1721,6313,121,82
1723,1759,26,5
1724,3620,31,15
1728,4473,48,33
1729,2515,39,21
1730,3303,30,26
1731,3966,45,32
1734,7313,88,38
1735,6625,42,38
1740,6301,81,51
1742,9299,65,68
1771,7229,90,33
1773,2566,23,10
1774,5154,39,38
1783,24074,228,100
1842,3743,19,14
1859,6980,54,58
1876,5859,50,28
1883,17655,275,168
1884,4597,27,11
1891,3556,34,26
1892,8806,139,50
1894,9314,177,93
1895,4615,55,40
1896,4661,67,34
1900,14761,106,98
1901,7562,92,39
1903,4870,107,59
1904,11350,164,77
1911,7636,58,36
1916,12045,197,102
1924,8670,143,93
1926,10167,86,42
1930,15740,220,106
1931,11249,171,68
1940,8216,76,38
1942,10470,75,44
1945,5950,71,67
1948,15088,280,179
1949,6233,56,43
1950,4201,44,25
1952,6900,71,43
1954,7205,115,71
1955,5685,55,31
1959,12576,110,76
1960,10740,106,68
1961,12389,150,82
1963,16459,172,75
1966,7235,49,37
1969,7483,46,35
1970,7826,85,57
1978,10431,65,44
1979,4933,56,29