0014,20092,103,46
0034,22882,361,99
0037,2689,25,21
0047,2133,12,11
0050,2019,22,14
0059,2552,29,39
0060,277,3,1
0072,952,13,6
0074,3343,39,40
0080,8602,109,74
0085,1669,18,6
0086,2077,30,8
0088,48,1,2
0090,4020,46,34
0093,295,3,2
0096,80,0,0
0098,1992,20,29
0106,4384,69,15
0109,3118,57,31
0114,9672,171,79
0118,5117,77,41
0119,2582,34,27
0141,8500,111,59
0147,2802,31,39
0148,2584,26,20
0150,9781,112,88
0153,16656,254,175
0158,2877,34,32
0160,6238,61,37
0163,4730,47,51
0164,8326,82,68
0166,4201,81,44
0168,3016,50,37
0171,3844,39,29
0173,3841,56,45
0175,1623,15,16
0177,3933,43,41
0180,2483,18,21
0183,3492,26,19
0184,2670,55,19
0189,3429,21,27
0193,9629,109,114
0197,2679,32,22
0200,14797,211,153
0202,15145,212,127
0203,8372,67,64
0209,2735,41,22
0213,1788,33,19
0214,2764,40,20
0216,3105,48,22
0221,875,19,9
0222,5521,65,31
0225,2140,41,27
0226,2347,29,15
0228,13201,148,89
0230,2276,39,14
0232,3015,78,52
0233,2662,49,34
0243,4822,88,48
0244,1018,22,7
0246,1368,57,32
0252,1614,28,19
0262,2564,40,29
0263,3880,43,42
0267,4977,53,29
0268,18681,283,196
0269,2408,50,30
0273,2735,21,18
0274,2383,37,29
0275,3955,64,59
0277,124,1,0
0279,1171,5,12
0281,4958,89,73
0285,2149,31,30
0289,3610,43,42
0293,1381,22,9
0294,2351,19,17
0296,4606,83,60
0297,4124,42,42
0299,3725,84,48
0301,3639,56,29
0302,2619,81,32
0303,3451,64,25
0307,16469,273,139
0308,2508,35,28
0310,4281,76,78
0312,1314,22,12
0313,4422,62,39
0317,1079,20,6
0321,4814,76,51
0327,2729,42,25
0331,1794,39,12
0335,1594,29,8
0339,672,7,5
0340,2600,42,21
0342,4599,81,47
0344,40604,760,255
0345,8609,135,75
0351,1602,24,8
0352,2128,34,17
0353,3717,89,55
0355,5931,98,75
0356,6123,142,30
0358,3857,41,26
0361,11253,144,86
0362,9111,140,92
0363,111113,2082,834
0370,1038,9,3
0373,2873,39,38
0375,4749,46,42
0376,1216,14,6
0377,2137,18,17
0383,3630,29,24
0384,3856,56,36
0385,5537,98,23
0388,2087,31,11
0392,15837,229,153
0394,16629,195,111
0396,4440,63,32
0397,2436,26,60
0398,6532,63,38
0399,2157,24,15
0400,5829,68,40
0402,8284,96,87
0405,9320,96,55
0406,4601,63,54
0415,1349,14,6
0416,3017,36,17
0417,1227,17,28
0420,5817,59,26
0431,1076,17,8
0432,1427,11,6
0437,1564,18,5
0439,9389,199,86
0441,5081,57,59
0448,709,6,4
0450,1501,12,7
0451,3046,34,15
0453,7947,106,90
0457,2312,20,22
0473,1672,25,43
0479,17703,325,176
0482,2922,46,22
0484,12528,192,117
0489,6285,106,48
0498,2368,25,13
0501,1836,31,10
0502,8929,189,145
0503,11501,106,75
0505,15574,269,181
0512,4662,48,43
0513,8605,281,160
0518,61842,1753,566
0523,2917,18,25
0530,4035,71,43
0531,3952,41,32
0532,2793,30,15
0534,2091,22,18
0537,9431,114,60
0542,4073,49,71
0546,13253,142,74
0547,2615,37,23
0553,2453,29,17
0556,3907,71,34
0569,3635,46,22
0575,5018,68,23
0579,2277,23,31
0589,1140,38,12
0590,3883,47,46
0597,6491,116,90
0599,93044,2033,976
0603,5615,137,76
0606,10260,243,115
0610,3617,33,41
0613,3478,50,23
0614,1295,24,19
0622,9679,181,94
0626,2166,23,24
0627,3326,74,16
0629,2405,41,31
0632,5869,146,40
0637,12806,180,70
0638,950,10,1
0642,5863,91,102
0654,1738,42,9
0664,3088,100,31
0668,2222,25,19
0677,1999,41,13
0678,1162,16,6
0687,4009,78,25
0703,3232,59,17
0715,4481,122,29
0716,3256,72,30
0717,1606,32,7
0718,3666,131,32
0736,4731,120,35
0737,2240,23,28
0743,1953,34,18
0744,663,13,4
0748,7838,98,46
0753,3447,57,31
0755,1199,42,23
0756,3638,41,45
0757,3886,52,69
0758,20396,263,147
0762,4186,92,42
0765,1108,25,13
0766,3314,47,25
0770,2622,49,26
0772,26274,459,357
0777,4306,71,38
0779,2595,31,25
0784,2939,41,19
0785,2767,42,36
0786,1600,31,24
0794,12411,208,85
0796,19408,264,172
0797,5807,91,50
0798,1789,20,20
0809,2944,52,37
0815,1331,17,10
0820,2385,34,22
0823,2546,32,27
0824,3475,55,22
0826,5999,87,37
0828,11750,246,129
0840,2531,46,16
0845,3656,53,34
0847,2474,48,13
0848,1705,43,28
0851,2569,35,19
0852,2028,33,15
0855,27664,422,277
0856,4692,139,86
0858,3687,59,63
0861,5475,86,50
0865,3636,76,53
0866,1843,23,17
0867,5954,81,77
0873,2137,23,26
0879,1924,37,17
0880,1794,38,33
0882,3797,101,70
0888,1703,34,12
0889,1620,30,13
0893,1714,25,15
0899,3019,91,52
0907,1950,29,20
0917,8308,247,126
0928,4384,143,96
0935,12143,352,201
0938,1699,54,23
0944,685,11,11
0946,2470,47,20
0957,7026,112,63
0965,1001,28,9
0971,2630,78,24
0981,764,24,14
0983,14834,236,172
0984,6178,66,49
0986,1193,26,11
0988,6844,117,69
0994,1518,38,23
0995,6783,145,63
1507,6353,61,66
1509,4522,50,45
1525,4468,40,25
1581,4573,96,73
1586,3350,35,41
1598,2938,24,24
1621,7447,98,65
1640,4354,77,52
1641,2733,43,37
1652,3257,102,38
1655,3388,57,28
1658,1737,23,13
1659,2809,63,36
1667,1774,23,10
1669,2242,48,35
1674,8657,108,75
1676,2485,57,25
1680,1599,7,20
1681,1699,32,15
1684,2941,37,27
1685,2047,51,28
1690,2184,33,24
1695,604,20,9
1696,2259,25,18
1699,2023,31,25
1700,4852,42,30
1701,1059,17,22
1702,1296,28,11
1705,4301,64,35
1706,2781,79,52
1708,3512,33,27
1709,3934,49,43
1711,3404,65,36
1714,1574,46,18
1719,2931,49,30
1721,4288,113,78
1723,1018,24,5
1724,2453,28,11
1728,3000,40,28
1729,1310,34,20
1730,1903,25,24
1731,2252,36,30
1734,4361,74,30
1735,4051,34,29
1740,3079,65,34
1742,5263,55,54
1771,4832,78,28
1773,1546,21,10
1774,3660,37,35
1783,15705,195,86
1842,2301,19,14
1859,4314,44,43
1876,3411,37,21
1883,9396,221,145
1884,2895,26,10
1891,1587,20,17
1892,5388,122,47
1894,5419,165,85
1895,3029,45,37
1896,2617,52,30
1900,8673,80,91
1901,4418,80,37
1903,2445,89,47
1904,6682,148,69
1911,4823,52,34
1916,7560,163,87
1924,5241,133,90
1926,6226,75,38
1930,9909,185,99
1931,6921,153,64
1940,4282,57,34
1942,6129,63,35
1945,3595,56,51
1948,9819,265,168
1949,3257,43,37
1950,2520,36,21
1952,4227,56,40
1954,3813,102,52
1955,3423,43,25
1959,7402,88,68
1960,6578,87,61
1961,6827,125,76
1963,9661,157,67
1966,4228,36,20
1969,4098,39,26
1970,3550,48,38
1978,6185,54,35
1979,3093,51,23