0014,37282,9999,63
0034,44802,9999,124
0037,5226,9999,23
0047,3871,9999,19
0050,4001,9999,17
0059,5497,9999,41
0060,371,9999,1
0072,2053,9999,8
0074,8396,9999,44
0080,20017,9999,97
0085,3649,9999,7
0086,4899,9999,11
0088,84,9999,2
0090,9522,9999,42
0093,729,9999,2
0096,156,9999,1
0098,4095,9999,31
0106,8880,9999,25
0109,6091,9999,35
0114,17963,9999,96
0118,9707,9999,48
0119,5155,9999,37
0141,14739,9999,71
0147,4935,9999,41
0148,5023,9999,24
0150,17318,9999,101
0153,31033,9999,199
0158,5222,9999,34
0160,11666,9999,50
0163,7808,9999,54
0164,15614,9999,74
0166,9974,9999,57
0168,5013,9999,38
0171,8592,9999,34
0173,6686,9999,52
0175,3080,9999,19
0177,7499,9999,52
0180,4890,9999,29
0183,5728,9999,21
0184,4815,9999,24
0189,6094,9999,31
0193,22167,9999,145
0197,4449,9999,33
0200,29997,9999,196
0202,30207,9999,159
0203,15977,9999,82
0209,5080,9999,28
0213,3352,9999,25
0214,5072,9999,26
0216,5871,9999,24
0221,1609,9999,9
0222,10707,9999,53
0225,3933,9999,31
0226,4242,9999,18
0228,24990,9999,118
0230,4760,9999,23
0232,5984,9999,55
0233,5319,9999,45
0243,9206,9999,62
0244,2038,9999,7
0246,2842,9999,33
0252,3076,9999,21
0262,5412,9999,43
0263,6251,9999,45
0267,9414,9999,34
0268,35539,9999,235
0269,5003,9999,42
0273,5386,9999,21
0274,4452,9999,38
0275,7453,9999,87
0277,278,9999,0
0279,2543,9999,12
0281,8676,9999,80
0285,4423,9999,34
0289,7094,9999,72
0293,2496,9999,11
0294,4726,9999,25
0296,8127,9999,71
0297,7026,9999,50
0299,7048,9999,50
0301,8140,9999,48
0302,5822,9999,43
0303,6991,9999,32
0307,33042,9999,152
0308,5201,9999,30
0310,8172,9999,83
0312,2666,9999,15
0313,7072,9999,42
0317,2132,9999,7
0321,9902,9999,53
0327,5576,9999,32
0331,3421,9999,12
0335,3089,9999,10
0339,1410,9999,5
0340,4980,9999,26
0342,9412,9999,55
0344,79481,9999,303
0345,16051,9999,89
0351,3420,9999,9
0352,4214,9999,19
0353,7254,9999,59
0355,12322,9999,82
0356,12054,9999,37
0358,7699,9999,30
0361,22081,9999,93
0362,18444,9999,118
0363,208658,9999,974
0370,2155,9999,4
0373,5724,9999,41
0375,8800,9999,46
0376,2483,9999,8
0377,4863,9999,20
0383,6800,9999,33
0384,7335,9999,43
0385,10350,9999,27
0388,3678,9999,17
0392,33561,9999,189
0394,33235,9999,137
0396,8366,9999,46
0397,5570,9999,67
0398,11778,9999,50
0399,4236,9999,18
0400,10795,9999,51
0402,16937,9999,107
0405,16147,9999,59
0406,8901,9999,62
0415,2689,9999,13
0416,5686,9999,21
0417,2390,9999,31
0420,9777,9999,29
0431,2175,9999,8
0432,2546,9999,7
0437,3309,9999,6
0439,16973,9999,97
0441,9092,9999,78
0448,1621,9999,4
0450,2908,9999,16
0451,6370,9999,21
0453,14049,9999,98
0457,4105,9999,23
0473,3390,9999,46
0479,33932,9999,192
0482,5243,9999,28
0484,24054,9999,147
0489,11519,9999,50
0498,4122,9999,13
0501,3438,9999,12
0502,15435,9999,159
0503,21083,9999,87
0505,27693,9999,217
0512,8524,9999,48
0513,16033,9999,165
0518,113132,9999,645
0523,5432,9999,31
0530,7765,9999,49
0531,7608,9999,41
0532,4418,9999,16
0534,4087,9999,23
0537,16745,9999,71
0542,7259,9999,78
0546,25837,9999,83
0547,5007,9999,28
0553,4719,9999,24
0556,7013,9999,46
0569,6969,9999,26
0575,9082,9999,32
0579,4612,9999,32
0589,2145,9999,12
0590,7001,9999,52
0597,11020,9999,107
0599,163056,9999,1075
0603,11030,9999,78
0606,17998,9999,127
0610,6838,9999,52
0613,6245,9999,23
0614,2584,9999,20
0622,16739,9999,108
0626,4596,9999,24
0627,6948,9999,19
0629,4825,9999,37
0632,11443,9999,46
0637,24535,9999,78
0638,1870,9999,1
0642,10047,9999,119
0654,4402,9999,12
0664,7702,9999,44
0668,4024,9999,20
0677,5275,9999,18
0678,2466,9999,8
0687,9387,9999,41
0703,6380,9999,25
0715,9933,9999,41
0716,6287,9999,35
0717,3786,9999,18
0718,7877,9999,41
0736,9878,9999,55
0737,5399,9999,36
0743,3826,9999,20
0744,1367,9999,4
0748,14332,9999,50
0753,6351,9999,37
0755,2375,9999,23
0756,6830,9999,53
0757,7262,9999,73
0758,39929,9999,182
0762,7454,9999,51
0765,1944,9999,14
0766,5675,9999,32
0770,4306,9999,35
0772,47782,9999,409
0777,8482,9999,40
0779,4723,9999,30
0784,5318,9999,21
0785,5154,9999,43
0786,2702,9999,27
0794,20167,9999,93
0796,35773,9999,194
0797,10390,9999,56
0798,3314,9999,20
0809,5490,9999,47
0815,2440,9999,12
0820,4225,9999,27
0823,4357,9999,27
0824,6866,9999,27
0826,11871,9999,44
0828,19689,9999,142
0840,4626,9999,18
0845,6823,9999,44
0847,4632,9999,21
0848,3202,9999,30
0851,4588,9999,22
0852,3543,9999,18
0855,51857,9999,299
0856,8802,9999,94
0858,6466,9999,71
0861,9213,9999,54
0865,7128,9999,56
0866,3463,9999,18
0867,10725,9999,83
0873,4048,9999,26
0879,4055,9999,18
0880,3270,9999,37
0882,8421,9999,93
0888,3448,9999,16
0889,3140,9999,15
0893,3091,9999,20
0899,6442,9999,71
0907,3880,9999,31
0917,18720,9999,161
0928,9393,9999,107
0935,25627,9999,253
0938,4031,9999,43
0944,1262,9999,13
0946,4261,9999,28
0957,13297,9999,79
0965,2066,9999,12
0971,5440,9999,28
0981,1558,9999,23
0983,27337,9999,201
0984,11085,9999,58
0986,2659,9999,13
0988,11866,9999,96
0994,3381,9999,36
0995,15184,9999,82
1507,11603,9999,78
1509,7501,9999,58
1525,8103,9999,28
1581,9092,9999,87
1586,5896,9999,49
1598,5075,9999,24
1621,14778,9999,72
1640,7818,9999,59
1641,5457,9999,44
1652,6253,9999,44
1655,6029,9999,31
1658,3027,9999,13
1659,4520,9999,45
1667,3032,9999,14
1669,4186,9999,40
1674,16432,9999,87
1676,5365,9999,39
1680,3285,9999,23
1681,3432,9999,23
1684,5753,9999,34
1685,3487,9999,29
1690,4102,9999,31
1695,1173,9999,11
1696,4694,9999,24
1699,4031,9999,27
1700,7972,9999,35
1701,2338,9999,24
1702,2458,9999,11
1705,8684,9999,54
1706,4762,9999,59
1708,6995,9999,30
1709,7283,9999,54
1711,6819,9999,45
1714,3644,9999,25
1719,5546,9999,32
1721,7402,9999,82
1723,1976,9999,5
1724,4224,9999,15
1728,5017,9999,33
1729,2746,9999,21
1730,4029,9999,26
1731,4539,9999,32
1734,8257,9999,38
1735,7709,9999,39
1740,6768,9999,51
1742,10145,9999,68
1771,8177,9999,33
1773,2869,9999,10
1774,6452,9999,38
1783,27014,9999,101
1842,4213,9999,14
1859,7983,9999,58
1876,6533,9999,28
1883,19173,9999,171
1884,5379,9999,11
1891,4068,9999,26
1892,10122,9999,50
1894,10073,9999,93
1895,5610,9999,40
1896,5244,9999,35
1900,16738,9999,98
1901,8751,9999,39
1903,5434,9999,60
1904,13466,9999,77
1911,8796,9999,38
1916,14238,9999,106
1924,9712,9999,95
1926,11951,9999,43
1930,17786,9999,107
1931,12803,9999,69
1940,9313,9999,38
1942,12571,9999,44
1945,6802,9999,68
1948,17746,9999,180
1949,7007,9999,44
1950,4839,9999,25
1952,8109,9999,47
1954,7762,9999,71
1955,6427,9999,31
1959,13593,9999,76
1960,11892,9999,69
1961,13913,9999,82
1963,18647,9999,76
1966,8192,9999,37
1969,8591,9999,36
1970,8869,9999,57
1978,11446,9999,44
1979,5499,9999,29