0014,20619,104,46
0034,23697,366,100
0037,2726,26,21
0047,2170,13,11
0050,2067,22,14
0059,2655,29,39
0060,278,3,1
0072,962,13,6
0074,3490,40,40
0080,8913,111,74
0085,1714,18,6
0086,2144,30,8
0088,48,1,2
0090,4137,48,34
0093,309,3,2
0096,81,0,0
0098,2061,20,29
0106,4469,70,15
0109,3185,57,31
0114,9936,175,79
0118,5277,78,41
0119,2666,34,27
0141,8690,114,59
0147,2836,31,39
0148,2609,27,20
0150,10067,117,89
0153,17233,260,175
0158,2932,34,32
0160,6337,62,37
0163,4759,47,51
0164,8561,84,68
0166,4324,81,44
0168,3069,50,38
0171,3921,39,29
0173,3899,56,45
0175,1659,15,16
0177,3972,44,41
0180,2538,18,21
0183,3518,27,19
0184,2675,55,19
0189,3468,21,27
0193,9975,114,115
0197,2708,33,22
0200,15166,213,156
0202,15536,215,128
0203,8516,71,64
0209,2772,41,23
0213,1813,34,21
0214,2789,40,20
0216,3159,49,22
0221,901,19,9
0222,5595,65,31
0225,2172,41,27
0226,2382,30,15
0228,13545,149,91
0230,2322,39,14
0232,3063,79,52
0233,2706,49,34
0243,4920,88,48
0244,1029,22,7
0246,1394,57,32
0252,1629,28,19
0262,2616,40,29
0263,3915,43,42
0267,5062,53,29
0268,19023,287,198
0269,2456,50,30
0273,2773,22,18
0274,2417,38,31
0275,4017,64,59
0277,125,1,0
0279,1182,5,12
0281,5057,89,73
0285,2178,32,30
0289,3766,43,42
0293,1390,23,9
0294,2411,19,17
0296,4659,84,60
0297,4208,43,43
0299,3771,85,48
0301,3700,56,29
0302,2788,82,32
0303,3534,67,25
0307,16807,278,142
0308,2535,35,28
0310,4361,77,78
0312,1323,22,12
0313,4470,62,39
0317,1085,20,6
0321,4906,77,51
0327,2764,42,25
0331,1826,40,12
0335,1614,30,8
0339,688,7,5
0340,2646,42,21
0342,4679,81,47
0344,41474,774,256
0345,8816,136,75
0351,1613,24,8
0352,2152,34,17
0353,3772,90,55
0355,6068,99,76
0356,6264,142,30
0358,3937,42,26
0361,11492,144,86
0362,9312,142,97
0363,114185,2137,851
0370,1063,9,3
0373,2923,39,38
0375,4871,47,42
0376,1255,14,6
0377,2161,19,17
0383,3682,29,24
0384,3937,57,37
0385,5657,98,23
0388,2102,31,11
0392,16251,231,154
0394,17094,200,111
0396,4535,64,32
0397,2534,26,60
0398,6656,65,38
0399,2190,24,15
0400,5937,68,40
0402,8491,102,89
0405,9501,97,55
0406,4732,64,55
0415,1387,14,6
0416,3066,36,17
0417,1235,17,29
0420,5900,60,26
0431,1094,17,8
0432,1452,11,6
0437,1591,18,5
0439,9591,200,86
0441,5154,58,60
0448,721,6,4
0450,1514,12,7
0451,3097,34,15
0453,8034,107,90
0457,2336,20,23
0473,1692,25,43
0479,18175,334,177
0482,2987,46,22
0484,12717,192,117
0489,6402,107,48
0498,2387,25,13
0501,1863,31,10
0502,9145,190,145
0503,11767,107,76
0505,15830,271,181
0512,4720,48,43
0513,8741,283,160
0518,63592,1783,567
0523,2964,18,25
0530,4125,73,44
0531,4022,41,32
0532,2810,30,15
0534,2105,22,18
0537,9564,116,61
0542,4119,50,71
0546,13548,143,75
0547,2649,37,23
0553,2482,29,17
0556,4004,71,34
0569,3660,46,22
0575,5083,69,24
0579,2302,23,31
0589,1151,38,12
0590,3943,48,46
0597,6586,121,90
0599,95254,2072,978
0603,5758,140,76
0606,10538,247,116
0610,3658,33,41
0613,3526,51,23
0614,1325,24,19
0622,9872,183,96
0626,2194,23,24
0627,3410,75,16
0629,2437,42,31
0632,5968,147,40
0637,13117,184,70
0638,954,10,1
0642,5968,91,102
0654,1754,42,9
0664,3169,102,31
0668,2244,25,19
0677,2008,41,13
0678,1189,16,6
0687,4071,79,26
0703,3297,60,17
0715,4541,125,29
0716,3292,72,30
0717,1616,32,7
0718,3766,134,32
0736,4854,121,35
0737,2312,23,28
0743,1983,34,18
0744,671,13,4
0748,7920,98,46
0753,3506,57,32
0755,1237,42,23
0756,3707,41,45
0757,3949,53,69
0758,20641,264,148
0762,4234,93,42
0765,1121,25,13
0766,3348,48,25
0770,2646,49,26
0772,26667,461,358
0777,4349,71,38
0779,2603,31,25
0784,2974,41,19
0785,2796,42,36
0786,1618,31,24
0794,12572,209,86
0796,19656,267,172
0797,5862,91,50
0798,1797,20,20
0809,2968,52,37
0815,1352,17,10
0820,2411,34,22
0823,2573,32,27
0824,3500,55,22
0826,6084,87,37
0828,11911,246,130
0840,2552,46,16
0845,3677,53,34
0847,2509,48,13
0848,1725,43,28
0851,2588,36,19
0852,2048,33,15
0855,28144,425,278
0856,4755,140,86
0858,3726,60,63
0861,5512,88,50
0865,3688,76,53
0866,1854,23,17
0867,6044,81,77
0873,2143,23,26
0879,1946,37,17
0880,1823,38,34
0882,3858,102,70
0888,1730,35,13
0889,1638,30,13
0893,1745,25,15
0899,3083,93,53
0907,1971,29,20
0917,8464,249,129
0928,4448,144,96
0935,12311,356,203
0938,1721,54,23
0944,694,11,11
0946,2490,47,20
0957,7174,117,65
0965,1012,28,9
0971,2693,78,24
0981,774,24,14
0983,15018,238,173
0984,6250,67,50
0986,1198,26,11
0988,6970,118,70
0994,1529,38,23
0995,7105,148,63
1507,6407,61,66
1509,4559,50,45
1525,4521,41,25
1581,4637,97,73
1586,3397,36,41
1598,2974,24,24
1621,7627,101,65
1640,4395,77,52
1641,2760,44,37
1652,3316,102,38
1655,3423,57,28
1658,1756,23,13
1659,2832,63,36
1667,1791,23,10
1669,2274,48,35
1674,8788,108,75
1676,2530,57,26
1680,1612,7,20
1681,1738,32,15
1684,2988,37,27
1685,2071,51,28
1690,2206,33,24
1695,606,20,9
1696,2279,26,18
1699,2069,33,25
1700,4885,42,30
1701,1079,17,22
1702,1319,28,11
1705,4339,64,35
1706,2800,79,52
1708,3606,33,27
1709,3974,49,43
1711,3454,65,36
1714,1601,46,18
1719,2961,50,30
1721,4333,113,78
1723,1021,24,5
1724,2472,28,11
1728,3017,40,28
1729,1317,34,20
1730,1934,25,24
1731,2296,38,30
1734,4415,74,30
1735,4153,34,29
1740,3131,65,34
1742,5383,57,54
1771,4889,80,28
1773,1563,21,10
1774,3698,37,36
1783,15952,196,86
1842,2347,19,14
1859,4371,45,43
1876,3434,37,21
1883,9547,225,145
1884,2943,26,10
1891,1651,20,17
1892,5481,124,47
1894,5505,165,85
1895,3058,45,37
1896,2640,53,30
1900,8925,85,91
1901,4489,80,37
1903,2465,89,47
1904,6776,149,69
1911,4862,53,34
1916,7706,166,88
1924,5305,133,90
1926,6356,76,39
1930,10081,186,99
1931,7013,153,64
1940,4395,58,34
1942,6265,63,37
1945,3639,56,51
1948,9913,265,168
1949,3347,43,37
1950,2601,36,21
1952,4314,56,40
1954,3858,102,54
1955,3454,43,25
1959,7491,89,68
1960,6654,87,60
1961,6950,127,77
1963,9805,157,67
1966,4363,39,20
1969,4171,39,26
1970,3698,50,38
1978,6270,55,35
1979,3135,52,23