0014,19489,99,45
0034,21741,347,96
0037,2639,24,20
0047,2085,12,11
0050,1954,22,14
0059,2481,28,39
0060,273,3,1
0072,926,13,5
0074,3227,37,39
0080,8300,104,74
0085,1624,17,6
0086,1992,29,8
0088,48,1,2
0090,3901,44,34
0093,283,3,2
0096,77,0,0
0098,1947,20,29
0106,4261,69,15
0109,3049,57,31
0114,9494,168,79
0118,4968,77,41
0119,2512,34,27
0141,8234,109,59
0147,2746,31,38
0148,2509,26,20
0150,9505,109,88
0153,16071,251,175
0158,2848,34,32
0160,6124,60,37
0163,4632,44,51
0164,8045,79,68
0166,4056,80,44
0168,2948,50,35
0171,3759,36,28
0173,3743,56,45
0175,1569,15,16
0177,3802,42,41
0180,2439,18,21
0183,3438,26,19
0184,2642,55,19
0189,3346,21,27
0193,9271,109,114
0197,2638,32,22
0200,14287,209,148
0202,14717,208,126
0203,8226,65,64
0209,2683,41,22
0213,1717,33,18
0214,2715,40,20
0216,3020,47,22
0221,851,19,9
0222,5386,65,30
0225,2086,40,27
0226,2302,28,14
0228,12873,144,86
0230,2230,39,14
0232,2943,78,52
0233,2610,49,34
0243,4702,87,48
0244,985,21,7
0246,1336,57,32
0252,1574,28,19
0262,2495,38,29
0263,3830,43,42
0267,4874,52,29
0268,18250,278,191
0269,2362,50,30
0273,2683,21,18
0274,2319,37,26
0275,3888,63,58
0277,122,1,0
0279,1159,5,12
0281,4857,89,73
0285,2110,31,30
0289,3519,43,42
0293,1320,21,9
0294,2280,18,17
0296,4491,82,60
0297,4054,41,42
0299,3650,84,48
0301,3510,55,29
0302,2565,80,32
0303,3364,64,25
0307,16054,266,139
0308,2454,35,28
0310,4187,75,78
0312,1295,22,12
0313,4382,62,39
0317,1062,19,5
0321,4722,75,51
0327,2671,42,25
0331,1742,39,12
0335,1563,29,8
0339,667,7,5
0340,2561,42,21
0342,4509,78,47
0344,39658,739,252
0345,8429,135,75
0351,1568,22,8
0352,2099,35,17
0353,3627,88,55
0355,5766,93,73
0356,5933,137,30
0358,3749,40,26
0361,10922,143,85
0362,8797,137,92
0363,107075,2010,823
0370,1013,9,3
0373,2786,39,38
0375,4617,46,42
0376,1178,13,6
0377,2067,17,17
0383,3528,27,24
0384,3710,55,36
0385,5446,97,23
0388,2056,31,11
0392,15417,223,151
0394,16076,189,110
0396,4377,63,32
0397,2384,26,60
0398,6395,62,38
0399,2097,23,15
0400,5691,68,40
0402,8074,93,86
0405,9123,95,55
0406,4466,63,53
0415,1313,13,6
0416,2950,35,17
0417,1174,17,26
0420,5687,58,26
0431,1052,16,8
0432,1392,11,6
0437,1501,16,5
0439,9153,195,84
0441,4966,57,58
0448,698,6,4
0450,1463,12,7
0451,2950,34,15
0453,7788,105,90
0457,2269,20,22
0473,1634,24,43
0479,17187,316,176
0482,2844,46,22
0484,12265,191,116
0489,6149,106,48
0498,2340,25,13
0501,1798,31,10
0502,8730,186,145
0503,11212,104,75
0505,15245,266,181
0512,4572,48,42
0513,8384,279,160
0518,59977,1713,556
0523,2886,17,25
0530,3924,69,43
0531,3862,41,32
0532,2759,30,15
0534,2035,21,18
0537,9239,114,59
0542,4009,49,71
0546,12904,139,70
0547,2552,36,23
0553,2408,29,17
0556,3803,71,34
0569,3579,46,22
0575,4894,67,23
0579,2232,23,31
0589,1130,38,12
0590,3795,47,46
0597,6340,114,90
0599,90473,1998,974
0603,5450,134,76
0606,9980,239,115
0610,3562,33,41
0613,3399,50,23
0614,1254,23,19
0622,9418,177,91
0626,2102,23,24
0627,3224,73,16
0629,2358,41,31
0632,5789,144,39
0637,12455,175,70
0638,936,10,1
0642,5708,90,102
0654,1706,42,8
0664,3017,100,31
0668,2173,25,19
0677,1968,41,13
0678,1135,16,6
0687,3837,78,25
0703,3166,59,17
0715,4375,122,29
0716,3104,72,30
0717,1574,32,7
0718,3540,130,32
0736,4633,118,35
0737,2139,23,28
0743,1899,33,18
0744,651,13,4
0748,7642,96,44
0753,3346,56,30
0755,1135,42,23
0756,3552,40,45
0757,3804,51,69
0758,19883,257,147
0762,4074,91,42
0765,1073,25,13
0766,3263,47,25
0770,2588,49,26
0772,25688,454,356
0777,4202,71,38
0779,2571,31,25
0784,2883,41,19
0785,2723,42,36
0786,1578,31,24
0794,12158,207,85
0796,18973,263,172
0797,5720,91,50
0798,1753,20,20
0809,2890,52,37
0815,1304,17,10
0820,2350,34,22
0823,2512,32,27
0824,3410,55,22
0826,5829,85,37
0828,11524,245,129
0840,2502,46,16
0845,3584,52,34
0847,2426,48,13
0848,1665,42,28
0851,2540,33,19
0852,2002,33,15
0855,26977,417,277
0856,4580,139,86
0858,3640,59,63
0861,5372,85,50
0865,3566,76,53
0866,1793,23,17
0867,5851,80,77
0873,2106,23,26
0879,1899,37,17
0880,1747,35,33
0882,3725,99,70
0888,1649,32,12
0889,1591,30,13
0893,1693,25,15
0899,2935,89,52
0907,1907,28,19
0917,8019,246,126
0928,4265,142,96
0935,11787,349,199
0938,1648,51,23
0944,679,11,11
0946,2432,47,20
0957,6792,107,62
0965,970,27,9
0971,2550,78,24
0981,753,24,14
0983,14559,233,170
0984,6029,65,49
0986,1171,25,11
0988,6686,115,69
0994,1465,38,23
0995,6437,140,62
1507,6260,61,66
1509,4443,49,45
1525,4406,40,25
1581,4459,93,73
1586,3255,35,41
1598,2883,24,24
1621,7277,96,64
1640,4281,76,52
1641,2680,43,37
1652,3166,102,38
1655,3341,57,27
1658,1695,23,13
1659,2777,63,36
1667,1747,23,10
1669,2198,48,35
1674,8493,105,75
1676,2352,56,25
1680,1583,7,20
1681,1676,32,15
1684,2883,37,27
1685,2006,51,28
1690,2142,33,24
1695,590,20,9
1696,2229,25,18
1699,1963,31,25
1700,4789,42,30
1701,1042,17,22
1702,1281,27,11
1705,4230,63,35
1706,2754,79,52
1708,3448,33,27
1709,3864,47,41
1711,3291,65,36
1714,1555,46,18
1719,2882,49,30
1721,4157,112,78
1723,1007,24,5
1724,2418,28,11
1728,2967,39,27
1729,1269,31,19
1730,1840,24,24
1731,2199,35,30
1734,4233,74,30
1735,3954,34,29
1740,3029,63,34
1742,5181,55,54
1771,4713,78,28
1773,1508,21,10
1774,3593,37,35
1783,15275,190,86
1842,2249,19,14
1859,4225,43,42
1876,3359,37,21
1883,9067,218,145
1884,2828,25,10
1891,1527,18,17
1892,5253,121,47
1894,5285,165,85
1895,2984,45,37
1896,2560,52,30
1900,8468,78,90
1901,4311,78,37
1903,2391,88,47
1904,6519,147,69
1911,4720,50,34
1916,7353,160,84
1924,5141,132,90
1926,6026,74,38
1930,9641,185,99
1931,6795,153,64
1940,4104,57,33
1942,5978,62,35
1945,3535,56,51
1948,9591,263,168
1949,3167,41,37
1950,2447,36,21
1952,4128,56,40
1954,3723,101,49
1955,3371,42,24
1959,7291,87,68
1960,6446,87,61
1961,6701,124,76
1963,9374,156,67
1966,4046,33,20
1969,3983,38,25
1970,3439,48,38
1978,6091,54,35
1979,3031,50,23