0014,40074,9999,63
0034,47859,9999,124
0037,5570,9999,24
0047,4172,9999,19
0050,4175,9999,17
0059,5797,9999,41
0060,377,9999,1
0072,2144,9999,8
0074,8759,9999,44
0080,21145,9999,97
0085,3787,9999,7
0086,5129,9999,11
0088,95,9999,2
0090,9861,9999,42
0093,766,9999,2
0096,180,9999,1
0098,4287,9999,31
0106,9611,9999,25
0109,6342,9999,35
0114,19039,9999,96
0118,10244,9999,48
0119,5696,9999,37
0141,15919,9999,71
0147,5277,9999,41
0148,5380,9999,24
0150,18667,9999,101
0153,33873,9999,199
0158,5479,9999,34
0160,12249,9999,51
0163,8319,9999,54
0164,16926,9999,74
0166,10806,9999,57
0168,5334,9999,38
0171,8997,9999,34
0173,7327,9999,53
0175,3305,9999,19
0177,7947,9999,52
0180,5166,9999,29
0183,6118,9999,21
0184,5023,9999,24
0189,6511,9999,31
0193,24021,9999,145
0197,4794,9999,33
0200,32481,9999,196
0202,31989,9999,160
0203,16504,9999,82
0209,5484,9999,28
0213,3547,9999,25
0214,5356,9999,26
0216,6231,9999,24
0221,1685,9999,9
0222,11602,9999,53
0225,4384,9999,31
0226,4438,9999,18
0228,26115,9999,118
0230,5107,9999,23
0232,6331,9999,55
0233,5700,9999,45
0243,9934,9999,62
0244,2270,9999,7
0246,3089,9999,33
0252,3278,9999,21
0262,5911,9999,43
0263,6735,9999,45
0267,9958,9999,34
0268,37866,9999,235
0269,5308,9999,42
0273,5738,9999,21
0274,4632,9999,38
0275,7820,9999,87
0277,294,9999,0
0279,2681,9999,12
0281,9248,9999,80
0285,4714,9999,34
0289,7410,9999,72
0293,2645,9999,11
0294,5188,9999,25
0296,8570,9999,71
0297,7549,9999,50
0299,7336,9999,50
0301,8645,9999,48
0302,6117,9999,43
0303,7386,9999,32
0307,35934,9999,152
0308,5593,9999,30
0310,8645,9999,84
0312,2776,9999,15
0313,7448,9999,42
0317,2279,9999,7
0321,10589,9999,53
0327,6012,9999,32
0331,3621,9999,12
0335,3319,9999,10
0339,1473,9999,5
0340,5205,9999,26
0342,10412,9999,55
0344,85193,9999,304
0345,16820,9999,90
0351,3606,9999,9
0352,4500,9999,19
0353,7896,9999,59
0355,13141,9999,82
0356,13138,9999,37
0358,8167,9999,30
0361,24285,9999,93
0362,20017,9999,118
0363,225460,9999,975
0373,6158,9999,41
0375,9330,9999,46
0376,2731,9999,8
0377,5275,9999,20
0383,7427,9999,33
0384,7948,9999,43
0385,11553,9999,27
0388,3872,9999,17
0392,36006,9999,189
0394,35913,9999,137
0396,8891,9999,46
0397,5978,9999,67
0399,4642,9999,18
0400,11564,9999,51
0402,19075,9999,107
0405,17436,9999,59
0406,9620,9999,62
0415,2961,9999,13
0417,2589,9999,31
0420,10400,9999,29
0431,2433,9999,8
0432,2700,9999,7
0437,3527,9999,6
0439,21000,9999,103
0441,9950,9999,78
0448,1749,9999,4
0450,3147,9999,16
0451,6860,9999,21
0453,15017,9999,98
0457,4441,9999,23
0473,3624,9999,47
0479,37771,9999,193
0482,5548,9999,29
0484,25057,9999,147
0489,12335,9999,50
0498,4425,9999,13
0501,3640,9999,12
0502,16454,9999,159
0503,22804,9999,89
0505,29586,9999,217
0512,9219,9999,48
0513,16724,9999,166
0518,124025,9999,646
0523,5649,9999,31
0530,8140,9999,50
0531,8247,9999,41
0532,4820,9999,16
0534,4290,9999,23
0537,17504,9999,71
0542,7727,9999,79
0546,26953,9999,83
0547,5232,9999,28
0553,4973,9999,24
0556,7458,9999,46
0569,7207,9999,26
0575,9506,9999,32
0579,4930,9999,32
0589,2328,9999,12
0590,7445,9999,52
0597,11649,9999,107
0599,175631,9999,1076
0603,12217,9999,78
0606,19281,9999,127
0610,7236,9999,52
0613,6626,9999,23
0614,2788,9999,20
0622,17937,9999,108
0626,4853,9999,24
0627,7266,9999,19
0629,5306,9999,37
0632,12319,9999,46
0637,26993,9999,78
0638,1955,9999,1
0642,10645,9999,119
0654,4876,9999,12
0664,8182,9999,44
0668,4389,9999,20
0677,6135,9999,18
0678,2656,9999,8
0687,10015,9999,41
0703,6730,9999,25
0715,10828,9999,41
0716,6728,9999,36
0717,4117,9999,18
0718,8605,9999,41
0736,10491,9999,55
0737,5698,9999,36
0743,3919,9999,20
0744,1484,9999,4
0748,15485,9999,51
0753,6523,9999,38
0755,2458,9999,23
0757,7664,9999,73
0758,42386,9999,182
0762,7659,9999,51
0765,2122,9999,14
0766,5986,9999,32
0770,4456,9999,35
0772,49438,9999,413
0777,9059,9999,40
0779,5056,9999,30
0784,5592,9999,21
0785,5575,9999,43
0794,20796,9999,93
0796,37769,9999,194
0797,10894,9999,56
0798,3531,9999,20
0809,5761,9999,47
0820,4368,9999,27
0823,4460,9999,27
0824,7301,9999,27
0826,12457,9999,44
0828,20676,9999,143
0840,4964,9999,18
0845,7162,9999,44
0847,4728,9999,21
0848,3323,9999,30
0851,4919,9999,22
0852,3907,9999,18
0855,54904,9999,300
0858,6768,9999,72
0861,9494,9999,54
0865,7604,9999,56
0866,3635,9999,18
0867,11223,9999,83
0873,4356,9999,26
0879,4299,9999,18
0880,3612,9999,37
0882,8823,9999,93
0888,3634,9999,16
0889,3252,9999,15
0893,3175,9999,20
0899,6748,9999,71
0907,4040,9999,31
0917,19725,9999,161
0928,9878,9999,108
0935,27234,9999,254
0938,4291,9999,43
0944,1350,9999,13
0946,4369,9999,28
0957,13705,9999,79
0965,2151,9999,12
0971,5734,9999,28
0981,1647,9999,23
0983,28211,9999,201
0984,11474,9999,58
0986,2818,9999,13
0988,12270,9999,97
0994,3544,9999,36
0995,16043,9999,83
1507,11974,9999,78
1509,7913,9999,58
1525,8426,9999,28
1581,9578,9999,87
1586,6287,9999,49
1598,5437,9999,24
1621,15837,9999,72
1640,8196,9999,59
1641,5630,9999,44
1652,6400,9999,44
1655,6422,9999,31
1658,3123,9999,13
1659,4632,9999,45
1667,3083,9999,14
1669,4307,9999,40
1674,17521,9999,88
1676,5919,9999,39
1680,3525,9999,23
1681,3623,9999,23
1690,4396,9999,32
1695,1229,9999,11
1696,5115,9999,24
1699,4297,9999,27
1700,8637,9999,35
1701,2517,9999,24
1705,9232,9999,54
1706,4896,9999,59
1708,7363,9999,30
1709,7684,9999,54
1711,7069,9999,45
1714,4039,9999,26
1719,5897,9999,32
1721,7731,9999,82
1723,2094,9999,5
1724,4424,9999,15
1728,5141,9999,33
1729,2892,9999,21
1730,4286,9999,26
1731,4751,9999,32
1734,8770,9999,40
1735,8148,9999,39
1740,7163,9999,51
1742,10683,9999,68
1771,8507,9999,33
1773,3042,9999,10
1774,7042,9999,38
1783,29152,9999,101
1842,4601,9999,14
1859,8677,9999,58
1876,6941,9999,28
1883,20198,9999,171
1884,5636,9999,11
1891,4319,9999,26
1892,10575,9999,51
1894,10462,9999,93
1895,5991,9999,40
1896,5605,9999,35
1900,17748,9999,98
1901,9071,9999,39
1903,5802,9999,60
1904,14318,9999,77
1911,9324,9999,38
1916,15548,9999,106
1924,10539,9999,95
1926,13188,9999,43
1930,18973,9999,108
1931,13341,9999,69
1940,9851,9999,38
1942,14104,9999,45
1945,7238,9999,68
1948,18520,9999,180
1949,7582,9999,44
1950,5156,9999,25
1952,8962,9999,47
1954,8125,9999,71
1955,6909,9999,31
1959,14047,9999,76
1960,12674,9999,69
1961,14699,9999,82
1963,19990,9999,76
1966,8771,9999,37
1969,9233,9999,36
1970,9289,9999,57
1978,12023,9999,45
1979,5981,9999,29
1980,18978,9999,71
1982,20983,9999,137
1991,12861,9999,123