0014,13498,90,45
0034,19639,333,96
0037,2516,24,20
0047,1859,12,11
0050,1748,22,14
0059,2297,26,39
0060,206,3,1
0072,814,11,3
0074,2729,37,39
0080,7468,100,74
0085,1463,16,6
0086,1702,27,7
0088,45,1,2
0090,3388,43,33
0093,248,3,2
0096,68,0,0
0098,1801,19,28
0106,3701,67,15
0109,2865,57,31
0114,9062,165,79
0118,4524,74,41
0119,2330,34,27
0141,7581,104,58
0147,2492,30,38
0148,2317,26,20
0150,8177,104,87
0153,13893,229,170
0158,2650,33,32
0160,5802,59,37
0163,4260,44,51
0164,7170,74,66
0166,3628,79,44
0168,2618,49,32
0171,3484,35,28
0173,3359,53,45
0175,1448,15,15
0177,3380,42,41
0180,2307,16,20
0183,2951,25,18
0184,2589,53,19
0189,3086,19,27
0193,8133,105,113
0197,2411,32,22
0200,12424,199,146
0202,12739,195,124
0203,7692,62,62
0209,2337,40,22
0213,1465,33,18
0214,2491,40,20
0216,2665,47,22
0221,787,19,9
0222,4807,64,29
0225,1855,40,27
0226,2046,28,14
0228,11742,140,86
0230,2023,39,14
0232,2720,78,52
0233,2417,47,34
0243,4328,86,48
0244,896,21,7
0246,1277,57,32
0252,1402,27,18
0262,2138,36,29
0263,3522,43,42
0267,4428,51,29
0268,15248,271,189
0269,2224,49,30
0273,2487,21,18
0274,2084,36,26
0275,3549,61,58
0277,105,1,0
0279,1062,5,12
0281,4456,87,73
0285,1871,31,28
0289,3005,40,42
0293,1155,19,9
0294,2103,17,17
0296,3994,79,58
0297,3859,40,42
0299,3306,81,48
0301,3157,54,29
0302,2346,80,32
0303,3047,63,25
0307,14069,252,137
0308,2198,34,28
0310,3568,75,78
0312,1154,22,12
0313,4199,62,39
0317,915,19,5
0321,4118,73,51
0327,2351,41,24
0331,1618,39,12
0335,1420,29,8
0339,596,7,5
0340,2434,41,21
0342,3967,76,47
0344,32344,716,248
0345,7972,134,74
0351,1451,22,8
0352,1847,34,17
0353,3291,87,55
0355,5031,88,73
0356,5363,133,30
0358,3091,37,26
0361,9412,140,82
0362,7212,131,90
0363,87470,1936,800
0370,888,8,3
0373,2464,39,38
0375,4133,44,41
0376,997,13,6
0377,1616,16,17
0383,3122,26,23
0384,3022,52,33
0385,5092,94,22
0388,1905,30,11
0392,12755,216,149
0394,13999,183,108
0396,3920,61,32
0397,1916,26,60
0398,5689,57,36
0399,1698,23,15
0400,5244,64,39
0402,6726,88,84
0405,8504,94,55
0406,4014,62,53
0415,1139,12,6
0416,2550,35,15
0417,985,16,26
0420,5404,58,26
0431,944,16,8
0432,1280,11,6
0437,1240,16,5
0439,8029,189,84
0441,4489,55,57
0448,574,6,4
0450,1297,12,7
0451,2531,34,15
0453,6907,103,90
0457,2020,20,20
0473,1402,21,43
0479,15472,308,175
0482,2631,43,22
0484,11229,189,115
0489,5382,103,48
0498,2174,24,13
0501,1640,31,9
0502,7801,183,145
0503,9344,102,74
0505,14244,257,178
0512,4141,46,39
0513,7780,272,160
0518,53239,1663,551
0523,2746,17,25
0530,3480,65,43
0531,3603,39,32
0532,2626,29,15
0534,1767,21,17
0537,8724,113,59
0542,3671,49,70
0546,10489,133,70
0547,2260,36,23
0553,2044,28,17
0556,3528,68,35
0569,3292,45,22
0575,4031,66,22
0579,1911,23,31
0589,1036,38,12
0590,3550,45,46
0597,5785,113,89
0599,77535,1926,960
0603,4901,129,76
0606,9269,233,114
0610,3340,31,41
0613,2972,47,22
0614,1146,22,18
0622,8676,173,91
0626,1834,23,24
0627,3023,69,16
0629,2034,40,31
0632,5165,143,39
0637,11297,170,69
0638,844,10,1
0642,5330,87,101
0654,1485,38,6
0664,2663,89,31
0668,1938,25,19
0677,1807,40,13
0678,1024,14,6
0687,3511,78,25
0703,3019,57,16
0715,4115,117,29
0716,2865,70,29
0717,1368,31,7
0718,3333,128,32
0736,3996,117,35
0737,1998,22,28
0743,1679,33,18
0744,550,13,4
0748,6628,92,44
0753,3040,55,30
0755,1061,41,23
0756,3286,40,45
0757,3499,51,69
0758,16101,250,146
0762,3736,91,41
0765,1026,25,13
0766,2972,46,25
0770,2394,48,25
0772,22521,447,355
0777,3718,69,38
0779,2259,31,25
0784,2623,39,19
0785,2429,42,36
0786,1436,30,24
0794,10939,205,84
0796,16757,255,171
0797,5185,89,50
0798,1601,20,20
0809,2718,52,37
0815,1226,17,10
0820,2134,34,22
0823,2357,32,27
0824,3111,55,22
0826,5055,84,36
0828,10725,241,129
0840,2255,46,16
0845,3250,52,34
0847,2255,48,13
0848,1526,42,28
0851,2261,32,19
0852,1769,33,15
0855,23812,406,275
0856,4277,139,86
0858,3345,56,62
0861,5039,83,50
0865,3229,74,53
0866,1582,19,17
0867,5441,78,77
0873,1946,22,26
0879,1664,36,17
0880,1555,35,33
0882,3569,99,70
0888,1488,29,12
0889,1475,30,12
0893,1578,22,15
0899,2775,88,52
0907,1768,28,19
0917,7426,239,126
0928,4019,139,96
0935,9951,333,197
0938,1443,49,23
0944,604,11,11
0946,2268,47,20
0957,6257,105,59
0965,885,27,9
0971,2379,77,24
0981,709,23,14
0983,13438,225,165
0984,5692,64,48
0986,1037,25,11
0988,6090,110,68
0994,1283,37,23
0995,5906,137,62
1507,5756,61,64
1509,3975,48,45
1525,3805,38,24
1581,4030,91,73
1586,2847,35,41
1598,2625,24,22
1621,6486,90,63
1640,4015,76,52
1641,2537,42,36
1652,2913,100,38
1655,3007,57,27
1658,1573,23,13
1659,2568,62,36
1667,1618,23,10
1669,2074,47,35
1674,7642,102,73
1676,2108,52,25
1680,1399,7,20
1681,1588,31,15
1684,2613,36,26
1685,1892,51,28
1690,1994,31,24
1695,552,17,9
1696,1938,25,18
1699,1669,31,25
1700,4498,39,30
1701,971,16,22
1702,1208,27,11
1705,3754,62,34
1706,2553,79,51
1708,3194,33,27
1709,3426,46,40
1711,3099,65,35
1714,1430,43,18
1719,2502,48,30
1721,3793,111,78
1723,909,24,5
1724,2258,28,11
1728,2792,38,27
1729,1145,31,19
1730,1515,22,24
1731,2025,35,30
1734,3676,73,30
1735,3599,34,29
1740,2900,63,34
1742,4695,54,54
1771,4322,76,28
1773,1308,20,10
1774,3134,36,35
1783,13803,186,86
1842,1993,18,14
1859,3864,42,42
1876,3046,37,21
1883,8427,212,143
1884,2554,25,10
1891,1459,18,17
1892,4742,117,47
1894,4877,165,84
1895,2811,44,37
1896,2400,51,30
1900,7724,74,90
1901,3984,75,36
1903,2106,86,46
1904,5759,146,68
1911,4394,49,33
1916,6400,153,84
1924,4563,127,87
1926,5285,66,38
1930,8824,179,99
1931,6303,151,64
1940,3576,55,33
1942,4987,60,33
1945,3189,56,51
1948,8919,261,166
1949,2949,39,36
1950,2294,36,21
1952,3697,53,39
1954,3457,99,49
1955,3071,42,24
1959,6833,87,68
1960,5843,87,61
1961,6149,123,76
1963,8472,151,65
1966,3471,31,20
1969,3325,38,25
1970,3210,46,37
1978,5646,51,35
1979,2822,49,23